# MagicaVoxel @ Ephtracy

# group
o 

# material
mtllib Animals-21.mtl
usemtl palette

# normals
vn -1 0 0
vn 1 0 0
vn 0 0 1
vn 0 0 -1
vn 0 -1 0
vn 0 1 0

# texcoords
vt 0.00195313 0.5
vt 0.00585938 0.5
vt 0.0292969 0.5
vt 0.0449219 0.5
vt 0.0683594 0.5
vt 0.564453 0.5
vt 0.740234 0.5
vt 0.794922 0.5
vt 0.849609 0.5

# verts
v 0.1 0.2 1.5
v 0.1 0.2 1.1
v 0.1 0.3 1.2
v 0.1 0.3 1.1
v 0.1 0.4 1.5
v 0.1 0.4 1.2
v 0.2 0.2 1.6
v 0.2 0.2 1.5
v 0.2 0.2 1.1
v 0.2 0.2 1
v 0.2 0.3 1.2
v 0.2 0.3 1.1
v 0.2 0.4 1.5
v 0.2 0.4 1.2
v 0.2 0.5 1.6
v 0.2 0.5 1
v 0.3 0 1.6
v 0.3 0 1.3
v 0.3 0.1 1.6
v 0.3 0.1 1.5
v 0.3 0.1 1.4
v 0.3 0.1 1.3
v 0.3 0.2 1.5
v 0.3 0.2 1.4
v 0.3 0.3 1
v 0.3 0.3 0.9
v 0.3 0.4 1.7
v 0.3 0.4 1.6
v 0.3 0.5 1.6
v 0.3 0.5 1.5
v 0.3 0.5 1
v 0.3 0.6 1.8
v 0.3 0.6 1.7
v 0.3 0.6 1.6
v 0.3 0.7 1.7
v 0.3 0.7 1.6
v 0.3 0.7 1
v 0.3 0.7 0.9
v 0.3 0.8 1.7
v 0.3 0.8 1.6
v 0.3 0.9 1.8
v 0.3 0.9 1.5
v 0.4 0.6 2
v 0.4 0.6 1.8
v 0.4 0.7 2
v 0.4 0.7 1.9
v 0.4 0.8 1.9
v 0.4 0.8 1.8
v 0.4 0.9 1.8
v 0.4 0.9 1.5
v 0.4 1 1.8
v 0.4 1 1.7
v 0.4 1.1 1.7
v 0.4 1.1 1.5
v 0.5 0 1.6
v 0.5 0 1.3
v 0.5 0.1 1.6
v 0.5 0.1 1.5
v 0.5 0.1 1.4
v 0.5 0.1 1.3
v 0.5 0.2 1.5
v 0.5 0.2 1.4
v 0.4 0 1.6
v 0.4 0 1.3
v 0.4 0.1 1.6
v 0.4 0.1 1.5
v 0.4 0.1 1.4
v 0.4 0.1 1.3
v 0.4 0.2 1.5
v 0.4 0.2 1.4
v 0.4 0.4 1.7
v 0.4 0.4 1.6
v 0.4 0.5 1.7
v 0.4 0.5 1.6
v 0.5 0.5 1.7
v 0.5 0.5 1.6
v 0.5 0.6 2
v 0.5 0.6 1.8
v 0.5 0.6 1.7
v 0.5 0.6 1.6
v 0.5 0.7 2
v 0.5 0.7 1.9
v 0.5 0.8 1.9
v 0.5 0.8 1.8
v 0.5 0.9 1.8
v 0.5 0.9 1.5
v 0.5 1 1.8
v 0.5 1 1.7
v 0.5 1.1 1.7
v 0.5 1.1 1.5
v 0.6 0 1.6
v 0.6 0 1.3
v 0.6 0.1 1.6
v 0.6 0.1 1.5
v 0.6 0.1 1.4
v 0.6 0.1 1.3
v 0.6 0.2 1.5
v 0.6 0.2 1.4
v 0.6 0.4 1
v 0.6 0.4 0.9
v 0.6 0.5 1.6
v 0.6 0.5 1.5
v 0.6 0.5 1
v 0.6 0.6 1.8
v 0.6 0.6 1.6
v 0.6 0.7 1.7
v 0.6 0.7 1.6
v 0.6 0.7 1
v 0.6 0.7 0.9
v 0.6 0.8 1.7
v 0.6 0.8 1.6
v 0.6 0.9 1.8
v 0.6 0.9 1.5
v 0.7 0.2 1.6
v 0.7 0.2 1.5
v 0.7 0.2 1.1
v 0.7 0.2 1
v 0.7 0.3 1.2
v 0.7 0.3 1.1
v 0.7 0.3 1
v 0.7 0.3 0.9
v 0.7 0.4 1.5
v 0.7 0.4 1.2
v 0.7 0.4 1
v 0.7 0.4 0.9
v 0.7 0.5 1.6
v 0.7 0.5 1
v 0.8 0.2 1.5
v 0.8 0.2 1.1
v 0.8 0.3 1.2
v 0.8 0.3 1.1
v 0.8 0.4 1.5
v 0.8 0.4 1.2
v 0.4 0.6 2
v 0.4 0.7 2
v 0.5 0.6 2
v 0.5 0.7 2
v 0.4 0.7 1.9
v 0.4 0.8 1.9
v 0.5 0.7 1.9
v 0.5 0.8 1.9
v 0.3 0.6 1.8
v 0.3 0.9 1.8
v 0.4 0.6 1.8
v 0.4 0.8 1.8
v 0.4 0.9 1.8
v 0.4 1 1.8
v 0.5 0.6 1.8
v 0.5 0.8 1.8
v 0.5 0.9 1.8
v 0.5 1 1.8
v 0.6 0.6 1.8
v 0.6 0.9 1.8
v 0.3 0.4 1.7
v 0.3 0.6 1.7
v 0.4 0.4 1.7
v 0.4 0.5 1.7
v 0.4 1 1.7
v 0.4 1.1 1.7
v 0.5 0.5 1.7
v 0.5 0.6 1.7
v 0.5 1 1.7
v 0.5 1.1 1.7
v 0.2 0.2 1.6
v 0.2 0.5 1.6
v 0.3 0 1.6
v 0.3 0.1 1.6
v 0.3 0.4 1.6
v 0.3 0.5 1.6
v 0.4 0 1.6
v 0.4 0.1 1.6
v 0.4 0.4 1.6
v 0.4 0.5 1.6
v 0.5 0 1.6
v 0.5 0.1 1.6
v 0.5 0.5 1.6
v 0.5 0.6 1.6
v 0.6 0 1.6
v 0.6 0.1 1.6
v 0.6 0.5 1.6
v 0.6 0.6 1.6
v 0.7 0.2 1.6
v 0.7 0.5 1.6
v 0.1 0.2 1.5
v 0.1 0.4 1.5
v 0.2 0.2 1.5
v 0.2 0.4 1.5
v 0.3 0.1 1.5
v 0.3 0.2 1.5
v 0.4 0.1 1.5
v 0.4 0.2 1.5
v 0.5 0.1 1.5
v 0.5 0.2 1.5
v 0.6 0.1 1.5
v 0.6 0.2 1.5
v 0.7 0.2 1.5
v 0.7 0.4 1.5
v 0.8 0.2 1.5
v 0.8 0.4 1.5
v 0.3 0.5 1
v 0.3 0.7 1
v 0.4 0.5 1
v 0.4 0.7 1
v 0.5 0.5 1
v 0.5 0.7 1
v 0.6 0.5 1
v 0.6 0.7 1
v 0.3 0.5 1.5
v 0.3 0.9 1.5
v 0.4 0.9 1.5
v 0.4 1.1 1.5
v 0.5 0.9 1.5
v 0.5 1.1 1.5
v 0.6 0.5 1.5
v 0.6 0.9 1.5
v 0.3 0.1 1.4
v 0.3 0.2 1.4
v 0.4 0.1 1.4
v 0.4 0.2 1.4
v 0.5 0.1 1.4
v 0.5 0.2 1.4
v 0.6 0.1 1.4
v 0.6 0.2 1.4
v 0.3 0 1.3
v 0.3 0.1 1.3
v 0.4 0 1.3
v 0.4 0.1 1.3
v 0.5 0 1.3
v 0.5 0.1 1.3
v 0.6 0 1.3
v 0.6 0.1 1.3
v 0.1 0.3 1.2
v 0.1 0.4 1.2
v 0.2 0.3 1.2
v 0.2 0.4 1.2
v 0.7 0.3 1.2
v 0.7 0.4 1.2
v 0.8 0.3 1.2
v 0.8 0.4 1.2
v 0.1 0.2 1.1
v 0.1 0.3 1.1
v 0.2 0.2 1.1
v 0.2 0.3 1.1
v 0.7 0.2 1.1
v 0.7 0.3 1.1
v 0.8 0.2 1.1
v 0.8 0.3 1.1
v 0.2 0.2 1
v 0.2 0.5 1
v 0.3 0.3 1
v 0.3 0.5 1
v 0.4 0.3 1
v 0.5 0.3 1
v 0.6 0.3 1
v 0.6 0.4 1
v 0.6 0.5 1
v 0.7 0.2 1
v 0.7 0.3 1
v 0.7 0.4 1
v 0.7 0.5 1
v 0.3 0.3 0.9
v 0.3 0.7 0.9
v 0.4 0.3 0.9
v 0.4 0.7 0.9
v 0.5 0.3 0.9
v 0.5 0.7 0.9
v 0.6 0.3 0.9
v 0.6 0.4 0.9
v 0.6 0.7 0.9
v 0.7 0.3 0.9
v 0.7 0.4 0.9
v 0.3 0 1.6
v 0.4 0 1.6
v 0.5 0 1.6
v 0.6 0 1.6
v 0.3 0 1.3
v 0.4 0 1.3
v 0.5 0 1.3
v 0.6 0 1.3
v 0.2 0.2 1.6
v 0.7 0.2 1.6
v 0.1 0.2 1.5
v 0.2 0.2 1.5
v 0.3 0.2 1.5
v 0.4 0.2 1.5
v 0.5 0.2 1.5
v 0.6 0.2 1.5
v 0.7 0.2 1.5
v 0.8 0.2 1.5
v 0.3 0.2 1.4
v 0.4 0.2 1.4
v 0.5 0.2 1.4
v 0.6 0.2 1.4
v 0.1 0.2 1.1
v 0.2 0.2 1.1
v 0.7 0.2 1.1
v 0.8 0.2 1.1
v 0.2 0.2 1
v 0.7 0.2 1
v 0.3 0.3 1
v 0.4 0.3 1
v 0.5 0.3 1
v 0.6 0.3 1
v 0.7 0.3 1
v 0.3 0.3 0.9
v 0.4 0.3 0.9
v 0.5 0.3 0.9
v 0.6 0.3 0.9
v 0.7 0.3 0.9
v 0.3 0.4 1.7
v 0.4 0.4 1.7
v 0.3 0.4 1.6
v 0.4 0.4 1.6
v 0.4 0.5 1.7
v 0.5 0.5 1.7
v 0.4 0.5 1.6
v 0.5 0.5 1.6
v 0.4 0.6 2
v 0.5 0.6 2
v 0.3 0.6 1.8
v 0.4 0.6 1.8
v 0.5 0.6 1.8
v 0.6 0.6 1.8
v 0.3 0.6 1.7
v 0.5 0.6 1.7
v 0.5 0.6 1.6
v 0.6 0.6 1.6
v 0.3 0.1 1.6
v 0.4 0.1 1.6
v 0.5 0.1 1.6
v 0.6 0.1 1.6
v 0.3 0.1 1.5
v 0.4 0.1 1.5
v 0.5 0.1 1.5
v 0.6 0.1 1.5
v 0.3 0.1 1.4
v 0.4 0.1 1.4
v 0.5 0.1 1.4
v 0.6 0.1 1.4
v 0.3 0.1 1.3
v 0.4 0.1 1.3
v 0.5 0.1 1.3
v 0.6 0.1 1.3
v 0.1 0.3 1.2
v 0.2 0.3 1.2
v 0.7 0.3 1.2
v 0.8 0.3 1.2
v 0.1 0.3 1.1
v 0.2 0.3 1.1
v 0.7 0.3 1.1
v 0.8 0.3 1.1
v 0.1 0.4 1.5
v 0.2 0.4 1.5
v 0.7 0.4 1.5
v 0.8 0.4 1.5
v 0.1 0.4 1.2
v 0.2 0.4 1.2
v 0.7 0.4 1.2
v 0.8 0.4 1.2
v 0.6 0.4 1
v 0.7 0.4 1
v 0.6 0.4 0.9
v 0.7 0.4 0.9
v 0.2 0.5 1.6
v 0.3 0.5 1.6
v 0.6 0.5 1.6
v 0.7 0.5 1.6
v 0.3 0.5 1.5
v 0.6 0.5 1.5
v 0.3 0.5 1.4
v 0.6 0.5 1.4
v 0.2 0.5 1
v 0.3 0.5 1
v 0.4 0.5 1
v 0.5 0.5 1
v 0.6 0.5 1
v 0.7 0.5 1
v 0.4 0.7 2
v 0.5 0.7 2
v 0.4 0.7 1.9
v 0.5 0.7 1.9
v 0.3 0.7 1
v 0.4 0.7 1
v 0.5 0.7 1
v 0.6 0.7 1
v 0.3 0.7 0.9
v 0.4 0.7 0.9
v 0.5 0.7 0.9
v 0.6 0.7 0.9
v 0.4 0.8 1.9
v 0.5 0.8 1.9
v 0.4 0.8 1.8
v 0.5 0.8 1.8
v 0.3 0.9 1.8
v 0.4 0.9 1.8
v 0.5 0.9 1.8
v 0.6 0.9 1.8
v 0.3 0.9 1.5
v 0.4 0.9 1.5
v 0.5 0.9 1.5
v 0.6 0.9 1.5
v 0.4 1 1.8
v 0.5 1 1.8
v 0.4 1 1.7
v 0.5 1 1.7
v 0.4 1.1 1.7
v 0.5 1.1 1.7
v 0.4 1.1 1.5
v 0.5 1.1 1.5

# faces
f 3/2/1 2/2/1 1/2/1
f 4/2/1 2/2/1 3/2/1
f 5/2/1 3/2/1 1/2/1
f 6/2/1 3/2/1 5/2/1
f 12/1/1 10/1/1 9/1/1
f 13/1/1 8/1/1 7/1/1
f 14/1/1 12/1/1 11/1/1
f 15/1/1 13/1/1 7/1/1
f 15/1/1 14/1/1 13/1/1
f 16/1/1 12/1/1 14/1/1
f 16/1/1 14/1/1 15/1/1
f 16/1/1 10/1/1 12/1/1
f 19/4/1 18/4/1 17/4/1
f 20/4/1 18/4/1 19/4/1
f 21/4/1 18/4/1 20/4/1
f 22/4/1 18/4/1 21/4/1
f 23/1/1 21/1/1 20/1/1
f 24/1/1 21/1/1 23/1/1
f 29/9/1 28/9/1 27/9/1
f 31/8/1 26/8/1 25/8/1
f 33/9/1 29/9/1 27/9/1
f 34/2/1 30/2/1 29/2/1
f 34/9/1 29/9/1 33/9/1
f 35/2/1 33/2/1 32/2/1
f 35/2/1 34/2/1 33/2/1
f 36/2/1 30/2/1 34/2/1
f 36/2/1 34/2/1 35/2/1
f 37/8/1 26/8/1 31/8/1
f 38/8/1 26/8/1 37/8/1
f 39/2/1 35/2/1 32/2/1
f 39/3/1 36/3/1 35/3/1
f 40/2/1 30/2/1 36/2/1
f 40/3/1 36/3/1 39/3/1
f 41/2/1 39/2/1 32/2/1
f 41/2/1 40/2/1 39/2/1
f 42/2/1 30/2/1 40/2/1
f 42/2/1 40/2/1 41/2/1
f 45/4/1 44/4/1 43/4/1
f 46/4/1 44/4/1 45/4/1
f 47/4/1 44/4/1 46/4/1
f 48/4/1 44/4/1 47/4/1
f 51/9/1 50/9/1 49/9/1
f 52/9/1 50/9/1 51/9/1
f 53/9/1 50/9/1 52/9/1
f 54/9/1 50/9/1 53/9/1
f 57/4/1 56/4/1 55/4/1
f 58/4/1 56/4/1 57/4/1
f 59/4/1 56/4/1 58/4/1
f 60/4/1 56/4/1 59/4/1
f 61/1/1 59/1/1 58/1/1
f 62/1/1 59/1/1 61/1/1
f 63/4/2 64/4/2 65/4/2
f 65/4/2 64/4/2 66/4/2
f 66/4/2 64/4/2 67/4/2
f 67/4/2 64/4/2 68/4/2
f 66/1/2 67/1/2 69/1/2
f 69/1/2 67/1/2 70/1/2
f 71/9/2 72/9/2 73/9/2
f 73/9/2 72/9/2 74/9/2
f 75/9/2 76/9/2 79/9/2
f 79/9/2 76/9/2 80/9/2
f 77/4/2 78/4/2 81/4/2
f 81/4/2 78/4/2 82/4/2
f 82/4/2 78/4/2 83/4/2
f 83/4/2 78/4/2 84/4/2
f 85/9/2 86/9/2 87/9/2
f 87/9/2 86/9/2 88/9/2
f 88/9/2 86/9/2 89/9/2
f 89/9/2 86/9/2 90/9/2
f 91/4/2 92/4/2 93/4/2
f 93/4/2 92/4/2 94/4/2
f 94/4/2 92/4/2 95/4/2
f 95/4/2 92/4/2 96/4/2
f 94/1/2 95/1/2 97/1/2
f 97/1/2 95/1/2 98/1/2
f 99/8/2 100/8/2 103/8/2
f 101/2/2 102/2/2 105/2/2
f 104/2/2 105/2/2 106/2/2
f 105/2/2 102/2/2 107/2/2
f 106/2/2 105/2/2 107/2/2
f 103/8/2 100/8/2 108/8/2
f 108/8/2 100/8/2 109/8/2
f 104/2/2 106/2/2 110/2/2
f 106/3/2 107/3/2 110/3/2
f 107/2/2 102/2/2 111/2/2
f 110/3/2 107/3/2 111/3/2
f 104/2/2 110/2/2 112/2/2
f 110/2/2 111/2/2 112/2/2
f 111/2/2 102/2/2 113/2/2
f 112/2/2 111/2/2 113/2/2
f 116/1/2 117/1/2 119/1/2
f 119/1/2 117/1/2 120/1/2
f 114/1/2 115/1/2 122/1/2
f 118/1/2 119/1/2 123/1/2
f 119/1/2 120/1/2 123/1/2
f 120/5/2 121/5/2 124/5/2
f 123/1/2 120/1/2 124/1/2
f 124/5/2 121/5/2 125/5/2
f 122/1/2 123/1/2 126/1/2
f 114/1/2 122/1/2 126/1/2
f 123/1/2 124/1/2 126/1/2
f 126/1/2 124/1/2 127/1/2
f 128/2/2 129/2/2 130/2/2
f 130/2/2 129/2/2 131/2/2
f 128/2/2 130/2/2 132/2/2
f 132/2/2 130/2/2 133/2/2
f 136/4/3 135/4/3 134/4/3
f 137/4/3 135/4/3 136/4/3
f 140/4/3 139/4/3 138/4/3
f 141/4/3 139/4/3 140/4/3
f 144/2/3 143/2/3 142/2/3
f 145/2/3 143/2/3 144/2/3
f 146/2/3 143/2/3 145/2/3
f 149/2/3 146/2/3 145/2/3
f 150/9/3 147/9/3 146/9/3
f 150/2/3 146/2/3 149/2/3
f 151/9/3 147/9/3 150/9/3
f 152/2/3 149/2/3 148/2/3
f 152/2/3 150/2/3 149/2/3
f 153/2/3 150/2/3 152/2/3
f 156/9/3 155/9/3 154/9/3
f 157/9/3 155/9/3 156/9/3
f 160/9/3 155/9/3 157/9/3
f 161/9/3 155/9/3 160/9/3
f 162/9/3 159/9/3 158/9/3
f 163/9/3 159/9/3 162/9/3
f 168/1/3 165/1/3 164/1/3
f 169/1/3 165/1/3 168/1/3
f 170/4/3 167/4/3 166/4/3
f 171/4/3 167/4/3 170/4/3
f 172/1/3 168/1/3 164/1/3
f 176/1/3 173/1/3 172/1/3
f 178/4/3 175/4/3 174/4/3
f 179/4/3 175/4/3 178/4/3
f 180/1/3 176/1/3 172/1/3
f 180/2/3 177/2/3 176/2/3
f 181/2/3 177/2/3 180/2/3
f 182/1/3 172/1/3 164/1/3
f 182/1/3 180/1/3 172/1/3
f 183/1/3 180/1/3 182/1/3
f 186/2/3 185/2/3 184/2/3
f 187/2/3 185/2/3 186/2/3
f 190/1/3 189/1/3 188/1/3
f 191/1/3 189/1/3 190/1/3
f 194/1/3 193/1/3 192/1/3
f 195/1/3 193/1/3 194/1/3
f 198/2/3 197/2/3 196/2/3
f 199/2/3 197/2/3 198/2/3
f 202/8/3 201/8/3 200/8/3
f 203/8/3 201/8/3 202/8/3
f 204/7/3 203/7/3 202/7/3
f 205/7/3 203/7/3 204/7/3
f 206/8/3 205/8/3 204/8/3
f 207/8/3 205/8/3 206/8/3
f 208/2/4 209/2/4 210/2/4
f 208/2/4 210/2/4 212/2/4
f 210/9/4 211/9/4 212/9/4
f 212/9/4 211/9/4 213/9/4
f 208/2/4 212/2/4 214/2/4
f 214/2/4 212/2/4 215/2/4
f 216/1/4 217/1/4 218/1/4
f 218/1/4 217/1/4 219/1/4
f 220/1/4 221/1/4 222/1/4
f 222/1/4 221/1/4 223/1/4
f 224/4/4 225/4/4 226/4/4
f 226/4/4 225/4/4 227/4/4
f 228/4/4 229/4/4 230/4/4
f 230/4/4 229/4/4 231/4/4
f 232/2/4 233/2/4 234/2/4
f 234/2/4 233/2/4 235/2/4
f 236/2/4 237/2/4 238/2/4
f 238/2/4 237/2/4 239/2/4
f 240/2/4 241/2/4 242/2/4
f 242/2/4 241/2/4 243/2/4
f 244/2/4 245/2/4 246/2/4
f 246/2/4 245/2/4 247/2/4
f 248/1/4 249/1/4 250/1/4
f 250/1/4 249/1/4 251/1/4
f 248/1/4 250/1/4 252/1/4
f 248/1/4 252/1/4 253/1/4
f 248/1/4 253/1/4 254/1/4
f 248/1/4 254/1/4 257/1/4
f 257/1/4 254/1/4 258/1/4
f 255/1/4 256/1/4 259/1/4
f 259/1/4 256/1/4 260/1/4
f 261/8/4 262/8/4 263/8/4
f 263/8/4 262/8/4 264/8/4
f 263/7/4 264/7/4 265/7/4
f 265/7/4 264/7/4 266/7/4
f 265/8/4 266/8/4 267/8/4
f 267/8/4 266/8/4 268/8/4
f 268/8/4 266/8/4 269/8/4
f 267/5/4 268/5/4 270/5/4
f 270/5/4 268/5/4 271/5/4
f 276/4/5 273/4/5 272/4/5
f 277/4/5 273/4/5 276/4/5
f 278/4/5 275/4/5 274/4/5
f 279/4/5 275/4/5 278/4/5
f 283/1/5 281/1/5 280/1/5
f 284/1/5 281/1/5 283/1/5
f 285/1/5 281/1/5 284/1/5
f 286/1/5 281/1/5 285/1/5
f 287/1/5 281/1/5 286/1/5
f 288/1/5 281/1/5 287/1/5
f 290/1/5 284/1/5 283/1/5
f 291/1/5 286/1/5 285/1/5
f 292/1/5 286/1/5 291/1/5
f 293/1/5 288/1/5 287/1/5
f 294/2/5 283/2/5 282/2/5
f 295/1/5 293/1/5 292/1/5
f 295/2/5 283/2/5 294/2/5
f 295/1/5 292/1/5 291/1/5
f 295/1/5 290/1/5 283/1/5
f 295/1/5 291/1/5 290/1/5
f 296/2/5 289/2/5 288/2/5
f 296/1/5 293/1/5 295/1/5
f 296/1/5 288/1/5 293/1/5
f 297/2/5 289/2/5 296/2/5
f 298/1/5 296/1/5 295/1/5
f 299/1/5 296/1/5 298/1/5
f 305/8/5 301/8/5 300/8/5
f 306/7/5 302/7/5 301/7/5
f 306/8/5 301/8/5 305/8/5
f 307/8/5 303/8/5 302/8/5
f 307/7/5 302/7/5 306/7/5
f 308/5/5 304/5/5 303/5/5
f 308/8/5 303/8/5 307/8/5
f 309/5/5 304/5/5 308/5/5
f 312/9/5 311/9/5 310/9/5
f 313/9/5 311/9/5 312/9/5
f 316/9/5 315/9/5 314/9/5
f 317/9/5 315/9/5 316/9/5
f 321/4/5 319/4/5 318/4/5
f 322/4/5 319/4/5 321/4/5
f 324/2/5 321/2/5 320/2/5
f 324/2/5 323/2/5 322/2/5
f 324/2/5 322/2/5 321/2/5
f 325/2/5 323/2/5 324/2/5
f 326/2/5 323/2/5 325/2/5
f 327/2/5 323/2/5 326/2/5
f 328/4/6 329/4/6 332/4/6
f 332/4/6 329/4/6 333/4/6
f 330/4/6 331/4/6 334/4/6
f 334/4/6 331/4/6 335/4/6
f 336/4/6 337/4/6 340/4/6
f 340/4/6 337/4/6 341/4/6
f 338/4/6 339/4/6 342/4/6
f 342/4/6 339/4/6 343/4/6
f 344/2/6 345/2/6 348/2/6
f 348/2/6 345/2/6 349/2/6
f 346/2/6 347/2/6 350/2/6
f 350/2/6 347/2/6 351/2/6
f 352/2/6 353/2/6 356/2/6
f 356/2/6 353/2/6 357/2/6
f 354/2/6 355/2/6 358/2/6
f 358/2/6 355/2/6 359/2/6
f 360/5/6 361/5/6 362/5/6
f 362/5/6 361/5/6 363/5/6
f 364/1/6 365/1/6 368/1/6
f 366/1/6 367/1/6 369/1/6
f 364/1/6 368/1/6 370/1/6
f 368/2/6 369/2/6 370/2/6
f 369/1/6 367/1/6 371/1/6
f 370/2/6 369/2/6 371/2/6
f 364/1/6 370/1/6 372/1/6
f 370/1/6 371/1/6 372/1/6
f 372/1/6 371/1/6 373/1/6
f 373/1/6 371/1/6 374/1/6
f 374/1/6 371/1/6 375/1/6
f 371/1/6 367/1/6 376/1/6
f 375/1/6 371/1/6 376/1/6
f 376/1/6 367/1/6 377/1/6
f 378/4/6 379/4/6 380/4/6
f 380/4/6 379/4/6 381/4/6
f 382/8/6 383/8/6 386/8/6
f 383/7/6 384/7/6 387/7/6
f 386/8/6 383/8/6 387/8/6
f 384/8/6 385/8/6 388/8/6
f 387/7/6 384/7/6 388/7/6
f 388/8/6 385/8/6 389/8/6
f 390/4/6 391/4/6 392/4/6
f 392/4/6 391/4/6 393/4/6
f 394/2/6 395/2/6 398/2/6
f 398/2/6 395/2/6 399/2/6
f 396/2/6 397/2/6 400/2/6
f 400/2/6 397/2/6 401/2/6
f 402/9/6 403/9/6 404/9/6
f 404/9/6 403/9/6 405/9/6
f 406/9/6 407/9/6 408/9/6
f 408/9/6 407/9/6 409/9/6
