# MagicaVoxel @ Ephtracy

# group
o 

# material
mtllib Animals-8.mtl
usemtl palette

# normals
vn -1 0 0
vn 1 0 0
vn 0 0 1
vn 0 0 -1
vn 0 -1 0
vn 0 1 0

# texcoords
vt 0.0917969 0.5
vt 0.966797 0.5
vt 0.994141 0.5

# verts
v -3.3 0.1 1.7
v -3.3 0.1 1.6
v -3.3 0.1 1.5
v -3.3 0.2 1.7
v -3.3 0.2 1.6
v -3.3 0.2 1.5
v -3.3 0.5 1.7
v -3.3 0.5 1.5
v -3.1 0.1 1.7
v -3.1 0.1 1.6
v -3.1 0.1 1.5
v -3.1 0.2 1.7
v -3.1 0.2 1.6
v -3.1 0.2 1.5
v -3.1 0.5 1.7
v -3.1 0.5 1.5
v -3.3 0.1 1.7
v -3.3 0.2 1.7
v -3.3 0.5 1.7
v -3.1 0.1 1.7
v -3.1 0.2 1.7
v -3.1 0.5 1.7
v -3.3 0.1 1.5
v -3.3 0.2 1.5
v -3.3 0.5 1.5
v -3.1 0.1 1.5
v -3.1 0.2 1.5
v -3.1 0.5 1.5
v -3.3 0.1 1.7
v -3.1 0.1 1.7
v -3.3 0.1 1.6
v -3.1 0.1 1.6
v -3.3 0.1 1.5
v -3.1 0.1 1.5
v -3.3 0.5 1.7
v -3.1 0.5 1.7
v -3.3 0.5 1.5
v -3.1 0.5 1.5

# faces
f 4/3/1 2/3/1 1/3/1
f 5/2/1 3/2/1 2/2/1
f 5/3/1 2/3/1 4/3/1
f 6/2/1 3/2/1 5/2/1
f 7/1/1 5/1/1 4/1/1
f 7/1/1 6/1/1 5/1/1
f 8/1/1 6/1/1 7/1/1
f 9/3/2 10/3/2 12/3/2
f 10/2/2 11/2/2 13/2/2
f 12/3/2 10/3/2 13/3/2
f 13/2/2 11/2/2 14/2/2
f 12/1/2 13/1/2 15/1/2
f 13/1/2 14/1/2 15/1/2
f 15/1/2 14/1/2 16/1/2
f 20/3/3 18/3/3 17/3/3
f 21/1/3 19/1/3 18/1/3
f 21/3/3 18/3/3 20/3/3
f 22/1/3 19/1/3 21/1/3
f 23/2/4 24/2/4 26/2/4
f 24/1/4 25/1/4 27/1/4
f 26/2/4 24/2/4 27/2/4
f 27/1/4 25/1/4 28/1/4
f 31/3/5 30/3/5 29/3/5
f 32/3/5 30/3/5 31/3/5
f 33/2/5 32/2/5 31/2/5
f 34/2/5 32/2/5 33/2/5
f 35/1/6 36/1/6 37/1/6
f 37/1/6 36/1/6 38/1/6
