# MagicaVoxel @ Ephtracy

# group
o 

# material
mtllib Animals-17.mtl
usemtl palette

# normals
vn -1 0 0
vn 1 0 0
vn 0 0 1
vn 0 0 -1
vn 0 -1 0
vn 0 1 0

# texcoords
vt 0.00195313 0.5
vt 0.00585938 0.5
vt 0.0292969 0.5
vt 0.0332031 0.5
vt 0.0449219 0.5
vt 0.564453 0.5
vt 0.896484 0.5
vt 0.962891 0.5

# verts
v -0.7 0 1.4
v -0.7 0 1
v -0.7 0.1 1.1
v -0.7 0.1 1
v -0.7 0.2 1.4
v -0.7 0.2 1.1
v -0.6 0 1.5
v -0.6 0 1.4
v -0.6 0 1
v -0.6 0 0.9
v -0.6 0.1 1.1
v -0.6 0.1 1
v -0.6 0.2 1.4
v -0.6 0.2 1.1
v -0.6 0.3 1.5
v -0.6 0.3 0.9
v -0.5 0.1 0.9
v -0.5 0.1 0.8
v -0.5 0.3 1.6
v -0.5 0.3 1.5
v -0.5 0.3 1.4
v -0.5 0.3 1.3
v -0.5 0.3 0.9
v -0.5 0.4 1.7
v -0.5 0.4 1.6
v -0.5 0.4 1.4
v -0.5 0.4 1.3
v -0.5 0.5 1.9
v -0.5 0.5 1.7
v -0.5 0.5 1.6
v -0.5 0.5 1.5
v -0.5 0.5 0.9
v -0.5 0.5 0.8
v -0.5 0.6 1.9
v -0.5 0.6 1.7
v -0.5 0.6 1.6
v -0.5 0.6 1.5
v -0.5 0.7 1.7
v -0.5 0.7 1.4
v -0.2 0.1 0.9
v -0.2 0.1 0.8
v -0.2 0.3 1.6
v -0.2 0.3 1.5
v -0.2 0.3 1.4
v -0.2 0.3 1.3
v -0.2 0.3 0.9
v -0.2 0.4 1.7
v -0.2 0.4 1.6
v -0.2 0.4 1.4
v -0.2 0.4 1.3
v -0.2 0.5 1.9
v -0.2 0.5 1.7
v -0.2 0.5 1.6
v -0.2 0.5 1.5
v -0.2 0.5 0.9
v -0.2 0.5 0.8
v -0.2 0.6 1.9
v -0.2 0.6 1.7
v -0.2 0.6 1.6
v -0.2 0.6 1.5
v -0.2 0.7 1.7
v -0.2 0.7 1.4
v -0.1 0 1.5
v -0.1 0 1.4
v -0.1 0 1
v -0.1 0 0.9
v -0.1 0.1 1.1
v -0.1 0.1 1
v -0.1 0.2 1.4
v -0.1 0.2 1.1
v -0.1 0.3 1.5
v -0.1 0.3 0.9
v 0 0 1.4
v 0 0 1
v 0 0.1 1.1
v 0 0.1 1
v 0 0.2 1.4
v 0 0.2 1.1
v -0.5 0.5 1.9
v -0.5 0.6 1.9
v -0.2 0.5 1.9
v -0.2 0.6 1.9
v -0.5 0.4 1.7
v -0.5 0.5 1.7
v -0.5 0.6 1.7
v -0.5 0.7 1.7
v -0.2 0.4 1.7
v -0.2 0.5 1.7
v -0.2 0.6 1.7
v -0.2 0.7 1.7
v -0.5 0.3 1.6
v -0.5 0.4 1.6
v -0.2 0.3 1.6
v -0.2 0.4 1.6
v -0.6 0 1.5
v -0.6 0.3 1.5
v -0.5 0.3 1.5
v -0.2 0.3 1.5
v -0.1 0 1.5
v -0.1 0.3 1.5
v -0.7 0 1.4
v -0.7 0.2 1.4
v -0.6 0 1.4
v -0.6 0.2 1.4
v -0.1 0 1.4
v -0.1 0.2 1.4
v 0 0 1.4
v 0 0.2 1.4
v -0.5 0.3 0.9
v -0.5 0.5 0.9
v -0.4 0.3 0.9
v -0.4 0.5 0.9
v -0.3 0.3 0.9
v -0.3 0.5 0.9
v -0.2 0.3 0.9
v -0.2 0.5 0.9
v -0.5 0.4 1.4
v -0.5 0.7 1.4
v -0.2 0.4 1.4
v -0.2 0.7 1.4
v -0.5 0.3 1.3
v -0.5 0.4 1.3
v -0.2 0.3 1.3
v -0.2 0.4 1.3
v -0.7 0.1 1.1
v -0.7 0.2 1.1
v -0.6 0.1 1.1
v -0.6 0.2 1.1
v -0.1 0.1 1.1
v -0.1 0.2 1.1
v 0 0.1 1.1
v 0 0.2 1.1
v -0.7 0 1
v -0.7 0.1 1
v -0.6 0 1
v -0.6 0.1 1
v -0.1 0 1
v -0.1 0.1 1
v 0 0 1
v 0 0.1 1
v -0.6 0 0.9
v -0.6 0.3 0.9
v -0.5 0.1 0.9
v -0.5 0.3 0.9
v -0.4 0.1 0.9
v -0.3 0.1 0.9
v -0.2 0.1 0.9
v -0.2 0.3 0.9
v -0.1 0 0.9
v -0.1 0.3 0.9
v -0.5 0.1 0.8
v -0.5 0.5 0.8
v -0.4 0.1 0.8
v -0.4 0.5 0.8
v -0.3 0.1 0.8
v -0.3 0.5 0.8
v -0.2 0.1 0.8
v -0.2 0.5 0.8
v -0.6 0 1.5
v -0.1 0 1.5
v -0.7 0 1.4
v -0.6 0 1.4
v -0.1 0 1.4
v 0 0 1.4
v -0.7 0 1
v -0.6 0 1
v -0.1 0 1
v 0 0 1
v -0.6 0 0.9
v -0.1 0 0.9
v -0.5 0.1 0.9
v -0.4 0.1 0.9
v -0.3 0.1 0.9
v -0.2 0.1 0.9
v -0.5 0.1 0.8
v -0.4 0.1 0.8
v -0.3 0.1 0.8
v -0.2 0.1 0.8
v -0.5 0.3 1.6
v -0.2 0.3 1.6
v -0.5 0.3 1.5
v -0.2 0.3 1.5
v -0.5 0.4 1.7
v -0.2 0.4 1.7
v -0.5 0.4 1.6
v -0.2 0.4 1.6
v -0.5 0.5 1.9
v -0.2 0.5 1.9
v -0.5 0.5 1.7
v -0.2 0.5 1.7
v -0.7 0.1 1.1
v -0.6 0.1 1.1
v -0.1 0.1 1.1
v 0 0.1 1.1
v -0.7 0.1 1
v -0.6 0.1 1
v -0.1 0.1 1
v 0 0.1 1
v -0.7 0.2 1.4
v -0.6 0.2 1.4
v -0.1 0.2 1.4
v 0 0.2 1.4
v -0.7 0.2 1.1
v -0.6 0.2 1.1
v -0.1 0.2 1.1
v 0 0.2 1.1
v -0.6 0.3 1.5
v -0.5 0.3 1.5
v -0.2 0.3 1.5
v -0.1 0.3 1.5
v -0.5 0.3 1.4
v -0.2 0.3 1.4
v -0.5 0.3 1.3
v -0.2 0.3 1.3
v -0.6 0.3 0.9
v -0.5 0.3 0.9
v -0.4 0.3 0.9
v -0.3 0.3 0.9
v -0.2 0.3 0.9
v -0.1 0.3 0.9
v -0.5 0.4 1.4
v -0.2 0.4 1.4
v -0.5 0.4 1.3
v -0.2 0.4 1.3
v -0.5 0.5 0.9
v -0.4 0.5 0.9
v -0.3 0.5 0.9
v -0.2 0.5 0.9
v -0.5 0.5 0.8
v -0.4 0.5 0.8
v -0.3 0.5 0.8
v -0.2 0.5 0.8
v -0.5 0.6 1.9
v -0.2 0.6 1.9
v -0.5 0.6 1.7
v -0.2 0.6 1.7
v -0.5 0.7 1.7
v -0.2 0.7 1.7
v -0.5 0.7 1.4
v -0.2 0.7 1.4

# faces
f 3/1/1 2/1/1 1/1/1
f 4/1/1 2/1/1 3/1/1
f 5/1/1 3/1/1 1/1/1
f 6/1/1 3/1/1 5/1/1
f 12/4/1 10/4/1 9/4/1
f 13/4/1 8/4/1 7/4/1
f 14/4/1 12/4/1 11/4/1
f 15/4/1 13/4/1 7/4/1
f 15/4/1 14/4/1 13/4/1
f 16/4/1 12/4/1 14/4/1
f 16/4/1 14/4/1 15/4/1
f 16/4/1 10/4/1 12/4/1
f 23/1/1 18/1/1 17/1/1
f 25/8/1 20/8/1 19/8/1
f 25/8/1 21/8/1 20/8/1
f 26/4/1 22/4/1 21/4/1
f 26/8/1 21/8/1 25/8/1
f 27/4/1 22/4/1 26/4/1
f 29/7/1 25/7/1 24/7/1
f 29/7/1 26/7/1 25/7/1
f 30/7/1 26/7/1 29/7/1
f 31/7/1 26/7/1 30/7/1
f 32/1/1 18/1/1 23/1/1
f 33/1/1 18/1/1 32/1/1
f 34/5/1 29/5/1 28/5/1
f 35/7/1 30/7/1 29/7/1
f 35/5/1 29/5/1 34/5/1
f 36/3/1 31/3/1 30/3/1
f 36/7/1 30/7/1 35/7/1
f 37/7/1 26/7/1 31/7/1
f 37/3/1 31/3/1 36/3/1
f 38/7/1 36/7/1 35/7/1
f 38/7/1 37/7/1 36/7/1
f 39/7/1 26/7/1 37/7/1
f 39/7/1 37/7/1 38/7/1
f 40/1/2 41/1/2 46/1/2
f 42/8/2 43/8/2 48/8/2
f 43/8/2 44/8/2 48/8/2
f 44/4/2 45/4/2 49/4/2
f 48/8/2 44/8/2 49/8/2
f 49/4/2 45/4/2 50/4/2
f 47/7/2 48/7/2 52/7/2
f 48/7/2 49/7/2 52/7/2
f 52/7/2 49/7/2 53/7/2
f 53/7/2 49/7/2 54/7/2
f 46/1/2 41/1/2 55/1/2
f 55/1/2 41/1/2 56/1/2
f 51/5/2 52/5/2 57/5/2
f 52/7/2 53/7/2 58/7/2
f 57/5/2 52/5/2 58/5/2
f 53/3/2 54/3/2 59/3/2
f 58/7/2 53/7/2 59/7/2
f 54/7/2 49/7/2 60/7/2
f 59/3/2 54/3/2 60/3/2
f 58/7/2 59/7/2 61/7/2
f 59/7/2 60/7/2 61/7/2
f 60/7/2 49/7/2 62/7/2
f 61/7/2 60/7/2 62/7/2
f 65/4/2 66/4/2 68/4/2
f 63/4/2 64/4/2 69/4/2
f 67/4/2 68/4/2 70/4/2
f 63/4/2 69/4/2 71/4/2
f 69/4/2 70/4/2 71/4/2
f 70/4/2 68/4/2 72/4/2
f 71/4/2 70/4/2 72/4/2
f 68/4/2 66/4/2 72/4/2
f 73/1/2 74/1/2 75/1/2
f 75/1/2 74/1/2 76/1/2
f 73/1/2 75/1/2 77/1/2
f 77/1/2 75/1/2 78/1/2
f 81/5/3 80/5/3 79/5/3
f 82/5/3 80/5/3 81/5/3
f 87/7/3 84/7/3 83/7/3
f 88/7/3 84/7/3 87/7/3
f 89/7/3 86/7/3 85/7/3
f 90/7/3 86/7/3 89/7/3
f 93/8/3 92/8/3 91/8/3
f 94/8/3 92/8/3 93/8/3
f 97/4/3 96/4/3 95/4/3
f 98/4/3 97/4/3 95/4/3
f 99/4/3 98/4/3 95/4/3
f 100/4/3 98/4/3 99/4/3
f 103/1/3 102/1/3 101/1/3
f 104/1/3 102/1/3 103/1/3
f 107/1/3 106/1/3 105/1/3
f 108/1/3 106/1/3 107/1/3
f 111/1/3 110/1/3 109/1/3
f 112/1/3 110/1/3 111/1/3
f 113/4/3 112/4/3 111/4/3
f 114/4/3 112/4/3 113/4/3
f 115/1/3 114/1/3 113/1/3
f 116/1/3 114/1/3 115/1/3
f 117/7/4 118/7/4 119/7/4
f 119/7/4 118/7/4 120/7/4
f 121/4/4 122/4/4 123/4/4
f 123/4/4 122/4/4 124/4/4
f 125/1/4 126/1/4 127/1/4
f 127/1/4 126/1/4 128/1/4
f 129/1/4 130/1/4 131/1/4
f 131/1/4 130/1/4 132/1/4
f 133/1/4 134/1/4 135/1/4
f 135/1/4 134/1/4 136/1/4
f 137/1/4 138/1/4 139/1/4
f 139/1/4 138/1/4 140/1/4
f 141/4/4 142/4/4 143/4/4
f 143/4/4 142/4/4 144/4/4
f 141/4/4 143/4/4 145/4/4
f 141/4/4 145/4/4 146/4/4
f 141/4/4 146/4/4 147/4/4
f 141/4/4 147/4/4 149/4/4
f 147/4/4 148/4/4 149/4/4
f 149/4/4 148/4/4 150/4/4
f 151/1/4 152/1/4 153/1/4
f 153/1/4 152/1/4 154/1/4
f 153/4/4 154/4/4 155/4/4
f 155/4/4 154/4/4 156/4/4
f 155/1/4 156/1/4 157/1/4
f 157/1/4 156/1/4 158/1/4
f 162/4/5 160/4/5 159/4/5
f 163/4/5 160/4/5 162/4/5
f 165/1/5 162/1/5 161/1/5
f 166/4/5 163/4/5 162/4/5
f 166/1/5 162/1/5 165/1/5
f 167/1/5 164/1/5 163/1/5
f 167/4/5 163/4/5 166/4/5
f 168/1/5 164/1/5 167/1/5
f 169/4/5 167/4/5 166/4/5
f 170/4/5 167/4/5 169/4/5
f 175/1/5 172/1/5 171/1/5
f 176/4/5 173/4/5 172/4/5
f 176/1/5 172/1/5 175/1/5
f 177/1/5 174/1/5 173/1/5
f 177/4/5 173/4/5 176/4/5
f 178/1/5 174/1/5 177/1/5
f 181/8/5 180/8/5 179/8/5
f 182/8/5 180/8/5 181/8/5
f 185/7/5 184/7/5 183/7/5
f 186/7/5 184/7/5 185/7/5
f 189/5/5 188/5/5 187/5/5
f 190/5/5 188/5/5 189/5/5
f 191/1/6 192/1/6 195/1/6
f 195/1/6 192/1/6 196/1/6
f 193/1/6 194/1/6 197/1/6
f 197/1/6 194/1/6 198/1/6
f 199/1/6 200/1/6 203/1/6
f 203/1/6 200/1/6 204/1/6
f 201/1/6 202/1/6 205/1/6
f 205/1/6 202/1/6 206/1/6
f 207/4/6 208/4/6 211/4/6
f 209/4/6 210/4/6 212/4/6
f 207/4/6 211/4/6 213/4/6
f 212/4/6 210/4/6 214/4/6
f 207/4/6 213/4/6 215/4/6
f 213/4/6 214/4/6 215/4/6
f 215/4/6 214/4/6 216/4/6
f 216/4/6 214/4/6 217/4/6
f 217/4/6 214/4/6 218/4/6
f 214/4/6 210/4/6 219/4/6
f 218/4/6 214/4/6 219/4/6
f 219/4/6 210/4/6 220/4/6
f 221/4/6 222/4/6 223/4/6
f 223/4/6 222/4/6 224/4/6
f 225/1/6 226/1/6 229/1/6
f 226/4/6 227/4/6 230/4/6
f 229/1/6 226/1/6 230/1/6
f 227/1/6 228/1/6 231/1/6
f 230/4/6 227/4/6 231/4/6
f 231/1/6 228/1/6 232/1/6
f 233/5/6 234/5/6 235/5/6
f 235/5/6 234/5/6 236/5/6
f 237/7/6 238/7/6 239/7/6
f 239/7/6 238/7/6 240/7/6
