# MagicaVoxel @ Ephtracy

# group
o 

# material
mtllib NEW GAME-50.mtl
usemtl palette

# normals
vn -1 0 0
vn 1 0 0
vn 0 0 1
vn 0 0 -1
vn 0 -1 0
vn 0 1 0

# texcoords
vt 0.751953 0.5
vt 0.958984 0.5

# verts
v -0.1 0 0.3
v -0.1 0 -0.3
v -0.1 0.1 0.4
v -0.1 0.1 0.3
v -0.1 0.1 -0.3
v -0.1 0.1 -0.4
v -0.1 0.3 0.1
v -0.1 0.3 0
v -0.1 0.4 0.2
v -0.1 0.4 0.1
v -0.1 0.4 0
v -0.1 0.5 0.4
v -0.1 0.5 0.3
v -0.1 0.5 0.2
v -0.1 0.5 0.1
v -0.1 0.5 -0.3
v -0.1 0.5 -0.4
v -0.1 0.6 0.3
v -0.1 0.6 -0.3
v 0.1 0 0.3
v 0.1 0 -0.3
v 0.1 0.1 0.4
v 0.1 0.1 0.3
v 0.1 0.1 -0.3
v 0.1 0.1 -0.4
v 0.1 0.3 0
v 0.1 0.3 -0.1
v 0.1 0.4 0
v 0.1 0.4 -0.1
v 0.1 0.4 -0.2
v 0.1 0.5 0.4
v 0.1 0.5 0.3
v 0.1 0.5 -0.1
v 0.1 0.5 -0.2
v 0.1 0.5 -0.3
v 0.1 0.5 -0.4
v 0.1 0.6 0.3
v 0.1 0.6 -0.3
v -0.1 0.1 0.4
v -0.1 0.5 0.4
v 0.1 0.1 0.4
v 0.1 0.5 0.4
v -0.1 0 0.3
v -0.1 0.1 0.3
v -0.1 0.5 0.3
v -0.1 0.6 0.3
v 0.1 0 0.3
v 0.1 0.1 0.3
v 0.1 0.5 0.3
v 0.1 0.6 0.3
v -0.1 0 -0.3
v -0.1 0.1 -0.3
v -0.1 0.5 -0.3
v -0.1 0.6 -0.3
v 0.1 0 -0.3
v 0.1 0.1 -0.3
v 0.1 0.5 -0.3
v 0.1 0.6 -0.3
v -0.1 0.1 -0.4
v -0.1 0.5 -0.4
v 0.1 0.1 -0.4
v 0.1 0.5 -0.4
v -0.1 0 0.3
v 0.1 0 0.3
v -0.1 0 -0.3
v 0.1 0 -0.3
v -0.1 0.1 0.4
v 0.1 0.1 0.4
v -0.1 0.1 0.3
v 0.1 0.1 0.3
v -0.1 0.1 -0.3
v 0.1 0.1 -0.3
v -0.1 0.1 -0.4
v 0.1 0.1 -0.4
v -0.1 0.5 0.4
v 0.1 0.5 0.4
v -0.1 0.5 0.3
v 0.1 0.5 0.3
v -0.1 0.5 -0.3
v 0.1 0.5 -0.3
v -0.1 0.5 -0.4
v 0.1 0.5 -0.4
v -0.1 0.6 0.3
v 0.1 0.6 0.3
v -0.1 0.6 -0.3
v 0.1 0.6 -0.3

# faces
f 4/1/1 2/1/1 1/1/1
f 5/1/1 2/1/1 4/1/1
f 7/1/1 4/1/1 3/1/1
f 7/1/1 6/1/1 5/1/1
f 7/1/1 5/1/1 4/1/1
f 8/1/1 6/1/1 7/1/1
f 9/1/1 7/1/1 3/1/1
f 10/2/1 8/2/1 7/2/1
f 10/1/1 7/1/1 9/1/1
f 11/1/1 6/1/1 8/1/1
f 11/2/1 8/2/1 10/2/1
f 12/1/1 9/1/1 3/1/1
f 13/1/1 9/1/1 12/1/1
f 14/2/1 10/2/1 9/2/1
f 14/1/1 9/1/1 13/1/1
f 15/1/1 11/1/1 10/1/1
f 15/2/1 10/2/1 14/2/1
f 16/1/1 6/1/1 11/1/1
f 16/1/1 11/1/1 15/1/1
f 17/1/1 6/1/1 16/1/1
f 18/1/1 15/1/1 14/1/1
f 18/1/1 16/1/1 15/1/1
f 18/1/1 14/1/1 13/1/1
f 19/1/1 16/1/1 18/1/1
f 20/1/2 21/1/2 23/1/2
f 23/1/2 21/1/2 24/1/2
f 22/1/2 23/1/2 26/1/2
f 24/1/2 25/1/2 26/1/2
f 23/1/2 24/1/2 26/1/2
f 26/1/2 25/1/2 27/1/2
f 22/1/2 26/1/2 28/1/2
f 26/2/2 27/2/2 28/2/2
f 27/1/2 25/1/2 29/1/2
f 28/2/2 27/2/2 29/2/2
f 29/1/2 25/1/2 30/1/2
f 22/1/2 28/1/2 31/1/2
f 28/1/2 29/1/2 31/1/2
f 31/1/2 29/1/2 32/1/2
f 29/2/2 30/2/2 33/2/2
f 32/1/2 29/1/2 33/1/2
f 30/1/2 25/1/2 34/1/2
f 33/2/2 30/2/2 34/2/2
f 34/1/2 25/1/2 35/1/2
f 35/1/2 25/1/2 36/1/2
f 32/1/2 33/1/2 37/1/2
f 34/1/2 35/1/2 37/1/2
f 33/1/2 34/1/2 37/1/2
f 37/1/2 35/1/2 38/1/2
f 41/1/3 40/1/3 39/1/3
f 42/1/3 40/1/3 41/1/3
f 47/1/3 44/1/3 43/1/3
f 48/1/3 44/1/3 47/1/3
f 49/1/3 46/1/3 45/1/3
f 50/1/3 46/1/3 49/1/3
f 51/1/4 52/1/4 55/1/4
f 55/1/4 52/1/4 56/1/4
f 53/1/4 54/1/4 57/1/4
f 57/1/4 54/1/4 58/1/4
f 59/1/4 60/1/4 61/1/4
f 61/1/4 60/1/4 62/1/4
f 65/1/5 64/1/5 63/1/5
f 66/1/5 64/1/5 65/1/5
f 69/1/5 68/1/5 67/1/5
f 70/1/5 68/1/5 69/1/5
f 73/1/5 72/1/5 71/1/5
f 74/1/5 72/1/5 73/1/5
f 75/1/6 76/1/6 77/1/6
f 77/1/6 76/1/6 78/1/6
f 79/1/6 80/1/6 81/1/6
f 81/1/6 80/1/6 82/1/6
f 83/1/6 84/1/6 85/1/6
f 85/1/6 84/1/6 86/1/6
