# MagicaVoxel @ Ephtracy

# group
o 

# material
mtllib NEW GAME-22.mtl
usemtl palette

# normals
vn -1 0 0
vn 1 0 0
vn 0 0 1
vn 0 0 -1
vn 0 -1 0
vn 0 1 0

# texcoords
vt 0.00585938 0.5
vt 0.0214844 0.5
vt 0.0449219 0.5
vt 0.0605469 0.5
vt 0.810547 0.5
vt 0.830078 0.5
vt 0.837891 0.5
vt 0.880859 0.5
vt 0.904297 0.5
vt 0.962891 0.5
vt 0.982422 0.5
vt 0.986328 0.5
vt 0.990234 0.5
vt 0.994141 0.5

# verts
v -0.5 0.8 0.4
v -0.5 0.8 0.3
v -0.5 0.8 -0.3
v -0.5 0.8 -0.4
v -0.5 0.9 0.4
v -0.5 0.9 0.3
v -0.5 0.9 -0.3
v -0.5 0.9 -0.4
v -0.4 0.7 0.3
v -0.4 0.7 0.2
v -0.4 0.7 -0.2
v -0.4 0.7 -0.3
v -0.4 0.8 0.5
v -0.4 0.8 0.4
v -0.4 0.8 0.3
v -0.4 0.8 0.2
v -0.4 0.8 -0.2
v -0.4 0.8 -0.3
v -0.4 0.8 -0.4
v -0.4 0.8 -0.5
v -0.4 0.9 0.5
v -0.4 0.9 0.4
v -0.4 0.9 -0.3
v -0.4 0.9 -0.4
v -0.4 0.9 -0.5
v -0.4 1 -0.3
v -0.4 1 -0.4
v -0.3 0.1 0.2
v -0.3 0.1 0.1
v -0.3 0.1 -0.1
v -0.3 0.1 -0.2
v -0.3 0.3 0.2
v -0.3 0.3 0.1
v -0.3 0.3 -0.1
v -0.3 0.3 -0.2
v -0.3 0.4 0.1
v -0.3 0.4 -0.1
v -0.3 0.5 0.1
v -0.3 0.5 -0.1
v -0.3 0.6 0.2
v -0.3 0.6 0.1
v -0.3 0.6 -0.1
v -0.3 0.6 -0.2
v -0.3 0.7 0.4
v -0.3 0.7 0.3
v -0.3 0.7 0.2
v -0.3 0.7 0.1
v -0.3 0.7 -0.1
v -0.3 0.7 -0.2
v -0.3 0.7 -0.3
v -0.3 0.7 -0.4
v -0.3 0.8 0.4
v -0.3 0.8 0.3
v -0.3 0.8 0.2
v -0.3 0.8 0.1
v -0.3 0.8 -0.1
v -0.3 0.8 -0.2
v -0.3 0.8 -0.3
v -0.3 0.8 -0.4
v -0.3 0.9 0.2
v -0.3 0.9 0.1
v -0.3 0.9 -0.1
v -0.3 0.9 -0.2
v -0.2 0 0.1
v -0.2 0 -0.1
v -0.2 0.1 0.3
v -0.2 0.1 0.2
v -0.2 0.1 0.1
v -0.2 0.1 -0.1
v -0.2 0.1 -0.2
v -0.2 0.1 -0.3
v -0.2 0.3 0.3
v -0.2 0.3 0.2
v -0.2 0.3 0.1
v -0.2 0.3 -0.1
v -0.2 0.3 -0.2
v -0.2 0.3 -0.3
v -0.2 0.4 0.1
v -0.2 0.4 -0.1
v -0.2 0.5 0.1
v -0.2 0.5 -0.1
v -0.2 0.6 0.3
v -0.2 0.6 0.2
v -0.2 0.6 0.1
v -0.2 0.6 -0.1
v -0.2 0.6 -0.2
v -0.2 0.6 -0.3
v -0.2 0.7 0.3
v -0.2 0.7 0.2
v -0.2 0.7 0.1
v -0.2 0.7 -0.2
v -0.2 0.7 -0.3
v -0.2 0.8 0.3
v -0.2 0.8 0.2
v -0.2 0.8 0.1
v -0.2 0.8 -0.2
v -0.2 0.8 -0.3
v -0.2 0.9 0.3
v -0.2 0.9 0.2
v -0.2 0.9 -0.2
v -0.2 0.9 -0.3
v -0.1 0 0.2
v -0.1 0 0.1
v -0.1 0 -0.1
v -0.1 0 -0.2
v -0.1 0.1 0.2
v -0.1 0.1 0.1
v -0.1 0.1 -0.1
v -0.1 0.1 -0.2
v -0.1 0.3 0.3
v -0.1 0.3 0.2
v -0.1 0.3 -0.2
v -0.1 0.3 -0.3
v -0.1 0.4 0.3
v -0.1 0.4 0.2
v -0.1 0.4 0.1
v -0.1 0.4 -0.1
v -0.1 0.4 -0.2
v -0.1 0.4 -0.3
v -0.1 0.5 0.3
v -0.1 0.5 0.2
v -0.1 0.5 0.1
v -0.1 0.5 -0.1
v -0.1 0.5 -0.2
v -0.1 0.5 -0.3
v -0.1 0.6 0.3
v -0.1 0.6 0.2
v -0.1 0.6 -0.2
v -0.1 0.6 -0.3
v -0.1 0.7 0.3
v -0.1 0.7 0.2
v -0.1 0.7 0.1
v -0.1 0.7 0
v -0.1 0.7 -0.1
v -0.1 0.7 -0.2
v -0.1 0.7 -0.3
v -0.1 0.8 0.3
v -0.1 0.8 0.2
v -0.1 0.8 0.1
v -0.1 0.8 0
v -0.1 0.8 -0.1
v -0.1 0.8 -0.2
v -0.1 0.8 -0.3
v 0.1 0 0.1
v 0.1 0 -0.1
v 0.1 0.1 0.3
v 0.1 0.1 0.2
v 0.1 0.1 0.1
v 0.1 0.1 -0.1
v 0.1 0.1 -0.2
v 0.1 0.1 -0.3
v 0.1 0.3 0.3
v 0.1 0.3 0.2
v 0.1 0.3 -0.2
v 0.1 0.3 -0.3
v 0.1 0.4 0.2
v 0.1 0.4 0.1
v 0.1 0.4 -0.1
v 0.1 0.4 -0.2
v 0.1 0.5 0.2
v 0.1 0.5 0.1
v 0.1 0.5 -0.1
v 0.1 0.5 -0.2
v 0.1 0.7 0.2
v 0.1 0.7 0.1
v 0.1 0.8 0.3
v 0.1 0.8 0.2
v 0.1 0.8 0.1
v 0.1 0.8 -0.2
v 0.1 0.8 -0.3
v 0.1 0.9 0.3
v 0.1 0.9 0.2
v 0.1 0.9 -0.2
v 0.1 0.9 -0.3
v 0.2 0.7 0.4
v 0.2 0.7 0.3
v 0.2 0.7 0.2
v 0.2 0.7 0
v 0.2 0.7 -0.1
v 0.2 0.8 0.4
v 0.2 0.8 0.3
v 0.2 0.8 0.2
v 0.2 0.8 0.1
v 0.2 0.8 0
v 0.2 0.8 -0.1
v 0.2 0.9 0.2
v 0.2 0.9 0.1
v 0.3 0.8 0.5
v 0.3 0.8 0.4
v 0.3 0.8 0.3
v 0.3 0.9 0.5
v 0.3 0.9 0.4
v 0.3 0.9 0.3
v 0.3 1 0.4
v 0.3 1 0.3
v -0.3 0.8 0.5
v -0.3 0.8 0.4
v -0.3 0.8 0.3
v -0.3 0.8 -0.3
v -0.3 0.8 -0.4
v -0.3 0.8 -0.5
v -0.3 0.9 0.5
v -0.3 0.9 0.4
v -0.3 0.9 0.3
v -0.3 0.9 -0.3
v -0.3 0.9 -0.4
v -0.3 0.9 -0.5
v -0.3 1 -0.3
v -0.3 1 -0.4
v -0.2 0.7 0.4
v -0.2 0.7 0.3
v -0.2 0.7 0.2
v -0.2 0.7 0.1
v -0.2 0.7 0
v -0.2 0.7 -0.2
v -0.2 0.7 -0.3
v -0.2 0.7 -0.4
v -0.2 0.8 0.4
v -0.2 0.8 0.3
v -0.2 0.8 0.2
v -0.2 0.8 0.1
v -0.2 0.8 0
v -0.2 0.8 -0.1
v -0.2 0.8 -0.2
v -0.2 0.8 -0.3
v -0.2 0.8 -0.4
v -0.2 0.9 0.2
v -0.2 0.9 0.1
v -0.2 0.9 -0.1
v -0.2 0.9 -0.2
v -0.1 0 0.1
v -0.1 0 -0.1
v -0.1 0.1 0.3
v -0.1 0.1 0.2
v -0.1 0.1 0.1
v -0.1 0.1 -0.1
v -0.1 0.1 -0.2
v -0.1 0.1 -0.3
v -0.1 0.3 0.3
v -0.1 0.3 0.2
v -0.1 0.3 -0.2
v -0.1 0.3 -0.3
v -0.1 0.4 0.2
v -0.1 0.4 0.1
v -0.1 0.4 -0.1
v -0.1 0.4 -0.2
v -0.1 0.5 0.2
v -0.1 0.5 0.1
v -0.1 0.5 -0.1
v -0.1 0.5 -0.2
v -0.1 0.7 0.2
v -0.1 0.7 0.1
v -0.1 0.8 0.3
v -0.1 0.8 0.2
v -0.1 0.8 0.1
v -0.1 0.8 -0.2
v -0.1 0.8 -0.3
v -0.1 0.9 0.3
v -0.1 0.9 0.2
v -0.1 0.9 -0.2
v -0.1 0.9 -0.3
v 0 0.6 -0.2
v 0 0.6 -0.3
v 0 0.7 -0.2
v 0 0.7 -0.3
v 0.1 0 0.2
v 0.1 0 0.1
v 0.1 0 -0.1
v 0.1 0 -0.2
v 0.1 0.1 0.2
v 0.1 0.1 0.1
v 0.1 0.1 -0.1
v 0.1 0.1 -0.2
v 0.1 0.3 0.3
v 0.1 0.3 0.2
v 0.1 0.3 -0.2
v 0.1 0.3 -0.3
v 0.1 0.4 0.3
v 0.1 0.4 0.2
v 0.1 0.4 0.1
v 0.1 0.4 -0.1
v 0.1 0.4 -0.2
v 0.1 0.4 -0.3
v 0.1 0.5 0.3
v 0.1 0.5 0.2
v 0.1 0.5 0.1
v 0.1 0.5 -0.1
v 0.1 0.5 -0.2
v 0.1 0.5 -0.3
v 0.1 0.6 0.3
v 0.1 0.6 0.2
v 0.1 0.6 -0.1
v 0.1 0.6 -0.2
v 0.1 0.6 -0.3
v 0.1 0.7 0.3
v 0.1 0.7 0.2
v 0.1 0.7 0
v 0.1 0.7 -0.1
v 0.1 0.7 -0.2
v 0.1 0.7 -0.3
v 0.1 0.8 0.3
v 0.1 0.8 0.2
v 0.1 0.8 0
v 0.1 0.8 -0.1
v 0.1 0.8 -0.2
v 0.1 0.8 -0.3
v 0.2 0 0.1
v 0.2 0 -0.1
v 0.2 0.1 0.3
v 0.2 0.1 0.2
v 0.2 0.1 0.1
v 0.2 0.1 -0.1
v 0.2 0.1 -0.2
v 0.2 0.1 -0.3
v 0.2 0.3 0.3
v 0.2 0.3 0.2
v 0.2 0.3 0.1
v 0.2 0.3 -0.1
v 0.2 0.3 -0.2
v 0.2 0.3 -0.3
v 0.2 0.4 0.1
v 0.2 0.4 -0.1
v 0.2 0.5 0.1
v 0.2 0.5 -0.1
v 0.2 0.6 0.3
v 0.2 0.6 0.2
v 0.2 0.6 0.1
v 0.2 0.6 0
v 0.2 0.6 -0.1
v 0.2 0.6 -0.2
v 0.2 0.7 0.3
v 0.2 0.7 0.2
v 0.2 0.7 0.1
v 0.2 0.7 0
v 0.2 0.7 -0.1
v 0.2 0.8 0.3
v 0.2 0.8 0.2
v 0.2 0.8 0.1
v 0.2 0.8 -0.2
v 0.2 0.8 -0.3
v 0.2 0.9 0.3
v 0.2 0.9 0.2
v 0.2 0.9 -0.2
v 0.2 0.9 -0.3
v 0.3 0.1 0.2
v 0.3 0.1 0.1
v 0.3 0.1 -0.1
v 0.3 0.1 -0.2
v 0.3 0.3 0.2
v 0.3 0.3 0.1
v 0.3 0.3 -0.1
v 0.3 0.3 -0.2
v 0.3 0.4 0.1
v 0.3 0.4 -0.1
v 0.3 0.5 0.1
v 0.3 0.5 -0.1
v 0.3 0.6 0.2
v 0.3 0.6 0.1
v 0.3 0.6 0
v 0.3 0.6 -0.1
v 0.3 0.7 0.4
v 0.3 0.7 0.3
v 0.3 0.7 0.2
v 0.3 0.7 0.1
v 0.3 0.7 0
v 0.3 0.7 -0.1
v 0.3 0.8 0.4
v 0.3 0.8 0.3
v 0.3 0.8 0.2
v 0.3 0.8 0.1
v 0.3 0.8 -0.1
v 0.3 0.9 0.2
v 0.3 0.9 0.1
v 0.4 0.7 0.3
v 0.4 0.7 0.2
v 0.4 0.8 0.5
v 0.4 0.8 0.4
v 0.4 0.8 0.3
v 0.4 0.8 0.2
v 0.4 0.9 0.5
v 0.4 0.9 0.4
v 0.4 0.9 0.3
v 0.4 1 0.4
v 0.4 1 0.3
v 0.5 0.8 0.4
v 0.5 0.8 0.3
v 0.5 0.9 0.4
v 0.5 0.9 0.3
v -0.4 0.8 0.5
v -0.4 0.9 0.5
v -0.3 0.8 0.5
v -0.3 0.9 0.5
v 0.3 0.8 0.5
v 0.3 0.9 0.5
v 0.4 0.8 0.5
v 0.4 0.9 0.5
v -0.5 0.8 0.4
v -0.5 0.9 0.4
v -0.4 0.8 0.4
v -0.4 0.9 0.4
v -0.3 0.7 0.4
v -0.3 0.8 0.4
v -0.2 0.7 0.4
v -0.2 0.8 0.4
v 0.2 0.7 0.4
v 0.2 0.8 0.4
v 0.3 0.7 0.4
v 0.3 0.8 0.4
v 0.3 0.9 0.4
v 0.3 1 0.4
v 0.4 0.8 0.4
v 0.4 0.9 0.4
v 0.4 1 0.4
v 0.5 0.8 0.4
v 0.5 0.9 0.4
v -0.4 0.7 0.3
v -0.4 0.8 0.3
v -0.3 0.7 0.3
v -0.3 0.8 0.3
v -0.2 0.1 0.3
v -0.2 0.3 0.3
v -0.2 0.6 0.3
v -0.2 0.7 0.3
v -0.2 0.8 0.3
v -0.2 0.9 0.3
v -0.1 0.1 0.3
v -0.1 0.3 0.3
v -0.1 0.4 0.3
v -0.1 0.5 0.3
v -0.1 0.6 0.3
v -0.1 0.7 0.3
v -0.1 0.8 0.3
v -0.1 0.9 0.3
v 0.1 0.1 0.3
v 0.1 0.3 0.3
v 0.1 0.4 0.3
v 0.1 0.5 0.3
v 0.1 0.6 0.3
v 0.1 0.7 0.3
v 0.1 0.8 0.3
v 0.1 0.9 0.3
v 0.2 0.1 0.3
v 0.2 0.3 0.3
v 0.2 0.6 0.3
v 0.2 0.7 0.3
v 0.2 0.8 0.3
v 0.2 0.9 0.3
v 0.3 0.7 0.3
v 0.3 0.8 0.3
v 0.4 0.7 0.3
v 0.4 0.8 0.3
v -0.3 0.1 0.2
v -0.3 0.3 0.2
v -0.3 0.6 0.2
v -0.3 0.7 0.2
v -0.3 0.8 0.2
v -0.3 0.9 0.2
v -0.2 0.1 0.2
v -0.2 0.3 0.2
v -0.2 0.6 0.2
v -0.2 0.7 0.2
v -0.2 0.8 0.2
v -0.2 0.9 0.2
v -0.1 0 0.2
v -0.1 0.1 0.2
v -0.1 0.3 0.2
v -0.1 0.4 0.2
v -0.1 0.5 0.2
v -0.1 0.6 0.2
v -0.1 0.7 0.2
v -0.1 0.8 0.2
v 0.1 0 0.2
v 0.1 0.1 0.2
v 0.1 0.3 0.2
v 0.1 0.4 0.2
v 0.1 0.5 0.2
v 0.1 0.6 0.2
v 0.1 0.7 0.2
v 0.1 0.8 0.2
v 0.2 0.1 0.2
v 0.2 0.3 0.2
v 0.2 0.6 0.2
v 0.2 0.7 0.2
v 0.2 0.8 0.2
v 0.2 0.9 0.2
v 0.3 0.1 0.2
v 0.3 0.3 0.2
v 0.3 0.6 0.2
v 0.3 0.7 0.2
v 0.3 0.8 0.2
v 0.3 0.9 0.2
v -0.3 0.3 0.1
v -0.3 0.4 0.1
v -0.3 0.5 0.1
v -0.3 0.6 0.1
v -0.3 0.7 0.1
v -0.3 0.8 0.1
v -0.2 0 0.1
v -0.2 0.1 0.1
v -0.2 0.3 0.1
v -0.2 0.4 0.1
v -0.2 0.5 0.1
v -0.2 0.6 0.1
v -0.2 0.7 0.1
v -0.2 0.8 0.1
v -0.1 0 0.1
v -0.1 0.1 0.1
v -0.1 0.4 0.1
v -0.1 0.5 0.1
v -0.1 0.7 0.1
v -0.1 0.8 0.1
v 0.1 0 0.1
v 0.1 0.1 0.1
v 0.1 0.4 0.1
v 0.1 0.5 0.1
v 0.1 0.7 0.1
v 0.1 0.8 0.1
v 0.2 0 0.1
v 0.2 0.1 0.1
v 0.2 0.3 0.1
v 0.2 0.4 0.1
v 0.2 0.5 0.1
v 0.2 0.6 0.1
v 0.2 0.7 0.1
v 0.2 0.8 0.1
v 0.3 0.3 0.1
v 0.3 0.4 0.1
v 0.3 0.5 0.1
v 0.3 0.6 0.1
v 0.3 0.7 0.1
v 0.3 0.8 0.1
v -0.2 0.7 0
v -0.2 0.8 0
v -0.1 0.7 0
v -0.1 0.8 0
v -0.3 0.1 -0.1
v -0.3 0.3 -0.1
v -0.3 0.8 -0.1
v -0.3 0.9 -0.1
v -0.2 0.1 -0.1
v -0.2 0.3 -0.1
v -0.2 0.4 -0.1
v -0.2 0.5 -0.1
v -0.2 0.8 -0.1
v -0.2 0.9 -0.1
v -0.1 0 -0.1
v -0.1 0.1 -0.1
v -0.1 0.4 -0.1
v -0.1 0.5 -0.1
v 0.1 0 -0.1
v 0.1 0.1 -0.1
v 0.1 0.4 -0.1
v 0.1 0.5 -0.1
v 0.2 0.1 -0.1
v 0.2 0.3 -0.1
v 0.2 0.4 -0.1
v 0.2 0.5 -0.1
v 0.3 0.1 -0.1
v 0.3 0.3 -0.1
v -0.4 0.7 -0.2
v -0.4 0.8 -0.2
v -0.3 0.7 -0.2
v -0.3 0.8 -0.2
v -0.2 0.7 -0.2
v -0.2 0.8 -0.2
v -0.2 0.9 -0.2
v -0.1 0.8 -0.2
v -0.1 0.9 -0.2
v 0.1 0.8 -0.2
v 0.1 0.9 -0.2
v 0.2 0.8 -0.2
v 0.2 0.9 -0.2
v -0.5 0.8 -0.3
v -0.5 0.9 -0.3
v -0.4 0.8 -0.3
v -0.4 0.9 -0.3
v -0.4 1 -0.3
v -0.3 0.8 -0.3
v -0.3 0.9 -0.3
v -0.3 1 -0.3
v -0.5 0.8 0.3
v -0.5 0.9 0.3
v -0.4 0.8 0.3
v -0.4 0.9 0.3
v -0.3 0.8 0.3
v -0.3 0.9 0.3
v 0.3 0.8 0.3
v 0.3 0.9 0.3
v 0.3 1 0.3
v 0.4 0.8 0.3
v 0.4 0.9 0.3
v 0.4 1 0.3
v 0.5 0.8 0.3
v 0.5 0.9 0.3
v -0.4 0.7 0.2
v -0.4 0.8 0.2
v -0.3 0.7 0.2
v -0.3 0.8 0.2
v -0.2 0.7 0.2
v -0.2 0.8 0.2
v -0.2 0.9 0.2
v -0.1 0.7 0.2
v -0.1 0.8 0.2
v -0.1 0.9 0.2
v 0.1 0.7 0.2
v 0.1 0.8 0.2
v 0.1 0.9 0.2
v 0.2 0.7 0.2
v 0.2 0.8 0.2
v 0.2 0.9 0.2
v 0.3 0.7 0.2
v 0.3 0.8 0.2
v 0.4 0.7 0.2
v 0.4 0.8 0.2
v -0.3 0.1 0.1
v -0.3 0.3 0.1
v -0.3 0.8 0.1
v -0.3 0.9 0.1
v -0.2 0.1 0.1
v -0.2 0.3 0.1
v -0.2 0.4 0.1
v -0.2 0.5 0.1
v -0.2 0.7 0.1
v -0.2 0.8 0.1
v -0.2 0.9 0.1
v -0.1 0 0.1
v -0.1 0.1 0.1
v -0.1 0.4 0.1
v -0.1 0.5 0.1
v -0.1 0.7 0.1
v -0.1 0.8 0.1
v 0.1 0 0.1
v 0.1 0.1 0.1
v 0.1 0.4 0.1
v 0.1 0.5 0.1
v 0.2 0.1 0.1
v 0.2 0.3 0.1
v 0.2 0.4 0.1
v 0.2 0.5 0.1
v 0.2 0.8 0.1
v 0.2 0.9 0.1
v 0.3 0.1 0.1
v 0.3 0.3 0.1
v 0.3 0.8 0.1
v 0.3 0.9 0.1
v 0.1 0.7 0
v 0.1 0.8 0
v 0.2 0.6 0
v 0.2 0.7 0
v 0.2 0.8 0
v 0.3 0.6 0
v 0.3 0.7 0
v -0.3 0.3 -0.1
v -0.3 0.4 -0.1
v -0.3 0.5 -0.1
v -0.3 0.6 -0.1
v -0.3 0.7 -0.1
v -0.3 0.8 -0.1
v -0.2 0 -0.1
v -0.2 0.1 -0.1
v -0.2 0.3 -0.1
v -0.2 0.4 -0.1
v -0.2 0.5 -0.1
v -0.2 0.6 -0.1
v -0.2 0.7 -0.1
v -0.2 0.8 -0.1
v -0.1 0 -0.1
v -0.1 0.1 -0.1
v -0.1 0.4 -0.1
v -0.1 0.5 -0.1
v -0.1 0.7 -0.1
v -0.1 0.8 -0.1
v 0.1 0 -0.1
v 0.1 0.1 -0.1
v 0.1 0.4 -0.1
v 0.1 0.5 -0.1
v 0.1 0.6 -0.1
v 0.1 0.7 -0.1
v 0.2 0 -0.1
v 0.2 0.1 -0.1
v 0.2 0.3 -0.1
v 0.2 0.4 -0.1
v 0.2 0.5 -0.1
v 0.2 0.6 -0.1
v 0.2 0.7 -0.1
v 0.2 0.8 -0.1
v 0.3 0.3 -0.1
v 0.3 0.4 -0.1
v 0.3 0.5 -0.1
v 0.3 0.6 -0.1
v 0.3 0.7 -0.1
v 0.3 0.8 -0.1
v -0.3 0.1 -0.2
v -0.3 0.3 -0.2
v -0.3 0.6 -0.2
v -0.3 0.7 -0.2
v -0.3 0.8 -0.2
v -0.3 0.9 -0.2
v -0.2 0.1 -0.2
v -0.2 0.3 -0.2
v -0.2 0.6 -0.2
v -0.2 0.7 -0.2
v -0.2 0.8 -0.2
v -0.2 0.9 -0.2
v -0.1 0 -0.2
v -0.1 0.1 -0.2
v -0.1 0.3 -0.2
v -0.1 0.4 -0.2
v -0.1 0.5 -0.2
v -0.1 0.6 -0.2
v 0 0.6 -0.2
v 0 0.7 -0.2
v 0.1 0 -0.2
v 0.1 0.1 -0.2
v 0.1 0.3 -0.2
v 0.1 0.4 -0.2
v 0.1 0.5 -0.2
v 0.1 0.6 -0.2
v 0.1 0.7 -0.2
v 0.2 0.1 -0.2
v 0.2 0.3 -0.2
v 0.2 0.6 -0.2
v 0.3 0.1 -0.2
v 0.3 0.3 -0.2
v -0.4 0.7 -0.3
v -0.4 0.8 -0.3
v -0.3 0.7 -0.3
v -0.3 0.8 -0.3
v -0.2 0.1 -0.3
v -0.2 0.3 -0.3
v -0.2 0.6 -0.3
v -0.2 0.7 -0.3
v -0.2 0.8 -0.3
v -0.2 0.9 -0.3
v -0.1 0.1 -0.3
v -0.1 0.3 -0.3
v -0.1 0.4 -0.3
v -0.1 0.5 -0.3
v -0.1 0.6 -0.3
v -0.1 0.7 -0.3
v -0.1 0.8 -0.3
v -0.1 0.9 -0.3
v 0 0.6 -0.3
v 0 0.7 -0.3
v 0.1 0.1 -0.3
v 0.1 0.3 -0.3
v 0.1 0.4 -0.3
v 0.1 0.5 -0.3
v 0.1 0.6 -0.3
v 0.1 0.7 -0.3
v 0.1 0.8 -0.3
v 0.1 0.9 -0.3
v 0.2 0.1 -0.3
v 0.2 0.3 -0.3
v 0.2 0.8 -0.3
v 0.2 0.9 -0.3
v -0.5 0.8 -0.4
v -0.5 0.9 -0.4
v -0.4 0.8 -0.4
v -0.4 0.9 -0.4
v -0.4 1 -0.4
v -0.3 0.7 -0.4
v -0.3 0.8 -0.4
v -0.3 0.9 -0.4
v -0.3 1 -0.4
v -0.2 0.7 -0.4
v -0.2 0.8 -0.4
v -0.4 0.8 -0.5
v -0.4 0.9 -0.5
v -0.3 0.8 -0.5
v -0.3 0.9 -0.5
v -0.1 0 0.2
v 0.1 0 0.2
v -0.2 0 0.1
v -0.1 0 0.1
v 0.1 0 0.1
v 0.2 0 0.1
v -0.2 0 -0.1
v -0.1 0 -0.1
v 0.1 0 -0.1
v 0.2 0 -0.1
v -0.1 0 -0.2
v 0.1 0 -0.2
v -0.2 0.1 0.3
v -0.1 0.1 0.3
v 0.1 0.1 0.3
v 0.2 0.1 0.3
v -0.3 0.1 0.2
v -0.2 0.1 0.2
v -0.1 0.1 0.2
v 0.1 0.1 0.2
v 0.2 0.1 0.2
v 0.3 0.1 0.2
v -0.3 0.1 0.1
v -0.2 0.1 0.1
v -0.1 0.1 0.1
v 0.1 0.1 0.1
v 0.2 0.1 0.1
v 0.3 0.1 0.1
v -0.3 0.1 -0.1
v -0.2 0.1 -0.1
v -0.1 0.1 -0.1
v 0.1 0.1 -0.1
v 0.2 0.1 -0.1
v 0.3 0.1 -0.1
v -0.3 0.1 -0.2
v -0.2 0.1 -0.2
v -0.1 0.1 -0.2
v 0.1 0.1 -0.2
v 0.2 0.1 -0.2
v 0.3 0.1 -0.2
v -0.2 0.1 -0.3
v -0.1 0.1 -0.3
v 0.1 0.1 -0.3
v 0.2 0.1 -0.3
v -0.1 0.3 0.3
v 0.1 0.3 0.3
v -0.1 0.3 0.2
v 0.1 0.3 0.2
v -0.3 0.3 0.1
v -0.2 0.3 0.1
v 0.2 0.3 0.1
v 0.3 0.3 0.1
v -0.3 0.3 -0.1
v -0.2 0.3 -0.1
v 0.2 0.3 -0.1
v 0.3 0.3 -0.1
v -0.1 0.3 -0.2
v 0.1 0.3 -0.2
v -0.1 0.3 -0.3
v 0.1 0.3 -0.3
v -0.1 0.5 0.3
v 0.1 0.5 0.3
v -0.1 0.5 0.2
v 0.1 0.5 0.2
v -0.3 0.5 0.1
v -0.2 0.5 0.1
v -0.1 0.5 0.1
v 0.1 0.5 0.1
v 0.2 0.5 0.1
v 0.3 0.5 0.1
v -0.3 0.5 -0.1
v -0.2 0.5 -0.1
v -0.1 0.5 -0.1
v 0.1 0.5 -0.1
v 0.2 0.5 -0.1
v 0.3 0.5 -0.1
v -0.1 0.5 -0.2
v 0.1 0.5 -0.2
v -0.1 0.5 -0.3
v 0.1 0.5 -0.3
v -0.2 0.6 0.3
v -0.1 0.6 0.3
v 0.1 0.6 0.3
v 0.2 0.6 0.3
v -0.3 0.6 0.2
v -0.2 0.6 0.2
v -0.1 0.6 0.2
v 0.1 0.6 0.2
v 0.2 0.6 0.2
v 0.3 0.6 0.2
v -0.3 0.6 0.1
v -0.2 0.6 0.1
v 0.2 0.6 0.1
v 0.3 0.6 0.1
v -0.3 0.6 -0.1
v -0.2 0.6 -0.1
v -0.3 0.6 -0.2
v -0.2 0.6 -0.2
v -0.1 0.6 -0.2
v -0.2 0.6 -0.3
v -0.1 0.6 -0.3
v -0.3 0.7 0.4
v -0.2 0.7 0.4
v 0.2 0.7 0.4
v 0.3 0.7 0.4
v -0.4 0.7 0.3
v -0.3 0.7 0.3
v -0.2 0.7 0.3
v 0.2 0.7 0.3
v 0.3 0.7 0.3
v 0.4 0.7 0.3
v -0.4 0.7 0.2
v -0.3 0.7 0.2
v -0.2 0.7 0.2
v 0.2 0.7 0.2
v 0.3 0.7 0.2
v 0.4 0.7 0.2
v 0.2 0.7 0
v 0.3 0.7 0
v 0.2 0.7 -0.1
v 0.3 0.7 -0.1
v -0.4 0.7 -0.2
v -0.3 0.7 -0.2
v -0.2 0.7 -0.2
v 0 0.7 -0.2
v 0.1 0.7 -0.2
v -0.4 0.7 -0.3
v -0.3 0.7 -0.3
v -0.2 0.7 -0.3
v 0 0.7 -0.3
v 0.1 0.7 -0.3
v -0.3 0.7 -0.4
v -0.2 0.7 -0.4
v -0.4 0.8 0.5
v -0.3 0.8 0.5
v 0.3 0.8 0.5
v 0.4 0.8 0.5
v -0.5 0.8 0.4
v -0.4 0.8 0.4
v -0.3 0.8 0.4
v 0.3 0.8 0.4
v 0.4 0.8 0.4
v 0.5 0.8 0.4
v -0.5 0.8 0.3
v -0.4 0.8 0.3
v -0.3 0.8 0.3
v -0.2 0.8 0.3
v -0.1 0.8 0.3
v 0.1 0.8 0.3
v 0.2 0.8 0.3
v 0.3 0.8 0.3
v 0.4 0.8 0.3
v 0.5 0.8 0.3
v -0.3 0.8 0.2
v -0.2 0.8 0.2
v -0.1 0.8 0.2
v 0.1 0.8 0.2
v 0.2 0.8 0.2
v 0.3 0.8 0.2
v -0.3 0.8 0.1
v -0.2 0.8 0.1
v 0.2 0.8 0.1
v 0.3 0.8 0.1
v -0.3 0.8 -0.1
v -0.2 0.8 -0.1
v -0.3 0.8 -0.2
v -0.2 0.8 -0.2
v -0.1 0.8 -0.2
v 0.1 0.8 -0.2
v 0.2 0.8 -0.2
v -0.5 0.8 -0.3
v -0.4 0.8 -0.3
v -0.3 0.8 -0.3
v -0.2 0.8 -0.3
v -0.1 0.8 -0.3
v 0.1 0.8 -0.3
v 0.2 0.8 -0.3
v -0.5 0.8 -0.4
v -0.4 0.8 -0.4
v -0.3 0.8 -0.4
v -0.4 0.8 -0.5
v -0.3 0.8 -0.5
v -0.2 0.3 0.3
v -0.1 0.3 0.3
v 0.1 0.3 0.3
v 0.2 0.3 0.3
v -0.3 0.3 0.2
v -0.2 0.3 0.2
v -0.1 0.3 0.2
v 0.1 0.3 0.2
v 0.2 0.3 0.2
v 0.3 0.3 0.2
v -0.3 0.3 0.1
v -0.2 0.3 0.1
v 0.2 0.3 0.1
v 0.3 0.3 0.1
v -0.3 0.3 -0.1
v -0.2 0.3 -0.1
v 0.2 0.3 -0.1
v 0.3 0.3 -0.1
v -0.3 0.3 -0.2
v -0.2 0.3 -0.2
v -0.1 0.3 -0.2
v 0.1 0.3 -0.2
v 0.2 0.3 -0.2
v 0.3 0.3 -0.2
v -0.2 0.3 -0.3
v -0.1 0.3 -0.3
v 0.1 0.3 -0.3
v 0.2 0.3 -0.3
v -0.1 0.4 0.3
v 0.1 0.4 0.3
v -0.1 0.4 0.2
v 0.1 0.4 0.2
v -0.3 0.4 0.1
v -0.2 0.4 0.1
v -0.1 0.4 0.1
v 0.1 0.4 0.1
v 0.2 0.4 0.1
v 0.3 0.4 0.1
v -0.3 0.4 -0.1
v -0.2 0.4 -0.1
v -0.1 0.4 -0.1
v 0.1 0.4 -0.1
v 0.2 0.4 -0.1
v 0.3 0.4 -0.1
v -0.1 0.4 -0.2
v 0.1 0.4 -0.2
v -0.1 0.4 -0.3
v 0.1 0.4 -0.3
v 0.2 0.6 0
v 0.3 0.6 0
v 0.1 0.6 -0.1
v 0.2 0.6 -0.1
v 0.3 0.6 -0.1
v 0 0.6 -0.2
v 0.1 0.6 -0.2
v 0.2 0.6 -0.2
v 0 0.6 -0.3
v 0.1 0.6 -0.3
v -0.2 0.7 0.3
v -0.1 0.7 0.3
v 0.1 0.7 0.3
v 0.2 0.7 0.3
v -0.3 0.7 0.2
v -0.2 0.7 0.2
v -0.1 0.7 0.2
v 0.1 0.7 0.2
v 0.2 0.7 0.2
v 0.3 0.7 0.2
v -0.3 0.7 0.1
v -0.2 0.7 0.1
v -0.1 0.7 0.1
v 0.1 0.7 0.1
v 0.2 0.7 0.1
v 0.3 0.7 0.1
v -0.2 0.7 0
v -0.1 0.7 0
v 0.1 0.7 0
v 0.2 0.7 0
v -0.3 0.7 -0.1
v -0.2 0.7 -0.1
v -0.1 0.7 -0.1
v 0.1 0.7 -0.1
v 0.2 0.7 -0.1
v -0.3 0.7 -0.2
v -0.2 0.7 -0.2
v -0.1 0.7 -0.2
v -0.2 0.7 -0.3
v -0.1 0.7 -0.3
v -0.3 0.8 0.4
v -0.2 0.8 0.4
v 0.2 0.8 0.4
v 0.3 0.8 0.4
v -0.4 0.8 0.3
v -0.3 0.8 0.3
v -0.2 0.8 0.3
v -0.1 0.8 0.3
v 0.1 0.8 0.3
v 0.2 0.8 0.3
v 0.3 0.8 0.3
v 0.4 0.8 0.3
v -0.4 0.8 0.2
v -0.3 0.8 0.2
v -0.2 0.8 0.2
v -0.1 0.8 0.2
v 0.1 0.8 0.2
v 0.2 0.8 0.2
v 0.3 0.8 0.2
v 0.4 0.8 0.2
v -0.3 0.8 0.1
v -0.2 0.8 0.1
v -0.1 0.8 0.1
v 0.1 0.8 0.1
v 0.2 0.8 0.1
v 0.3 0.8 0.1
v -0.2 0.8 0
v -0.1 0.8 0
v 0.1 0.8 0
v 0.2 0.8 0
v -0.3 0.8 -0.1
v -0.2 0.8 -0.1
v -0.1 0.8 -0.1
v 0.1 0.8 -0.1
v 0.2 0.8 -0.1
v 0.3 0.8 -0.1
v -0.4 0.8 -0.2
v -0.3 0.8 -0.2
v -0.2 0.8 -0.2
v -0.1 0.8 -0.2
v 0.1 0.8 -0.2
v -0.4 0.8 -0.3
v -0.3 0.8 -0.3
v -0.2 0.8 -0.3
v -0.1 0.8 -0.3
v 0.1 0.8 -0.3
v -0.3 0.8 -0.4
v -0.2 0.8 -0.4
v -0.4 0.9 0.5
v -0.3 0.9 0.5
v 0.3 0.9 0.5
v 0.4 0.9 0.5
v -0.5 0.9 0.4
v -0.4 0.9 0.4
v -0.3 0.9 0.4
v 0.3 0.9 0.4
v 0.4 0.9 0.4
v 0.5 0.9 0.4
v -0.5 0.9 0.3
v -0.4 0.9 0.3
v -0.3 0.9 0.3
v -0.2 0.9 0.3
v -0.1 0.9 0.3
v 0.1 0.9 0.3
v 0.2 0.9 0.3
v 0.4 0.9 0.3
v 0.5 0.9 0.3
v -0.3 0.9 0.2
v -0.2 0.9 0.2
v -0.1 0.9 0.2
v 0.1 0.9 0.2
v 0.2 0.9 0.2
v 0.3 0.9 0.2
v -0.3 0.9 0.1
v -0.2 0.9 0.1
v 0.2 0.9 0.1
v 0.3 0.9 0.1
v -0.3 0.9 -0.1
v -0.2 0.9 -0.1
v -0.3 0.9 -0.2
v -0.2 0.9 -0.2
v -0.1 0.9 -0.2
v 0.1 0.9 -0.2
v 0.2 0.9 -0.2
v -0.5 0.9 -0.3
v -0.4 0.9 -0.3
v -0.2 0.9 -0.3
v -0.1 0.9 -0.3
v 0.1 0.9 -0.3
v 0.2 0.9 -0.3
v -0.5 0.9 -0.4
v -0.4 0.9 -0.4
v -0.3 0.9 -0.4
v -0.4 0.9 -0.5
v -0.3 0.9 -0.5
v 0.3 1 0.4
v 0.4 1 0.4
v 0.3 1 0.3
v 0.4 1 0.3
v -0.4 1 -0.3
v -0.3 1 -0.3
v -0.4 1 -0.4
v -0.3 1 -0.4

# faces
f 5/5/1 2/5/1 1/5/1
f 6/5/1 2/5/1 5/5/1
f 7/5/1 4/5/1 3/5/1
f 8/5/1 4/5/1 7/5/1
f 15/7/1 10/7/1 9/7/1
f 16/7/1 10/7/1 15/7/1
f 17/7/1 12/7/1 11/7/1
f 18/7/1 12/7/1 17/7/1
f 21/5/1 14/5/1 13/5/1
f 22/5/1 14/5/1 21/5/1
f 24/5/1 20/5/1 19/5/1
f 25/5/1 20/5/1 24/5/1
f 26/5/1 24/5/1 23/5/1
f 27/5/1 24/5/1 26/5/1
f 32/4/1 29/4/1 28/4/1
f 33/4/1 29/4/1 32/4/1
f 34/4/1 31/4/1 30/4/1
f 35/4/1 31/4/1 34/4/1
f 36/3/1 34/3/1 33/3/1
f 37/3/1 34/3/1 36/3/1
f 41/14/1 39/14/1 38/14/1
f 42/14/1 39/14/1 41/14/1
f 46/2/1 42/2/1 41/2/1
f 46/2/1 41/2/1 40/2/1
f 46/2/1 43/2/1 42/2/1
f 47/2/1 43/2/1 46/2/1
f 48/2/1 43/2/1 47/2/1
f 49/2/1 43/2/1 48/2/1
f 52/7/1 45/7/1 44/7/1
f 53/7/1 45/7/1 52/7/1
f 55/1/1 48/1/1 47/1/1
f 56/1/1 48/1/1 55/1/1
f 58/7/1 51/7/1 50/7/1
f 59/7/1 51/7/1 58/7/1
f 60/1/1 55/1/1 54/1/1
f 61/1/1 55/1/1 60/1/1
f 62/1/1 57/1/1 56/1/1
f 63/1/1 57/1/1 62/1/1
f 68/13/1 65/13/1 64/13/1
f 69/13/1 65/13/1 68/13/1
f 72/4/1 67/4/1 66/4/1
f 73/4/1 67/4/1 72/4/1
f 74/9/1 69/9/1 68/9/1
f 75/9/1 69/9/1 74/9/1
f 76/4/1 71/4/1 70/4/1
f 77/4/1 71/4/1 76/4/1
f 78/11/1 74/11/1 73/11/1
f 79/11/1 76/11/1 75/11/1
f 80/11/1 78/11/1 73/11/1
f 81/11/1 76/11/1 79/11/1
f 83/11/1 80/11/1 73/11/1
f 84/11/1 80/11/1 83/11/1
f 85/11/1 76/11/1 81/11/1
f 86/11/1 76/11/1 85/11/1
f 88/2/1 83/2/1 82/2/1
f 89/2/1 83/2/1 88/2/1
f 91/2/1 87/2/1 86/2/1
f 92/2/1 87/2/1 91/2/1
f 94/14/1 90/14/1 89/14/1
f 95/14/1 90/14/1 94/14/1
f 98/1/1 94/1/1 93/1/1
f 99/1/1 94/1/1 98/1/1
f 100/1/1 97/1/1 96/1/1
f 101/1/1 97/1/1 100/1/1
f 106/13/1 103/13/1 102/13/1
f 107/13/1 103/13/1 106/13/1
f 108/13/1 105/13/1 104/13/1
f 109/13/1 105/13/1 108/13/1
f 114/3/1 111/3/1 110/3/1
f 115/3/1 111/3/1 114/3/1
f 118/3/1 113/3/1 112/3/1
f 119/3/1 113/3/1 118/3/1
f 122/6/1 117/6/1 116/6/1
f 123/6/1 117/6/1 122/6/1
f 126/14/1 121/14/1 120/14/1
f 127/14/1 121/14/1 126/14/1
f 128/14/1 125/14/1 124/14/1
f 129/14/1 125/14/1 128/14/1
f 137/1/1 131/1/1 130/1/1
f 138/1/1 131/1/1 137/1/1
f 139/8/1 133/8/1 132/8/1
f 140/8/1 133/8/1 139/8/1
f 141/14/1 135/14/1 134/14/1
f 142/1/1 136/1/1 135/1/1
f 142/14/1 135/14/1 141/14/1
f 143/1/1 136/1/1 142/1/1
f 148/13/1 145/13/1 144/13/1
f 149/13/1 145/13/1 148/13/1
f 152/4/1 147/4/1 146/4/1
f 153/4/1 147/4/1 152/4/1
f 154/4/1 151/4/1 150/4/1
f 155/4/1 151/4/1 154/4/1
f 160/11/1 157/11/1 156/11/1
f 161/11/1 157/11/1 160/11/1
f 162/11/1 159/11/1 158/11/1
f 163/11/1 159/11/1 162/11/1
f 167/14/1 165/14/1 164/14/1
f 168/14/1 165/14/1 167/14/1
f 171/1/1 167/1/1 166/1/1
f 172/1/1 167/1/1 171/1/1
f 173/1/1 170/1/1 169/1/1
f 174/1/1 170/1/1 173/1/1
f 180/7/1 176/7/1 175/7/1
f 181/2/1 177/2/1 176/2/1
f 181/7/1 176/7/1 180/7/1
f 182/2/1 177/2/1 181/2/1
f 184/1/1 179/1/1 178/1/1
f 185/1/1 179/1/1 184/1/1
f 186/1/1 183/1/1 182/1/1
f 187/1/1 183/1/1 186/1/1
f 191/5/1 189/5/1 188/5/1
f 192/7/1 190/7/1 189/7/1
f 192/5/1 189/5/1 191/5/1
f 193/7/1 190/7/1 192/7/1
f 194/5/1 193/5/1 192/5/1
f 195/5/1 193/5/1 194/5/1
f 196/5/2 197/5/2 202/5/2
f 197/7/2 198/7/2 203/7/2
f 202/5/2 197/5/2 203/5/2
f 203/7/2 198/7/2 204/7/2
f 199/7/2 200/7/2 205/7/2
f 200/5/2 201/5/2 206/5/2
f 205/7/2 200/7/2 206/7/2
f 206/5/2 201/5/2 207/5/2
f 205/5/2 206/5/2 208/5/2
f 208/5/2 206/5/2 209/5/2
f 210/7/2 211/7/2 218/7/2
f 211/2/2 212/2/2 219/2/2
f 218/7/2 211/7/2 219/7/2
f 219/2/2 212/2/2 220/2/2
f 213/1/2 214/1/2 221/1/2
f 221/1/2 214/1/2 222/1/2
f 215/2/2 216/2/2 224/2/2
f 216/7/2 217/7/2 225/7/2
f 224/2/2 216/2/2 225/2/2
f 225/7/2 217/7/2 226/7/2
f 220/1/2 221/1/2 227/1/2
f 227/1/2 221/1/2 228/1/2
f 223/1/2 224/1/2 229/1/2
f 229/1/2 224/1/2 230/1/2
f 231/13/2 232/13/2 235/13/2
f 235/13/2 232/13/2 236/13/2
f 233/4/2 234/4/2 239/4/2
f 239/4/2 234/4/2 240/4/2
f 237/4/2 238/4/2 241/4/2
f 241/4/2 238/4/2 242/4/2
f 243/11/2 244/11/2 247/11/2
f 247/11/2 244/11/2 248/11/2
f 245/11/2 246/11/2 249/11/2
f 249/11/2 246/11/2 250/11/2
f 251/14/2 252/14/2 254/14/2
f 254/14/2 252/14/2 255/14/2
f 253/1/2 254/1/2 258/1/2
f 258/1/2 254/1/2 259/1/2
f 256/1/2 257/1/2 260/1/2
f 260/1/2 257/1/2 261/1/2
f 262/2/2 263/2/2 264/2/2
f 264/2/2 263/2/2 265/2/2
f 266/13/2 267/13/2 270/13/2
f 270/13/2 267/13/2 271/13/2
f 268/13/2 269/13/2 272/13/2
f 272/13/2 269/13/2 273/13/2
f 274/3/2 275/3/2 278/3/2
f 278/3/2 275/3/2 279/3/2
f 276/3/2 277/3/2 282/3/2
f 282/3/2 277/3/2 283/3/2
f 280/6/2 281/6/2 286/6/2
f 286/6/2 281/6/2 287/6/2
f 284/14/2 285/14/2 290/14/2
f 290/14/2 285/14/2 291/14/2
f 288/14/2 289/14/2 293/14/2
f 293/14/2 289/14/2 294/14/2
f 292/12/2 293/12/2 298/12/2
f 298/12/2 293/12/2 299/12/2
f 295/1/2 296/1/2 301/1/2
f 301/1/2 296/1/2 302/1/2
f 297/8/2 298/8/2 303/8/2
f 298/14/2 299/14/2 304/14/2
f 303/8/2 298/8/2 304/8/2
f 299/1/2 300/1/2 305/1/2
f 304/14/2 299/14/2 305/14/2
f 305/1/2 300/1/2 306/1/2
f 307/13/2 308/13/2 311/13/2
f 311/13/2 308/13/2 312/13/2
f 309/4/2 310/4/2 315/4/2
f 315/4/2 310/4/2 316/4/2
f 311/9/2 312/9/2 317/9/2
f 317/9/2 312/9/2 318/9/2
f 313/4/2 314/4/2 319/4/2
f 319/4/2 314/4/2 320/4/2
f 316/11/2 317/11/2 321/11/2
f 318/11/2 319/11/2 322/11/2
f 316/11/2 321/11/2 323/11/2
f 322/11/2 319/11/2 324/11/2
f 316/11/2 323/11/2 326/11/2
f 326/11/2 323/11/2 327/11/2
f 324/11/2 319/11/2 329/11/2
f 329/11/2 319/11/2 330/11/2
f 325/2/2 326/2/2 331/2/2
f 331/2/2 326/2/2 332/2/2
f 328/12/2 329/12/2 334/12/2
f 334/12/2 329/12/2 335/12/2
f 332/14/2 333/14/2 337/14/2
f 337/14/2 333/14/2 338/14/2
f 336/1/2 337/1/2 341/1/2
f 341/1/2 337/1/2 342/1/2
f 339/1/2 340/1/2 343/1/2
f 343/1/2 340/1/2 344/1/2
f 345/4/2 346/4/2 349/4/2
f 349/4/2 346/4/2 350/4/2
f 347/4/2 348/4/2 351/4/2
f 351/4/2 348/4/2 352/4/2
f 350/10/2 351/10/2 353/10/2
f 353/10/2 351/10/2 354/10/2
f 355/14/2 356/14/2 358/14/2
f 358/14/2 356/14/2 359/14/2
f 359/14/2 356/14/2 360/14/2
f 357/2/2 358/2/2 363/2/2
f 358/2/2 359/2/2 363/2/2
f 363/2/2 359/2/2 364/2/2
f 364/2/2 359/2/2 365/2/2
f 361/7/2 362/7/2 367/7/2
f 367/7/2 362/7/2 368/7/2
f 365/1/2 366/1/2 370/1/2
f 364/1/2 365/1/2 370/1/2
f 370/1/2 366/1/2 371/1/2
f 369/1/2 370/1/2 372/1/2
f 372/1/2 370/1/2 373/1/2
f 374/7/2 375/7/2 378/7/2
f 378/7/2 375/7/2 379/7/2
f 376/5/2 377/5/2 380/5/2
f 380/5/2 377/5/2 381/5/2
f 381/5/2 382/5/2 383/5/2
f 383/5/2 382/5/2 384/5/2
f 385/5/2 386/5/2 387/5/2
f 387/5/2 386/5/2 388/5/2
f 391/5/3 390/5/3 389/5/3
f 392/5/3 390/5/3 391/5/3
f 395/5/3 394/5/3 393/5/3
f 396/5/3 394/5/3 395/5/3
f 399/5/3 398/5/3 397/5/3
f 400/5/3 398/5/3 399/5/3
f 403/7/3 402/7/3 401/7/3
f 404/7/3 402/7/3 403/7/3
f 407/7/3 406/7/3 405/7/3
f 408/7/3 406/7/3 407/7/3
f 412/5/3 410/5/3 409/5/3
f 413/5/3 410/5/3 412/5/3
f 414/5/3 412/5/3 411/5/3
f 415/5/3 412/5/3 414/5/3
f 418/7/3 417/7/3 416/7/3
f 419/7/3 417/7/3 418/7/3
f 426/4/3 421/4/3 420/4/3
f 427/4/3 421/4/3 426/4/3
f 430/2/3 423/2/3 422/2/3
f 431/2/3 423/2/3 430/2/3
f 432/1/3 425/1/3 424/1/3
f 433/1/3 425/1/3 432/1/3
f 435/3/3 428/3/3 427/3/3
f 436/3/3 428/3/3 435/3/3
f 437/14/3 430/14/3 429/14/3
f 438/2/3 431/2/3 430/2/3
f 438/14/3 430/14/3 437/14/3
f 439/1/3 432/1/3 431/1/3
f 439/2/3 431/2/3 438/2/3
f 440/1/3 432/1/3 439/1/3
f 442/4/3 435/4/3 434/4/3
f 443/4/3 435/4/3 442/4/3
f 444/2/3 439/2/3 438/2/3
f 445/2/3 439/2/3 444/2/3
f 446/1/3 441/1/3 440/1/3
f 447/1/3 441/1/3 446/1/3
f 450/7/3 449/7/3 448/7/3
f 451/7/3 449/7/3 450/7/3
f 458/4/3 453/4/3 452/4/3
f 459/4/3 453/4/3 458/4/3
f 460/2/3 455/2/3 454/2/3
f 461/2/3 455/2/3 460/2/3
f 462/1/3 457/1/3 456/1/3
f 463/1/3 457/1/3 462/1/3
f 466/11/3 460/11/3 459/11/3
f 467/11/3 460/11/3 466/11/3
f 468/11/3 460/11/3 467/11/3
f 469/11/3 460/11/3 468/11/3
f 470/14/3 462/14/3 461/14/3
f 471/14/3 462/14/3 470/14/3
f 472/13/3 465/13/3 464/13/3
f 473/9/3 466/9/3 465/9/3
f 473/13/3 465/13/3 472/13/3
f 474/9/3 466/9/3 473/9/3
f 481/11/3 477/11/3 476/11/3
f 481/11/3 476/11/3 475/11/3
f 481/11/3 475/11/3 474/11/3
f 482/11/3 477/11/3 481/11/3
f 483/14/3 479/14/3 478/14/3
f 484/14/3 479/14/3 483/14/3
f 486/4/3 481/4/3 480/4/3
f 487/4/3 481/4/3 486/4/3
f 488/2/3 483/2/3 482/2/3
f 489/2/3 483/2/3 488/2/3
f 490/1/3 485/1/3 484/1/3
f 491/1/3 485/1/3 490/1/3
f 500/3/3 493/3/3 492/3/3
f 501/3/3 493/3/3 500/3/3
f 502/14/3 495/14/3 494/14/3
f 503/14/3 495/14/3 502/14/3
f 504/1/3 497/1/3 496/1/3
f 505/1/3 497/1/3 504/1/3
f 506/13/3 499/13/3 498/13/3
f 507/13/3 499/13/3 506/13/3
f 514/6/3 509/6/3 508/6/3
f 515/6/3 509/6/3 514/6/3
f 516/8/3 511/8/3 510/8/3
f 517/8/3 511/8/3 516/8/3
f 518/13/3 513/13/3 512/13/3
f 519/13/3 513/13/3 518/13/3
f 526/10/3 521/10/3 520/10/3
f 527/10/3 521/10/3 526/10/3
f 528/14/3 523/14/3 522/14/3
f 529/14/3 523/14/3 528/14/3
f 530/1/3 525/1/3 524/1/3
f 531/1/3 525/1/3 530/1/3
f 534/14/3 533/14/3 532/14/3
f 535/14/3 533/14/3 534/14/3
f 540/4/3 537/4/3 536/4/3
f 541/4/3 537/4/3 540/4/3
f 544/1/3 539/1/3 538/1/3
f 545/1/3 539/1/3 544/1/3
f 548/11/3 543/11/3 542/11/3
f 549/11/3 543/11/3 548/11/3
f 550/13/3 547/13/3 546/13/3
f 551/13/3 547/13/3 550/13/3
f 556/11/3 553/11/3 552/11/3
f 557/11/3 553/11/3 556/11/3
f 558/4/3 555/4/3 554/4/3
f 559/4/3 555/4/3 558/4/3
f 562/7/3 561/7/3 560/7/3
f 563/7/3 561/7/3 562/7/3
f 564/2/3 563/2/3 562/2/3
f 565/2/3 563/2/3 564/2/3
f 567/1/3 566/1/3 565/1/3
f 568/1/3 566/1/3 567/1/3
f 571/1/3 570/1/3 569/1/3
f 572/1/3 570/1/3 571/1/3
f 575/5/3 574/5/3 573/5/3
f 576/5/3 574/5/3 575/5/3
f 578/7/3 576/7/3 575/7/3
f 579/5/3 577/5/3 576/5/3
f 579/7/3 576/7/3 578/7/3
f 580/5/3 577/5/3 579/5/3
f 581/5/4 582/5/4 583/5/4
f 583/5/4 582/5/4 584/5/4
f 583/7/4 584/7/4 585/7/4
f 585/7/4 584/7/4 586/7/4
f 587/7/4 588/7/4 590/7/4
f 588/5/4 589/5/4 591/5/4
f 590/7/4 588/7/4 591/7/4
f 591/5/4 589/5/4 592/5/4
f 590/5/4 591/5/4 593/5/4
f 593/5/4 591/5/4 594/5/4
f 595/7/4 596/7/4 597/7/4
f 597/7/4 596/7/4 598/7/4
f 597/2/4 598/2/4 599/2/4
f 599/2/4 598/2/4 600/2/4
f 600/1/4 601/1/4 603/1/4
f 603/1/4 601/1/4 604/1/4
f 602/1/4 603/1/4 605/1/4
f 605/1/4 603/1/4 606/1/4
f 606/1/4 607/1/4 609/1/4
f 609/1/4 607/1/4 610/1/4
f 608/2/4 609/2/4 611/2/4
f 611/2/4 609/2/4 612/2/4
f 611/7/4 612/7/4 613/7/4
f 613/7/4 612/7/4 614/7/4
f 615/4/4 616/4/4 619/4/4
f 619/4/4 616/4/4 620/4/4
f 617/1/4 618/1/4 624/1/4
f 624/1/4 618/1/4 625/1/4
f 621/11/4 622/11/4 628/11/4
f 628/11/4 622/11/4 629/11/4
f 623/14/4 624/14/4 630/14/4
f 630/14/4 624/14/4 631/14/4
f 626/13/4 627/13/4 632/13/4
f 632/13/4 627/13/4 633/13/4
f 634/11/4 635/11/4 638/11/4
f 638/11/4 635/11/4 639/11/4
f 636/4/4 637/4/4 642/4/4
f 642/4/4 637/4/4 643/4/4
f 640/1/4 641/1/4 644/1/4
f 644/1/4 641/1/4 645/1/4
f 646/14/4 647/14/4 649/14/4
f 649/14/4 647/14/4 650/14/4
f 648/2/4 649/2/4 651/2/4
f 651/2/4 649/2/4 652/2/4
f 653/3/4 654/3/4 661/3/4
f 661/3/4 654/3/4 662/3/4
f 655/14/4 656/14/4 663/14/4
f 663/14/4 656/14/4 664/14/4
f 657/1/4 658/1/4 665/1/4
f 665/1/4 658/1/4 666/1/4
f 659/13/4 660/13/4 667/13/4
f 667/13/4 660/13/4 668/13/4
f 665/14/4 666/14/4 671/14/4
f 671/14/4 666/14/4 672/14/4
f 669/6/4 670/6/4 675/6/4
f 675/6/4 670/6/4 676/6/4
f 673/13/4 674/13/4 679/13/4
f 679/13/4 674/13/4 680/13/4
f 677/12/4 678/12/4 684/12/4
f 684/12/4 678/12/4 685/12/4
f 681/10/4 682/10/4 687/10/4
f 687/10/4 682/10/4 688/10/4
f 683/14/4 684/14/4 689/14/4
f 689/14/4 684/14/4 690/14/4
f 685/1/4 686/1/4 691/1/4
f 691/1/4 686/1/4 692/1/4
f 693/4/4 694/4/4 699/4/4
f 699/4/4 694/4/4 700/4/4
f 695/2/4 696/2/4 701/2/4
f 701/2/4 696/2/4 702/2/4
f 697/1/4 698/1/4 703/1/4
f 703/1/4 698/1/4 704/1/4
f 700/11/4 701/11/4 707/11/4
f 707/11/4 701/11/4 708/11/4
f 708/11/4 701/11/4 709/11/4
f 709/11/4 701/11/4 710/11/4
f 705/13/4 706/13/4 713/13/4
f 706/9/4 707/9/4 714/9/4
f 713/13/4 706/13/4 714/13/4
f 714/9/4 707/9/4 715/9/4
f 711/12/4 712/12/4 718/12/4
f 718/12/4 712/12/4 719/12/4
f 716/11/4 717/11/4 721/11/4
f 717/11/4 718/11/4 721/11/4
f 715/11/4 716/11/4 721/11/4
f 721/11/4 718/11/4 722/11/4
f 720/4/4 721/4/4 723/4/4
f 723/4/4 721/4/4 724/4/4
f 725/7/4 726/7/4 727/7/4
f 727/7/4 726/7/4 728/7/4
f 729/4/4 730/4/4 735/4/4
f 735/4/4 730/4/4 736/4/4
f 731/2/4 732/2/4 739/2/4
f 739/2/4 732/2/4 740/2/4
f 733/1/4 734/1/4 741/1/4
f 741/1/4 734/1/4 742/1/4
f 739/2/4 740/2/4 743/2/4
f 738/14/4 739/14/4 743/14/4
f 740/1/4 741/1/4 744/1/4
f 743/2/4 740/2/4 744/2/4
f 736/3/4 737/3/4 746/3/4
f 746/3/4 737/3/4 747/3/4
f 738/14/4 743/14/4 748/14/4
f 748/14/4 743/14/4 749/14/4
f 744/1/4 741/1/4 750/1/4
f 750/1/4 741/1/4 751/1/4
f 745/4/4 746/4/4 753/4/4
f 753/4/4 746/4/4 754/4/4
f 751/1/4 752/1/4 755/1/4
f 755/1/4 752/1/4 756/1/4
f 757/5/4 758/5/4 759/5/4
f 759/5/4 758/5/4 760/5/4
f 760/5/4 761/5/4 764/5/4
f 764/5/4 761/5/4 765/5/4
f 762/7/4 763/7/4 766/7/4
f 766/7/4 763/7/4 767/7/4
f 768/5/4 769/5/4 770/5/4
f 770/5/4 769/5/4 771/5/4
f 775/13/5 773/13/5 772/13/5
f 776/13/5 773/13/5 775/13/5
f 778/13/5 775/13/5 774/13/5
f 779/13/5 775/13/5 778/13/5
f 780/13/5 777/13/5 776/13/5
f 781/13/5 777/13/5 780/13/5
f 782/13/5 780/13/5 779/13/5
f 783/13/5 780/13/5 782/13/5
f 789/4/5 785/4/5 784/4/5
f 790/4/5 785/4/5 789/4/5
f 791/4/5 787/4/5 786/4/5
f 792/4/5 787/4/5 791/4/5
f 794/4/5 789/4/5 788/4/5
f 795/13/5 790/13/5 789/13/5
f 795/4/5 789/4/5 794/4/5
f 796/13/5 790/13/5 795/13/5
f 797/13/5 792/13/5 791/13/5
f 798/4/5 793/4/5 792/4/5
f 798/13/5 792/13/5 797/13/5
f 799/4/5 793/4/5 798/4/5
f 802/14/5 797/14/5 796/14/5
f 803/14/5 797/14/5 802/14/5
f 806/4/5 801/4/5 800/4/5
f 807/13/5 802/13/5 801/13/5
f 807/4/5 801/4/5 806/4/5
f 808/13/5 802/13/5 807/13/5
f 809/13/5 804/13/5 803/13/5
f 810/4/5 805/4/5 804/4/5
f 810/13/5 804/13/5 809/13/5
f 811/4/5 805/4/5 810/4/5
f 812/4/5 808/4/5 807/4/5
f 813/4/5 808/4/5 812/4/5
f 814/4/5 810/4/5 809/4/5
f 815/4/5 810/4/5 814/4/5
f 818/3/5 817/3/5 816/3/5
f 819/3/5 817/3/5 818/3/5
f 824/3/5 821/3/5 820/3/5
f 825/3/5 821/3/5 824/3/5
f 826/10/5 823/10/5 822/10/5
f 827/10/5 823/10/5 826/10/5
f 830/3/5 829/3/5 828/3/5
f 831/3/5 829/3/5 830/3/5
f 834/14/5 833/14/5 832/14/5
f 835/14/5 833/14/5 834/14/5
f 838/12/5 835/12/5 834/12/5
f 839/12/5 835/12/5 838/12/5
f 842/14/5 837/14/5 836/14/5
f 843/12/5 838/12/5 837/12/5
f 843/14/5 837/14/5 842/14/5
f 844/12/5 838/12/5 843/12/5
f 845/12/5 840/12/5 839/12/5
f 846/14/5 841/14/5 840/14/5
f 846/12/5 840/12/5 845/12/5
f 847/14/5 841/14/5 846/14/5
f 848/12/5 845/12/5 844/12/5
f 849/12/5 845/12/5 848/12/5
f 850/14/5 849/14/5 848/14/5
f 851/14/5 849/14/5 850/14/5
f 857/2/5 853/2/5 852/2/5
f 858/2/5 853/2/5 857/2/5
f 859/2/5 855/2/5 854/2/5
f 860/2/5 855/2/5 859/2/5
f 862/2/5 857/2/5 856/2/5
f 863/2/5 857/2/5 862/2/5
f 864/2/5 861/2/5 860/2/5
f 865/2/5 861/2/5 864/2/5
f 868/2/5 867/2/5 866/2/5
f 869/2/5 867/2/5 868/2/5
f 871/2/5 870/2/5 869/2/5
f 872/2/5 870/2/5 871/2/5
f 878/7/5 874/7/5 873/7/5
f 879/7/5 874/7/5 878/7/5
f 880/7/5 876/7/5 875/7/5
f 881/7/5 876/7/5 880/7/5
f 883/7/5 878/7/5 877/7/5
f 884/2/5 879/2/5 878/2/5
f 884/7/5 878/7/5 883/7/5
f 885/2/5 879/2/5 884/2/5
f 886/2/5 881/2/5 880/2/5
f 887/7/5 882/7/5 881/7/5
f 887/2/5 881/2/5 886/2/5
f 888/7/5 882/7/5 887/7/5
f 891/1/5 890/1/5 889/1/5
f 892/1/5 890/1/5 891/1/5
f 898/7/5 894/7/5 893/7/5
f 899/2/5 895/2/5 894/2/5
f 899/7/5 894/7/5 898/7/5
f 900/2/5 895/2/5 899/2/5
f 901/1/5 897/1/5 896/1/5
f 902/1/5 897/1/5 901/1/5
f 903/7/5 900/7/5 899/7/5
f 904/7/5 900/7/5 903/7/5
f 910/5/5 906/5/5 905/5/5
f 911/5/5 906/5/5 910/5/5
f 912/5/5 908/5/5 907/5/5
f 913/5/5 908/5/5 912/5/5
f 915/5/5 910/5/5 909/5/5
f 916/7/5 911/7/5 910/7/5
f 916/5/5 910/5/5 915/5/5
f 917/7/5 911/7/5 916/7/5
f 922/7/5 913/7/5 912/7/5
f 923/5/5 914/5/5 913/5/5
f 923/7/5 913/7/5 922/7/5
f 924/5/5 914/5/5 923/5/5
f 926/1/5 919/1/5 918/1/5
f 927/1/5 919/1/5 926/1/5
f 928/1/5 921/1/5 920/1/5
f 929/1/5 921/1/5 928/1/5
f 931/1/5 926/1/5 925/1/5
f 932/1/5 926/1/5 931/1/5
f 933/1/5 930/1/5 929/1/5
f 934/1/5 930/1/5 933/1/5
f 937/1/5 936/1/5 935/1/5
f 938/1/5 936/1/5 937/1/5
f 945/1/5 939/1/5 938/1/5
f 946/1/5 939/1/5 945/1/5
f 947/1/5 941/1/5 940/1/5
f 948/1/5 941/1/5 947/1/5
f 949/5/5 943/5/5 942/5/5
f 950/7/5 944/7/5 943/7/5
f 950/5/5 943/5/5 949/5/5
f 951/7/5 944/7/5 950/7/5
f 952/5/5 951/5/5 950/5/5
f 953/5/5 951/5/5 952/5/5
f 954/4/6 955/4/6 959/4/6
f 959/4/6 955/4/6 960/4/6
f 956/4/6 957/4/6 961/4/6
f 961/4/6 957/4/6 962/4/6
f 958/4/6 959/4/6 964/4/6
f 964/4/6 959/4/6 965/4/6
f 962/4/6 963/4/6 966/4/6
f 966/4/6 963/4/6 967/4/6
f 968/4/6 969/4/6 972/4/6
f 972/4/6 969/4/6 973/4/6
f 970/4/6 971/4/6 976/4/6
f 976/4/6 971/4/6 977/4/6
f 973/4/6 974/4/6 978/4/6
f 978/4/6 974/4/6 979/4/6
f 975/4/6 976/4/6 980/4/6
f 980/4/6 976/4/6 981/4/6
f 982/3/6 983/3/6 984/3/6
f 984/3/6 983/3/6 985/3/6
f 984/2/6 985/2/6 988/2/6
f 988/2/6 985/2/6 989/2/6
f 986/3/6 987/3/6 992/3/6
f 987/2/6 988/2/6 993/2/6
f 992/3/6 987/3/6 993/3/6
f 993/2/6 988/2/6 994/2/6
f 989/2/6 990/2/6 995/2/6
f 990/10/6 991/10/6 996/10/6
f 995/2/6 990/2/6 996/2/6
f 996/10/6 991/10/6 997/10/6
f 994/4/6 995/4/6 998/4/6
f 998/4/6 995/4/6 999/4/6
f 998/3/6 999/3/6 1000/3/6
f 1000/3/6 999/3/6 1001/3/6
f 1002/14/6 1003/14/6 1005/14/6
f 1005/14/6 1003/14/6 1006/14/6
f 1004/11/6 1005/11/6 1008/11/6
f 1008/11/6 1005/11/6 1009/11/6
f 1007/14/6 1008/14/6 1010/14/6
f 1010/14/6 1008/14/6 1011/14/6
f 1012/2/6 1013/2/6 1017/2/6
f 1017/2/6 1013/2/6 1018/2/6
f 1014/2/6 1015/2/6 1019/2/6
f 1019/2/6 1015/2/6 1020/2/6
f 1016/2/6 1017/2/6 1022/2/6
f 1022/2/6 1017/2/6 1023/2/6
f 1018/12/6 1019/12/6 1024/12/6
f 1024/12/6 1019/12/6 1025/12/6
f 1020/2/6 1021/2/6 1026/2/6
f 1026/2/6 1021/2/6 1027/2/6
f 1023/12/6 1024/12/6 1028/12/6
f 1028/12/6 1024/12/6 1029/12/6
f 1030/12/6 1031/12/6 1035/12/6
f 1035/12/6 1031/12/6 1036/12/6
f 1032/2/6 1033/2/6 1037/2/6
f 1033/12/6 1034/12/6 1038/12/6
f 1037/2/6 1033/2/6 1038/2/6
f 1038/12/6 1034/12/6 1039/12/6
f 1038/2/6 1039/2/6 1040/2/6
f 1040/2/6 1039/2/6 1041/2/6
f 1042/7/6 1043/7/6 1047/7/6
f 1047/7/6 1043/7/6 1048/7/6
f 1044/7/6 1045/7/6 1051/7/6
f 1051/7/6 1045/7/6 1052/7/6
f 1046/7/6 1047/7/6 1054/7/6
f 1047/2/6 1048/2/6 1055/2/6
f 1054/7/6 1047/7/6 1055/7/6
f 1055/2/6 1048/2/6 1056/2/6
f 1049/1/6 1050/1/6 1057/1/6
f 1057/1/6 1050/1/6 1058/1/6
f 1051/2/6 1052/2/6 1059/2/6
f 1052/7/6 1053/7/6 1060/7/6
f 1059/2/6 1052/2/6 1060/2/6
f 1060/7/6 1053/7/6 1061/7/6
f 1056/14/6 1057/14/6 1063/14/6
f 1063/14/6 1057/14/6 1064/14/6
f 1058/14/6 1059/14/6 1065/14/6
f 1065/14/6 1059/14/6 1066/14/6
f 1062/1/6 1063/1/6 1068/1/6
f 1064/8/6 1065/8/6 1069/8/6
f 1065/14/6 1066/14/6 1070/14/6
f 1069/8/6 1065/8/6 1070/8/6
f 1066/1/6 1067/1/6 1071/1/6
f 1070/14/6 1066/14/6 1071/14/6
f 1062/1/6 1068/1/6 1072/1/6
f 1068/14/6 1069/14/6 1073/14/6
f 1072/1/6 1068/1/6 1073/1/6
f 1069/8/6 1070/8/6 1074/8/6
f 1073/14/6 1069/14/6 1074/14/6
f 1074/8/6 1070/8/6 1075/8/6
f 1071/1/6 1067/1/6 1076/1/6
f 1076/1/6 1067/1/6 1077/1/6
f 1074/14/6 1075/14/6 1081/14/6
f 1081/14/6 1075/14/6 1082/14/6
f 1078/7/6 1079/7/6 1083/7/6
f 1079/2/6 1080/2/6 1084/2/6
f 1083/7/6 1079/7/6 1084/7/6
f 1084/2/6 1080/2/6 1085/2/6
f 1081/1/6 1082/1/6 1086/1/6
f 1086/1/6 1082/1/6 1087/1/6
f 1084/7/6 1085/7/6 1088/7/6
f 1088/7/6 1085/7/6 1089/7/6
f 1090/5/6 1091/5/6 1095/5/6
f 1095/5/6 1091/5/6 1096/5/6
f 1092/5/6 1093/5/6 1097/5/6
f 1097/5/6 1093/5/6 1098/5/6
f 1094/5/6 1095/5/6 1100/5/6
f 1095/7/6 1096/7/6 1101/7/6
f 1100/5/6 1095/5/6 1101/5/6
f 1101/7/6 1096/7/6 1102/7/6
f 1098/5/6 1099/5/6 1107/5/6
f 1107/5/6 1099/5/6 1108/5/6
f 1103/1/6 1104/1/6 1110/1/6
f 1110/1/6 1104/1/6 1111/1/6
f 1105/1/6 1106/1/6 1112/1/6
f 1112/1/6 1106/1/6 1113/1/6
f 1109/1/6 1110/1/6 1115/1/6
f 1115/1/6 1110/1/6 1116/1/6
f 1113/1/6 1114/1/6 1117/1/6
f 1117/1/6 1114/1/6 1118/1/6
f 1119/1/6 1120/1/6 1121/1/6
f 1121/1/6 1120/1/6 1122/1/6
f 1122/1/6 1123/1/6 1128/1/6
f 1128/1/6 1123/1/6 1129/1/6
f 1124/1/6 1125/1/6 1130/1/6
f 1130/1/6 1125/1/6 1131/1/6
f 1126/5/6 1127/5/6 1132/5/6
f 1132/5/6 1127/5/6 1133/5/6
f 1133/5/6 1134/5/6 1135/5/6
f 1135/5/6 1134/5/6 1136/5/6
f 1137/5/6 1138/5/6 1139/5/6
f 1139/5/6 1138/5/6 1140/5/6
f 1141/5/6 1142/5/6 1143/5/6
f 1143/5/6 1142/5/6 1144/5/6
