# MagicaVoxel @ Ephtracy

# group
o 

# material
mtllib NEW GAME-42.mtl
usemtl palette

# normals
vn -1 0 0
vn 1 0 0
vn 0 0 1
vn 0 0 -1
vn 0 -1 0
vn 0 1 0

# texcoords
vt 0.345703 0.5
vt 0.681641 0.5
vt 0.685547 0.5
vt 0.810547 0.5
vt 0.853516 0.5
vt 0.962891 0.5
vt 0.986328 0.5
vt 0.990234 0.5
vt 0.994141 0.5

# verts
v -0.5 0 0.4
v -0.5 0 0.3
v -0.5 0 0
v -0.5 0 -0.2
v -0.5 0 -0.5
v -0.5 0 -0.6
v -0.5 0.1 0.4
v -0.5 0.1 0.3
v -0.5 0.1 0
v -0.5 0.1 -0.2
v -0.5 0.1 -0.5
v -0.5 0.1 -0.6
v -0.5 0.2 0.3
v -0.5 0.2 0
v -0.5 0.2 -0.2
v -0.5 0.2 -0.5
v -0.5 0.7 0.1
v -0.5 0.7 -0.3
v -0.5 0.8 0.2
v -0.5 0.8 0.1
v -0.5 0.8 -0.3
v -0.5 0.8 -0.4
v -0.5 0.9 0.2
v -0.5 0.9 0.1
v -0.5 0.9 -0.3
v -0.5 0.9 -0.4
v -0.4 0 0.3
v -0.4 0 0.2
v -0.4 0 0
v -0.4 0 -0.2
v -0.4 0 -0.4
v -0.4 0 -0.5
v -0.4 0.1 0.4
v -0.4 0.1 0.3
v -0.4 0.1 0.2
v -0.4 0.1 0
v -0.4 0.1 -0.2
v -0.4 0.1 -0.4
v -0.4 0.1 -0.5
v -0.4 0.1 -0.6
v -0.4 0.2 0.4
v -0.4 0.2 0.3
v -0.4 0.2 0
v -0.4 0.2 -0.2
v -0.4 0.2 -0.5
v -0.4 0.2 -0.6
v -0.4 0.6 0.1
v -0.4 0.6 -0.3
v -0.4 0.7 0.2
v -0.4 0.7 0.1
v -0.4 0.7 -0.3
v -0.4 0.7 -0.4
v -0.4 0.8 0.3
v -0.4 0.8 0.2
v -0.4 0.8 0.1
v -0.4 0.8 -0.3
v -0.4 0.8 -0.4
v -0.4 0.8 -0.5
v -0.4 0.9 0.3
v -0.4 0.9 0.2
v -0.4 0.9 -0.4
v -0.4 0.9 -0.5
v -0.3 0.2 0.1
v -0.3 0.2 0
v -0.3 0.2 -0.2
v -0.3 0.2 -0.3
v -0.3 0.3 0.1
v -0.3 0.3 0
v -0.3 0.3 -0.2
v -0.3 0.3 -0.3
v -0.3 0.4 0
v -0.3 0.4 -0.2
v -0.3 0.5 0.1
v -0.3 0.5 0
v -0.3 0.5 -0.2
v -0.3 0.5 -0.3
v -0.3 0.6 0.2
v -0.3 0.6 0.1
v -0.3 0.6 0
v -0.3 0.6 -0.2
v -0.3 0.6 -0.3
v -0.3 0.6 -0.4
v -0.3 0.7 0.3
v -0.3 0.7 0.2
v -0.3 0.7 0.1
v -0.3 0.7 -0.3
v -0.3 0.7 -0.4
v -0.3 0.7 -0.5
v -0.3 0.8 0.4
v -0.3 0.8 0.3
v -0.3 0.8 0.2
v -0.3 0.8 -0.4
v -0.3 0.8 -0.5
v -0.3 0.8 -0.6
v -0.3 0.9 0.4
v -0.3 0.9 0.3
v -0.3 0.9 -0.5
v -0.3 0.9 -0.6
v -0.2 0.2 0.2
v -0.2 0.2 0.1
v -0.2 0.2 0
v -0.2 0.2 -0.2
v -0.2 0.2 -0.3
v -0.2 0.2 -0.4
v -0.2 0.3 0.2
v -0.2 0.3 0.1
v -0.2 0.3 0
v -0.2 0.3 -0.2
v -0.2 0.3 -0.3
v -0.2 0.3 -0.4
v -0.2 0.4 0
v -0.2 0.4 -0.2
v -0.2 0.5 0.2
v -0.2 0.5 0.1
v -0.2 0.5 0
v -0.2 0.5 -0.2
v -0.2 0.5 -0.3
v -0.2 0.5 -0.4
v -0.2 0.6 0.3
v -0.2 0.6 0.2
v -0.2 0.6 0.1
v -0.2 0.6 0
v -0.2 0.6 -0.2
v -0.2 0.6 -0.3
v -0.2 0.6 -0.4
v -0.2 0.6 -0.5
v -0.2 0.7 0.4
v -0.2 0.7 0.3
v -0.2 0.7 0.2
v -0.2 0.7 -0.4
v -0.2 0.7 -0.5
v -0.2 0.7 -0.6
v -0.2 0.8 0.4
v -0.2 0.8 0.3
v -0.2 0.8 -0.5
v -0.2 0.8 -0.6
v -0.1 0 0.4
v -0.1 0 0.3
v -0.1 0 -0.5
v -0.1 0 -0.6
v -0.1 0.1 0.4
v -0.1 0.1 0.3
v -0.1 0.1 -0.5
v -0.1 0.1 -0.6
v -0.1 0.4 0.2
v -0.1 0.4 0.1
v -0.1 0.4 -0.3
v -0.1 0.4 -0.4
v -0.1 0.5 0.2
v -0.1 0.5 0.1
v -0.1 0.5 -0.3
v -0.1 0.5 -0.4
v -0.1 0.7 0.2
v -0.1 0.7 0.1
v -0.1 0.7 -0.3
v -0.1 0.7 -0.4
v -0.1 0.8 0.2
v -0.1 0.8 0.1
v -0.1 0.8 -0.3
v -0.1 0.8 -0.4
v 0.1 0.1 0.4
v 0.1 0.1 0.3
v 0.1 0.1 -0.5
v 0.1 0.1 -0.6
v 0.1 0.2 0.4
v 0.1 0.2 0.3
v 0.1 0.2 0.2
v 0.1 0.2 0.1
v 0.1 0.2 -0.3
v 0.1 0.2 -0.4
v 0.1 0.2 -0.5
v 0.1 0.2 -0.6
v 0.1 0.3 0.2
v 0.1 0.3 0.1
v 0.1 0.3 -0.3
v 0.1 0.3 -0.4
v 0.1 0.5 0.2
v 0.1 0.5 0.1
v 0.1 0.5 -0.3
v 0.1 0.5 -0.4
v 0.1 0.6 0.2
v 0.1 0.6 0.1
v 0.1 0.6 -0.3
v 0.1 0.6 -0.4
v 0.2 0.7 0.2
v 0.2 0.7 0.1
v 0.2 0.7 0
v 0.2 0.7 -0.2
v 0.2 0.7 -0.3
v 0.2 0.7 -0.4
v 0.2 0.8 0.4
v 0.2 0.8 0.3
v 0.2 0.8 0.2
v 0.2 0.8 0.1
v 0.2 0.8 0
v 0.2 0.8 -0.2
v 0.2 0.8 -0.3
v 0.2 0.8 -0.4
v 0.2 0.8 -0.5
v 0.2 0.8 -0.6
v 0.2 0.9 0.4
v 0.2 0.9 0.3
v 0.2 0.9 -0.5
v 0.2 0.9 -0.6
v 0.3 0.7 0.1
v 0.3 0.7 0
v 0.3 0.7 -0.2
v 0.3 0.7 -0.3
v 0.3 0.8 0.3
v 0.3 0.8 0.2
v 0.3 0.8 0.1
v 0.3 0.8 0
v 0.3 0.8 -0.2
v 0.3 0.8 -0.3
v 0.3 0.8 -0.4
v 0.3 0.8 -0.5
v 0.3 0.9 0.3
v 0.3 0.9 0.2
v 0.3 0.9 -0.4
v 0.3 0.9 -0.5
v 0.4 0 0.4
v 0.4 0 0.3
v 0.4 0 -0.5
v 0.4 0 -0.6
v 0.4 0.1 0.4
v 0.4 0.1 0.3
v 0.4 0.1 -0.5
v 0.4 0.1 -0.6
v 0.4 0.8 0.2
v 0.4 0.8 0.1
v 0.4 0.8 -0.3
v 0.4 0.8 -0.4
v 0.4 0.9 0.2
v 0.4 0.9 0.1
v 0.4 0.9 -0.3
v 0.4 0.9 -0.4
v -0.4 0 0.4
v -0.4 0 0.3
v -0.4 0 -0.5
v -0.4 0 -0.6
v -0.4 0.1 0.4
v -0.4 0.1 0.3
v -0.4 0.1 -0.5
v -0.4 0.1 -0.6
v -0.4 0.8 0.2
v -0.4 0.8 0.1
v -0.4 0.8 -0.3
v -0.4 0.8 -0.4
v -0.4 0.9 0.2
v -0.4 0.9 0.1
v -0.4 0.9 -0.3
v -0.4 0.9 -0.4
v -0.3 0.7 0.1
v -0.3 0.7 0
v -0.3 0.7 -0.2
v -0.3 0.7 -0.3
v -0.3 0.8 0.3
v -0.3 0.8 0.2
v -0.3 0.8 0.1
v -0.3 0.8 0
v -0.3 0.8 -0.2
v -0.3 0.8 -0.3
v -0.3 0.8 -0.4
v -0.3 0.8 -0.5
v -0.3 0.9 0.3
v -0.3 0.9 0.2
v -0.3 0.9 -0.4
v -0.3 0.9 -0.5
v -0.2 0.7 0.2
v -0.2 0.7 0.1
v -0.2 0.7 0
v -0.2 0.7 -0.2
v -0.2 0.7 -0.3
v -0.2 0.7 -0.4
v -0.2 0.8 0.4
v -0.2 0.8 0.3
v -0.2 0.8 0.2
v -0.2 0.8 0.1
v -0.2 0.8 0
v -0.2 0.8 -0.2
v -0.2 0.8 -0.3
v -0.2 0.8 -0.4
v -0.2 0.8 -0.5
v -0.2 0.8 -0.6
v -0.2 0.9 0.4
v -0.2 0.9 0.3
v -0.2 0.9 -0.5
v -0.2 0.9 -0.6
v -0.1 0.1 0.4
v -0.1 0.1 0.3
v -0.1 0.1 -0.5
v -0.1 0.1 -0.6
v -0.1 0.2 0.4
v -0.1 0.2 0.3
v -0.1 0.2 0.2
v -0.1 0.2 0.1
v -0.1 0.2 -0.3
v -0.1 0.2 -0.4
v -0.1 0.2 -0.5
v -0.1 0.2 -0.6
v -0.1 0.3 0.2
v -0.1 0.3 0.1
v -0.1 0.3 -0.3
v -0.1 0.3 -0.4
v -0.1 0.5 0.2
v -0.1 0.5 0.1
v -0.1 0.5 -0.3
v -0.1 0.5 -0.4
v -0.1 0.6 0.2
v -0.1 0.6 0.1
v -0.1 0.6 -0.3
v -0.1 0.6 -0.4
v 0.1 0 0.4
v 0.1 0 0.3
v 0.1 0 -0.5
v 0.1 0 -0.6
v 0.1 0.1 0.4
v 0.1 0.1 0.3
v 0.1 0.1 -0.5
v 0.1 0.1 -0.6
v 0.1 0.4 0.2
v 0.1 0.4 0.1
v 0.1 0.4 -0.3
v 0.1 0.4 -0.4
v 0.1 0.5 0.2
v 0.1 0.5 0.1
v 0.1 0.5 -0.3
v 0.1 0.5 -0.4
v 0.1 0.7 0.2
v 0.1 0.7 0.1
v 0.1 0.7 -0.3
v 0.1 0.7 -0.4
v 0.1 0.8 0.2
v 0.1 0.8 0.1
v 0.1 0.8 -0.3
v 0.1 0.8 -0.4
v 0.2 0.2 0.2
v 0.2 0.2 0.1
v 0.2 0.2 0
v 0.2 0.2 -0.2
v 0.2 0.2 -0.3
v 0.2 0.2 -0.4
v 0.2 0.3 0.2
v 0.2 0.3 0.1
v 0.2 0.3 0
v 0.2 0.3 -0.2
v 0.2 0.3 -0.3
v 0.2 0.3 -0.4
v 0.2 0.4 0
v 0.2 0.4 -0.2
v 0.2 0.5 0.2
v 0.2 0.5 0.1
v 0.2 0.5 0
v 0.2 0.5 -0.2
v 0.2 0.5 -0.3
v 0.2 0.5 -0.4
v 0.2 0.6 0.3
v 0.2 0.6 0.2
v 0.2 0.6 0.1
v 0.2 0.6 0
v 0.2 0.6 -0.2
v 0.2 0.6 -0.3
v 0.2 0.6 -0.4
v 0.2 0.6 -0.5
v 0.2 0.7 0.4
v 0.2 0.7 0.3
v 0.2 0.7 0.2
v 0.2 0.7 -0.4
v 0.2 0.7 -0.5
v 0.2 0.7 -0.6
v 0.2 0.8 0.4
v 0.2 0.8 0.3
v 0.2 0.8 -0.5
v 0.2 0.8 -0.6
v 0.3 0.2 0.1
v 0.3 0.2 0
v 0.3 0.2 -0.2
v 0.3 0.2 -0.3
v 0.3 0.3 0.1
v 0.3 0.3 0
v 0.3 0.3 -0.2
v 0.3 0.3 -0.3
v 0.3 0.4 0
v 0.3 0.4 -0.2
v 0.3 0.5 0.1
v 0.3 0.5 0
v 0.3 0.5 -0.2
v 0.3 0.5 -0.3
v 0.3 0.6 0.2
v 0.3 0.6 0.1
v 0.3 0.6 0
v 0.3 0.6 -0.2
v 0.3 0.6 -0.3
v 0.3 0.6 -0.4
v 0.3 0.7 0.3
v 0.3 0.7 0.2
v 0.3 0.7 0.1
v 0.3 0.7 -0.3
v 0.3 0.7 -0.4
v 0.3 0.7 -0.5
v 0.3 0.8 0.4
v 0.3 0.8 0.3
v 0.3 0.8 0.2
v 0.3 0.8 -0.4
v 0.3 0.8 -0.5
v 0.3 0.8 -0.6
v 0.3 0.9 0.4
v 0.3 0.9 0.3
v 0.3 0.9 -0.5
v 0.3 0.9 -0.6
v 0.4 0 0.3
v 0.4 0 0.2
v 0.4 0 0
v 0.4 0 -0.2
v 0.4 0 -0.4
v 0.4 0 -0.5
v 0.4 0.1 0.4
v 0.4 0.1 0.3
v 0.4 0.1 0.2
v 0.4 0.1 0
v 0.4 0.1 -0.2
v 0.4 0.1 -0.4
v 0.4 0.1 -0.5
v 0.4 0.1 -0.6
v 0.4 0.2 0.4
v 0.4 0.2 0.3
v 0.4 0.2 0
v 0.4 0.2 -0.2
v 0.4 0.2 -0.5
v 0.4 0.2 -0.6
v 0.4 0.6 0.1
v 0.4 0.6 -0.3
v 0.4 0.7 0.2
v 0.4 0.7 0.1
v 0.4 0.7 -0.3
v 0.4 0.7 -0.4
v 0.4 0.8 0.3
v 0.4 0.8 0.2
v 0.4 0.8 0.1
v 0.4 0.8 -0.3
v 0.4 0.8 -0.4
v 0.4 0.8 -0.5
v 0.4 0.9 0.3
v 0.4 0.9 0.2
v 0.4 0.9 -0.4
v 0.4 0.9 -0.5
v 0.5 0 0.4
v 0.5 0 0.3
v 0.5 0 0
v 0.5 0 -0.2
v 0.5 0 -0.5
v 0.5 0 -0.6
v 0.5 0.1 0.4
v 0.5 0.1 0.3
v 0.5 0.1 0
v 0.5 0.1 -0.2
v 0.5 0.1 -0.5
v 0.5 0.1 -0.6
v 0.5 0.2 0.3
v 0.5 0.2 0
v 0.5 0.2 -0.2
v 0.5 0.2 -0.5
v 0.5 0.7 0.1
v 0.5 0.7 -0.3
v 0.5 0.8 0.2
v 0.5 0.8 0.1
v 0.5 0.8 -0.3
v 0.5 0.8 -0.4
v 0.5 0.9 0.2
v 0.5 0.9 0.1
v 0.5 0.9 -0.3
v 0.5 0.9 -0.4
v -0.5 0 0.4
v -0.5 0.1 0.4
v -0.4 0 0.4
v -0.4 0.1 0.4
v -0.4 0.2 0.4
v -0.3 0.8 0.4
v -0.3 0.9 0.4
v -0.2 0.7 0.4
v -0.2 0.8 0.4
v -0.2 0.9 0.4
v -0.1 0 0.4
v -0.1 0.1 0.4
v -0.1 0.2 0.4
v 0.1 0 0.4
v 0.1 0.1 0.4
v 0.1 0.2 0.4
v 0.2 0.7 0.4
v 0.2 0.8 0.4
v 0.2 0.9 0.4
v 0.3 0.8 0.4
v 0.3 0.9 0.4
v 0.4 0 0.4
v 0.4 0.1 0.4
v 0.4 0.2 0.4
v 0.5 0 0.4
v 0.5 0.1 0.4
v -0.5 0.1 0.3
v -0.5 0.2 0.3
v -0.4 0 0.3
v -0.4 0.1 0.3
v -0.4 0.2 0.3
v -0.4 0.8 0.3
v -0.4 0.9 0.3
v -0.3 0 0.3
v -0.3 0.1 0.3
v -0.3 0.7 0.3
v -0.3 0.8 0.3
v -0.3 0.9 0.3
v -0.2 0.6 0.3
v -0.2 0.7 0.3
v -0.2 0.8 0.3
v -0.1 0 0.3
v -0.1 0.1 0.3
v -0.1 0.2 0.3
v 0.1 0 0.3
v 0.1 0.1 0.3
v 0.1 0.2 0.3
v 0.2 0.6 0.3
v 0.2 0.7 0.3
v 0.2 0.8 0.3
v 0.3 0 0.3
v 0.3 0.1 0.3
v 0.3 0.7 0.3
v 0.3 0.8 0.3
v 0.3 0.9 0.3
v 0.4 0 0.3
v 0.4 0.1 0.3
v 0.4 0.2 0.3
v 0.4 0.8 0.3
v 0.4 0.9 0.3
v 0.5 0.1 0.3
v 0.5 0.2 0.3
v -0.5 0.8 0.2
v -0.5 0.9 0.2
v -0.4 0.7 0.2
v -0.4 0.8 0.2
v -0.4 0.9 0.2
v -0.3 0.6 0.2
v -0.3 0.7 0.2
v -0.3 0.8 0.2
v -0.2 0.2 0.2
v -0.2 0.3 0.2
v -0.2 0.5 0.2
v -0.2 0.6 0.2
v -0.2 0.7 0.2
v -0.1 0.2 0.2
v -0.1 0.3 0.2
v -0.1 0.4 0.2
v -0.1 0.5 0.2
v -0.1 0.6 0.2
v 0.1 0.2 0.2
v 0.1 0.3 0.2
v 0.1 0.4 0.2
v 0.1 0.5 0.2
v 0.1 0.6 0.2
v 0.2 0.2 0.2
v 0.2 0.3 0.2
v 0.2 0.5 0.2
v 0.2 0.6 0.2
v 0.2 0.7 0.2
v 0.3 0.6 0.2
v 0.3 0.7 0.2
v 0.3 0.8 0.2
v 0.4 0.7 0.2
v 0.4 0.8 0.2
v 0.4 0.9 0.2
v 0.5 0.8 0.2
v 0.5 0.9 0.2
v -0.5 0.7 0.1
v -0.5 0.8 0.1
v -0.4 0.6 0.1
v -0.4 0.7 0.1
v -0.4 0.8 0.1
v -0.3 0.2 0.1
v -0.3 0.3 0.1
v -0.3 0.5 0.1
v -0.3 0.6 0.1
v -0.3 0.7 0.1
v -0.2 0.2 0.1
v -0.2 0.3 0.1
v -0.2 0.5 0.1
v -0.2 0.6 0.1
v -0.1 0.2 0.1
v -0.1 0.3 0.1
v -0.1 0.4 0.1
v -0.1 0.5 0.1
v -0.1 0.6 0.1
v 0.1 0.2 0.1
v 0.1 0.3 0.1
v 0.1 0.4 0.1
v 0.1 0.5 0.1
v 0.1 0.6 0.1
v 0.2 0.2 0.1
v 0.2 0.3 0.1
v 0.2 0.5 0.1
v 0.2 0.6 0.1
v 0.3 0.2 0.1
v 0.3 0.3 0.1
v 0.3 0.5 0.1
v 0.3 0.6 0.1
v 0.3 0.7 0.1
v 0.4 0.6 0.1
v 0.4 0.7 0.1
v 0.4 0.8 0.1
v 0.5 0.7 0.1
v 0.5 0.8 0.1
v -0.5 0 0
v -0.5 0.1 0
v -0.4 0 0
v -0.4 0.1 0
v -0.3 0.4 0
v -0.3 0.5 0
v -0.3 0.7 0
v -0.3 0.8 0
v -0.2 0.4 0
v -0.2 0.5 0
v -0.2 0.7 0
v -0.2 0.8 0
v 0.2 0.4 0
v 0.2 0.5 0
v 0.2 0.7 0
v 0.2 0.8 0
v 0.3 0.4 0
v 0.3 0.5 0
v 0.3 0.7 0
v 0.3 0.8 0
v 0.4 0 0
v 0.4 0.1 0
v 0.5 0 0
v 0.5 0.1 0
v -0.5 0.1 -0.2
v -0.5 0.2 -0.2
v -0.4 0.1 -0.2
v -0.4 0.2 -0.2
v -0.3 0.2 -0.2
v -0.3 0.3 -0.2
v -0.3 0.5 -0.2
v -0.3 0.6 -0.2
v -0.2 0.2 -0.2
v -0.2 0.3 -0.2
v -0.2 0.5 -0.2
v -0.2 0.6 -0.2
v 0.2 0.2 -0.2
v 0.2 0.3 -0.2
v 0.2 0.5 -0.2
v 0.2 0.6 -0.2
v 0.3 0.2 -0.2
v 0.3 0.3 -0.2
v 0.3 0.5 -0.2
v 0.3 0.6 -0.2
v 0.4 0.1 -0.2
v 0.4 0.2 -0.2
v 0.5 0.1 -0.2
v 0.5 0.2 -0.2
v -0.5 0.8 -0.3
v -0.5 0.9 -0.3
v -0.4 0.8 -0.3
v -0.4 0.9 -0.3
v -0.3 0.7 -0.3
v -0.3 0.8 -0.3
v -0.2 0.7 -0.3
v -0.2 0.8 -0.3
v -0.1 0.7 -0.3
v -0.1 0.8 -0.3
v 0.1 0.7 -0.3
v 0.1 0.8 -0.3
v 0.2 0.7 -0.3
v 0.2 0.8 -0.3
v 0.3 0.7 -0.3
v 0.3 0.8 -0.3
v 0.4 0.8 -0.3
v 0.4 0.9 -0.3
v 0.5 0.8 -0.3
v 0.5 0.9 -0.3
v -0.4 0.8 -0.4
v -0.4 0.9 -0.4
v -0.3 0.8 -0.4
v -0.3 0.9 -0.4
v -0.2 0.7 -0.4
v -0.2 0.8 -0.4
v -0.1 0.7 -0.4
v -0.1 0.8 -0.4
v 0.1 0.7 -0.4
v 0.1 0.8 -0.4
v 0.2 0.7 -0.4
v 0.2 0.8 -0.4
v 0.3 0.8 -0.4
v 0.3 0.9 -0.4
v 0.4 0.8 -0.4
v 0.4 0.9 -0.4
v -0.5 0 -0.5
v -0.5 0.1 -0.5
v -0.4 0 -0.5
v -0.4 0.1 -0.5
v -0.3 0.8 -0.5
v -0.3 0.9 -0.5
v -0.2 0.8 -0.5
v -0.2 0.9 -0.5
v 0.2 0.8 -0.5
v 0.2 0.9 -0.5
v 0.3 0.8 -0.5
v 0.3 0.9 -0.5
v 0.4 0 -0.5
v 0.4 0.1 -0.5
v 0.5 0 -0.5
v 0.5 0.1 -0.5
v -0.5 0 0.3
v -0.5 0.1 0.3
v -0.4 0 0.3
v -0.4 0.1 0.3
v -0.3 0.8 0.3
v -0.3 0.9 0.3
v -0.2 0.8 0.3
v -0.2 0.9 0.3
v 0.2 0.8 0.3
v 0.2 0.9 0.3
v 0.3 0.8 0.3
v 0.3 0.9 0.3
v 0.4 0 0.3
v 0.4 0.1 0.3
v 0.5 0 0.3
v 0.5 0.1 0.3
v -0.4 0.8 0.2
v -0.4 0.9 0.2
v -0.3 0.8 0.2
v -0.3 0.9 0.2
v -0.2 0.7 0.2
v -0.2 0.8 0.2
v -0.1 0.7 0.2
v -0.1 0.8 0.2
v 0.1 0.7 0.2
v 0.1 0.8 0.2
v 0.2 0.7 0.2
v 0.2 0.8 0.2
v 0.3 0.8 0.2
v 0.3 0.9 0.2
v 0.4 0.8 0.2
v 0.4 0.9 0.2
v -0.5 0.8 0.1
v -0.5 0.9 0.1
v -0.4 0.8 0.1
v -0.4 0.9 0.1
v -0.3 0.7 0.1
v -0.3 0.8 0.1
v -0.2 0.7 0.1
v -0.2 0.8 0.1
v -0.1 0.7 0.1
v -0.1 0.8 0.1
v 0.1 0.7 0.1
v 0.1 0.8 0.1
v 0.2 0.7 0.1
v 0.2 0.8 0.1
v 0.3 0.7 0.1
v 0.3 0.8 0.1
v 0.4 0.8 0.1
v 0.4 0.9 0.1
v 0.5 0.8 0.1
v 0.5 0.9 0.1
v -0.5 0.1 0
v -0.5 0.2 0
v -0.4 0.1 0
v -0.4 0.2 0
v -0.3 0.2 0
v -0.3 0.3 0
v -0.3 0.5 0
v -0.3 0.6 0
v -0.2 0.2 0
v -0.2 0.3 0
v -0.2 0.5 0
v -0.2 0.6 0
v 0.2 0.2 0
v 0.2 0.3 0
v 0.2 0.5 0
v 0.2 0.6 0
v 0.3 0.2 0
v 0.3 0.3 0
v 0.3 0.5 0
v 0.3 0.6 0
v 0.4 0.1 0
v 0.4 0.2 0
v 0.5 0.1 0
v 0.5 0.2 0
v -0.5 0 -0.2
v -0.5 0.1 -0.2
v -0.4 0 -0.2
v -0.4 0.1 -0.2
v -0.3 0.4 -0.2
v -0.3 0.5 -0.2
v -0.3 0.7 -0.2
v -0.3 0.8 -0.2
v -0.2 0.4 -0.2
v -0.2 0.5 -0.2
v -0.2 0.7 -0.2
v -0.2 0.8 -0.2
v 0.2 0.4 -0.2
v 0.2 0.5 -0.2
v 0.2 0.7 -0.2
v 0.2 0.8 -0.2
v 0.3 0.4 -0.2
v 0.3 0.5 -0.2
v 0.3 0.7 -0.2
v 0.3 0.8 -0.2
v 0.4 0 -0.2
v 0.4 0.1 -0.2
v 0.5 0 -0.2
v 0.5 0.1 -0.2
v -0.5 0.7 -0.3
v -0.5 0.8 -0.3
v -0.4 0.6 -0.3
v -0.4 0.7 -0.3
v -0.4 0.8 -0.3
v -0.3 0.2 -0.3
v -0.3 0.3 -0.3
v -0.3 0.5 -0.3
v -0.3 0.6 -0.3
v -0.3 0.7 -0.3
v -0.2 0.2 -0.3
v -0.2 0.3 -0.3
v -0.2 0.5 -0.3
v -0.2 0.6 -0.3
v -0.1 0.2 -0.3
v -0.1 0.3 -0.3
v -0.1 0.4 -0.3
v -0.1 0.5 -0.3
v -0.1 0.6 -0.3
v 0.1 0.2 -0.3
v 0.1 0.3 -0.3
v 0.1 0.4 -0.3
v 0.1 0.5 -0.3
v 0.1 0.6 -0.3
v 0.2 0.2 -0.3
v 0.2 0.3 -0.3
v 0.2 0.5 -0.3
v 0.2 0.6 -0.3
v 0.3 0.2 -0.3
v 0.3 0.3 -0.3
v 0.3 0.5 -0.3
v 0.3 0.6 -0.3
v 0.3 0.7 -0.3
v 0.4 0.6 -0.3
v 0.4 0.7 -0.3
v 0.4 0.8 -0.3
v 0.5 0.7 -0.3
v 0.5 0.8 -0.3
v -0.5 0.8 -0.4
v -0.5 0.9 -0.4
v -0.4 0.7 -0.4
v -0.4 0.8 -0.4
v -0.4 0.9 -0.4
v -0.3 0.6 -0.4
v -0.3 0.7 -0.4
v -0.3 0.8 -0.4
v -0.2 0.2 -0.4
v -0.2 0.3 -0.4
v -0.2 0.5 -0.4
v -0.2 0.6 -0.4
v -0.2 0.7 -0.4
v -0.1 0.2 -0.4
v -0.1 0.3 -0.4
v -0.1 0.4 -0.4
v -0.1 0.5 -0.4
v -0.1 0.6 -0.4
v 0.1 0.2 -0.4
v 0.1 0.3 -0.4
v 0.1 0.4 -0.4
v 0.1 0.5 -0.4
v 0.1 0.6 -0.4
v 0.2 0.2 -0.4
v 0.2 0.3 -0.4
v 0.2 0.5 -0.4
v 0.2 0.6 -0.4
v 0.2 0.7 -0.4
v 0.3 0.6 -0.4
v 0.3 0.7 -0.4
v 0.3 0.8 -0.4
v 0.4 0.7 -0.4
v 0.4 0.8 -0.4
v 0.4 0.9 -0.4
v 0.5 0.8 -0.4
v 0.5 0.9 -0.4
v -0.5 0.1 -0.5
v -0.5 0.2 -0.5
v -0.4 0 -0.5
v -0.4 0.1 -0.5
v -0.4 0.2 -0.5
v -0.4 0.8 -0.5
v -0.4 0.9 -0.5
v -0.3 0 -0.5
v -0.3 0.1 -0.5
v -0.3 0.7 -0.5
v -0.3 0.8 -0.5
v -0.3 0.9 -0.5
v -0.2 0.6 -0.5
v -0.2 0.7 -0.5
v -0.2 0.8 -0.5
v -0.1 0 -0.5
v -0.1 0.1 -0.5
v -0.1 0.2 -0.5
v 0.1 0 -0.5
v 0.1 0.1 -0.5
v 0.1 0.2 -0.5
v 0.2 0.6 -0.5
v 0.2 0.7 -0.5
v 0.2 0.8 -0.5
v 0.3 0 -0.5
v 0.3 0.1 -0.5
v 0.3 0.7 -0.5
v 0.3 0.8 -0.5
v 0.3 0.9 -0.5
v 0.4 0 -0.5
v 0.4 0.1 -0.5
v 0.4 0.2 -0.5
v 0.4 0.8 -0.5
v 0.4 0.9 -0.5
v 0.5 0.1 -0.5
v 0.5 0.2 -0.5
v -0.5 0 -0.6
v -0.5 0.1 -0.6
v -0.4 0 -0.6
v -0.4 0.1 -0.6
v -0.4 0.2 -0.6
v -0.3 0.8 -0.6
v -0.3 0.9 -0.6
v -0.2 0.7 -0.6
v -0.2 0.8 -0.6
v -0.2 0.9 -0.6
v -0.1 0 -0.6
v -0.1 0.1 -0.6
v -0.1 0.2 -0.6
v 0.1 0 -0.6
v 0.1 0.1 -0.6
v 0.1 0.2 -0.6
v 0.2 0.7 -0.6
v 0.2 0.8 -0.6
v 0.2 0.9 -0.6
v 0.3 0.8 -0.6
v 0.3 0.9 -0.6
v 0.4 0 -0.6
v 0.4 0.1 -0.6
v 0.4 0.2 -0.6
v 0.5 0 -0.6
v 0.5 0.1 -0.6
v -0.5 0 0.4
v -0.4 0 0.4
v -0.1 0 0.4
v 0.1 0 0.4
v 0.4 0 0.4
v 0.5 0 0.4
v -0.5 0 0.3
v -0.4 0 0.3
v -0.3 0 0.3
v -0.1 0 0.3
v 0.1 0 0.3
v 0.3 0 0.3
v 0.4 0 0.3
v 0.5 0 0.3
v -0.4 0 0.2
v -0.3 0 0.2
v -0.1 0 0.2
v 0.1 0 0.2
v 0.3 0 0.2
v 0.4 0 0.2
v -0.5 0 0
v -0.4 0 0
v -0.3 0 0
v 0.3 0 0
v 0.4 0 0
v 0.5 0 0
v -0.5 0 -0.2
v -0.4 0 -0.2
v -0.3 0 -0.2
v 0.3 0 -0.2
v 0.4 0 -0.2
v 0.5 0 -0.2
v -0.4 0 -0.4
v -0.3 0 -0.4
v -0.1 0 -0.4
v 0.1 0 -0.4
v 0.3 0 -0.4
v 0.4 0 -0.4
v -0.5 0 -0.5
v -0.4 0 -0.5
v -0.3 0 -0.5
v -0.1 0 -0.5
v 0.1 0 -0.5
v 0.3 0 -0.5
v 0.4 0 -0.5
v 0.5 0 -0.5
v -0.5 0 -0.6
v -0.4 0 -0.6
v -0.1 0 -0.6
v 0.1 0 -0.6
v 0.4 0 -0.6
v 0.5 0 -0.6
v -0.4 0.1 0.4
v -0.1 0.1 0.4
v 0.1 0.1 0.4
v 0.4 0.1 0.4
v -0.5 0.1 0.3
v -0.4 0.1 0.3
v -0.3 0.1 0.3
v -0.1 0.1 0.3
v 0.1 0.1 0.3
v 0.3 0.1 0.3
v 0.4 0.1 0.3
v 0.5 0.1 0.3
v -0.4 0.1 0.2
v 0.4 0.1 0.2
v -0.5 0.1 0
v -0.4 0.1 0
v 0.4 0.1 0
v 0.5 0.1 0
v -0.5 0.1 -0.2
v -0.4 0.1 -0.2
v 0.4 0.1 -0.2
v 0.5 0.1 -0.2
v -0.4 0.1 -0.4
v 0.4 0.1 -0.4
v -0.5 0.1 -0.5
v -0.4 0.1 -0.5
v -0.3 0.1 -0.5
v -0.1 0.1 -0.5
v 0.1 0.1 -0.5
v 0.3 0.1 -0.5
v 0.4 0.1 -0.5
v 0.5 0.1 -0.5
v -0.4 0.1 -0.6
v -0.1 0.1 -0.6
v 0.1 0.1 -0.6
v 0.4 0.1 -0.6
v -0.1 0.4 0.2
v 0.1 0.4 0.2
v -0.1 0.4 0.1
v 0.1 0.4 0.1
v -0.3 0.4 0
v -0.2 0.4 0
v 0.2 0.4 0
v 0.3 0.4 0
v -0.3 0.4 -0.2
v -0.2 0.4 -0.2
v 0.2 0.4 -0.2
v 0.3 0.4 -0.2
v -0.1 0.4 -0.3
v 0.1 0.4 -0.3
v -0.1 0.4 -0.4
v 0.1 0.4 -0.4
v -0.2 0.5 0.2
v -0.1 0.5 0.2
v 0.1 0.5 0.2
v 0.2 0.5 0.2
v -0.3 0.5 0.1
v -0.2 0.5 0.1
v -0.1 0.5 0.1
v 0.1 0.5 0.1
v 0.2 0.5 0.1
v 0.3 0.5 0.1
v -0.3 0.5 0
v -0.2 0.5 0
v 0.2 0.5 0
v 0.3 0.5 0
v -0.3 0.5 -0.2
v -0.2 0.5 -0.2
v 0.2 0.5 -0.2
v 0.3 0.5 -0.2
v -0.3 0.5 -0.3
v -0.2 0.5 -0.3
v -0.1 0.5 -0.3
v 0.1 0.5 -0.3
v 0.2 0.5 -0.3
v 0.3 0.5 -0.3
v -0.2 0.5 -0.4
v -0.1 0.5 -0.4
v 0.1 0.5 -0.4
v 0.2 0.5 -0.4
v -0.2 0.6 0.3
v 0.2 0.6 0.3
v -0.3 0.6 0.2
v -0.2 0.6 0.2
v -0.1 0.6 0.2
v 0.1 0.6 0.2
v 0.2 0.6 0.2
v 0.3 0.6 0.2
v -0.4 0.6 0.1
v -0.3 0.6 0.1
v -0.2 0.6 0.1
v -0.1 0.6 0.1
v 0.1 0.6 0.1
v 0.2 0.6 0.1
v 0.3 0.6 0.1
v 0.4 0.6 0.1
v -0.3 0.6 0
v -0.2 0.6 0
v 0.2 0.6 0
v 0.3 0.6 0
v -0.3 0.6 -0.2
v -0.2 0.6 -0.2
v 0.2 0.6 -0.2
v 0.3 0.6 -0.2
v -0.4 0.6 -0.3
v -0.3 0.6 -0.3
v -0.2 0.6 -0.3
v -0.1 0.6 -0.3
v 0.1 0.6 -0.3
v 0.2 0.6 -0.3
v 0.3 0.6 -0.3
v 0.4 0.6 -0.3
v -0.3 0.6 -0.4
v -0.2 0.6 -0.4
v -0.1 0.6 -0.4
v 0.1 0.6 -0.4
v 0.2 0.6 -0.4
v 0.3 0.6 -0.4
v -0.2 0.6 -0.5
v 0.2 0.6 -0.5
v -0.2 0.7 0.4
v 0.2 0.7 0.4
v -0.3 0.7 0.3
v -0.2 0.7 0.3
v 0.2 0.7 0.3
v 0.3 0.7 0.3
v -0.4 0.7 0.2
v -0.3 0.7 0.2
v -0.2 0.7 0.2
v 0.2 0.7 0.2
v 0.3 0.7 0.2
v 0.4 0.7 0.2
v -0.5 0.7 0.1
v -0.4 0.7 0.1
v -0.3 0.7 0.1
v 0.3 0.7 0.1
v 0.4 0.7 0.1
v 0.5 0.7 0.1
v -0.5 0.7 -0.3
v -0.4 0.7 -0.3
v -0.3 0.7 -0.3
v 0.3 0.7 -0.3
v 0.4 0.7 -0.3
v 0.5 0.7 -0.3
v -0.4 0.7 -0.4
v -0.3 0.7 -0.4
v -0.2 0.7 -0.4
v 0.2 0.7 -0.4
v 0.3 0.7 -0.4
v 0.4 0.7 -0.4
v -0.3 0.7 -0.5
v -0.2 0.7 -0.5
v 0.2 0.7 -0.5
v 0.3 0.7 -0.5
v -0.2 0.7 -0.6
v 0.2 0.7 -0.6
v -0.3 0.8 0.4
v -0.2 0.8 0.4
v 0.2 0.8 0.4
v 0.3 0.8 0.4
v -0.4 0.8 0.3
v -0.3 0.8 0.3
v -0.2 0.8 0.3
v 0.2 0.8 0.3
v 0.3 0.8 0.3
v 0.4 0.8 0.3
v -0.5 0.8 0.2
v -0.4 0.8 0.2
v -0.3 0.8 0.2
v 0.3 0.8 0.2
v 0.4 0.8 0.2
v 0.5 0.8 0.2
v -0.5 0.8 0.1
v -0.4 0.8 0.1
v 0.4 0.8 0.1
v 0.5 0.8 0.1
v -0.5 0.8 -0.3
v -0.4 0.8 -0.3
v 0.4 0.8 -0.3
v 0.5 0.8 -0.3
v -0.5 0.8 -0.4
v -0.4 0.8 -0.4
v -0.3 0.8 -0.4
v 0.3 0.8 -0.4
v 0.4 0.8 -0.4
v 0.5 0.8 -0.4
v -0.4 0.8 -0.5
v -0.3 0.8 -0.5
v -0.2 0.8 -0.5
v 0.2 0.8 -0.5
v 0.3 0.8 -0.5
v 0.4 0.8 -0.5
v -0.3 0.8 -0.6
v -0.2 0.8 -0.6
v 0.2 0.8 -0.6
v 0.3 0.8 -0.6
v -0.5 0.1 0.4
v -0.4 0.1 0.4
v -0.1 0.1 0.4
v 0.1 0.1 0.4
v 0.4 0.1 0.4
v 0.5 0.1 0.4
v -0.5 0.1 0.3
v -0.4 0.1 0.3
v -0.1 0.1 0.3
v 0.1 0.1 0.3
v 0.4 0.1 0.3
v 0.5 0.1 0.3
v -0.5 0.1 0
v -0.4 0.1 0
v 0.4 0.1 0
v 0.5 0.1 0
v -0.5 0.1 -0.2
v -0.4 0.1 -0.2
v 0.4 0.1 -0.2
v 0.5 0.1 -0.2
v -0.5 0.1 -0.5
v -0.4 0.1 -0.5
v -0.1 0.1 -0.5
v 0.1 0.1 -0.5
v 0.4 0.1 -0.5
v 0.5 0.1 -0.5
v -0.5 0.1 -0.6
v -0.4 0.1 -0.6
v -0.1 0.1 -0.6
v 0.1 0.1 -0.6
v 0.4 0.1 -0.6
v 0.5 0.1 -0.6
v -0.4 0.2 0.4
v -0.1 0.2 0.4
v 0.1 0.2 0.4
v 0.4 0.2 0.4
v -0.5 0.2 0.3
v -0.4 0.2 0.3
v -0.3 0.2 0.3
v -0.2 0.2 0.3
v -0.1 0.2 0.3
v 0.1 0.2 0.3
v 0.2 0.2 0.3
v 0.3 0.2 0.3
v 0.4 0.2 0.3
v 0.5 0.2 0.3
v -0.4 0.2 0.2
v -0.3 0.2 0.2
v -0.2 0.2 0.2
v -0.1 0.2 0.2
v 0.1 0.2 0.2
v 0.2 0.2 0.2
v 0.3 0.2 0.2
v 0.4 0.2 0.2
v -0.4 0.2 0.1
v -0.3 0.2 0.1
v -0.2 0.2 0.1
v -0.1 0.2 0.1
v 0.1 0.2 0.1
v 0.2 0.2 0.1
v 0.3 0.2 0.1
v 0.4 0.2 0.1
v -0.5 0.2 0
v -0.4 0.2 0
v -0.3 0.2 0
v -0.2 0.2 0
v 0.2 0.2 0
v 0.3 0.2 0
v 0.4 0.2 0
v 0.5 0.2 0
v -0.5 0.2 -0.2
v -0.4 0.2 -0.2
v -0.3 0.2 -0.2
v -0.2 0.2 -0.2
v 0.2 0.2 -0.2
v 0.3 0.2 -0.2
v 0.4 0.2 -0.2
v 0.5 0.2 -0.2
v -0.4 0.2 -0.3
v -0.3 0.2 -0.3
v -0.2 0.2 -0.3
v -0.1 0.2 -0.3
v 0.1 0.2 -0.3
v 0.2 0.2 -0.3
v 0.3 0.2 -0.3
v 0.4 0.2 -0.3
v -0.4 0.2 -0.4
v -0.3 0.2 -0.4
v -0.2 0.2 -0.4
v -0.1 0.2 -0.4
v 0.1 0.2 -0.4
v 0.2 0.2 -0.4
v 0.3 0.2 -0.4
v 0.4 0.2 -0.4
v -0.5 0.2 -0.5
v -0.4 0.2 -0.5
v -0.3 0.2 -0.5
v -0.2 0.2 -0.5
v -0.1 0.2 -0.5
v 0.1 0.2 -0.5
v 0.2 0.2 -0.5
v 0.3 0.2 -0.5
v 0.4 0.2 -0.5
v 0.5 0.2 -0.5
v -0.4 0.2 -0.6
v -0.1 0.2 -0.6
v 0.1 0.2 -0.6
v 0.4 0.2 -0.6
v -0.2 0.3 0.2
v -0.1 0.3 0.2
v 0.1 0.3 0.2
v 0.2 0.3 0.2
v -0.3 0.3 0.1
v -0.2 0.3 0.1
v -0.1 0.3 0.1
v 0.1 0.3 0.1
v 0.2 0.3 0.1
v 0.3 0.3 0.1
v -0.3 0.3 0
v -0.2 0.3 0
v 0.2 0.3 0
v 0.3 0.3 0
v -0.3 0.3 -0.2
v -0.2 0.3 -0.2
v 0.2 0.3 -0.2
v 0.3 0.3 -0.2
v -0.3 0.3 -0.3
v -0.2 0.3 -0.3
v -0.1 0.3 -0.3
v 0.1 0.3 -0.3
v 0.2 0.3 -0.3
v 0.3 0.3 -0.3
v -0.2 0.3 -0.4
v -0.1 0.3 -0.4
v 0.1 0.3 -0.4
v 0.2 0.3 -0.4
v -0.1 0.5 0.2
v 0.1 0.5 0.2
v -0.1 0.5 0.1
v 0.1 0.5 0.1
v -0.3 0.5 0
v -0.2 0.5 0
v 0.2 0.5 0
v 0.3 0.5 0
v -0.3 0.5 -0.2
v -0.2 0.5 -0.2
v 0.2 0.5 -0.2
v 0.3 0.5 -0.2
v -0.1 0.5 -0.3
v 0.1 0.5 -0.3
v -0.1 0.5 -0.4
v 0.1 0.5 -0.4
v -0.2 0.7 0.2
v -0.1 0.7 0.2
v 0.1 0.7 0.2
v 0.2 0.7 0.2
v -0.3 0.7 0.1
v -0.2 0.7 0.1
v -0.1 0.7 0.1
v 0.1 0.7 0.1
v 0.2 0.7 0.1
v 0.3 0.7 0.1
v -0.3 0.7 0
v -0.2 0.7 0
v 0.2 0.7 0
v 0.3 0.7 0
v -0.3 0.7 -0.2
v -0.2 0.7 -0.2
v 0.2 0.7 -0.2
v 0.3 0.7 -0.2
v -0.3 0.7 -0.3
v -0.2 0.7 -0.3
v -0.1 0.7 -0.3
v 0.1 0.7 -0.3
v 0.2 0.7 -0.3
v 0.3 0.7 -0.3
v -0.2 0.7 -0.4
v -0.1 0.7 -0.4
v 0.1 0.7 -0.4
v 0.2 0.7 -0.4
v -0.2 0.8 0.4
v 0.2 0.8 0.4
v -0.3 0.8 0.3
v -0.2 0.8 0.3
v 0.2 0.8 0.3
v 0.3 0.8 0.3
v -0.4 0.8 0.2
v -0.3 0.8 0.2
v -0.2 0.8 0.2
v -0.1 0.8 0.2
v 0.1 0.8 0.2
v 0.2 0.8 0.2
v 0.3 0.8 0.2
v 0.4 0.8 0.2
v -0.5 0.8 0.1
v -0.4 0.8 0.1
v -0.3 0.8 0.1
v -0.2 0.8 0.1
v -0.1 0.8 0.1
v 0.1 0.8 0.1
v 0.2 0.8 0.1
v 0.3 0.8 0.1
v 0.4 0.8 0.1
v 0.5 0.8 0.1
v -0.3 0.8 0
v -0.2 0.8 0
v 0.2 0.8 0
v 0.3 0.8 0
v -0.3 0.8 -0.2
v -0.2 0.8 -0.2
v 0.2 0.8 -0.2
v 0.3 0.8 -0.2
v -0.5 0.8 -0.3
v -0.4 0.8 -0.3
v -0.3 0.8 -0.3
v -0.2 0.8 -0.3
v -0.1 0.8 -0.3
v 0.1 0.8 -0.3
v 0.2 0.8 -0.3
v 0.3 0.8 -0.3
v 0.4 0.8 -0.3
v 0.5 0.8 -0.3
v -0.4 0.8 -0.4
v -0.3 0.8 -0.4
v -0.2 0.8 -0.4
v -0.1 0.8 -0.4
v 0.1 0.8 -0.4
v 0.2 0.8 -0.4
v 0.3 0.8 -0.4
v 0.4 0.8 -0.4
v -0.3 0.8 -0.5
v -0.2 0.8 -0.5
v 0.2 0.8 -0.5
v 0.3 0.8 -0.5
v -0.2 0.8 -0.6
v 0.2 0.8 -0.6
v -0.3 0.9 0.4
v -0.2 0.9 0.4
v 0.2 0.9 0.4
v 0.3 0.9 0.4
v -0.4 0.9 0.3
v -0.3 0.9 0.3
v -0.2 0.9 0.3
v 0.2 0.9 0.3
v 0.3 0.9 0.3
v 0.4 0.9 0.3
v -0.5 0.9 0.2
v -0.4 0.9 0.2
v -0.3 0.9 0.2
v 0.3 0.9 0.2
v 0.4 0.9 0.2
v 0.5 0.9 0.2
v -0.5 0.9 0.1
v -0.4 0.9 0.1
v 0.4 0.9 0.1
v 0.5 0.9 0.1
v -0.5 0.9 -0.3
v -0.4 0.9 -0.3
v 0.4 0.9 -0.3
v 0.5 0.9 -0.3
v -0.5 0.9 -0.4
v -0.4 0.9 -0.4
v -0.3 0.9 -0.4
v 0.3 0.9 -0.4
v 0.4 0.9 -0.4
v 0.5 0.9 -0.4
v -0.4 0.9 -0.5
v -0.3 0.9 -0.5
v -0.2 0.9 -0.5
v 0.2 0.9 -0.5
v 0.3 0.9 -0.5
v 0.4 0.9 -0.5
v -0.3 0.9 -0.6
v -0.2 0.9 -0.6
v 0.2 0.9 -0.6
v 0.3 0.9 -0.6

# faces
f 7/9/1 2/9/1 1/9/1
f 8/9/1 2/9/1 7/9/1
f 9/9/1 4/9/1 3/9/1
f 10/9/1 4/9/1 9/9/1
f 11/9/1 6/9/1 5/9/1
f 12/9/1 6/9/1 11/9/1
f 13/6/1 9/6/1 8/6/1
f 14/6/1 9/6/1 13/6/1
f 15/6/1 11/6/1 10/6/1
f 16/6/1 11/6/1 15/6/1
f 20/8/1 18/8/1 17/8/1
f 21/8/1 18/8/1 20/8/1
f 23/8/1 20/8/1 19/8/1
f 24/8/1 20/8/1 23/8/1
f 25/8/1 22/8/1 21/8/1
f 26/8/1 22/8/1 25/8/1
f 34/5/1 28/5/1 27/5/1
f 35/1/1 29/1/1 28/1/1
f 35/5/1 28/5/1 34/5/1
f 36/1/1 29/1/1 35/1/1
f 37/1/1 31/1/1 30/1/1
f 38/5/1 32/5/1 31/5/1
f 38/1/1 31/1/1 37/1/1
f 39/5/1 32/5/1 38/5/1
f 41/6/1 34/6/1 33/6/1
f 42/6/1 34/6/1 41/6/1
f 43/6/1 37/6/1 36/6/1
f 44/6/1 37/6/1 43/6/1
f 45/6/1 40/6/1 39/6/1
f 46/6/1 40/6/1 45/6/1
f 50/7/1 48/7/1 47/7/1
f 51/7/1 48/7/1 50/7/1
f 54/8/1 50/8/1 49/8/1
f 55/8/1 50/8/1 54/8/1
f 56/8/1 52/8/1 51/8/1
f 57/8/1 52/8/1 56/8/1
f 59/8/1 54/8/1 53/8/1
f 60/8/1 54/8/1 59/8/1
f 61/8/1 58/8/1 57/8/1
f 62/8/1 58/8/1 61/8/1
f 67/9/1 64/9/1 63/9/1
f 68/9/1 64/9/1 67/9/1
f 69/9/1 66/9/1 65/9/1
f 70/9/1 66/9/1 69/9/1
f 74/8/1 72/8/1 71/8/1
f 75/8/1 72/8/1 74/8/1
f 78/8/1 74/8/1 73/8/1
f 79/8/1 74/8/1 78/8/1
f 80/8/1 76/8/1 75/8/1
f 81/8/1 76/8/1 80/8/1
f 84/8/1 78/8/1 77/8/1
f 85/8/1 78/8/1 84/8/1
f 86/8/1 82/8/1 81/8/1
f 87/8/1 82/8/1 86/8/1
f 90/8/1 84/8/1 83/8/1
f 91/8/1 84/8/1 90/8/1
f 92/8/1 88/8/1 87/8/1
f 93/8/1 88/8/1 92/8/1
f 95/8/1 90/8/1 89/8/1
f 96/8/1 90/8/1 95/8/1
f 97/8/1 94/8/1 93/8/1
f 98/8/1 94/8/1 97/8/1
f 105/9/1 100/9/1 99/9/1
f 106/9/1 100/9/1 105/9/1
f 107/6/1 102/6/1 101/6/1
f 108/6/1 102/6/1 107/6/1
f 109/9/1 104/9/1 103/9/1
f 110/9/1 104/9/1 109/9/1
f 111/6/1 108/6/1 107/6/1
f 111/1/1 107/1/1 106/1/1
f 112/1/1 109/1/1 108/1/1
f 112/6/1 108/6/1 111/6/1
f 114/1/1 111/1/1 106/1/1
f 115/1/1 111/1/1 114/1/1
f 116/1/1 109/1/1 112/1/1
f 117/1/1 109/1/1 116/1/1
f 120/8/1 114/8/1 113/8/1
f 121/8/1 114/8/1 120/8/1
f 122/1/1 116/1/1 115/1/1
f 123/1/1 116/1/1 122/1/1
f 124/8/1 118/8/1 117/8/1
f 125/8/1 118/8/1 124/8/1
f 128/7/1 120/7/1 119/7/1
f 129/7/1 120/7/1 128/7/1
f 130/7/1 126/7/1 125/7/1
f 131/7/1 126/7/1 130/7/1
f 133/8/1 128/8/1 127/8/1
f 134/8/1 128/8/1 133/8/1
f 135/8/1 132/8/1 131/8/1
f 136/8/1 132/8/1 135/8/1
f 141/9/1 138/9/1 137/9/1
f 142/9/1 138/9/1 141/9/1
f 143/9/1 140/9/1 139/9/1
f 144/9/1 140/9/1 143/9/1
f 149/8/1 146/8/1 145/8/1
f 150/8/1 146/8/1 149/8/1
f 151/8/1 148/8/1 147/8/1
f 152/8/1 148/8/1 151/8/1
f 157/3/1 154/3/1 153/3/1
f 158/3/1 154/3/1 157/3/1
f 159/3/1 156/3/1 155/3/1
f 160/3/1 156/3/1 159/3/1
f 165/6/1 162/6/1 161/6/1
f 166/6/1 162/6/1 165/6/1
f 171/6/1 164/6/1 163/6/1
f 172/6/1 164/6/1 171/6/1
f 173/9/1 168/9/1 167/9/1
f 174/9/1 168/9/1 173/9/1
f 175/9/1 170/9/1 169/9/1
f 176/9/1 170/9/1 175/9/1
f 181/8/1 178/8/1 177/8/1
f 182/8/1 178/8/1 181/8/1
f 183/8/1 180/8/1 179/8/1
f 184/8/1 180/8/1 183/8/1
f 193/3/1 186/3/1 185/3/1
f 194/3/1 186/3/1 193/3/1
f 195/3/1 188/3/1 187/3/1
f 196/3/1 188/3/1 195/3/1
f 197/3/1 190/3/1 189/3/1
f 198/3/1 190/3/1 197/3/1
f 201/8/1 192/8/1 191/8/1
f 202/8/1 192/8/1 201/8/1
f 203/8/1 200/8/1 199/8/1
f 204/8/1 200/8/1 203/8/1
f 211/3/1 206/3/1 205/3/1
f 212/3/1 206/3/1 211/3/1
f 213/3/1 208/3/1 207/3/1
f 214/3/1 208/3/1 213/3/1
f 217/8/1 210/8/1 209/8/1
f 218/8/1 210/8/1 217/8/1
f 219/8/1 216/8/1 215/8/1
f 220/8/1 216/8/1 219/8/1
f 225/9/1 222/9/1 221/9/1
f 226/9/1 222/9/1 225/9/1
f 227/9/1 224/9/1 223/9/1
f 228/9/1 224/9/1 227/9/1
f 233/8/1 230/8/1 229/8/1
f 234/8/1 230/8/1 233/8/1
f 235/8/1 232/8/1 231/8/1
f 236/8/1 232/8/1 235/8/1
f 237/9/2 238/9/2 241/9/2
f 241/9/2 238/9/2 242/9/2
f 239/9/2 240/9/2 243/9/2
f 243/9/2 240/9/2 244/9/2
f 245/8/2 246/8/2 249/8/2
f 249/8/2 246/8/2 250/8/2
f 247/8/2 248/8/2 251/8/2
f 251/8/2 248/8/2 252/8/2
f 253/3/2 254/3/2 259/3/2
f 259/3/2 254/3/2 260/3/2
f 255/3/2 256/3/2 261/3/2
f 261/3/2 256/3/2 262/3/2
f 257/8/2 258/8/2 265/8/2
f 265/8/2 258/8/2 266/8/2
f 263/8/2 264/8/2 267/8/2
f 267/8/2 264/8/2 268/8/2
f 269/3/2 270/3/2 277/3/2
f 277/3/2 270/3/2 278/3/2
f 271/3/2 272/3/2 279/3/2
f 279/3/2 272/3/2 280/3/2
f 273/3/2 274/3/2 281/3/2
f 281/3/2 274/3/2 282/3/2
f 275/8/2 276/8/2 285/8/2
f 285/8/2 276/8/2 286/8/2
f 283/8/2 284/8/2 287/8/2
f 287/8/2 284/8/2 288/8/2
f 289/6/2 290/6/2 293/6/2
f 293/6/2 290/6/2 294/6/2
f 291/6/2 292/6/2 299/6/2
f 299/6/2 292/6/2 300/6/2
f 295/9/2 296/9/2 301/9/2
f 301/9/2 296/9/2 302/9/2
f 297/9/2 298/9/2 303/9/2
f 303/9/2 298/9/2 304/9/2
f 305/8/2 306/8/2 309/8/2
f 309/8/2 306/8/2 310/8/2
f 307/8/2 308/8/2 311/8/2
f 311/8/2 308/8/2 312/8/2
f 313/9/2 314/9/2 317/9/2
f 317/9/2 314/9/2 318/9/2
f 315/9/2 316/9/2 319/9/2
f 319/9/2 316/9/2 320/9/2
f 321/8/2 322/8/2 325/8/2
f 325/8/2 322/8/2 326/8/2
f 323/8/2 324/8/2 327/8/2
f 327/8/2 324/8/2 328/8/2
f 329/3/2 330/3/2 333/3/2
f 333/3/2 330/3/2 334/3/2
f 331/3/2 332/3/2 335/3/2
f 335/3/2 332/3/2 336/3/2
f 337/9/2 338/9/2 343/9/2
f 343/9/2 338/9/2 344/9/2
f 339/6/2 340/6/2 345/6/2
f 345/6/2 340/6/2 346/6/2
f 341/9/2 342/9/2 347/9/2
f 347/9/2 342/9/2 348/9/2
f 345/6/2 346/6/2 349/6/2
f 344/1/2 345/1/2 349/1/2
f 346/1/2 347/1/2 350/1/2
f 349/6/2 346/6/2 350/6/2
f 344/1/2 349/1/2 352/1/2
f 352/1/2 349/1/2 353/1/2
f 350/1/2 347/1/2 354/1/2
f 354/1/2 347/1/2 355/1/2
f 351/8/2 352/8/2 358/8/2
f 358/8/2 352/8/2 359/8/2
f 353/1/2 354/1/2 360/1/2
f 360/1/2 354/1/2 361/1/2
f 355/8/2 356/8/2 362/8/2
f 362/8/2 356/8/2 363/8/2
f 357/7/2 358/7/2 366/7/2
f 366/7/2 358/7/2 367/7/2
f 363/7/2 364/7/2 368/7/2
f 368/7/2 364/7/2 369/7/2
f 365/8/2 366/8/2 371/8/2
f 371/8/2 366/8/2 372/8/2
f 369/8/2 370/8/2 373/8/2
f 373/8/2 370/8/2 374/8/2
f 375/9/2 376/9/2 379/9/2
f 379/9/2 376/9/2 380/9/2
f 377/9/2 378/9/2 381/9/2
f 381/9/2 378/9/2 382/9/2
f 383/8/2 384/8/2 386/8/2
f 386/8/2 384/8/2 387/8/2
f 385/8/2 386/8/2 390/8/2
f 390/8/2 386/8/2 391/8/2
f 387/8/2 388/8/2 392/8/2
f 392/8/2 388/8/2 393/8/2
f 389/8/2 390/8/2 396/8/2
f 396/8/2 390/8/2 397/8/2
f 393/8/2 394/8/2 398/8/2
f 398/8/2 394/8/2 399/8/2
f 395/8/2 396/8/2 402/8/2
f 402/8/2 396/8/2 403/8/2
f 399/8/2 400/8/2 404/8/2
f 404/8/2 400/8/2 405/8/2
f 401/8/2 402/8/2 407/8/2
f 407/8/2 402/8/2 408/8/2
f 405/8/2 406/8/2 409/8/2
f 409/8/2 406/8/2 410/8/2
f 411/5/2 412/5/2 418/5/2
f 412/1/2 413/1/2 419/1/2
f 418/5/2 412/5/2 419/5/2
f 419/1/2 413/1/2 420/1/2
f 414/1/2 415/1/2 421/1/2
f 415/5/2 416/5/2 422/5/2
f 421/1/2 415/1/2 422/1/2
f 422/5/2 416/5/2 423/5/2
f 417/6/2 418/6/2 425/6/2
f 425/6/2 418/6/2 426/6/2
f 420/6/2 421/6/2 427/6/2
f 427/6/2 421/6/2 428/6/2
f 423/6/2 424/6/2 429/6/2
f 429/6/2 424/6/2 430/6/2
f 431/7/2 432/7/2 434/7/2
f 434/7/2 432/7/2 435/7/2
f 433/8/2 434/8/2 438/8/2
f 438/8/2 434/8/2 439/8/2
f 435/8/2 436/8/2 440/8/2
f 440/8/2 436/8/2 441/8/2
f 437/8/2 438/8/2 443/8/2
f 443/8/2 438/8/2 444/8/2
f 441/8/2 442/8/2 445/8/2
f 445/8/2 442/8/2 446/8/2
f 447/9/2 448/9/2 453/9/2
f 453/9/2 448/9/2 454/9/2
f 449/9/2 450/9/2 455/9/2
f 455/9/2 450/9/2 456/9/2
f 451/9/2 452/9/2 457/9/2
f 457/9/2 452/9/2 458/9/2
f 454/6/2 455/6/2 459/6/2
f 459/6/2 455/6/2 460/6/2
f 456/6/2 457/6/2 461/6/2
f 461/6/2 457/6/2 462/6/2
f 463/8/2 464/8/2 466/8/2
f 466/8/2 464/8/2 467/8/2
f 465/8/2 466/8/2 469/8/2
f 469/8/2 466/8/2 470/8/2
f 467/8/2 468/8/2 471/8/2
f 471/8/2 468/8/2 472/8/2
f 475/9/3 474/9/3 473/9/3
f 476/9/3 474/9/3 475/9/3
f 481/8/3 479/8/3 478/8/3
f 482/8/3 479/8/3 481/8/3
f 484/6/3 477/6/3 476/6/3
f 485/6/3 477/6/3 484/6/3
f 486/9/3 484/9/3 483/9/3
f 487/9/3 484/9/3 486/9/3
f 489/8/3 481/8/3 480/8/3
f 490/8/3 481/8/3 489/8/3
f 492/8/3 491/8/3 490/8/3
f 493/8/3 491/8/3 492/8/3
f 495/6/3 488/6/3 487/6/3
f 496/6/3 488/6/3 495/6/3
f 497/9/3 495/9/3 494/9/3
f 498/9/3 495/9/3 497/9/3
f 502/6/3 500/6/3 499/6/3
f 503/6/3 500/6/3 502/6/3
f 506/5/3 502/5/3 501/5/3
f 507/5/3 502/5/3 506/5/3
f 509/8/3 505/8/3 504/8/3
f 510/8/3 505/8/3 509/8/3
f 512/8/3 509/8/3 508/8/3
f 513/8/3 509/8/3 512/8/3
f 514/1/3 507/1/3 506/1/3
f 515/1/3 507/1/3 514/1/3
f 518/6/3 516/6/3 515/6/3
f 519/6/3 516/6/3 518/6/3
f 520/7/3 512/7/3 511/7/3
f 521/7/3 512/7/3 520/7/3
f 523/1/3 518/1/3 517/1/3
f 524/1/3 518/1/3 523/1/3
f 525/8/3 522/8/3 521/8/3
f 526/8/3 522/8/3 525/8/3
f 528/5/3 524/5/3 523/5/3
f 529/5/3 524/5/3 528/5/3
f 531/8/3 527/8/3 526/8/3
f 532/8/3 527/8/3 531/8/3
f 533/6/3 530/6/3 529/6/3
f 534/6/3 530/6/3 533/6/3
f 538/8/3 536/8/3 535/8/3
f 539/8/3 536/8/3 538/8/3
f 541/8/3 538/8/3 537/8/3
f 542/8/3 538/8/3 541/8/3
f 546/8/3 541/8/3 540/8/3
f 547/8/3 541/8/3 546/8/3
f 548/9/3 544/9/3 543/9/3
f 549/9/3 544/9/3 548/9/3
f 551/8/3 546/8/3 545/8/3
f 552/8/3 546/8/3 551/8/3
f 555/8/3 551/8/3 550/8/3
f 556/8/3 551/8/3 555/8/3
f 558/9/3 554/9/3 553/9/3
f 559/9/3 554/9/3 558/9/3
f 560/8/3 557/8/3 556/8/3
f 561/8/3 557/8/3 560/8/3
f 563/8/3 562/8/3 561/8/3
f 564/8/3 562/8/3 563/8/3
f 566/8/3 565/8/3 564/8/3
f 567/8/3 565/8/3 566/8/3
f 569/8/3 568/8/3 567/8/3
f 570/8/3 568/8/3 569/8/3
f 574/8/3 572/8/3 571/8/3
f 575/8/3 572/8/3 574/8/3
f 579/7/3 574/7/3 573/7/3
f 580/7/3 574/7/3 579/7/3
f 581/9/3 577/9/3 576/9/3
f 582/9/3 577/9/3 581/9/3
f 583/8/3 579/8/3 578/8/3
f 584/8/3 579/8/3 583/8/3
f 586/1/3 583/1/3 582/1/3
f 587/1/3 583/1/3 586/1/3
f 588/1/3 583/1/3 587/1/3
f 590/6/3 586/6/3 585/6/3
f 590/6/3 587/6/3 586/6/3
f 591/6/3 587/6/3 590/6/3
f 592/6/3 587/6/3 591/6/3
f 593/1/3 589/1/3 588/1/3
f 594/1/3 589/1/3 593/1/3
f 596/1/3 592/1/3 591/1/3
f 596/1/3 593/1/3 592/1/3
f 597/1/3 593/1/3 596/1/3
f 599/9/3 596/9/3 595/9/3
f 600/9/3 596/9/3 599/9/3
f 601/8/3 598/8/3 597/8/3
f 602/8/3 598/8/3 601/8/3
f 604/7/3 603/7/3 602/7/3
f 605/7/3 603/7/3 604/7/3
f 607/8/3 606/8/3 605/8/3
f 608/8/3 606/8/3 607/8/3
f 611/9/3 610/9/3 609/9/3
f 612/9/3 610/9/3 611/9/3
f 617/8/3 614/8/3 613/8/3
f 618/8/3 614/8/3 617/8/3
f 619/3/3 616/3/3 615/3/3
f 620/3/3 616/3/3 619/3/3
f 625/8/3 622/8/3 621/8/3
f 626/8/3 622/8/3 625/8/3
f 627/3/3 624/3/3 623/3/3
f 628/3/3 624/3/3 627/3/3
f 631/9/3 630/9/3 629/9/3
f 632/9/3 630/9/3 631/9/3
f 635/6/3 634/6/3 633/6/3
f 636/6/3 634/6/3 635/6/3
f 641/9/3 638/9/3 637/9/3
f 642/9/3 638/9/3 641/9/3
f 643/8/3 640/8/3 639/8/3
f 644/8/3 640/8/3 643/8/3
f 649/9/3 646/9/3 645/9/3
f 650/9/3 646/9/3 649/9/3
f 651/8/3 648/8/3 647/8/3
f 652/8/3 648/8/3 651/8/3
f 655/6/3 654/6/3 653/6/3
f 656/6/3 654/6/3 655/6/3
f 659/8/3 658/8/3 657/8/3
f 660/8/3 658/8/3 659/8/3
f 663/3/3 662/3/3 661/3/3
f 664/3/3 662/3/3 663/3/3
f 667/3/3 666/3/3 665/3/3
f 668/3/3 666/3/3 667/3/3
f 671/3/3 670/3/3 669/3/3
f 672/3/3 670/3/3 671/3/3
f 675/8/3 674/8/3 673/8/3
f 676/8/3 674/8/3 675/8/3
f 679/8/3 678/8/3 677/8/3
f 680/8/3 678/8/3 679/8/3
f 683/3/3 682/3/3 681/3/3
f 684/3/3 682/3/3 683/3/3
f 687/3/3 686/3/3 685/3/3
f 688/3/3 686/3/3 687/3/3
f 691/8/3 690/8/3 689/8/3
f 692/8/3 690/8/3 691/8/3
f 695/9/3 694/9/3 693/9/3
f 696/9/3 694/9/3 695/9/3
f 699/8/3 698/8/3 697/8/3
f 700/8/3 698/8/3 699/8/3
f 703/8/3 702/8/3 701/8/3
f 704/8/3 702/8/3 703/8/3
f 707/9/3 706/9/3 705/9/3
f 708/9/3 706/9/3 707/9/3
f 709/9/4 710/9/4 711/9/4
f 711/9/4 710/9/4 712/9/4
f 713/8/4 714/8/4 715/8/4
f 715/8/4 714/8/4 716/8/4
f 717/8/4 718/8/4 719/8/4
f 719/8/4 718/8/4 720/8/4
f 721/9/4 722/9/4 723/9/4
f 723/9/4 722/9/4 724/9/4
f 725/8/4 726/8/4 727/8/4
f 727/8/4 726/8/4 728/8/4
f 729/3/4 730/3/4 731/3/4
f 731/3/4 730/3/4 732/3/4
f 733/3/4 734/3/4 735/3/4
f 735/3/4 734/3/4 736/3/4
f 737/8/4 738/8/4 739/8/4
f 739/8/4 738/8/4 740/8/4
f 741/8/4 742/8/4 743/8/4
f 743/8/4 742/8/4 744/8/4
f 745/3/4 746/3/4 747/3/4
f 747/3/4 746/3/4 748/3/4
f 749/3/4 750/3/4 751/3/4
f 751/3/4 750/3/4 752/3/4
f 753/3/4 754/3/4 755/3/4
f 755/3/4 754/3/4 756/3/4
f 757/8/4 758/8/4 759/8/4
f 759/8/4 758/8/4 760/8/4
f 761/6/4 762/6/4 763/6/4
f 763/6/4 762/6/4 764/6/4
f 765/9/4 766/9/4 769/9/4
f 769/9/4 766/9/4 770/9/4
f 767/8/4 768/8/4 771/8/4
f 771/8/4 768/8/4 772/8/4
f 773/9/4 774/9/4 777/9/4
f 777/9/4 774/9/4 778/9/4
f 775/8/4 776/8/4 779/8/4
f 779/8/4 776/8/4 780/8/4
f 781/6/4 782/6/4 783/6/4
f 783/6/4 782/6/4 784/6/4
f 785/9/4 786/9/4 787/9/4
f 787/9/4 786/9/4 788/9/4
f 789/8/4 790/8/4 793/8/4
f 793/8/4 790/8/4 794/8/4
f 791/3/4 792/3/4 795/3/4
f 795/3/4 792/3/4 796/3/4
f 797/8/4 798/8/4 801/8/4
f 801/8/4 798/8/4 802/8/4
f 799/3/4 800/3/4 803/3/4
f 803/3/4 800/3/4 804/3/4
f 805/9/4 806/9/4 807/9/4
f 807/9/4 806/9/4 808/9/4
f 809/8/4 810/8/4 812/8/4
f 812/8/4 810/8/4 813/8/4
f 811/7/4 812/7/4 817/7/4
f 817/7/4 812/7/4 818/7/4
f 814/9/4 815/9/4 819/9/4
f 819/9/4 815/9/4 820/9/4
f 816/8/4 817/8/4 821/8/4
f 821/8/4 817/8/4 822/8/4
f 820/1/4 821/1/4 824/1/4
f 824/1/4 821/1/4 825/1/4
f 825/1/4 821/1/4 826/1/4
f 823/6/4 824/6/4 828/6/4
f 824/6/4 825/6/4 828/6/4
f 828/6/4 825/6/4 829/6/4
f 829/6/4 825/6/4 830/6/4
f 826/1/4 827/1/4 831/1/4
f 831/1/4 827/1/4 832/1/4
f 829/1/4 830/1/4 834/1/4
f 830/1/4 831/1/4 834/1/4
f 834/1/4 831/1/4 835/1/4
f 833/9/4 834/9/4 837/9/4
f 837/9/4 834/9/4 838/9/4
f 835/8/4 836/8/4 839/8/4
f 839/8/4 836/8/4 840/8/4
f 840/7/4 841/7/4 842/7/4
f 842/7/4 841/7/4 843/7/4
f 843/8/4 844/8/4 845/8/4
f 845/8/4 844/8/4 846/8/4
f 847/8/4 848/8/4 850/8/4
f 850/8/4 848/8/4 851/8/4
f 849/8/4 850/8/4 853/8/4
f 853/8/4 850/8/4 854/8/4
f 852/8/4 853/8/4 858/8/4
f 858/8/4 853/8/4 859/8/4
f 855/9/4 856/9/4 860/9/4
f 860/9/4 856/9/4 861/9/4
f 857/8/4 858/8/4 863/8/4
f 863/8/4 858/8/4 864/8/4
f 862/8/4 863/8/4 867/8/4
f 867/8/4 863/8/4 868/8/4
f 865/9/4 866/9/4 870/9/4
f 870/9/4 866/9/4 871/9/4
f 868/8/4 869/8/4 872/8/4
f 872/8/4 869/8/4 873/8/4
f 873/8/4 874/8/4 875/8/4
f 875/8/4 874/8/4 876/8/4
f 876/8/4 877/8/4 878/8/4
f 878/8/4 877/8/4 879/8/4
f 879/8/4 880/8/4 881/8/4
f 881/8/4 880/8/4 882/8/4
f 883/6/4 884/6/4 886/6/4
f 886/6/4 884/6/4 887/6/4
f 885/5/4 886/5/4 890/5/4
f 890/5/4 886/5/4 891/5/4
f 888/8/4 889/8/4 893/8/4
f 893/8/4 889/8/4 894/8/4
f 892/8/4 893/8/4 896/8/4
f 896/8/4 893/8/4 897/8/4
f 890/1/4 891/1/4 898/1/4
f 898/1/4 891/1/4 899/1/4
f 899/6/4 900/6/4 902/6/4
f 902/6/4 900/6/4 903/6/4
f 895/7/4 896/7/4 904/7/4
f 904/7/4 896/7/4 905/7/4
f 901/1/4 902/1/4 907/1/4
f 907/1/4 902/1/4 908/1/4
f 905/8/4 906/8/4 909/8/4
f 909/8/4 906/8/4 910/8/4
f 907/5/4 908/5/4 912/5/4
f 912/5/4 908/5/4 913/5/4
f 910/8/4 911/8/4 915/8/4
f 915/8/4 911/8/4 916/8/4
f 913/6/4 914/6/4 917/6/4
f 917/6/4 914/6/4 918/6/4
f 919/9/4 920/9/4 921/9/4
f 921/9/4 920/9/4 922/9/4
f 924/8/4 925/8/4 927/8/4
f 927/8/4 925/8/4 928/8/4
f 922/6/4 923/6/4 930/6/4
f 930/6/4 923/6/4 931/6/4
f 929/9/4 930/9/4 932/9/4
f 932/9/4 930/9/4 933/9/4
f 926/8/4 927/8/4 935/8/4
f 935/8/4 927/8/4 936/8/4
f 936/8/4 937/8/4 938/8/4
f 938/8/4 937/8/4 939/8/4
f 933/6/4 934/6/4 941/6/4
f 941/6/4 934/6/4 942/6/4
f 940/9/4 941/9/4 943/9/4
f 943/9/4 941/9/4 944/9/4
f 951/9/5 946/9/5 945/9/5
f 952/9/5 946/9/5 951/9/5
f 954/9/5 948/9/5 947/9/5
f 955/9/5 948/9/5 954/9/5
f 957/9/5 950/9/5 949/9/5
f 958/9/5 950/9/5 957/9/5
f 959/5/5 953/5/5 952/5/5
f 960/1/5 954/1/5 953/1/5
f 960/5/5 953/5/5 959/5/5
f 961/7/5 955/7/5 954/7/5
f 961/1/5 954/1/5 960/1/5
f 962/1/5 956/1/5 955/1/5
f 962/7/5 955/7/5 961/7/5
f 963/5/5 957/5/5 956/5/5
f 963/1/5 956/1/5 962/1/5
f 964/5/5 957/5/5 963/5/5
f 966/1/5 960/1/5 959/1/5
f 967/7/5 961/7/5 960/7/5
f 967/7/5 962/7/5 961/7/5
f 967/1/5 960/1/5 966/1/5
f 967/7/5 963/7/5 962/7/5
f 968/1/5 964/1/5 963/1/5
f 968/7/5 963/7/5 967/7/5
f 969/1/5 964/1/5 968/1/5
f 971/9/5 966/9/5 965/9/5
f 972/7/5 969/7/5 968/7/5
f 972/9/5 966/9/5 971/9/5
f 972/7/5 967/7/5 966/7/5
f 972/7/5 968/7/5 967/7/5
f 973/7/5 969/7/5 972/7/5
f 974/7/5 969/7/5 973/7/5
f 975/9/5 970/9/5 969/9/5
f 975/7/5 969/7/5 974/7/5
f 976/9/5 970/9/5 975/9/5
f 977/1/5 973/1/5 972/1/5
f 978/7/5 974/7/5 973/7/5
f 978/1/5 973/1/5 977/1/5
f 979/7/5 974/7/5 978/7/5
f 980/7/5 974/7/5 979/7/5
f 981/1/5 975/1/5 974/1/5
f 981/7/5 974/7/5 980/7/5
f 982/1/5 975/1/5 981/1/5
f 984/5/5 978/5/5 977/5/5
f 985/1/5 979/1/5 978/1/5
f 985/5/5 978/5/5 984/5/5
f 986/7/5 980/7/5 979/7/5
f 986/1/5 979/1/5 985/1/5
f 987/1/5 981/1/5 980/1/5
f 987/7/5 980/7/5 986/7/5
f 988/5/5 982/5/5 981/5/5
f 988/1/5 981/1/5 987/1/5
f 989/5/5 982/5/5 988/5/5
f 991/9/5 984/9/5 983/9/5
f 992/9/5 984/9/5 991/9/5
f 993/9/5 987/9/5 986/9/5
f 994/9/5 987/9/5 993/9/5
f 995/9/5 990/9/5 989/9/5
f 996/9/5 990/9/5 995/9/5
f 1002/6/5 998/6/5 997/6/5
f 1003/6/5 998/6/5 1002/6/5
f 1004/6/5 998/6/5 1003/6/5
f 1005/6/5 1000/6/5 999/6/5
f 1006/6/5 1000/6/5 1005/6/5
f 1007/6/5 1000/6/5 1006/6/5
f 1009/6/5 1002/6/5 1001/6/5
f 1010/6/5 1008/6/5 1007/6/5
f 1011/6/5 1009/6/5 1001/6/5
f 1012/6/5 1009/6/5 1011/6/5
f 1013/6/5 1008/6/5 1010/6/5
f 1014/6/5 1008/6/5 1013/6/5
f 1019/6/5 1016/6/5 1015/6/5
f 1020/6/5 1018/6/5 1017/6/5
f 1021/6/5 1019/6/5 1015/6/5
f 1022/6/5 1019/6/5 1021/6/5
f 1027/6/5 1018/6/5 1020/6/5
f 1028/6/5 1018/6/5 1027/6/5
f 1029/6/5 1023/6/5 1022/6/5
f 1029/6/5 1024/6/5 1023/6/5
f 1030/6/5 1024/6/5 1029/6/5
f 1031/6/5 1026/6/5 1025/6/5
f 1031/6/5 1027/6/5 1026/6/5
f 1032/6/5 1027/6/5 1031/6/5
f 1035/8/5 1034/8/5 1033/8/5
f 1036/8/5 1034/8/5 1035/8/5
f 1041/8/5 1038/8/5 1037/8/5
f 1042/8/5 1038/8/5 1041/8/5
f 1043/8/5 1040/8/5 1039/8/5
f 1044/8/5 1040/8/5 1043/8/5
f 1047/8/5 1046/8/5 1045/8/5
f 1048/8/5 1046/8/5 1047/8/5
f 1054/8/5 1050/8/5 1049/8/5
f 1055/8/5 1050/8/5 1054/8/5
f 1056/8/5 1052/8/5 1051/8/5
f 1057/8/5 1052/8/5 1056/8/5
f 1059/8/5 1054/8/5 1053/8/5
f 1060/8/5 1054/8/5 1059/8/5
f 1061/8/5 1058/8/5 1057/8/5
f 1062/8/5 1058/8/5 1061/8/5
f 1067/8/5 1064/8/5 1063/8/5
f 1068/8/5 1064/8/5 1067/8/5
f 1071/8/5 1066/8/5 1065/8/5
f 1072/8/5 1066/8/5 1071/8/5
f 1073/8/5 1069/8/5 1068/8/5
f 1074/8/5 1069/8/5 1073/8/5
f 1075/8/5 1071/8/5 1070/8/5
f 1076/8/5 1071/8/5 1075/8/5
f 1080/7/5 1078/7/5 1077/7/5
f 1081/7/5 1078/7/5 1080/7/5
f 1082/7/5 1078/7/5 1081/7/5
f 1083/7/5 1078/7/5 1082/7/5
f 1086/8/5 1080/8/5 1079/8/5
f 1087/8/5 1080/8/5 1086/8/5
f 1088/7/5 1082/7/5 1081/7/5
f 1089/7/5 1082/7/5 1088/7/5
f 1090/8/5 1084/8/5 1083/8/5
f 1091/8/5 1084/8/5 1090/8/5
f 1093/7/5 1086/7/5 1085/7/5
f 1096/7/5 1092/7/5 1091/7/5
f 1097/7/5 1094/7/5 1093/7/5
f 1097/7/5 1093/7/5 1085/7/5
f 1098/7/5 1094/7/5 1097/7/5
f 1099/7/5 1096/7/5 1095/7/5
f 1100/7/5 1092/7/5 1096/7/5
f 1100/7/5 1096/7/5 1099/7/5
f 1101/7/5 1097/7/5 1085/7/5
f 1102/7/5 1097/7/5 1101/7/5
f 1107/7/5 1092/7/5 1100/7/5
f 1108/7/5 1092/7/5 1107/7/5
f 1109/8/5 1103/8/5 1102/8/5
f 1110/8/5 1103/8/5 1109/8/5
f 1111/7/5 1105/7/5 1104/7/5
f 1112/7/5 1105/7/5 1111/7/5
f 1113/8/5 1107/8/5 1106/8/5
f 1114/8/5 1107/8/5 1113/8/5
f 1115/7/5 1112/7/5 1111/7/5
f 1115/7/5 1113/7/5 1112/7/5
f 1115/7/5 1111/7/5 1110/7/5
f 1116/7/5 1113/7/5 1115/7/5
f 1120/8/5 1118/8/5 1117/8/5
f 1121/8/5 1118/8/5 1120/8/5
f 1124/8/5 1120/8/5 1119/8/5
f 1125/8/5 1120/8/5 1124/8/5
f 1126/8/5 1122/8/5 1121/8/5
f 1127/8/5 1122/8/5 1126/8/5
f 1130/8/5 1124/8/5 1123/8/5
f 1131/8/5 1124/8/5 1130/8/5
f 1132/8/5 1128/8/5 1127/8/5
f 1133/8/5 1128/8/5 1132/8/5
f 1135/8/5 1130/8/5 1129/8/5
f 1136/8/5 1130/8/5 1135/8/5
f 1139/8/5 1134/8/5 1133/8/5
f 1140/8/5 1134/8/5 1139/8/5
f 1141/8/5 1137/8/5 1136/8/5
f 1142/8/5 1137/8/5 1141/8/5
f 1145/8/5 1139/8/5 1138/8/5
f 1146/8/5 1139/8/5 1145/8/5
f 1147/8/5 1143/8/5 1142/8/5
f 1148/8/5 1143/8/5 1147/8/5
f 1149/8/5 1145/8/5 1144/8/5
f 1150/8/5 1145/8/5 1149/8/5
f 1151/8/5 1149/8/5 1148/8/5
f 1152/8/5 1149/8/5 1151/8/5
f 1158/8/5 1154/8/5 1153/8/5
f 1159/8/5 1154/8/5 1158/8/5
f 1160/8/5 1156/8/5 1155/8/5
f 1161/8/5 1156/8/5 1160/8/5
f 1164/8/5 1158/8/5 1157/8/5
f 1165/8/5 1158/8/5 1164/8/5
f 1166/8/5 1162/8/5 1161/8/5
f 1167/8/5 1162/8/5 1166/8/5
f 1169/8/5 1164/8/5 1163/8/5
f 1170/8/5 1164/8/5 1169/8/5
f 1171/8/5 1168/8/5 1167/8/5
f 1172/8/5 1168/8/5 1171/8/5
f 1177/8/5 1174/8/5 1173/8/5
f 1178/8/5 1174/8/5 1177/8/5
f 1181/8/5 1176/8/5 1175/8/5
f 1182/8/5 1176/8/5 1181/8/5
f 1183/8/5 1179/8/5 1178/8/5
f 1184/8/5 1179/8/5 1183/8/5
f 1187/8/5 1181/8/5 1180/8/5
f 1188/8/5 1181/8/5 1187/8/5
f 1189/8/5 1185/8/5 1184/8/5
f 1190/8/5 1185/8/5 1189/8/5
f 1191/8/5 1187/8/5 1186/8/5
f 1192/8/5 1187/8/5 1191/8/5
f 1193/9/6 1194/9/6 1199/9/6
f 1199/9/6 1194/9/6 1200/9/6
f 1195/9/6 1196/9/6 1201/9/6
f 1201/9/6 1196/9/6 1202/9/6
f 1197/9/6 1198/9/6 1203/9/6
f 1203/9/6 1198/9/6 1204/9/6
f 1205/9/6 1206/9/6 1209/9/6
f 1209/9/6 1206/9/6 1210/9/6
f 1207/9/6 1208/9/6 1211/9/6
f 1211/9/6 1208/9/6 1212/9/6
f 1213/9/6 1214/9/6 1219/9/6
f 1219/9/6 1214/9/6 1220/9/6
f 1215/9/6 1216/9/6 1221/9/6
f 1221/9/6 1216/9/6 1222/9/6
f 1217/9/6 1218/9/6 1223/9/6
f 1223/9/6 1218/9/6 1224/9/6
f 1225/6/6 1226/6/6 1230/6/6
f 1230/6/6 1226/6/6 1231/6/6
f 1231/6/6 1226/6/6 1232/6/6
f 1232/6/6 1226/6/6 1233/6/6
f 1227/6/6 1228/6/6 1234/6/6
f 1234/6/6 1228/6/6 1235/6/6
f 1235/6/6 1228/6/6 1236/6/6
f 1236/6/6 1228/6/6 1237/6/6
f 1229/6/6 1230/6/6 1239/6/6
f 1230/8/6 1231/8/6 1239/8/6
f 1231/9/6 1232/9/6 1240/9/6
f 1239/8/6 1231/8/6 1240/8/6
f 1232/8/6 1233/8/6 1241/8/6
f 1240/9/6 1232/9/6 1241/9/6
f 1233/6/6 1234/6/6 1242/6/6
f 1241/8/6 1233/8/6 1242/8/6
f 1234/8/6 1235/8/6 1243/8/6
f 1242/6/6 1234/6/6 1243/6/6
f 1235/9/6 1236/9/6 1244/9/6
f 1243/8/6 1235/8/6 1244/8/6
f 1236/8/6 1237/8/6 1245/8/6
f 1244/9/6 1236/9/6 1245/9/6
f 1237/6/6 1238/6/6 1246/6/6
f 1245/8/6 1237/8/6 1246/8/6
f 1239/9/6 1240/9/6 1247/9/6
f 1229/6/6 1239/6/6 1247/6/6
f 1240/2/6 1241/2/6 1248/2/6
f 1247/9/6 1240/9/6 1248/9/6
f 1248/2/6 1241/2/6 1249/2/6
f 1242/8/6 1243/8/6 1250/8/6
f 1250/8/6 1243/8/6 1251/8/6
f 1244/2/6 1245/2/6 1252/2/6
f 1245/9/6 1246/9/6 1253/9/6
f 1252/2/6 1245/2/6 1253/2/6
f 1246/6/6 1238/6/6 1254/6/6
f 1253/9/6 1246/9/6 1254/9/6
f 1229/6/6 1247/6/6 1255/6/6
f 1247/8/6 1248/8/6 1256/8/6
f 1255/6/6 1247/6/6 1256/6/6
f 1256/8/6 1248/8/6 1257/8/6
f 1253/8/6 1254/8/6 1260/8/6
f 1254/6/6 1238/6/6 1261/6/6
f 1260/8/6 1254/8/6 1261/8/6
f 1261/6/6 1238/6/6 1262/6/6
f 1256/6/6 1257/6/6 1264/6/6
f 1257/8/6 1258/8/6 1265/8/6
f 1264/6/6 1257/6/6 1265/6/6
f 1265/8/6 1258/8/6 1266/8/6
f 1259/8/6 1260/8/6 1267/8/6
f 1260/6/6 1261/6/6 1268/6/6
f 1267/8/6 1260/8/6 1268/8/6
f 1268/6/6 1261/6/6 1269/6/6
f 1263/6/6 1264/6/6 1271/6/6
f 1264/8/6 1265/8/6 1271/8/6
f 1271/8/6 1265/8/6 1272/8/6
f 1268/8/6 1269/8/6 1277/8/6
f 1269/6/6 1270/6/6 1278/6/6
f 1277/8/6 1269/8/6 1278/8/6
f 1263/6/6 1271/6/6 1279/6/6
f 1271/9/6 1272/9/6 1279/9/6
f 1272/2/6 1273/2/6 1280/2/6
f 1279/9/6 1272/9/6 1280/9/6
f 1280/2/6 1273/2/6 1281/2/6
f 1274/8/6 1275/8/6 1282/8/6
f 1282/8/6 1275/8/6 1283/8/6
f 1276/2/6 1277/2/6 1284/2/6
f 1277/9/6 1278/9/6 1285/9/6
f 1284/2/6 1277/2/6 1285/2/6
f 1278/6/6 1270/6/6 1286/6/6
f 1285/9/6 1278/9/6 1286/9/6
f 1263/6/6 1279/6/6 1287/6/6
f 1279/8/6 1280/8/6 1288/8/6
f 1287/6/6 1279/6/6 1288/6/6
f 1280/9/6 1281/9/6 1289/9/6
f 1288/8/6 1280/8/6 1289/8/6
f 1281/8/6 1282/8/6 1290/8/6
f 1289/9/6 1281/9/6 1290/9/6
f 1282/6/6 1283/6/6 1291/6/6
f 1290/8/6 1282/8/6 1291/8/6
f 1283/8/6 1284/8/6 1292/8/6
f 1291/6/6 1283/6/6 1292/6/6
f 1284/9/6 1285/9/6 1293/9/6
f 1292/8/6 1284/8/6 1293/8/6
f 1285/8/6 1286/8/6 1294/8/6
f 1293/9/6 1285/9/6 1294/9/6
f 1286/6/6 1270/6/6 1295/6/6
f 1294/8/6 1286/8/6 1295/8/6
f 1295/6/6 1270/6/6 1296/6/6
f 1289/6/6 1290/6/6 1297/6/6
f 1290/6/6 1291/6/6 1297/6/6
f 1288/6/6 1289/6/6 1297/6/6
f 1297/6/6 1291/6/6 1298/6/6
f 1294/6/6 1295/6/6 1299/6/6
f 1292/6/6 1293/6/6 1299/6/6
f 1293/6/6 1294/6/6 1299/6/6
f 1299/6/6 1295/6/6 1300/6/6
f 1301/9/6 1302/9/6 1306/9/6
f 1306/9/6 1302/9/6 1307/9/6
f 1303/9/6 1304/9/6 1308/9/6
f 1308/9/6 1304/9/6 1309/9/6
f 1305/9/6 1306/9/6 1311/9/6
f 1311/9/6 1306/9/6 1312/9/6
f 1309/9/6 1310/9/6 1313/9/6
f 1313/9/6 1310/9/6 1314/9/6
f 1315/9/6 1316/9/6 1319/9/6
f 1319/9/6 1316/9/6 1320/9/6
f 1317/9/6 1318/9/6 1323/9/6
f 1323/9/6 1318/9/6 1324/9/6
f 1320/9/6 1321/9/6 1325/9/6
f 1325/9/6 1321/9/6 1326/9/6
f 1322/9/6 1323/9/6 1327/9/6
f 1327/9/6 1323/9/6 1328/9/6
f 1329/8/6 1330/8/6 1331/8/6
f 1331/8/6 1330/8/6 1332/8/6
f 1333/8/6 1334/8/6 1337/8/6
f 1337/8/6 1334/8/6 1338/8/6
f 1335/8/6 1336/8/6 1339/8/6
f 1339/8/6 1336/8/6 1340/8/6
f 1341/8/6 1342/8/6 1343/8/6
f 1343/8/6 1342/8/6 1344/8/6
f 1345/4/6 1346/4/6 1350/4/6
f 1350/4/6 1346/4/6 1351/4/6
f 1347/4/6 1348/4/6 1352/4/6
f 1352/4/6 1348/4/6 1353/4/6
f 1350/4/6 1351/4/6 1355/4/6
f 1353/4/6 1354/4/6 1355/4/6
f 1352/4/6 1353/4/6 1355/4/6
f 1351/4/6 1352/4/6 1355/4/6
f 1349/4/6 1350/4/6 1355/4/6
f 1355/4/6 1354/4/6 1356/4/6
f 1356/4/6 1354/4/6 1357/4/6
f 1357/4/6 1354/4/6 1358/4/6
f 1356/4/6 1357/4/6 1360/4/6
f 1360/4/6 1357/4/6 1361/4/6
f 1359/4/6 1360/4/6 1363/4/6
f 1361/4/6 1362/4/6 1363/4/6
f 1360/4/6 1361/4/6 1363/4/6
f 1363/4/6 1362/4/6 1364/4/6
f 1364/4/6 1362/4/6 1365/4/6
f 1365/4/6 1362/4/6 1366/4/6
f 1366/4/6 1362/4/6 1367/4/6
f 1367/4/6 1362/4/6 1368/4/6
f 1364/4/6 1365/4/6 1369/4/6
f 1369/4/6 1365/4/6 1370/4/6
f 1366/4/6 1367/4/6 1371/4/6
f 1371/4/6 1367/4/6 1372/4/6
f 1373/8/6 1374/8/6 1376/8/6
f 1376/8/6 1374/8/6 1377/8/6
f 1375/8/6 1376/8/6 1380/8/6
f 1376/3/6 1377/3/6 1381/3/6
f 1380/8/6 1376/8/6 1381/8/6
f 1381/3/6 1377/3/6 1382/3/6
f 1382/3/6 1377/3/6 1383/3/6
f 1377/8/6 1378/8/6 1384/8/6
f 1383/3/6 1377/3/6 1384/3/6
f 1384/8/6 1378/8/6 1385/8/6
f 1379/8/6 1380/8/6 1388/8/6
f 1380/3/6 1381/3/6 1389/3/6
f 1388/8/6 1380/8/6 1389/8/6
f 1389/3/6 1381/3/6 1390/3/6
f 1382/3/6 1383/3/6 1391/3/6
f 1391/3/6 1383/3/6 1392/3/6
f 1384/3/6 1385/3/6 1393/3/6
f 1385/8/6 1386/8/6 1394/8/6
f 1393/3/6 1385/3/6 1394/3/6
f 1394/8/6 1386/8/6 1395/8/6
f 1388/3/6 1389/3/6 1397/3/6
f 1394/3/6 1395/3/6 1400/3/6
f 1397/3/6 1398/3/6 1401/3/6
f 1388/3/6 1397/3/6 1401/3/6
f 1401/3/6 1398/3/6 1402/3/6
f 1399/3/6 1400/3/6 1403/3/6
f 1400/3/6 1395/3/6 1404/3/6
f 1403/3/6 1400/3/6 1404/3/6
f 1387/8/6 1388/8/6 1405/8/6
f 1388/3/6 1401/3/6 1406/3/6
f 1405/8/6 1388/8/6 1406/8/6
f 1406/3/6 1401/3/6 1407/3/6
f 1404/3/6 1395/3/6 1412/3/6
f 1395/8/6 1396/8/6 1413/8/6
f 1412/3/6 1395/3/6 1413/3/6
f 1413/8/6 1396/8/6 1414/8/6
f 1406/8/6 1407/8/6 1415/8/6
f 1407/3/6 1408/3/6 1416/3/6
f 1415/8/6 1407/8/6 1416/8/6
f 1416/3/6 1408/3/6 1417/3/6
f 1409/3/6 1410/3/6 1418/3/6
f 1418/3/6 1410/3/6 1419/3/6
f 1411/3/6 1412/3/6 1420/3/6
f 1412/8/6 1413/8/6 1421/8/6
f 1420/3/6 1412/3/6 1421/3/6
f 1421/8/6 1413/8/6 1422/8/6
f 1416/8/6 1417/8/6 1423/8/6
f 1418/3/6 1419/3/6 1424/3/6
f 1423/8/6 1417/8/6 1424/8/6
f 1419/3/6 1420/3/6 1424/3/6
f 1417/3/6 1418/3/6 1424/3/6
f 1420/8/6 1421/8/6 1425/8/6
f 1424/3/6 1420/3/6 1425/3/6
f 1425/8/6 1421/8/6 1426/8/6
f 1424/8/6 1425/8/6 1427/8/6
f 1427/8/6 1425/8/6 1428/8/6
f 1429/8/6 1430/8/6 1434/8/6
f 1434/8/6 1430/8/6 1435/8/6
f 1431/8/6 1432/8/6 1436/8/6
f 1436/8/6 1432/8/6 1437/8/6
f 1433/8/6 1434/8/6 1440/8/6
f 1440/8/6 1434/8/6 1441/8/6
f 1437/8/6 1438/8/6 1442/8/6
f 1442/8/6 1438/8/6 1443/8/6
f 1439/8/6 1440/8/6 1445/8/6
f 1445/8/6 1440/8/6 1446/8/6
f 1443/8/6 1444/8/6 1447/8/6
f 1447/8/6 1444/8/6 1448/8/6
f 1449/8/6 1450/8/6 1453/8/6
f 1453/8/6 1450/8/6 1454/8/6
f 1451/8/6 1452/8/6 1457/8/6
f 1457/8/6 1452/8/6 1458/8/6
f 1454/8/6 1455/8/6 1459/8/6
f 1459/8/6 1455/8/6 1460/8/6
f 1456/8/6 1457/8/6 1463/8/6
f 1463/8/6 1457/8/6 1464/8/6
f 1460/8/6 1461/8/6 1465/8/6
f 1465/8/6 1461/8/6 1466/8/6
f 1462/8/6 1463/8/6 1467/8/6
f 1467/8/6 1463/8/6 1468/8/6
