# MagicaVoxel @ Ephtracy

# group
o 

# material
mtllib NEW GAME-41.mtl
usemtl palette

# normals
vn -1 0 0
vn 1 0 0
vn 0 0 1
vn 0 0 -1
vn 0 -1 0
vn 0 1 0

# texcoords
vt 0.00585938 0.5
vt 0.345703 0.5
vt 0.376953 0.5
vt 0.716797 0.5
vt 0.724609 0.5
vt 0.853516 0.5
vt 0.865234 0.5
vt 0.962891 0.5
vt 0.986328 0.5
vt 0.990234 0.5
vt 0.994141 0.5

# verts
v -0.5 0.8 0.4
v -0.5 0.8 0.3
v -0.5 0.8 -0.3
v -0.5 0.8 -0.4
v -0.5 0.9 0.4
v -0.5 0.9 0.3
v -0.5 0.9 -0.3
v -0.5 0.9 -0.4
v -0.4 0.7 0.3
v -0.4 0.7 0.2
v -0.4 0.7 -0.2
v -0.4 0.7 -0.3
v -0.4 0.8 0.5
v -0.4 0.8 0.4
v -0.4 0.8 0.3
v -0.4 0.8 0.2
v -0.4 0.8 -0.2
v -0.4 0.8 -0.3
v -0.4 0.8 -0.4
v -0.4 0.8 -0.5
v -0.4 0.9 0.5
v -0.4 0.9 0.4
v -0.4 0.9 0.3
v -0.4 0.9 -0.3
v -0.4 0.9 -0.4
v -0.4 0.9 -0.5
v -0.4 1 0.4
v -0.4 1 0.3
v -0.4 1 -0.3
v -0.4 1 -0.4
v -0.3 0.1 0.2
v -0.3 0.1 0.1
v -0.3 0.1 -0.1
v -0.3 0.1 -0.2
v -0.3 0.3 0.2
v -0.3 0.3 0.1
v -0.3 0.3 -0.1
v -0.3 0.3 -0.2
v -0.3 0.4 0.1
v -0.3 0.4 -0.1
v -0.3 0.5 0.1
v -0.3 0.5 -0.1
v -0.3 0.6 0.2
v -0.3 0.6 0.1
v -0.3 0.6 -0.1
v -0.3 0.6 -0.2
v -0.3 0.7 0.4
v -0.3 0.7 0.3
v -0.3 0.7 0.2
v -0.3 0.7 0.1
v -0.3 0.7 -0.1
v -0.3 0.7 -0.2
v -0.3 0.7 -0.3
v -0.3 0.7 -0.4
v -0.3 0.8 0.4
v -0.3 0.8 0.3
v -0.3 0.8 0.2
v -0.3 0.8 0.1
v -0.3 0.8 -0.1
v -0.3 0.8 -0.2
v -0.3 0.8 -0.3
v -0.3 0.8 -0.4
v -0.3 0.9 0.2
v -0.3 0.9 0.1
v -0.3 0.9 -0.1
v -0.3 0.9 -0.2
v -0.2 0 0.1
v -0.2 0 -0.1
v -0.2 0.1 0.3
v -0.2 0.1 0.2
v -0.2 0.1 0.1
v -0.2 0.1 -0.1
v -0.2 0.1 -0.2
v -0.2 0.1 -0.3
v -0.2 0.3 0.3
v -0.2 0.3 0.2
v -0.2 0.3 0.1
v -0.2 0.3 -0.1
v -0.2 0.3 -0.2
v -0.2 0.3 -0.3
v -0.2 0.4 0.1
v -0.2 0.4 -0.1
v -0.2 0.5 0.1
v -0.2 0.5 -0.1
v -0.2 0.6 0.3
v -0.2 0.6 0.2
v -0.2 0.6 0.1
v -0.2 0.6 -0.1
v -0.2 0.6 -0.2
v -0.2 0.6 -0.3
v -0.2 0.7 0.3
v -0.2 0.7 0.2
v -0.2 0.7 0.1
v -0.2 0.7 -0.1
v -0.2 0.7 -0.2
v -0.2 0.7 -0.3
v -0.2 0.8 0.3
v -0.2 0.8 0.2
v -0.2 0.8 0.1
v -0.2 0.8 -0.1
v -0.2 0.8 -0.2
v -0.2 0.8 -0.3
v -0.2 0.9 0.3
v -0.2 0.9 0.2
v -0.2 0.9 -0.2
v -0.2 0.9 -0.3
v -0.1 0 0.2
v -0.1 0 0.1
v -0.1 0 -0.1
v -0.1 0 -0.2
v -0.1 0.1 0.2
v -0.1 0.1 0.1
v -0.1 0.1 -0.1
v -0.1 0.1 -0.2
v -0.1 0.3 0.3
v -0.1 0.3 0.2
v -0.1 0.3 0.1
v -0.1 0.3 -0.1
v -0.1 0.3 -0.2
v -0.1 0.3 -0.3
v -0.1 0.4 0.3
v -0.1 0.4 0.2
v -0.1 0.4 0.1
v -0.1 0.4 -0.1
v -0.1 0.4 -0.2
v -0.1 0.4 -0.3
v -0.1 0.5 0.3
v -0.1 0.5 0.2
v -0.1 0.5 0.1
v -0.1 0.5 -0.1
v -0.1 0.5 -0.2
v -0.1 0.5 -0.3
v -0.1 0.6 0.3
v -0.1 0.6 0.2
v -0.1 0.6 -0.2
v -0.1 0.6 -0.3
v -0.1 0.7 0.3
v -0.1 0.7 0.2
v -0.1 0.7 -0.2
v -0.1 0.7 -0.3
v -0.1 0.8 0.3
v -0.1 0.8 0.2
v -0.1 0.8 -0.2
v -0.1 0.8 -0.3
v 0.1 0.1 0.3
v 0.1 0.1 0.2
v 0.1 0.1 -0.2
v 0.1 0.1 -0.3
v 0.1 0.3 0.3
v 0.1 0.3 0.2
v 0.1 0.3 0.1
v 0.1 0.3 -0.1
v 0.1 0.3 -0.2
v 0.1 0.3 -0.3
v 0.1 0.4 0.2
v 0.1 0.4 0.1
v 0.1 0.4 -0.1
v 0.1 0.4 -0.2
v 0.1 0.5 0.2
v 0.1 0.5 0.1
v 0.1 0.5 -0.1
v 0.1 0.5 -0.2
v 0.1 0.8 0.3
v 0.1 0.8 0.2
v 0.1 0.8 -0.2
v 0.1 0.8 -0.3
v 0.1 0.9 0.3
v 0.1 0.9 0.2
v 0.1 0.9 -0.2
v 0.1 0.9 -0.3
v 0.2 0.7 0.4
v 0.2 0.7 0.3
v 0.2 0.7 0.2
v 0.2 0.7 -0.2
v 0.2 0.7 -0.3
v 0.2 0.7 -0.4
v 0.2 0.8 0.4
v 0.2 0.8 0.3
v 0.2 0.8 0.2
v 0.2 0.8 0.1
v 0.2 0.8 -0.1
v 0.2 0.8 -0.2
v 0.2 0.8 -0.3
v 0.2 0.8 -0.4
v 0.2 0.9 0.2
v 0.2 0.9 0.1
v 0.2 0.9 -0.1
v 0.2 0.9 -0.2
v 0.3 0.8 0.5
v 0.3 0.8 0.4
v 0.3 0.8 0.3
v 0.3 0.8 -0.3
v 0.3 0.8 -0.4
v 0.3 0.8 -0.5
v 0.3 0.9 0.5
v 0.3 0.9 0.4
v 0.3 0.9 0.3
v 0.3 0.9 -0.3
v 0.3 0.9 -0.4
v 0.3 0.9 -0.5
v 0.3 1 0.4
v 0.3 1 0.3
v 0.3 1 -0.3
v 0.3 1 -0.4
v -0.3 0.8 0.5
v -0.3 0.8 0.4
v -0.3 0.8 0.3
v -0.3 0.8 -0.3
v -0.3 0.8 -0.4
v -0.3 0.8 -0.5
v -0.3 0.9 0.5
v -0.3 0.9 0.4
v -0.3 0.9 0.3
v -0.3 0.9 -0.3
v -0.3 0.9 -0.4
v -0.3 0.9 -0.5
v -0.3 1 0.4
v -0.3 1 0.3
v -0.3 1 -0.3
v -0.3 1 -0.4
v -0.2 0.3 0.1
v -0.2 0.3 -0.1
v -0.2 0.4 0.1
v -0.2 0.4 -0.1
v -0.2 0.7 0.4
v -0.2 0.7 0.3
v -0.2 0.7 0.2
v -0.2 0.7 -0.2
v -0.2 0.7 -0.3
v -0.2 0.7 -0.4
v -0.2 0.8 0.4
v -0.2 0.8 0.3
v -0.2 0.8 0.2
v -0.2 0.8 0.1
v -0.2 0.8 -0.1
v -0.2 0.8 -0.2
v -0.2 0.8 -0.3
v -0.2 0.8 -0.4
v -0.2 0.9 0.2
v -0.2 0.9 0.1
v -0.2 0.9 -0.1
v -0.2 0.9 -0.2
v -0.1 0.1 0.3
v -0.1 0.1 0.2
v -0.1 0.1 -0.2
v -0.1 0.1 -0.3
v -0.1 0.3 0.3
v -0.1 0.3 0.2
v -0.1 0.3 0.1
v -0.1 0.3 -0.1
v -0.1 0.3 -0.2
v -0.1 0.3 -0.3
v -0.1 0.4 0.2
v -0.1 0.4 0.1
v -0.1 0.4 -0.1
v -0.1 0.4 -0.2
v -0.1 0.5 0.2
v -0.1 0.5 0.1
v -0.1 0.5 -0.1
v -0.1 0.5 -0.2
v -0.1 0.8 0.3
v -0.1 0.8 0.2
v -0.1 0.8 -0.2
v -0.1 0.8 -0.3
v -0.1 0.9 0.3
v -0.1 0.9 0.2
v -0.1 0.9 -0.2
v -0.1 0.9 -0.3
v 0.1 0 0.2
v 0.1 0 0.1
v 0.1 0 -0.1
v 0.1 0 -0.2
v 0.1 0.1 0.2
v 0.1 0.1 0.1
v 0.1 0.1 -0.1
v 0.1 0.1 -0.2
v 0.1 0.3 0.3
v 0.1 0.3 0.2
v 0.1 0.3 -0.2
v 0.1 0.3 -0.3
v 0.1 0.4 0.3
v 0.1 0.4 0.2
v 0.1 0.4 0.1
v 0.1 0.4 -0.1
v 0.1 0.4 -0.2
v 0.1 0.4 -0.3
v 0.1 0.5 0.3
v 0.1 0.5 0.2
v 0.1 0.5 0.1
v 0.1 0.5 -0.1
v 0.1 0.5 -0.2
v 0.1 0.5 -0.3
v 0.1 0.6 0.3
v 0.1 0.6 0.2
v 0.1 0.6 -0.2
v 0.1 0.6 -0.3
v 0.1 0.7 0.3
v 0.1 0.7 0.2
v 0.1 0.7 -0.2
v 0.1 0.7 -0.3
v 0.1 0.8 0.3
v 0.1 0.8 0.2
v 0.1 0.8 -0.2
v 0.1 0.8 -0.3
v 0.2 0 0.1
v 0.2 0 -0.1
v 0.2 0.1 0.3
v 0.2 0.1 0.2
v 0.2 0.1 0.1
v 0.2 0.1 -0.1
v 0.2 0.1 -0.2
v 0.2 0.1 -0.3
v 0.2 0.3 0.3
v 0.2 0.3 0.2
v 0.2 0.3 0.1
v 0.2 0.3 -0.1
v 0.2 0.3 -0.2
v 0.2 0.3 -0.3
v 0.2 0.4 0.1
v 0.2 0.4 -0.1
v 0.2 0.5 0.1
v 0.2 0.5 -0.1
v 0.2 0.6 0.3
v 0.2 0.6 0.2
v 0.2 0.6 0.1
v 0.2 0.6 -0.1
v 0.2 0.6 -0.2
v 0.2 0.6 -0.3
v 0.2 0.7 0.3
v 0.2 0.7 0.2
v 0.2 0.7 0.1
v 0.2 0.7 -0.1
v 0.2 0.7 -0.2
v 0.2 0.7 -0.3
v 0.2 0.8 0.3
v 0.2 0.8 0.2
v 0.2 0.8 0.1
v 0.2 0.8 -0.1
v 0.2 0.8 -0.2
v 0.2 0.8 -0.3
v 0.2 0.9 0.3
v 0.2 0.9 0.2
v 0.2 0.9 -0.2
v 0.2 0.9 -0.3
v 0.3 0.1 0.2
v 0.3 0.1 0.1
v 0.3 0.1 -0.1
v 0.3 0.1 -0.2
v 0.3 0.3 0.2
v 0.3 0.3 0.1
v 0.3 0.3 -0.1
v 0.3 0.3 -0.2
v 0.3 0.4 0.1
v 0.3 0.4 -0.1
v 0.3 0.5 0.1
v 0.3 0.5 -0.1
v 0.3 0.6 0.2
v 0.3 0.6 0.1
v 0.3 0.6 -0.1
v 0.3 0.6 -0.2
v 0.3 0.7 0.4
v 0.3 0.7 0.3
v 0.3 0.7 0.2
v 0.3 0.7 0.1
v 0.3 0.7 -0.1
v 0.3 0.7 -0.2
v 0.3 0.7 -0.3
v 0.3 0.7 -0.4
v 0.3 0.8 0.4
v 0.3 0.8 0.3
v 0.3 0.8 0.2
v 0.3 0.8 0.1
v 0.3 0.8 -0.1
v 0.3 0.8 -0.2
v 0.3 0.8 -0.3
v 0.3 0.8 -0.4
v 0.3 0.9 0.2
v 0.3 0.9 0.1
v 0.3 0.9 -0.1
v 0.3 0.9 -0.2
v 0.4 0.7 0.3
v 0.4 0.7 0.2
v 0.4 0.7 -0.2
v 0.4 0.7 -0.3
v 0.4 0.8 0.5
v 0.4 0.8 0.4
v 0.4 0.8 0.3
v 0.4 0.8 0.2
v 0.4 0.8 -0.2
v 0.4 0.8 -0.3
v 0.4 0.8 -0.4
v 0.4 0.8 -0.5
v 0.4 0.9 0.5
v 0.4 0.9 0.4
v 0.4 0.9 0.3
v 0.4 0.9 -0.3
v 0.4 0.9 -0.4
v 0.4 0.9 -0.5
v 0.4 1 0.4
v 0.4 1 0.3
v 0.4 1 -0.3
v 0.4 1 -0.4
v 0.5 0.8 0.4
v 0.5 0.8 0.3
v 0.5 0.8 -0.3
v 0.5 0.8 -0.4
v 0.5 0.9 0.4
v 0.5 0.9 0.3
v 0.5 0.9 -0.3
v 0.5 0.9 -0.4
v -0.4 0.8 0.5
v -0.4 0.9 0.5
v -0.3 0.8 0.5
v -0.3 0.9 0.5
v 0.3 0.8 0.5
v 0.3 0.9 0.5
v 0.4 0.8 0.5
v 0.4 0.9 0.5
v -0.5 0.8 0.4
v -0.5 0.9 0.4
v -0.4 0.8 0.4
v -0.4 0.9 0.4
v -0.4 1 0.4
v -0.3 0.7 0.4
v -0.3 0.8 0.4
v -0.3 0.9 0.4
v -0.3 1 0.4
v -0.2 0.7 0.4
v -0.2 0.8 0.4
v 0.2 0.7 0.4
v 0.2 0.8 0.4
v 0.3 0.7 0.4
v 0.3 0.8 0.4
v 0.3 0.9 0.4
v 0.3 1 0.4
v 0.4 0.8 0.4
v 0.4 0.9 0.4
v 0.4 1 0.4
v 0.5 0.8 0.4
v 0.5 0.9 0.4
v -0.4 0.7 0.3
v -0.4 0.8 0.3
v -0.3 0.7 0.3
v -0.3 0.8 0.3
v -0.2 0.1 0.3
v -0.2 0.3 0.3
v -0.2 0.6 0.3
v -0.2 0.7 0.3
v -0.2 0.8 0.3
v -0.2 0.9 0.3
v -0.1 0.1 0.3
v -0.1 0.3 0.3
v -0.1 0.4 0.3
v -0.1 0.5 0.3
v -0.1 0.6 0.3
v -0.1 0.7 0.3
v -0.1 0.8 0.3
v -0.1 0.9 0.3
v 0.1 0.1 0.3
v 0.1 0.3 0.3
v 0.1 0.4 0.3
v 0.1 0.5 0.3
v 0.1 0.6 0.3
v 0.1 0.7 0.3
v 0.1 0.8 0.3
v 0.1 0.9 0.3
v 0.2 0.1 0.3
v 0.2 0.3 0.3
v 0.2 0.6 0.3
v 0.2 0.7 0.3
v 0.2 0.8 0.3
v 0.2 0.9 0.3
v 0.3 0.7 0.3
v 0.3 0.8 0.3
v 0.4 0.7 0.3
v 0.4 0.8 0.3
v -0.3 0.1 0.2
v -0.3 0.3 0.2
v -0.3 0.6 0.2
v -0.3 0.7 0.2
v -0.3 0.8 0.2
v -0.3 0.9 0.2
v -0.2 0.1 0.2
v -0.2 0.3 0.2
v -0.2 0.6 0.2
v -0.2 0.7 0.2
v -0.2 0.8 0.2
v -0.2 0.9 0.2
v -0.1 0 0.2
v -0.1 0.1 0.2
v -0.1 0.3 0.2
v -0.1 0.4 0.2
v -0.1 0.5 0.2
v -0.1 0.6 0.2
v -0.1 0.7 0.2
v -0.1 0.8 0.2
v 0.1 0 0.2
v 0.1 0.1 0.2
v 0.1 0.3 0.2
v 0.1 0.4 0.2
v 0.1 0.5 0.2
v 0.1 0.6 0.2
v 0.1 0.7 0.2
v 0.1 0.8 0.2
v 0.2 0.1 0.2
v 0.2 0.3 0.2
v 0.2 0.6 0.2
v 0.2 0.7 0.2
v 0.2 0.8 0.2
v 0.2 0.9 0.2
v 0.3 0.1 0.2
v 0.3 0.3 0.2
v 0.3 0.6 0.2
v 0.3 0.7 0.2
v 0.3 0.8 0.2
v 0.3 0.9 0.2
v -0.3 0.3 0.1
v -0.3 0.4 0.1
v -0.3 0.5 0.1
v -0.3 0.6 0.1
v -0.3 0.7 0.1
v -0.3 0.8 0.1
v -0.2 0 0.1
v -0.2 0.1 0.1
v -0.2 0.3 0.1
v -0.2 0.4 0.1
v -0.2 0.5 0.1
v -0.2 0.6 0.1
v -0.2 0.7 0.1
v -0.2 0.8 0.1
v -0.1 0 0.1
v -0.1 0.1 0.1
v -0.1 0.3 0.1
v -0.1 0.4 0.1
v -0.1 0.5 0.1
v 0.1 0 0.1
v 0.1 0.1 0.1
v 0.1 0.3 0.1
v 0.1 0.4 0.1
v 0.1 0.5 0.1
v 0.2 0 0.1
v 0.2 0.1 0.1
v 0.2 0.3 0.1
v 0.2 0.4 0.1
v 0.2 0.5 0.1
v 0.2 0.6 0.1
v 0.2 0.7 0.1
v 0.2 0.8 0.1
v 0.3 0.3 0.1
v 0.3 0.4 0.1
v 0.3 0.5 0.1
v 0.3 0.6 0.1
v 0.3 0.7 0.1
v 0.3 0.8 0.1
v -0.3 0.1 -0.1
v -0.3 0.3 -0.1
v -0.3 0.8 -0.1
v -0.3 0.9 -0.1
v -0.2 0.1 -0.1
v -0.2 0.3 -0.1
v -0.2 0.4 -0.1
v -0.2 0.5 -0.1
v -0.2 0.8 -0.1
v -0.2 0.9 -0.1
v -0.1 0.3 -0.1
v -0.1 0.4 -0.1
v -0.1 0.5 -0.1
v 0.1 0.4 -0.1
v 0.1 0.5 -0.1
v 0.2 0.1 -0.1
v 0.2 0.3 -0.1
v 0.2 0.4 -0.1
v 0.2 0.5 -0.1
v 0.2 0.8 -0.1
v 0.2 0.9 -0.1
v 0.3 0.1 -0.1
v 0.3 0.3 -0.1
v 0.3 0.8 -0.1
v 0.3 0.9 -0.1
v -0.4 0.7 -0.2
v -0.4 0.8 -0.2
v -0.3 0.7 -0.2
v -0.3 0.8 -0.2
v -0.2 0.7 -0.2
v -0.2 0.8 -0.2
v -0.2 0.9 -0.2
v -0.1 0.3 -0.2
v -0.1 0.4 -0.2
v -0.1 0.8 -0.2
v -0.1 0.9 -0.2
v 0.1 0.3 -0.2
v 0.1 0.4 -0.2
v 0.1 0.8 -0.2
v 0.1 0.9 -0.2
v 0.2 0.7 -0.2
v 0.2 0.8 -0.2
v 0.2 0.9 -0.2
v 0.3 0.7 -0.2
v 0.3 0.8 -0.2
v 0.4 0.7 -0.2
v 0.4 0.8 -0.2
v -0.5 0.8 -0.3
v -0.5 0.9 -0.3
v -0.4 0.8 -0.3
v -0.4 0.9 -0.3
v -0.4 1 -0.3
v -0.3 0.8 -0.3
v -0.3 0.9 -0.3
v -0.3 1 -0.3
v 0.3 0.8 -0.3
v 0.3 0.9 -0.3
v 0.3 1 -0.3
v 0.4 0.8 -0.3
v 0.4 0.9 -0.3
v 0.4 1 -0.3
v 0.5 0.8 -0.3
v 0.5 0.9 -0.3
v -0.5 0.8 0.3
v -0.5 0.9 0.3
v -0.4 0.8 0.3
v -0.4 0.9 0.3
v -0.4 1 0.3
v -0.3 0.8 0.3
v -0.3 0.9 0.3
v -0.3 1 0.3
v 0.3 0.8 0.3
v 0.3 0.9 0.3
v 0.3 1 0.3
v 0.4 0.8 0.3
v 0.4 0.9 0.3
v 0.4 1 0.3
v 0.5 0.8 0.3
v 0.5 0.9 0.3
v -0.4 0.7 0.2
v -0.4 0.8 0.2
v -0.3 0.7 0.2
v -0.3 0.8 0.2
v -0.2 0.7 0.2
v -0.2 0.8 0.2
v -0.2 0.9 0.2
v -0.1 0.3 0.2
v -0.1 0.4 0.2
v -0.1 0.8 0.2
v -0.1 0.9 0.2
v 0.1 0.3 0.2
v 0.1 0.4 0.2
v 0.1 0.8 0.2
v 0.1 0.9 0.2
v 0.2 0.7 0.2
v 0.2 0.8 0.2
v 0.2 0.9 0.2
v 0.3 0.7 0.2
v 0.3 0.8 0.2
v 0.4 0.7 0.2
v 0.4 0.8 0.2
v -0.3 0.1 0.1
v -0.3 0.3 0.1
v -0.3 0.8 0.1
v -0.3 0.9 0.1
v -0.2 0.1 0.1
v -0.2 0.3 0.1
v -0.2 0.4 0.1
v -0.2 0.5 0.1
v -0.2 0.8 0.1
v -0.2 0.9 0.1
v -0.1 0.3 0.1
v -0.1 0.4 0.1
v -0.1 0.5 0.1
v 0.1 0.4 0.1
v 0.1 0.5 0.1
v 0.2 0.1 0.1
v 0.2 0.3 0.1
v 0.2 0.4 0.1
v 0.2 0.5 0.1
v 0.2 0.8 0.1
v 0.2 0.9 0.1
v 0.3 0.1 0.1
v 0.3 0.3 0.1
v 0.3 0.8 0.1
v 0.3 0.9 0.1
v -0.3 0.3 -0.1
v -0.3 0.4 -0.1
v -0.3 0.5 -0.1
v -0.3 0.6 -0.1
v -0.3 0.7 -0.1
v -0.3 0.8 -0.1
v -0.2 0 -0.1
v -0.2 0.1 -0.1
v -0.2 0.3 -0.1
v -0.2 0.4 -0.1
v -0.2 0.5 -0.1
v -0.2 0.6 -0.1
v -0.2 0.7 -0.1
v -0.2 0.8 -0.1
v -0.1 0 -0.1
v -0.1 0.1 -0.1
v -0.1 0.3 -0.1
v -0.1 0.4 -0.1
v -0.1 0.5 -0.1
v 0.1 0 -0.1
v 0.1 0.1 -0.1
v 0.1 0.3 -0.1
v 0.1 0.4 -0.1
v 0.1 0.5 -0.1
v 0.2 0 -0.1
v 0.2 0.1 -0.1
v 0.2 0.3 -0.1
v 0.2 0.4 -0.1
v 0.2 0.5 -0.1
v 0.2 0.6 -0.1
v 0.2 0.7 -0.1
v 0.2 0.8 -0.1
v 0.3 0.3 -0.1
v 0.3 0.4 -0.1
v 0.3 0.5 -0.1
v 0.3 0.6 -0.1
v 0.3 0.7 -0.1
v 0.3 0.8 -0.1
v -0.3 0.1 -0.2
v -0.3 0.3 -0.2
v -0.3 0.6 -0.2
v -0.3 0.7 -0.2
v -0.3 0.8 -0.2
v -0.3 0.9 -0.2
v -0.2 0.1 -0.2
v -0.2 0.3 -0.2
v -0.2 0.6 -0.2
v -0.2 0.7 -0.2
v -0.2 0.8 -0.2
v -0.2 0.9 -0.2
v -0.1 0 -0.2
v -0.1 0.1 -0.2
v -0.1 0.3 -0.2
v -0.1 0.4 -0.2
v -0.1 0.5 -0.2
v -0.1 0.6 -0.2
v -0.1 0.7 -0.2
v -0.1 0.8 -0.2
v 0.1 0 -0.2
v 0.1 0.1 -0.2
v 0.1 0.3 -0.2
v 0.1 0.4 -0.2
v 0.1 0.5 -0.2
v 0.1 0.6 -0.2
v 0.1 0.7 -0.2
v 0.1 0.8 -0.2
v 0.2 0.1 -0.2
v 0.2 0.3 -0.2
v 0.2 0.6 -0.2
v 0.2 0.7 -0.2
v 0.2 0.8 -0.2
v 0.2 0.9 -0.2
v 0.3 0.1 -0.2
v 0.3 0.3 -0.2
v 0.3 0.6 -0.2
v 0.3 0.7 -0.2
v 0.3 0.8 -0.2
v 0.3 0.9 -0.2
v -0.4 0.7 -0.3
v -0.4 0.8 -0.3
v -0.3 0.7 -0.3
v -0.3 0.8 -0.3
v -0.2 0.1 -0.3
v -0.2 0.3 -0.3
v -0.2 0.6 -0.3
v -0.2 0.7 -0.3
v -0.2 0.8 -0.3
v -0.2 0.9 -0.3
v -0.1 0.1 -0.3
v -0.1 0.3 -0.3
v -0.1 0.4 -0.3
v -0.1 0.5 -0.3
v -0.1 0.6 -0.3
v -0.1 0.7 -0.3
v -0.1 0.8 -0.3
v -0.1 0.9 -0.3
v 0.1 0.1 -0.3
v 0.1 0.3 -0.3
v 0.1 0.4 -0.3
v 0.1 0.5 -0.3
v 0.1 0.6 -0.3
v 0.1 0.7 -0.3
v 0.1 0.8 -0.3
v 0.1 0.9 -0.3
v 0.2 0.1 -0.3
v 0.2 0.3 -0.3
v 0.2 0.6 -0.3
v 0.2 0.7 -0.3
v 0.2 0.8 -0.3
v 0.2 0.9 -0.3
v 0.3 0.7 -0.3
v 0.3 0.8 -0.3
v 0.4 0.7 -0.3
v 0.4 0.8 -0.3
v -0.5 0.8 -0.4
v -0.5 0.9 -0.4
v -0.4 0.8 -0.4
v -0.4 0.9 -0.4
v -0.4 1 -0.4
v -0.3 0.7 -0.4
v -0.3 0.8 -0.4
v -0.3 0.9 -0.4
v -0.3 1 -0.4
v -0.2 0.7 -0.4
v -0.2 0.8 -0.4
v 0.2 0.7 -0.4
v 0.2 0.8 -0.4
v 0.3 0.7 -0.4
v 0.3 0.8 -0.4
v 0.3 0.9 -0.4
v 0.3 1 -0.4
v 0.4 0.8 -0.4
v 0.4 0.9 -0.4
v 0.4 1 -0.4
v 0.5 0.8 -0.4
v 0.5 0.9 -0.4
v -0.4 0.8 -0.5
v -0.4 0.9 -0.5
v -0.3 0.8 -0.5
v -0.3 0.9 -0.5
v 0.3 0.8 -0.5
v 0.3 0.9 -0.5
v 0.4 0.8 -0.5
v 0.4 0.9 -0.5
v -0.1 0 0.2
v 0.1 0 0.2
v -0.2 0 0.1
v -0.1 0 0.1
v 0.1 0 0.1
v 0.2 0 0.1
v -0.2 0 -0.1
v -0.1 0 -0.1
v 0.1 0 -0.1
v 0.2 0 -0.1
v -0.1 0 -0.2
v 0.1 0 -0.2
v -0.2 0.1 0.3
v -0.1 0.1 0.3
v 0.1 0.1 0.3
v 0.2 0.1 0.3
v -0.3 0.1 0.2
v -0.2 0.1 0.2
v -0.1 0.1 0.2
v 0.1 0.1 0.2
v 0.2 0.1 0.2
v 0.3 0.1 0.2
v -0.3 0.1 0.1
v -0.2 0.1 0.1
v -0.1 0.1 0.1
v 0.1 0.1 0.1
v 0.2 0.1 0.1
v 0.3 0.1 0.1
v -0.3 0.1 -0.1
v -0.2 0.1 -0.1
v -0.1 0.1 -0.1
v 0.1 0.1 -0.1
v 0.2 0.1 -0.1
v 0.3 0.1 -0.1
v -0.3 0.1 -0.2
v -0.2 0.1 -0.2
v -0.1 0.1 -0.2
v 0.1 0.1 -0.2
v 0.2 0.1 -0.2
v 0.3 0.1 -0.2
v -0.2 0.1 -0.3
v -0.1 0.1 -0.3
v 0.1 0.1 -0.3
v 0.2 0.1 -0.3
v -0.1 0.3 0.3
v 0.1 0.3 0.3
v -0.1 0.3 0.2
v 0.1 0.3 0.2
v -0.3 0.3 0.1
v -0.2 0.3 0.1
v 0.2 0.3 0.1
v 0.3 0.3 0.1
v -0.3 0.3 -0.1
v -0.2 0.3 -0.1
v 0.2 0.3 -0.1
v 0.3 0.3 -0.1
v -0.1 0.3 -0.2
v 0.1 0.3 -0.2
v -0.1 0.3 -0.3
v 0.1 0.3 -0.3
v -0.1 0.5 0.3
v 0.1 0.5 0.3
v -0.1 0.5 0.2
v 0.1 0.5 0.2
v -0.3 0.5 0.1
v -0.2 0.5 0.1
v -0.1 0.5 0.1
v 0.1 0.5 0.1
v 0.2 0.5 0.1
v 0.3 0.5 0.1
v -0.3 0.5 -0.1
v -0.2 0.5 -0.1
v -0.1 0.5 -0.1
v 0.1 0.5 -0.1
v 0.2 0.5 -0.1
v 0.3 0.5 -0.1
v -0.1 0.5 -0.2
v 0.1 0.5 -0.2
v -0.1 0.5 -0.3
v 0.1 0.5 -0.3
v -0.2 0.6 0.3
v -0.1 0.6 0.3
v 0.1 0.6 0.3
v 0.2 0.6 0.3
v -0.3 0.6 0.2
v -0.2 0.6 0.2
v -0.1 0.6 0.2
v 0.1 0.6 0.2
v 0.2 0.6 0.2
v 0.3 0.6 0.2
v -0.3 0.6 0.1
v -0.2 0.6 0.1
v 0.2 0.6 0.1
v 0.3 0.6 0.1
v -0.3 0.6 -0.1
v -0.2 0.6 -0.1
v 0.2 0.6 -0.1
v 0.3 0.6 -0.1
v -0.3 0.6 -0.2
v -0.2 0.6 -0.2
v -0.1 0.6 -0.2
v 0.1 0.6 -0.2
v 0.2 0.6 -0.2
v 0.3 0.6 -0.2
v -0.2 0.6 -0.3
v -0.1 0.6 -0.3
v 0.1 0.6 -0.3
v 0.2 0.6 -0.3
v -0.3 0.7 0.4
v -0.2 0.7 0.4
v 0.2 0.7 0.4
v 0.3 0.7 0.4
v -0.4 0.7 0.3
v -0.3 0.7 0.3
v -0.2 0.7 0.3
v 0.2 0.7 0.3
v 0.3 0.7 0.3
v 0.4 0.7 0.3
v -0.4 0.7 0.2
v -0.3 0.7 0.2
v -0.2 0.7 0.2
v 0.2 0.7 0.2
v 0.3 0.7 0.2
v 0.4 0.7 0.2
v -0.4 0.7 -0.2
v -0.3 0.7 -0.2
v -0.2 0.7 -0.2
v 0.2 0.7 -0.2
v 0.3 0.7 -0.2
v 0.4 0.7 -0.2
v -0.4 0.7 -0.3
v -0.3 0.7 -0.3
v -0.2 0.7 -0.3
v 0.2 0.7 -0.3
v 0.3 0.7 -0.3
v 0.4 0.7 -0.3
v -0.3 0.7 -0.4
v -0.2 0.7 -0.4
v 0.2 0.7 -0.4
v 0.3 0.7 -0.4
v -0.4 0.8 0.5
v -0.3 0.8 0.5
v 0.3 0.8 0.5
v 0.4 0.8 0.5
v -0.5 0.8 0.4
v -0.4 0.8 0.4
v -0.3 0.8 0.4
v 0.3 0.8 0.4
v 0.4 0.8 0.4
v 0.5 0.8 0.4
v -0.5 0.8 0.3
v -0.4 0.8 0.3
v -0.3 0.8 0.3
v -0.2 0.8 0.3
v -0.1 0.8 0.3
v 0.1 0.8 0.3
v 0.2 0.8 0.3
v 0.3 0.8 0.3
v 0.4 0.8 0.3
v 0.5 0.8 0.3
v -0.3 0.8 0.2
v -0.2 0.8 0.2
v -0.1 0.8 0.2
v 0.1 0.8 0.2
v 0.2 0.8 0.2
v 0.3 0.8 0.2
v -0.3 0.8 0.1
v -0.2 0.8 0.1
v 0.2 0.8 0.1
v 0.3 0.8 0.1
v -0.3 0.8 -0.1
v -0.2 0.8 -0.1
v 0.2 0.8 -0.1
v 0.3 0.8 -0.1
v -0.3 0.8 -0.2
v -0.2 0.8 -0.2
v -0.1 0.8 -0.2
v 0.1 0.8 -0.2
v 0.2 0.8 -0.2
v 0.3 0.8 -0.2
v -0.5 0.8 -0.3
v -0.4 0.8 -0.3
v -0.3 0.8 -0.3
v -0.2 0.8 -0.3
v -0.1 0.8 -0.3
v 0.1 0.8 -0.3
v 0.2 0.8 -0.3
v 0.3 0.8 -0.3
v 0.4 0.8 -0.3
v 0.5 0.8 -0.3
v -0.5 0.8 -0.4
v -0.4 0.8 -0.4
v -0.3 0.8 -0.4
v 0.3 0.8 -0.4
v 0.4 0.8 -0.4
v 0.5 0.8 -0.4
v -0.4 0.8 -0.5
v -0.3 0.8 -0.5
v 0.3 0.8 -0.5
v 0.4 0.8 -0.5
v -0.2 0.3 0.3
v -0.1 0.3 0.3
v 0.1 0.3 0.3
v 0.2 0.3 0.3
v -0.3 0.3 0.2
v -0.2 0.3 0.2
v -0.1 0.3 0.2
v 0.1 0.3 0.2
v 0.2 0.3 0.2
v 0.3 0.3 0.2
v -0.3 0.3 0.1
v -0.2 0.3 0.1
v -0.1 0.3 0.1
v 0.1 0.3 0.1
v 0.2 0.3 0.1
v 0.3 0.3 0.1
v -0.3 0.3 -0.1
v -0.2 0.3 -0.1
v -0.1 0.3 -0.1
v 0.1 0.3 -0.1
v 0.2 0.3 -0.1
v 0.3 0.3 -0.1
v -0.3 0.3 -0.2
v -0.2 0.3 -0.2
v -0.1 0.3 -0.2
v 0.1 0.3 -0.2
v 0.2 0.3 -0.2
v 0.3 0.3 -0.2
v -0.2 0.3 -0.3
v -0.1 0.3 -0.3
v 0.1 0.3 -0.3
v 0.2 0.3 -0.3
v -0.1 0.4 0.3
v 0.1 0.4 0.3
v -0.1 0.4 0.2
v 0.1 0.4 0.2
v -0.3 0.4 0.1
v -0.2 0.4 0.1
v 0.1 0.4 0.1
v 0.2 0.4 0.1
v 0.3 0.4 0.1
v -0.3 0.4 -0.1
v -0.2 0.4 -0.1
v 0.1 0.4 -0.1
v 0.2 0.4 -0.1
v 0.3 0.4 -0.1
v -0.1 0.4 -0.2
v 0.1 0.4 -0.2
v -0.1 0.4 -0.3
v 0.1 0.4 -0.3
v -0.2 0.7 0.3
v -0.1 0.7 0.3
v 0.1 0.7 0.3
v 0.2 0.7 0.3
v -0.3 0.7 0.2
v -0.2 0.7 0.2
v -0.1 0.7 0.2
v 0.1 0.7 0.2
v 0.2 0.7 0.2
v 0.3 0.7 0.2
v -0.3 0.7 0.1
v -0.2 0.7 0.1
v 0.2 0.7 0.1
v 0.3 0.7 0.1
v -0.3 0.7 -0.1
v -0.2 0.7 -0.1
v 0.2 0.7 -0.1
v 0.3 0.7 -0.1
v -0.3 0.7 -0.2
v -0.2 0.7 -0.2
v -0.1 0.7 -0.2
v 0.1 0.7 -0.2
v 0.2 0.7 -0.2
v 0.3 0.7 -0.2
v -0.2 0.7 -0.3
v -0.1 0.7 -0.3
v 0.1 0.7 -0.3
v 0.2 0.7 -0.3
v -0.3 0.8 0.4
v -0.2 0.8 0.4
v 0.2 0.8 0.4
v 0.3 0.8 0.4
v -0.4 0.8 0.3
v -0.3 0.8 0.3
v -0.2 0.8 0.3
v -0.1 0.8 0.3
v 0.1 0.8 0.3
v 0.2 0.8 0.3
v 0.3 0.8 0.3
v 0.4 0.8 0.3
v -0.4 0.8 0.2
v -0.3 0.8 0.2
v -0.2 0.8 0.2
v -0.1 0.8 0.2
v 0.1 0.8 0.2
v 0.2 0.8 0.2
v 0.3 0.8 0.2
v 0.4 0.8 0.2
v -0.3 0.8 0.1
v -0.2 0.8 0.1
v -0.1 0.8 0.1
v 0.1 0.8 0.1
v 0.2 0.8 0.1
v 0.3 0.8 0.1
v -0.3 0.8 -0.1
v -0.2 0.8 -0.1
v -0.1 0.8 -0.1
v 0.1 0.8 -0.1
v 0.2 0.8 -0.1
v 0.3 0.8 -0.1
v -0.4 0.8 -0.2
v -0.3 0.8 -0.2
v -0.2 0.8 -0.2
v -0.1 0.8 -0.2
v 0.1 0.8 -0.2
v 0.2 0.8 -0.2
v 0.3 0.8 -0.2
v 0.4 0.8 -0.2
v -0.4 0.8 -0.3
v -0.3 0.8 -0.3
v -0.2 0.8 -0.3
v -0.1 0.8 -0.3
v 0.1 0.8 -0.3
v 0.2 0.8 -0.3
v 0.3 0.8 -0.3
v 0.4 0.8 -0.3
v -0.3 0.8 -0.4
v -0.2 0.8 -0.4
v 0.2 0.8 -0.4
v 0.3 0.8 -0.4
v -0.4 0.9 0.5
v -0.3 0.9 0.5
v 0.3 0.9 0.5
v 0.4 0.9 0.5
v -0.5 0.9 0.4
v -0.4 0.9 0.4
v -0.3 0.9 0.4
v 0.3 0.9 0.4
v 0.4 0.9 0.4
v 0.5 0.9 0.4
v -0.5 0.9 0.3
v -0.4 0.9 0.3
v -0.2 0.9 0.3
v -0.1 0.9 0.3
v 0.1 0.9 0.3
v 0.2 0.9 0.3
v 0.4 0.9 0.3
v 0.5 0.9 0.3
v -0.3 0.9 0.2
v -0.2 0.9 0.2
v -0.1 0.9 0.2
v 0.1 0.9 0.2
v 0.2 0.9 0.2
v 0.3 0.9 0.2
v -0.3 0.9 0.1
v -0.2 0.9 0.1
v 0.2 0.9 0.1
v 0.3 0.9 0.1
v -0.3 0.9 -0.1
v -0.2 0.9 -0.1
v 0.2 0.9 -0.1
v 0.3 0.9 -0.1
v -0.3 0.9 -0.2
v -0.2 0.9 -0.2
v -0.1 0.9 -0.2
v 0.1 0.9 -0.2
v 0.2 0.9 -0.2
v 0.3 0.9 -0.2
v -0.5 0.9 -0.3
v -0.4 0.9 -0.3
v -0.2 0.9 -0.3
v -0.1 0.9 -0.3
v 0.1 0.9 -0.3
v 0.2 0.9 -0.3
v 0.4 0.9 -0.3
v 0.5 0.9 -0.3
v -0.5 0.9 -0.4
v -0.4 0.9 -0.4
v -0.3 0.9 -0.4
v 0.3 0.9 -0.4
v 0.4 0.9 -0.4
v 0.5 0.9 -0.4
v -0.4 0.9 -0.5
v -0.3 0.9 -0.5
v 0.3 0.9 -0.5
v 0.4 0.9 -0.5
v -0.4 1 0.4
v -0.3 1 0.4
v 0.3 1 0.4
v 0.4 1 0.4
v -0.4 1 0.3
v -0.3 1 0.3
v 0.3 1 0.3
v 0.4 1 0.3
v -0.4 1 -0.3
v -0.3 1 -0.3
v 0.3 1 -0.3
v 0.4 1 -0.3
v -0.4 1 -0.4
v -0.3 1 -0.4
v 0.3 1 -0.4
v 0.4 1 -0.4

# faces
f 5/6/1 2/6/1 1/6/1
f 6/6/1 2/6/1 5/6/1
f 7/6/1 4/6/1 3/6/1
f 8/6/1 4/6/1 7/6/1
f 15/7/1 10/7/1 9/7/1
f 16/7/1 10/7/1 15/7/1
f 17/7/1 12/7/1 11/7/1
f 18/7/1 12/7/1 17/7/1
f 21/6/1 14/6/1 13/6/1
f 22/6/1 14/6/1 21/6/1
f 25/6/1 20/6/1 19/6/1
f 26/6/1 20/6/1 25/6/1
f 27/6/1 23/6/1 22/6/1
f 28/6/1 23/6/1 27/6/1
f 29/6/1 25/6/1 24/6/1
f 30/6/1 25/6/1 29/6/1
f 35/8/1 32/8/1 31/8/1
f 36/8/1 32/8/1 35/8/1
f 37/8/1 34/8/1 33/8/1
f 38/8/1 34/8/1 37/8/1
f 39/8/1 37/8/1 36/8/1
f 40/8/1 37/8/1 39/8/1
f 44/11/1 42/11/1 41/11/1
f 45/11/1 42/11/1 44/11/1
f 49/10/1 45/10/1 44/10/1
f 49/10/1 44/10/1 43/10/1
f 49/10/1 46/10/1 45/10/1
f 50/10/1 46/10/1 49/10/1
f 51/10/1 46/10/1 50/10/1
f 52/10/1 46/10/1 51/10/1
f 55/7/1 48/7/1 47/7/1
f 56/7/1 48/7/1 55/7/1
f 58/1/1 51/1/1 50/1/1
f 59/1/1 51/1/1 58/1/1
f 61/7/1 54/7/1 53/7/1
f 62/7/1 54/7/1 61/7/1
f 63/1/1 58/1/1 57/1/1
f 64/1/1 58/1/1 63/1/1
f 65/1/1 60/1/1 59/1/1
f 66/1/1 60/1/1 65/1/1
f 71/10/1 68/10/1 67/10/1
f 72/10/1 68/10/1 71/10/1
f 75/8/1 70/8/1 69/8/1
f 76/8/1 70/8/1 75/8/1
f 77/2/1 72/2/1 71/2/1
f 78/2/1 72/2/1 77/2/1
f 79/8/1 74/8/1 73/8/1
f 80/8/1 74/8/1 79/8/1
f 81/11/1 77/11/1 76/11/1
f 82/11/1 79/11/1 78/11/1
f 83/11/1 81/11/1 76/11/1
f 84/11/1 79/11/1 82/11/1
f 86/11/1 83/11/1 76/11/1
f 87/11/1 83/11/1 86/11/1
f 88/11/1 79/11/1 84/11/1
f 89/11/1 79/11/1 88/11/1
f 91/10/1 86/10/1 85/10/1
f 92/10/1 86/10/1 91/10/1
f 95/10/1 90/10/1 89/10/1
f 96/10/1 90/10/1 95/10/1
f 98/11/1 93/11/1 92/11/1
f 99/11/1 93/11/1 98/11/1
f 100/11/1 95/11/1 94/11/1
f 101/11/1 95/11/1 100/11/1
f 103/1/1 98/1/1 97/1/1
f 104/1/1 98/1/1 103/1/1
f 105/1/1 102/1/1 101/1/1
f 106/1/1 102/1/1 105/1/1
f 111/10/1 108/10/1 107/10/1
f 112/10/1 108/10/1 111/10/1
f 113/10/1 110/10/1 109/10/1
f 114/10/1 110/10/1 113/10/1
f 121/8/1 116/8/1 115/8/1
f 122/8/1 116/8/1 121/8/1
f 123/11/1 118/11/1 117/11/1
f 124/11/1 118/11/1 123/11/1
f 125/8/1 120/8/1 119/8/1
f 126/8/1 120/8/1 125/8/1
f 129/4/1 124/4/1 123/4/1
f 130/4/1 124/4/1 129/4/1
f 133/11/1 128/11/1 127/11/1
f 134/11/1 128/11/1 133/11/1
f 135/11/1 132/11/1 131/11/1
f 136/11/1 132/11/1 135/11/1
f 141/1/1 138/1/1 137/1/1
f 142/1/1 138/1/1 141/1/1
f 143/1/1 140/1/1 139/1/1
f 144/1/1 140/1/1 143/1/1
f 149/8/1 146/8/1 145/8/1
f 150/8/1 146/8/1 149/8/1
f 153/8/1 148/8/1 147/8/1
f 154/8/1 148/8/1 153/8/1
f 155/11/1 151/11/1 150/11/1
f 156/11/1 151/11/1 155/11/1
f 157/11/1 153/11/1 152/11/1
f 158/11/1 153/11/1 157/11/1
f 159/11/1 156/11/1 155/11/1
f 160/11/1 156/11/1 159/11/1
f 161/11/1 158/11/1 157/11/1
f 162/11/1 158/11/1 161/11/1
f 167/1/1 164/1/1 163/1/1
f 168/1/1 164/1/1 167/1/1
f 169/1/1 166/1/1 165/1/1
f 170/1/1 166/1/1 169/1/1
f 177/7/1 172/7/1 171/7/1
f 178/10/1 173/10/1 172/10/1
f 178/7/1 172/7/1 177/7/1
f 179/10/1 173/10/1 178/10/1
f 182/10/1 175/10/1 174/10/1
f 183/7/1 176/7/1 175/7/1
f 183/10/1 175/10/1 182/10/1
f 184/7/1 176/7/1 183/7/1
f 185/1/1 180/1/1 179/1/1
f 186/1/1 180/1/1 185/1/1
f 187/1/1 182/1/1 181/1/1
f 188/1/1 182/1/1 187/1/1
f 195/6/1 190/6/1 189/6/1
f 196/7/1 191/7/1 190/7/1
f 196/6/1 190/6/1 195/6/1
f 197/7/1 191/7/1 196/7/1
f 198/7/1 193/7/1 192/7/1
f 199/6/1 194/6/1 193/6/1
f 199/7/1 193/7/1 198/7/1
f 200/6/1 194/6/1 199/6/1
f 201/6/1 197/6/1 196/6/1
f 202/6/1 197/6/1 201/6/1
f 203/6/1 199/6/1 198/6/1
f 204/6/1 199/6/1 203/6/1
f 205/6/2 206/6/2 211/6/2
f 206/7/2 207/7/2 212/7/2
f 211/6/2 206/6/2 212/6/2
f 212/7/2 207/7/2 213/7/2
f 208/7/2 209/7/2 214/7/2
f 209/6/2 210/6/2 215/6/2
f 214/7/2 209/7/2 215/7/2
f 215/6/2 210/6/2 216/6/2
f 212/6/2 213/6/2 217/6/2
f 217/6/2 213/6/2 218/6/2
f 214/6/2 215/6/2 219/6/2
f 219/6/2 215/6/2 220/6/2
f 221/8/2 222/8/2 223/8/2
f 223/8/2 222/8/2 224/8/2
f 225/7/2 226/7/2 231/7/2
f 226/10/2 227/10/2 232/10/2
f 231/7/2 226/7/2 232/7/2
f 232/10/2 227/10/2 233/10/2
f 228/10/2 229/10/2 236/10/2
f 229/7/2 230/7/2 237/7/2
f 236/10/2 229/10/2 237/10/2
f 237/7/2 230/7/2 238/7/2
f 233/1/2 234/1/2 239/1/2
f 239/1/2 234/1/2 240/1/2
f 235/1/2 236/1/2 241/1/2
f 241/1/2 236/1/2 242/1/2
f 243/8/2 244/8/2 247/8/2
f 247/8/2 244/8/2 248/8/2
f 245/8/2 246/8/2 251/8/2
f 251/8/2 246/8/2 252/8/2
f 248/11/2 249/11/2 253/11/2
f 253/11/2 249/11/2 254/11/2
f 250/11/2 251/11/2 255/11/2
f 255/11/2 251/11/2 256/11/2
f 253/11/2 254/11/2 257/11/2
f 257/11/2 254/11/2 258/11/2
f 255/11/2 256/11/2 259/11/2
f 259/11/2 256/11/2 260/11/2
f 261/1/2 262/1/2 265/1/2
f 265/1/2 262/1/2 266/1/2
f 263/1/2 264/1/2 267/1/2
f 267/1/2 264/1/2 268/1/2
f 269/10/2 270/10/2 273/10/2
f 273/10/2 270/10/2 274/10/2
f 271/10/2 272/10/2 275/10/2
f 275/10/2 272/10/2 276/10/2
f 277/8/2 278/8/2 281/8/2
f 281/8/2 278/8/2 282/8/2
f 279/8/2 280/8/2 285/8/2
f 285/8/2 280/8/2 286/8/2
f 283/4/2 284/4/2 289/4/2
f 289/4/2 284/4/2 290/4/2
f 287/11/2 288/11/2 293/11/2
f 293/11/2 288/11/2 294/11/2
f 291/11/2 292/11/2 295/11/2
f 295/11/2 292/11/2 296/11/2
f 297/1/2 298/1/2 301/1/2
f 301/1/2 298/1/2 302/1/2
f 299/1/2 300/1/2 303/1/2
f 303/1/2 300/1/2 304/1/2
f 305/10/2 306/10/2 309/10/2
f 309/10/2 306/10/2 310/10/2
f 307/8/2 308/8/2 313/8/2
f 313/8/2 308/8/2 314/8/2
f 309/2/2 310/2/2 315/2/2
f 315/2/2 310/2/2 316/2/2
f 311/8/2 312/8/2 317/8/2
f 317/8/2 312/8/2 318/8/2
f 314/11/2 315/11/2 319/11/2
f 316/11/2 317/11/2 320/11/2
f 314/11/2 319/11/2 321/11/2
f 320/11/2 317/11/2 322/11/2
f 314/11/2 321/11/2 324/11/2
f 324/11/2 321/11/2 325/11/2
f 322/11/2 317/11/2 326/11/2
f 326/11/2 317/11/2 327/11/2
f 323/10/2 324/10/2 329/10/2
f 329/10/2 324/10/2 330/10/2
f 327/10/2 328/10/2 333/10/2
f 333/10/2 328/10/2 334/10/2
f 330/11/2 331/11/2 336/11/2
f 336/11/2 331/11/2 337/11/2
f 332/11/2 333/11/2 338/11/2
f 338/11/2 333/11/2 339/11/2
f 335/1/2 336/1/2 341/1/2
f 341/1/2 336/1/2 342/1/2
f 339/1/2 340/1/2 343/1/2
f 343/1/2 340/1/2 344/1/2
f 345/8/2 346/8/2 349/8/2
f 349/8/2 346/8/2 350/8/2
f 347/8/2 348/8/2 351/8/2
f 351/8/2 348/8/2 352/8/2
f 350/8/2 351/8/2 353/8/2
f 353/8/2 351/8/2 354/8/2
f 355/11/2 356/11/2 358/11/2
f 358/11/2 356/11/2 359/11/2
f 358/10/2 359/10/2 363/10/2
f 357/10/2 358/10/2 363/10/2
f 359/10/2 360/10/2 363/10/2
f 363/10/2 360/10/2 364/10/2
f 364/10/2 360/10/2 365/10/2
f 365/10/2 360/10/2 366/10/2
f 361/7/2 362/7/2 369/7/2
f 369/7/2 362/7/2 370/7/2
f 364/1/2 365/1/2 372/1/2
f 372/1/2 365/1/2 373/1/2
f 367/7/2 368/7/2 375/7/2
f 375/7/2 368/7/2 376/7/2
f 371/1/2 372/1/2 377/1/2
f 377/1/2 372/1/2 378/1/2
f 373/1/2 374/1/2 379/1/2
f 379/1/2 374/1/2 380/1/2
f 381/7/2 382/7/2 387/7/2
f 387/7/2 382/7/2 388/7/2
f 383/7/2 384/7/2 389/7/2
f 389/7/2 384/7/2 390/7/2
f 385/6/2 386/6/2 393/6/2
f 393/6/2 386/6/2 394/6/2
f 391/6/2 392/6/2 397/6/2
f 397/6/2 392/6/2 398/6/2
f 394/6/2 395/6/2 399/6/2
f 399/6/2 395/6/2 400/6/2
f 396/6/2 397/6/2 401/6/2
f 401/6/2 397/6/2 402/6/2
f 403/6/2 404/6/2 407/6/2
f 407/6/2 404/6/2 408/6/2
f 405/6/2 406/6/2 409/6/2
f 409/6/2 406/6/2 410/6/2
f 413/6/3 412/6/3 411/6/3
f 414/6/3 412/6/3 413/6/3
f 417/6/3 416/6/3 415/6/3
f 418/6/3 416/6/3 417/6/3
f 421/6/3 420/6/3 419/6/3
f 422/6/3 420/6/3 421/6/3
f 426/6/3 423/6/3 422/6/3
f 427/6/3 423/6/3 426/6/3
f 428/7/3 425/7/3 424/7/3
f 429/7/3 425/7/3 428/7/3
f 432/7/3 431/7/3 430/7/3
f 433/7/3 431/7/3 432/7/3
f 437/6/3 435/6/3 434/6/3
f 438/6/3 435/6/3 437/6/3
f 439/6/3 437/6/3 436/6/3
f 440/6/3 437/6/3 439/6/3
f 443/7/3 442/7/3 441/7/3
f 444/7/3 442/7/3 443/7/3
f 451/8/3 446/8/3 445/8/3
f 452/8/3 446/8/3 451/8/3
f 455/10/3 448/10/3 447/10/3
f 456/10/3 448/10/3 455/10/3
f 457/1/3 450/1/3 449/1/3
f 458/1/3 450/1/3 457/1/3
f 460/8/3 453/8/3 452/8/3
f 461/8/3 453/8/3 460/8/3
f 462/11/3 455/11/3 454/11/3
f 463/10/3 456/10/3 455/10/3
f 463/11/3 455/11/3 462/11/3
f 464/1/3 457/1/3 456/1/3
f 464/10/3 456/10/3 463/10/3
f 465/1/3 457/1/3 464/1/3
f 467/8/3 460/8/3 459/8/3
f 468/8/3 460/8/3 467/8/3
f 469/10/3 464/10/3 463/10/3
f 470/10/3 464/10/3 469/10/3
f 471/1/3 466/1/3 465/1/3
f 472/1/3 466/1/3 471/1/3
f 475/7/3 474/7/3 473/7/3
f 476/7/3 474/7/3 475/7/3
f 483/8/3 478/8/3 477/8/3
f 484/8/3 478/8/3 483/8/3
f 485/10/3 480/10/3 479/10/3
f 486/10/3 480/10/3 485/10/3
f 487/1/3 482/1/3 481/1/3
f 488/1/3 482/1/3 487/1/3
f 491/11/3 485/11/3 484/11/3
f 492/11/3 485/11/3 491/11/3
f 493/11/3 485/11/3 492/11/3
f 494/11/3 485/11/3 493/11/3
f 495/11/3 487/11/3 486/11/3
f 496/11/3 487/11/3 495/11/3
f 497/10/3 490/10/3 489/10/3
f 498/2/3 491/2/3 490/2/3
f 498/10/3 490/10/3 497/10/3
f 499/2/3 491/2/3 498/2/3
f 506/11/3 502/11/3 501/11/3
f 506/11/3 501/11/3 500/11/3
f 506/11/3 500/11/3 499/11/3
f 507/11/3 502/11/3 506/11/3
f 508/11/3 504/11/3 503/11/3
f 509/11/3 504/11/3 508/11/3
f 511/8/3 506/8/3 505/8/3
f 512/8/3 506/8/3 511/8/3
f 513/10/3 508/10/3 507/10/3
f 514/10/3 508/10/3 513/10/3
f 515/1/3 510/1/3 509/1/3
f 516/1/3 510/1/3 515/1/3
f 525/8/3 518/8/3 517/8/3
f 526/8/3 518/8/3 525/8/3
f 527/11/3 520/11/3 519/11/3
f 528/11/3 520/11/3 527/11/3
f 529/1/3 522/1/3 521/1/3
f 530/1/3 522/1/3 529/1/3
f 531/10/3 524/10/3 523/10/3
f 532/10/3 524/10/3 531/10/3
f 538/11/3 534/11/3 533/11/3
f 539/4/3 535/4/3 534/4/3
f 539/11/3 534/11/3 538/11/3
f 540/4/3 535/4/3 539/4/3
f 541/10/3 537/10/3 536/10/3
f 542/10/3 537/10/3 541/10/3
f 549/8/3 544/8/3 543/8/3
f 550/8/3 544/8/3 549/8/3
f 551/11/3 546/11/3 545/11/3
f 552/11/3 546/11/3 551/11/3
f 553/1/3 548/1/3 547/1/3
f 554/1/3 548/1/3 553/1/3
f 559/8/3 556/8/3 555/8/3
f 560/8/3 556/8/3 559/8/3
f 563/1/3 558/1/3 557/1/3
f 564/1/3 558/1/3 563/1/3
f 565/11/3 562/11/3 561/11/3
f 565/11/3 561/11/3 560/11/3
f 566/11/3 562/11/3 565/11/3
f 567/11/3 562/11/3 566/11/3
f 572/11/3 569/11/3 568/11/3
f 573/11/3 569/11/3 572/11/3
f 576/8/3 571/8/3 570/8/3
f 577/8/3 571/8/3 576/8/3
f 578/1/3 575/1/3 574/1/3
f 579/1/3 575/1/3 578/1/3
f 582/7/3 581/7/3 580/7/3
f 583/7/3 581/7/3 582/7/3
f 584/10/3 583/10/3 582/10/3
f 585/10/3 583/10/3 584/10/3
f 589/1/3 586/1/3 585/1/3
f 590/1/3 586/1/3 589/1/3
f 591/8/3 588/8/3 587/8/3
f 592/8/3 588/8/3 591/8/3
f 596/1/3 594/1/3 593/1/3
f 597/1/3 594/1/3 596/1/3
f 598/10/3 596/10/3 595/10/3
f 599/10/3 596/10/3 598/10/3
f 600/7/3 599/7/3 598/7/3
f 601/7/3 599/7/3 600/7/3
f 604/6/3 603/6/3 602/6/3
f 605/6/3 603/6/3 604/6/3
f 607/7/3 605/7/3 604/7/3
f 608/6/3 606/6/3 605/6/3
f 608/7/3 605/7/3 607/7/3
f 609/6/3 606/6/3 608/6/3
f 613/7/3 611/7/3 610/7/3
f 614/6/3 612/6/3 611/6/3
f 614/7/3 611/7/3 613/7/3
f 615/6/3 612/6/3 614/6/3
f 616/6/3 614/6/3 613/6/3
f 617/6/3 614/6/3 616/6/3
f 618/6/4 619/6/4 620/6/4
f 620/6/4 619/6/4 621/6/4
f 620/7/4 621/7/4 623/7/4
f 621/6/4 622/6/4 624/6/4
f 623/7/4 621/7/4 624/7/4
f 624/6/4 622/6/4 625/6/4
f 626/7/4 627/7/4 629/7/4
f 627/6/4 628/6/4 630/6/4
f 629/7/4 627/7/4 630/7/4
f 630/6/4 628/6/4 631/6/4
f 629/6/4 630/6/4 632/6/4
f 632/6/4 630/6/4 633/6/4
f 634/7/4 635/7/4 636/7/4
f 636/7/4 635/7/4 637/7/4
f 636/10/4 637/10/4 638/10/4
f 638/10/4 637/10/4 639/10/4
f 639/1/4 640/1/4 643/1/4
f 643/1/4 640/1/4 644/1/4
f 641/8/4 642/8/4 645/8/4
f 645/8/4 642/8/4 646/8/4
f 647/1/4 648/1/4 650/1/4
f 650/1/4 648/1/4 651/1/4
f 649/10/4 650/10/4 652/10/4
f 652/10/4 650/10/4 653/10/4
f 652/7/4 653/7/4 654/7/4
f 654/7/4 653/7/4 655/7/4
f 656/8/4 657/8/4 660/8/4
f 660/8/4 657/8/4 661/8/4
f 658/1/4 659/1/4 664/1/4
f 664/1/4 659/1/4 665/1/4
f 662/11/4 663/11/4 666/11/4
f 661/11/4 662/11/4 666/11/4
f 666/11/4 663/11/4 667/11/4
f 667/11/4 663/11/4 668/11/4
f 669/11/4 670/11/4 673/11/4
f 673/11/4 670/11/4 674/11/4
f 671/8/4 672/8/4 677/8/4
f 677/8/4 672/8/4 678/8/4
f 675/1/4 676/1/4 679/1/4
f 679/1/4 676/1/4 680/1/4
f 681/8/4 682/8/4 689/8/4
f 689/8/4 682/8/4 690/8/4
f 683/11/4 684/11/4 691/11/4
f 691/11/4 684/11/4 692/11/4
f 685/1/4 686/1/4 693/1/4
f 693/1/4 686/1/4 694/1/4
f 687/10/4 688/10/4 695/10/4
f 695/10/4 688/10/4 696/10/4
f 697/11/4 698/11/4 702/11/4
f 698/4/4 699/4/4 703/4/4
f 702/11/4 698/11/4 703/11/4
f 703/4/4 699/4/4 704/4/4
f 700/10/4 701/10/4 705/10/4
f 705/10/4 701/10/4 706/10/4
f 707/8/4 708/8/4 713/8/4
f 713/8/4 708/8/4 714/8/4
f 709/11/4 710/11/4 715/11/4
f 715/11/4 710/11/4 716/11/4
f 711/1/4 712/1/4 717/1/4
f 717/1/4 712/1/4 718/1/4
f 719/8/4 720/8/4 725/8/4
f 725/8/4 720/8/4 726/8/4
f 721/10/4 722/10/4 727/10/4
f 727/10/4 722/10/4 728/10/4
f 723/1/4 724/1/4 729/1/4
f 729/1/4 724/1/4 730/1/4
f 726/11/4 727/11/4 733/11/4
f 733/11/4 727/11/4 734/11/4
f 734/11/4 727/11/4 735/11/4
f 735/11/4 727/11/4 736/11/4
f 728/11/4 729/11/4 737/11/4
f 737/11/4 729/11/4 738/11/4
f 731/10/4 732/10/4 739/10/4
f 732/2/4 733/2/4 740/2/4
f 739/10/4 732/10/4 740/10/4
f 740/2/4 733/2/4 741/2/4
f 743/11/4 744/11/4 748/11/4
f 742/11/4 743/11/4 748/11/4
f 741/11/4 742/11/4 748/11/4
f 748/11/4 744/11/4 749/11/4
f 745/11/4 746/11/4 750/11/4
f 750/11/4 746/11/4 751/11/4
f 747/8/4 748/8/4 753/8/4
f 753/8/4 748/8/4 754/8/4
f 749/10/4 750/10/4 755/10/4
f 755/10/4 750/10/4 756/10/4
f 751/1/4 752/1/4 757/1/4
f 757/1/4 752/1/4 758/1/4
f 759/7/4 760/7/4 761/7/4
f 761/7/4 760/7/4 762/7/4
f 763/8/4 764/8/4 769/8/4
f 769/8/4 764/8/4 770/8/4
f 765/10/4 766/10/4 773/10/4
f 773/10/4 766/10/4 774/10/4
f 767/1/4 768/1/4 775/1/4
f 775/1/4 768/1/4 776/1/4
f 770/8/4 771/8/4 778/8/4
f 778/8/4 771/8/4 779/8/4
f 772/11/4 773/11/4 780/11/4
f 773/10/4 774/10/4 781/10/4
f 780/11/4 773/11/4 781/11/4
f 774/1/4 775/1/4 782/1/4
f 781/10/4 774/10/4 782/10/4
f 782/1/4 775/1/4 783/1/4
f 777/8/4 778/8/4 785/8/4
f 785/8/4 778/8/4 786/8/4
f 781/10/4 782/10/4 787/10/4
f 787/10/4 782/10/4 788/10/4
f 783/1/4 784/1/4 789/1/4
f 789/1/4 784/1/4 790/1/4
f 791/7/4 792/7/4 793/7/4
f 793/7/4 792/7/4 794/7/4
f 795/6/4 796/6/4 797/6/4
f 797/6/4 796/6/4 798/6/4
f 798/6/4 799/6/4 802/6/4
f 802/6/4 799/6/4 803/6/4
f 800/7/4 801/7/4 804/7/4
f 804/7/4 801/7/4 805/7/4
f 806/7/4 807/7/4 808/7/4
f 808/7/4 807/7/4 809/7/4
f 810/6/4 811/6/4 813/6/4
f 813/6/4 811/6/4 814/6/4
f 812/6/4 813/6/4 815/6/4
f 815/6/4 813/6/4 816/6/4
f 817/6/4 818/6/4 819/6/4
f 819/6/4 818/6/4 820/6/4
f 821/6/4 822/6/4 823/6/4
f 823/6/4 822/6/4 824/6/4
f 828/10/5 826/10/5 825/10/5
f 829/10/5 826/10/5 828/10/5
f 831/10/5 828/10/5 827/10/5
f 832/5/5 829/5/5 828/5/5
f 832/10/5 828/10/5 831/10/5
f 833/10/5 830/10/5 829/10/5
f 833/5/5 829/5/5 832/5/5
f 834/10/5 830/10/5 833/10/5
f 835/10/5 833/10/5 832/10/5
f 836/10/5 833/10/5 835/10/5
f 842/8/5 838/8/5 837/8/5
f 843/8/5 838/8/5 842/8/5
f 844/8/5 840/8/5 839/8/5
f 845/8/5 840/8/5 844/8/5
f 847/8/5 842/8/5 841/8/5
f 848/10/5 843/10/5 842/10/5
f 848/8/5 842/8/5 847/8/5
f 849/10/5 843/10/5 848/10/5
f 850/10/5 845/10/5 844/10/5
f 851/8/5 846/8/5 845/8/5
f 851/10/5 845/10/5 850/10/5
f 852/8/5 846/8/5 851/8/5
f 859/8/5 854/8/5 853/8/5
f 860/10/5 855/10/5 854/10/5
f 860/8/5 854/8/5 859/8/5
f 861/10/5 855/10/5 860/10/5
f 862/10/5 857/10/5 856/10/5
f 863/8/5 858/8/5 857/8/5
f 863/10/5 857/10/5 862/10/5
f 864/8/5 858/8/5 863/8/5
f 865/8/5 861/8/5 860/8/5
f 866/8/5 861/8/5 865/8/5
f 867/8/5 863/8/5 862/8/5
f 868/8/5 863/8/5 867/8/5
f 871/8/5 870/8/5 869/8/5
f 872/8/5 870/8/5 871/8/5
f 877/8/5 874/8/5 873/8/5
f 878/8/5 874/8/5 877/8/5
f 879/8/5 876/8/5 875/8/5
f 880/8/5 876/8/5 879/8/5
f 883/8/5 882/8/5 881/8/5
f 884/8/5 882/8/5 883/8/5
f 887/11/5 886/11/5 885/11/5
f 888/11/5 886/11/5 887/11/5
f 891/9/5 888/9/5 887/9/5
f 892/9/5 888/9/5 891/9/5
f 895/11/5 890/11/5 889/11/5
f 896/9/5 891/9/5 890/9/5
f 896/11/5 890/11/5 895/11/5
f 897/9/5 891/9/5 896/9/5
f 898/9/5 893/9/5 892/9/5
f 899/11/5 894/11/5 893/11/5
f 899/9/5 893/9/5 898/9/5
f 900/11/5 894/11/5 899/11/5
f 901/9/5 898/9/5 897/9/5
f 902/9/5 898/9/5 901/9/5
f 903/11/5 902/11/5 901/11/5
f 904/11/5 902/11/5 903/11/5
f 910/10/5 906/10/5 905/10/5
f 911/10/5 906/10/5 910/10/5
f 912/10/5 908/10/5 907/10/5
f 913/10/5 908/10/5 912/10/5
f 915/10/5 910/10/5 909/10/5
f 916/10/5 910/10/5 915/10/5
f 917/10/5 914/10/5 913/10/5
f 918/10/5 914/10/5 917/10/5
f 923/10/5 920/10/5 919/10/5
f 924/10/5 920/10/5 923/10/5
f 927/10/5 922/10/5 921/10/5
f 928/10/5 922/10/5 927/10/5
f 929/10/5 925/10/5 924/10/5
f 930/10/5 925/10/5 929/10/5
f 931/10/5 927/10/5 926/10/5
f 932/10/5 927/10/5 931/10/5
f 938/7/5 934/7/5 933/7/5
f 939/7/5 934/7/5 938/7/5
f 940/7/5 936/7/5 935/7/5
f 941/7/5 936/7/5 940/7/5
f 943/7/5 938/7/5 937/7/5
f 944/10/5 939/10/5 938/10/5
f 944/7/5 938/7/5 943/7/5
f 945/10/5 939/10/5 944/10/5
f 946/10/5 941/10/5 940/10/5
f 947/7/5 942/7/5 941/7/5
f 947/10/5 941/10/5 946/10/5
f 948/7/5 942/7/5 947/7/5
f 955/7/5 950/7/5 949/7/5
f 956/10/5 951/10/5 950/10/5
f 956/7/5 950/7/5 955/7/5
f 957/10/5 951/10/5 956/10/5
f 958/10/5 953/10/5 952/10/5
f 959/7/5 954/7/5 953/7/5
f 959/10/5 953/10/5 958/10/5
f 960/7/5 954/7/5 959/7/5
f 961/7/5 957/7/5 956/7/5
f 962/7/5 957/7/5 961/7/5
f 963/7/5 959/7/5 958/7/5
f 964/7/5 959/7/5 963/7/5
f 970/6/5 966/6/5 965/6/5
f 971/6/5 966/6/5 970/6/5
f 972/6/5 968/6/5 967/6/5
f 973/6/5 968/6/5 972/6/5
f 975/6/5 970/6/5 969/6/5
f 976/7/5 971/7/5 970/7/5
f 976/6/5 970/6/5 975/6/5
f 977/7/5 971/7/5 976/7/5
f 982/7/5 973/7/5 972/7/5
f 983/6/5 974/6/5 973/6/5
f 983/7/5 973/7/5 982/7/5
f 984/6/5 974/6/5 983/6/5
f 986/1/5 979/1/5 978/1/5
f 987/1/5 979/1/5 986/1/5
f 988/1/5 981/1/5 980/1/5
f 989/1/5 981/1/5 988/1/5
f 991/1/5 986/1/5 985/1/5
f 992/1/5 986/1/5 991/1/5
f 993/1/5 990/1/5 989/1/5
f 994/1/5 990/1/5 993/1/5
f 999/1/5 996/1/5 995/1/5
f 1000/1/5 996/1/5 999/1/5
f 1003/1/5 998/1/5 997/1/5
f 1004/1/5 998/1/5 1003/1/5
f 1008/1/5 1001/1/5 1000/1/5
f 1009/1/5 1001/1/5 1008/1/5
f 1010/1/5 1003/1/5 1002/1/5
f 1011/1/5 1003/1/5 1010/1/5
f 1015/6/5 1006/6/5 1005/6/5
f 1016/7/5 1007/7/5 1006/7/5
f 1016/6/5 1006/6/5 1015/6/5
f 1017/7/5 1007/7/5 1016/7/5
f 1018/7/5 1013/7/5 1012/7/5
f 1019/6/5 1014/6/5 1013/6/5
f 1019/7/5 1013/7/5 1018/7/5
f 1020/6/5 1014/6/5 1019/6/5
f 1021/6/5 1017/6/5 1016/6/5
f 1022/6/5 1017/6/5 1021/6/5
f 1023/6/5 1019/6/5 1018/6/5
f 1024/6/5 1019/6/5 1023/6/5
f 1025/8/6 1026/8/6 1030/8/6
f 1030/8/6 1026/8/6 1031/8/6
f 1027/8/6 1028/8/6 1032/8/6
f 1032/8/6 1028/8/6 1033/8/6
f 1029/8/6 1030/8/6 1035/8/6
f 1035/8/6 1030/8/6 1036/8/6
f 1031/2/6 1032/2/6 1037/2/6
f 1037/2/6 1032/2/6 1038/2/6
f 1033/8/6 1034/8/6 1039/8/6
f 1039/8/6 1034/8/6 1040/8/6
f 1036/2/6 1037/2/6 1042/2/6
f 1042/2/6 1037/2/6 1043/2/6
f 1041/8/6 1042/8/6 1047/8/6
f 1047/8/6 1042/8/6 1048/8/6
f 1043/2/6 1044/2/6 1049/2/6
f 1049/2/6 1044/2/6 1050/2/6
f 1045/8/6 1046/8/6 1051/8/6
f 1051/8/6 1046/8/6 1052/8/6
f 1048/8/6 1049/8/6 1053/8/6
f 1053/8/6 1049/8/6 1054/8/6
f 1050/8/6 1051/8/6 1055/8/6
f 1055/8/6 1051/8/6 1056/8/6
f 1057/8/6 1058/8/6 1059/8/6
f 1059/8/6 1058/8/6 1060/8/6
f 1061/8/6 1062/8/6 1066/8/6
f 1066/8/6 1062/8/6 1067/8/6
f 1064/8/6 1065/8/6 1068/8/6
f 1063/8/6 1064/8/6 1068/8/6
f 1068/8/6 1065/8/6 1069/8/6
f 1069/8/6 1065/8/6 1070/8/6
f 1071/8/6 1072/8/6 1073/8/6
f 1073/8/6 1072/8/6 1074/8/6
f 1075/10/6 1076/10/6 1080/10/6
f 1080/10/6 1076/10/6 1081/10/6
f 1077/10/6 1078/10/6 1082/10/6
f 1082/10/6 1078/10/6 1083/10/6
f 1079/10/6 1080/10/6 1085/10/6
f 1085/10/6 1080/10/6 1086/10/6
f 1083/10/6 1084/10/6 1087/10/6
f 1087/10/6 1084/10/6 1088/10/6
f 1089/10/6 1090/10/6 1093/10/6
f 1093/10/6 1090/10/6 1094/10/6
f 1091/10/6 1092/10/6 1097/10/6
f 1097/10/6 1092/10/6 1098/10/6
f 1094/10/6 1095/10/6 1099/10/6
f 1099/10/6 1095/10/6 1100/10/6
f 1096/10/6 1097/10/6 1101/10/6
f 1101/10/6 1097/10/6 1102/10/6
f 1103/7/6 1104/7/6 1108/7/6
f 1108/7/6 1104/7/6 1109/7/6
f 1105/7/6 1106/7/6 1112/7/6
f 1112/7/6 1106/7/6 1113/7/6
f 1107/7/6 1108/7/6 1115/7/6
f 1108/10/6 1109/10/6 1116/10/6
f 1115/7/6 1108/7/6 1116/7/6
f 1116/10/6 1109/10/6 1117/10/6
f 1110/1/6 1111/1/6 1118/1/6
f 1118/1/6 1111/1/6 1119/1/6
f 1112/10/6 1113/10/6 1120/10/6
f 1113/7/6 1114/7/6 1121/7/6
f 1120/10/6 1113/10/6 1121/10/6
f 1121/7/6 1114/7/6 1122/7/6
f 1119/11/6 1120/11/6 1124/11/6
f 1117/11/6 1118/11/6 1124/11/6
f 1118/11/6 1119/11/6 1124/11/6
f 1124/11/6 1120/11/6 1125/11/6
f 1125/11/6 1120/11/6 1126/11/6
f 1126/11/6 1120/11/6 1127/11/6
f 1123/1/6 1124/1/6 1129/1/6
f 1124/11/6 1125/11/6 1130/11/6
f 1129/1/6 1124/1/6 1130/1/6
f 1125/3/6 1126/3/6 1131/3/6
f 1130/11/6 1125/11/6 1131/11/6
f 1126/11/6 1127/11/6 1132/11/6
f 1131/3/6 1126/3/6 1132/3/6
f 1127/1/6 1128/1/6 1133/1/6
f 1132/11/6 1127/11/6 1133/11/6
f 1133/1/6 1128/1/6 1134/1/6
f 1131/11/6 1132/11/6 1137/11/6
f 1130/11/6 1131/11/6 1137/11/6
f 1132/11/6 1133/11/6 1137/11/6
f 1137/11/6 1133/11/6 1138/11/6
f 1138/11/6 1133/11/6 1139/11/6
f 1139/11/6 1133/11/6 1140/11/6
f 1135/7/6 1136/7/6 1143/7/6
f 1136/10/6 1137/10/6 1144/10/6
f 1143/7/6 1136/7/6 1144/7/6
f 1144/10/6 1137/10/6 1145/10/6
f 1138/1/6 1139/1/6 1146/1/6
f 1146/1/6 1139/1/6 1147/1/6
f 1140/10/6 1141/10/6 1148/10/6
f 1141/7/6 1142/7/6 1149/7/6
f 1148/10/6 1141/10/6 1149/10/6
f 1149/7/6 1142/7/6 1150/7/6
f 1144/7/6 1145/7/6 1151/7/6
f 1151/7/6 1145/7/6 1152/7/6
f 1148/7/6 1149/7/6 1153/7/6
f 1153/7/6 1149/7/6 1154/7/6
f 1155/6/6 1156/6/6 1160/6/6
f 1160/6/6 1156/6/6 1161/6/6
f 1157/6/6 1158/6/6 1162/6/6
f 1162/6/6 1158/6/6 1163/6/6
f 1159/6/6 1160/6/6 1165/6/6
f 1165/6/6 1160/6/6 1166/6/6
f 1163/6/6 1164/6/6 1171/6/6
f 1171/6/6 1164/6/6 1172/6/6
f 1167/1/6 1168/1/6 1174/1/6
f 1174/1/6 1168/1/6 1175/1/6
f 1169/1/6 1170/1/6 1176/1/6
f 1176/1/6 1170/1/6 1177/1/6
f 1173/1/6 1174/1/6 1179/1/6
f 1179/1/6 1174/1/6 1180/1/6
f 1177/1/6 1178/1/6 1181/1/6
f 1181/1/6 1178/1/6 1182/1/6
f 1183/1/6 1184/1/6 1187/1/6
f 1187/1/6 1184/1/6 1188/1/6
f 1185/1/6 1186/1/6 1191/1/6
f 1191/1/6 1186/1/6 1192/1/6
f 1188/1/6 1189/1/6 1195/1/6
f 1195/1/6 1189/1/6 1196/1/6
f 1190/1/6 1191/1/6 1197/1/6
f 1197/1/6 1191/1/6 1198/1/6
f 1193/6/6 1194/6/6 1201/6/6
f 1201/6/6 1194/6/6 1202/6/6
f 1199/6/6 1200/6/6 1205/6/6
f 1205/6/6 1200/6/6 1206/6/6
f 1202/6/6 1203/6/6 1207/6/6
f 1207/6/6 1203/6/6 1208/6/6
f 1204/6/6 1205/6/6 1209/6/6
f 1209/6/6 1205/6/6 1210/6/6
f 1211/6/6 1212/6/6 1215/6/6
f 1215/6/6 1212/6/6 1216/6/6
f 1213/6/6 1214/6/6 1217/6/6
f 1217/6/6 1214/6/6 1218/6/6
f 1219/6/6 1220/6/6 1223/6/6
f 1223/6/6 1220/6/6 1224/6/6
f 1221/6/6 1222/6/6 1225/6/6
f 1225/6/6 1222/6/6 1226/6/6
