# MagicaVoxel @ Ephtracy

# group
o 

# material
mtllib NEW GAME-23.mtl
usemtl palette

# normals
vn -1 0 0
vn 1 0 0
vn 0 0 1
vn 0 0 -1
vn 0 -1 0
vn 0 1 0

# texcoords
vt 0.00195313 0.5
vt 0.0214844 0.5
vt 0.0605469 0.5
vt 0.0917969 0.5
vt 0.345703 0.5
vt 0.560547 0.5
vt 0.681641 0.5
vt 0.853516 0.5
vt 0.900391 0.5
vt 0.904297 0.5
vt 0.982422 0.5
vt 0.986328 0.5
vt 0.990234 0.5

# verts
v -0.6 0 -0.4
v -0.6 0 -0.6
v -0.6 0.1 -0.4
v -0.6 0.1 -0.6
v -0.5 0 0.3
v -0.5 0 0.2
v -0.5 0 0
v -0.5 0 -0.2
v -0.5 0 -0.6
v -0.5 0 -0.7
v -0.5 0.1 0.3
v -0.5 0.1 0.2
v -0.5 0.1 0
v -0.5 0.1 -0.2
v -0.5 0.1 -0.3
v -0.5 0.1 -0.4
v -0.5 0.1 -0.5
v -0.5 0.1 -0.6
v -0.5 0.1 -0.7
v -0.5 0.2 0.2
v -0.5 0.2 0
v -0.5 0.2 -0.2
v -0.5 0.2 -0.3
v -0.5 0.2 -0.4
v -0.5 0.2 -0.5
v -0.5 0.5 -0.2
v -0.5 0.5 -0.3
v -0.5 0.7 0.1
v -0.5 0.7 -0.2
v -0.5 0.7 -0.3
v -0.5 0.8 0.2
v -0.5 0.8 0.1
v -0.5 0.8 -0.2
v -0.5 0.9 0.2
v -0.5 0.9 0.1
v -0.4 0 0.4
v -0.4 0 0.3
v -0.4 0 0.2
v -0.4 0 0
v -0.4 0 -0.2
v -0.4 0 -0.4
v -0.4 0.1 0.4
v -0.4 0.1 0.3
v -0.4 0.1 0.2
v -0.4 0.1 0
v -0.4 0.1 -0.2
v -0.4 0.1 -0.3
v -0.4 0.1 -0.4
v -0.4 0.1 -0.5
v -0.4 0.1 -0.6
v -0.4 0.2 0
v -0.4 0.2 -0.2
v -0.4 0.2 -0.5
v -0.4 0.2 -0.6
v -0.4 0.3 -0.3
v -0.4 0.3 -0.4
v -0.4 0.4 -0.3
v -0.4 0.4 -0.4
v -0.4 0.6 0.1
v -0.4 0.6 -0.2
v -0.4 0.6 -0.3
v -0.4 0.6 -0.4
v -0.4 0.7 0.2
v -0.4 0.7 0.1
v -0.4 0.7 -0.2
v -0.4 0.7 -0.3
v -0.4 0.7 -0.4
v -0.4 0.8 0.3
v -0.4 0.8 0.2
v -0.4 0.8 0.1
v -0.4 0.8 -0.2
v -0.4 0.8 -0.3
v -0.4 0.9 0.3
v -0.4 0.9 0.2
v -0.3 0.1 0.4
v -0.3 0.1 0.3
v -0.3 0.1 0.2
v -0.3 0.2 0.4
v -0.3 0.2 0.3
v -0.3 0.2 0.2
v -0.3 0.2 0.1
v -0.3 0.2 0
v -0.3 0.2 -0.2
v -0.3 0.2 -0.3
v -0.3 0.3 0.1
v -0.3 0.3 0
v -0.3 0.3 -0.2
v -0.3 0.3 -0.3
v -0.3 0.4 -0.3
v -0.3 0.4 -0.4
v -0.3 0.5 0.1
v -0.3 0.5 0
v -0.3 0.5 -0.2
v -0.3 0.5 -0.3
v -0.3 0.5 -0.5
v -0.3 0.5 -0.6
v -0.3 0.6 0.2
v -0.3 0.6 0.1
v -0.3 0.6 0
v -0.3 0.6 -0.2
v -0.3 0.6 -0.3
v -0.3 0.6 -0.4
v -0.3 0.6 -0.5
v -0.3 0.6 -0.6
v -0.3 0.7 0.3
v -0.3 0.7 0.2
v -0.3 0.7 0.1
v -0.3 0.8 0.4
v -0.3 0.8 0.3
v -0.3 0.8 0.2
v -0.3 0.9 0.4
v -0.3 0.9 0.3
v -0.2 0.1 -0.3
v -0.2 0.1 -0.4
v -0.2 0.2 0.2
v -0.2 0.2 0.1
v -0.2 0.2 -0.3
v -0.2 0.2 -0.4
v -0.2 0.3 0.2
v -0.2 0.3 0.1
v -0.2 0.3 0
v -0.2 0.3 -0.2
v -0.2 0.3 -0.3
v -0.2 0.3 -0.4
v -0.2 0.3 -0.5
v -0.2 0.4 -0.3
v -0.2 0.4 -0.4
v -0.2 0.4 -0.5
v -0.2 0.5 0.2
v -0.2 0.5 0.1
v -0.2 0.5 0
v -0.2 0.5 -0.2
v -0.2 0.5 -0.3
v -0.2 0.5 -0.4
v -0.2 0.5 -0.5
v -0.2 0.6 0.3
v -0.2 0.6 0.2
v -0.2 0.6 0.1
v -0.2 0.6 0
v -0.2 0.6 -0.2
v -0.2 0.6 -0.3
v -0.2 0.6 -0.4
v -0.2 0.6 -0.5
v -0.2 0.6 -0.6
v -0.2 0.7 0.4
v -0.2 0.7 0.3
v -0.2 0.7 0.2
v -0.2 0.7 -0.3
v -0.2 0.7 -0.4
v -0.2 0.7 -0.5
v -0.2 0.7 -0.6
v -0.2 0.8 0.4
v -0.2 0.8 0.3
v -0.1 0 0.4
v -0.1 0 0.3
v -0.1 0 -0.5
v -0.1 0 -0.6
v -0.1 0.1 0.4
v -0.1 0.1 0.3
v -0.1 0.1 -0.5
v -0.1 0.1 -0.6
v -0.1 0.3 0.2
v -0.1 0.3 0.1
v -0.1 0.3 -0.3
v -0.1 0.3 -0.4
v -0.1 0.4 -0.4
v -0.1 0.5 0.2
v -0.1 0.5 0.1
v -0.1 0.5 -0.3
v -0.1 0.5 -0.4
v -0.1 0.6 -0.4
v -0.1 0.6 -0.5
v -0.1 0.7 0.2
v -0.1 0.7 0.1
v -0.1 0.7 -0.4
v -0.1 0.7 -0.5
v -0.1 0.7 -0.6
v -0.1 0.8 0.2
v -0.1 0.8 0.1
v -0.1 0.8 -0.4
v -0.1 0.8 -0.5
v -0.1 0.8 -0.6
v -5.96046e-008 0.7 -0.3
v -5.96046e-008 0.7 -0.4
v -5.96046e-008 0.8 -0.3
v -5.96046e-008 0.8 -0.4
v 0.1 0.1 0.4
v 0.1 0.1 0.3
v 0.1 0.1 -0.5
v 0.1 0.1 -0.6
v 0.1 0.2 0.4
v 0.1 0.2 0.3
v 0.1 0.2 -0.5
v 0.1 0.2 -0.6
v 0.1 0.5 0.2
v 0.1 0.5 0.1
v 0.1 0.5 -0.3
v 0.1 0.5 -0.4
v 0.1 0.6 0.2
v 0.1 0.6 0.1
v 0.1 0.6 -0.3
v 0.1 0.6 -0.4
v 0.1 0.8 0.5
v 0.1 0.8 0.4
v 0.1 0.9 0.5
v 0.1 0.9 0.4
v 0.2 0.1 -0.4
v 0.2 0.1 -0.5
v 0.2 0.2 -0.4
v 0.2 0.2 -0.5
v 0.2 0.7 0.2
v 0.2 0.7 0.1
v 0.2 0.7 0
v 0.2 0.7 -0.2
v 0.2 0.7 -0.3
v 0.2 0.7 -0.4
v 0.2 0.8 0.2
v 0.2 0.8 0.1
v 0.2 0.8 0
v 0.2 0.8 -0.2
v 0.2 0.8 -0.3
v 0.2 0.8 -0.4
v 0.2 0.8 -0.5
v 0.2 0.8 -0.6
v 0.2 0.9 0.4
v 0.2 0.9 0.3
v 0.2 0.9 -0.5
v 0.2 0.9 -0.6
v 0.2 1 0.4
v 0.2 1 0.3
v 0.3 0 -0.5
v 0.3 0 -0.6
v 0.3 0.1 -0.5
v 0.3 0.1 -0.6
v 0.3 0.7 0.1
v 0.3 0.7 0
v 0.3 0.7 -0.2
v 0.3 0.7 -0.3
v 0.3 0.8 0.4
v 0.3 0.8 0.3
v 0.3 0.8 0.1
v 0.3 0.8 0
v 0.3 0.8 -0.2
v 0.3 0.8 -0.3
v 0.3 0.8 -0.4
v 0.3 0.8 -0.5
v 0.3 0.9 0.4
v 0.3 0.9 0.3
v 0.3 0.9 0.2
v 0.3 0.9 -0.4
v 0.3 0.9 -0.5
v 0.3 1 0.3
v 0.3 1 0.2
v 0.4 0.1 0.1
v 0.4 0.1 0
v 0.4 0.2 0.1
v 0.4 0.2 0
v 0.4 0.8 0.3
v 0.4 0.8 0.2
v 0.4 0.8 -0.3
v 0.4 0.8 -0.4
v 0.4 0.9 0.3
v 0.4 0.9 0.2
v 0.4 0.9 0.1
v 0.4 0.9 -0.3
v 0.4 0.9 -0.4
v 0.4 1 0.2
v 0.4 1 0.1
v 0.5 0.8 0.2
v 0.5 0.8 0
v 0.5 0.9 0.2
v 0.5 0.9 0.1
v 0.5 0.9 0
v -0.4 0 -0.5
v -0.4 0 -0.6
v -0.4 0 -0.7
v -0.4 0.1 -0.5
v -0.4 0.1 -0.6
v -0.4 0.1 -0.7
v -0.4 0.5 -0.2
v -0.4 0.5 -0.3
v -0.4 0.6 -0.2
v -0.4 0.6 -0.3
v -0.4 0.8 0.2
v -0.4 0.8 0.1
v -0.4 0.9 0.2
v -0.4 0.9 0.1
v -0.3 0 0.4
v -0.3 0 0.3
v -0.3 0.1 0.4
v -0.3 0.1 0.3
v -0.3 0.1 -0.3
v -0.3 0.1 -0.4
v -0.3 0.2 -0.3
v -0.3 0.2 -0.4
v -0.3 0.3 -0.3
v -0.3 0.3 -0.4
v -0.3 0.4 -0.3
v -0.3 0.4 -0.4
v -0.3 0.6 -0.3
v -0.3 0.6 -0.4
v -0.3 0.7 0.1
v -0.3 0.7 0
v -0.3 0.7 -0.2
v -0.3 0.7 -0.3
v -0.3 0.7 -0.4
v -0.3 0.8 0.3
v -0.3 0.8 0.2
v -0.3 0.8 0.1
v -0.3 0.8 0
v -0.3 0.8 -0.2
v -0.3 0.8 -0.3
v -0.3 0.9 0.3
v -0.3 0.9 0.2
v -0.2 0.4 -0.3
v -0.2 0.4 -0.4
v -0.2 0.5 -0.3
v -0.2 0.5 -0.4
v -0.2 0.5 -0.5
v -0.2 0.5 -0.6
v -0.2 0.6 -0.5
v -0.2 0.6 -0.6
v -0.2 0.7 0.2
v -0.2 0.7 0.1
v -0.2 0.7 0
v -0.2 0.7 -0.2
v -0.2 0.8 0.4
v -0.2 0.8 0.3
v -0.2 0.8 0.2
v -0.2 0.8 0.1
v -0.2 0.8 0
v -0.2 0.8 -0.2
v -0.2 0.9 0.4
v -0.2 0.9 0.3
v -0.1 0.1 0.4
v -0.1 0.1 0.3
v -0.1 0.1 -0.5
v -0.1 0.1 -0.6
v -0.1 0.2 0.4
v -0.1 0.2 0.3
v -0.1 0.2 -0.5
v -0.1 0.2 -0.6
v -0.1 0.3 -0.4
v -0.1 0.3 -0.5
v -0.1 0.4 -0.4
v -0.1 0.4 -0.5
v -0.1 0.5 0.2
v -0.1 0.5 0.1
v -0.1 0.5 -0.3
v -0.1 0.5 -0.4
v -0.1 0.5 -0.5
v -0.1 0.6 0.2
v -0.1 0.6 0.1
v -0.1 0.6 -0.3
v -0.1 0.6 -0.4
v -0.1 0.6 -0.5
v -5.96046e-008 0 0.4
v -5.96046e-008 0 0.3
v -5.96046e-008 0.1 0.4
v -5.96046e-008 0.1 0.3
v -5.96046e-008 0.6 -0.5
v -5.96046e-008 0.6 -0.6
v -5.96046e-008 0.7 -0.5
v -5.96046e-008 0.7 -0.6
v 0.1 0 0.3
v 0.1 0 0.2
v 0.1 0 -0.5
v 0.1 0 -0.6
v 0.1 0.1 0.3
v 0.1 0.1 0.2
v 0.1 0.1 -0.4
v 0.1 0.1 -0.5
v 0.1 0.1 -0.6
v 0.1 0.2 -0.4
v 0.1 0.2 -0.5
v 0.1 0.3 0.2
v 0.1 0.3 0.1
v 0.1 0.3 -0.3
v 0.1 0.3 -0.4
v 0.1 0.5 0.2
v 0.1 0.5 0.1
v 0.1 0.5 -0.3
v 0.1 0.5 -0.4
v 0.1 0.7 0.2
v 0.1 0.7 0.1
v 0.1 0.7 -0.3
v 0.1 0.7 -0.4
v 0.1 0.8 0.2
v 0.1 0.8 0.1
v 0.1 0.8 -0.3
v 0.1 0.8 -0.4
v 0.2 0 0.2
v 0.2 0 0.1
v 0.2 0.1 0.4
v 0.2 0.1 0.3
v 0.2 0.1 0.2
v 0.2 0.1 0.1
v 0.2 0.2 0.4
v 0.2 0.2 0.3
v 0.2 0.2 0.2
v 0.2 0.2 0.1
v 0.2 0.2 -0.3
v 0.2 0.2 -0.4
v 0.2 0.3 0.2
v 0.2 0.3 0.1
v 0.2 0.3 0
v 0.2 0.3 -0.2
v 0.2 0.3 -0.3
v 0.2 0.3 -0.4
v 0.2 0.5 0.2
v 0.2 0.5 0.1
v 0.2 0.5 0
v 0.2 0.5 -0.2
v 0.2 0.5 -0.3
v 0.2 0.5 -0.4
v 0.2 0.6 0.3
v 0.2 0.6 0.2
v 0.2 0.6 0.1
v 0.2 0.6 0
v 0.2 0.6 -0.2
v 0.2 0.6 -0.3
v 0.2 0.6 -0.4
v 0.2 0.6 -0.5
v 0.2 0.7 0.3
v 0.2 0.7 0.2
v 0.2 0.7 -0.4
v 0.2 0.7 -0.5
v 0.2 0.7 -0.6
v 0.2 0.8 -0.5
v 0.2 0.8 -0.6
v 0.3 0.1 0.3
v 0.3 0.1 0.2
v 0.3 0.1 0.1
v 0.3 0.1 0
v 0.3 0.1 -0.5
v 0.3 0.1 -0.6
v 0.3 0.2 0.3
v 0.3 0.2 0.2
v 0.3 0.2 0.1
v 0.3 0.2 0
v 0.3 0.2 -0.2
v 0.3 0.2 -0.3
v 0.3 0.2 -0.5
v 0.3 0.2 -0.6
v 0.3 0.3 0.1
v 0.3 0.3 0
v 0.3 0.3 -0.2
v 0.3 0.3 -0.3
v 0.3 0.5 0.1
v 0.3 0.5 0
v 0.3 0.5 -0.2
v 0.3 0.5 -0.3
v 0.3 0.6 0.2
v 0.3 0.6 0.1
v 0.3 0.6 0
v 0.3 0.6 -0.2
v 0.3 0.6 -0.3
v 0.3 0.6 -0.4
v 0.3 0.7 0.4
v 0.3 0.7 0.3
v 0.3 0.7 0.2
v 0.3 0.7 0.1
v 0.3 0.7 -0.3
v 0.3 0.7 -0.4
v 0.3 0.7 -0.5
v 0.3 0.8 0.5
v 0.3 0.8 0.4
v 0.3 0.8 0.3
v 0.3 0.8 -0.4
v 0.3 0.8 -0.5
v 0.3 0.8 -0.6
v 0.3 0.9 0.5
v 0.3 0.9 0.4
v 0.3 0.9 0.3
v 0.3 0.9 -0.5
v 0.3 0.9 -0.6
v 0.3 1 0.4
v 0.3 1 0.3
v 0.4 0 0.1
v 0.4 0 0
v 0.4 0 -0.3
v 0.4 0 -0.4
v 0.4 0.1 0.1
v 0.4 0.1 0
v 0.4 0.1 -0.3
v 0.4 0.1 -0.4
v 0.4 0.1 -0.5
v 0.4 0.2 0
v 0.4 0.2 -0.3
v 0.4 0.2 -0.4
v 0.4 0.2 -0.5
v 0.4 0.6 0.1
v 0.4 0.6 -0.3
v 0.4 0.7 0.3
v 0.4 0.7 0.2
v 0.4 0.7 0.1
v 0.4 0.7 -0.3
v 0.4 0.7 -0.4
v 0.4 0.8 0.4
v 0.4 0.8 0.3
v 0.4 0.8 0.2
v 0.4 0.8 -0.3
v 0.4 0.8 -0.4
v 0.4 0.8 -0.5
v 0.4 0.9 0.4
v 0.4 0.9 0.3
v 0.4 0.9 0.2
v 0.4 0.9 -0.4
v 0.4 0.9 -0.5
v 0.4 1 0.3
v 0.4 1 0.2
v 0.5 0 0
v 0.5 0 -0.3
v 0.5 0 -0.4
v 0.5 0 -0.5
v 0.5 0 -0.6
v 0.5 0.1 0.2
v 0.5 0.1 0
v 0.5 0.1 -0.3
v 0.5 0.1 -0.4
v 0.5 0.1 -0.5
v 0.5 0.1 -0.6
v 0.5 0.2 0.2
v 0.5 0.2 0
v 0.5 0.2 -0.3
v 0.5 0.2 -0.4
v 0.5 0.7 0.2
v 0.5 0.7 -0.3
v 0.5 0.8 0.3
v 0.5 0.8 0.2
v 0.5 0.8 0
v 0.5 0.8 -0.3
v 0.5 0.8 -0.4
v 0.5 0.9 0.3
v 0.5 0.9 0.2
v 0.5 0.9 0.1
v 0.5 0.9 -0.3
v 0.5 0.9 -0.4
v 0.5 1 0.2
v 0.5 1 0.1
v 0.6 0.8 0.2
v 0.6 0.8 0
v 0.6 0.9 0.2
v 0.6 0.9 0
v 0.1 0.8 0.5
v 0.1 0.9 0.5
v 0.3 0.8 0.5
v 0.3 0.9 0.5
v -0.4 0 0.4
v -0.4 0.1 0.4
v -0.3 0 0.4
v -0.3 0.1 0.4
v -0.3 0.2 0.4
v -0.3 0.8 0.4
v -0.3 0.9 0.4
v -0.2 0.7 0.4
v -0.2 0.8 0.4
v -0.2 0.9 0.4
v -0.1 0 0.4
v -0.1 0.1 0.4
v -0.1 0.2 0.4
v -5.96046e-008 0 0.4
v -5.96046e-008 0.1 0.4
v 0.1 0.1 0.4
v 0.1 0.2 0.4
v 0.1 0.8 0.4
v 0.2 0.1 0.4
v 0.2 0.2 0.4
v 0.2 0.9 0.4
v 0.2 1 0.4
v 0.3 0.7 0.4
v 0.3 0.8 0.4
v 0.3 0.9 0.4
v 0.3 1 0.4
v 0.4 0.8 0.4
v 0.4 0.9 0.4
v -0.5 0 0.3
v -0.5 0.1 0.3
v -0.4 0 0.3
v -0.4 0.1 0.3
v -0.4 0.8 0.3
v -0.4 0.9 0.3
v -0.3 0 0.3
v -0.3 0.1 0.3
v -0.3 0.7 0.3
v -0.3 0.8 0.3
v -0.3 0.9 0.3
v -0.2 0.6 0.3
v -0.2 0.7 0.3
v -0.2 0.8 0.3
v -0.1 0 0.3
v -0.1 0.1 0.3
v -0.1 0.2 0.3
v -5.96046e-008 0 0.3
v -5.96046e-008 0.1 0.3
v 0.1 0 0.3
v 0.1 0.1 0.3
v 0.1 0.2 0.3
v 0.2 0.1 0.3
v 0.2 0.2 0.3
v 0.2 0.6 0.3
v 0.2 0.7 0.3
v 0.3 0.1 0.3
v 0.3 0.2 0.3
v 0.3 0.7 0.3
v 0.3 0.8 0.3
v 0.3 0.9 0.3
v 0.3 1 0.3
v 0.4 0.7 0.3
v 0.4 0.8 0.3
v 0.4 0.9 0.3
v 0.4 1 0.3
v 0.5 0.8 0.3
v 0.5 0.9 0.3
v -0.5 0.1 0.2
v -0.5 0.2 0.2
v -0.5 0.8 0.2
v -0.5 0.9 0.2
v -0.4 0.1 0.2
v -0.4 0.2 0.2
v -0.4 0.7 0.2
v -0.4 0.8 0.2
v -0.4 0.9 0.2
v -0.3 0.1 0.2
v -0.3 0.2 0.2
v -0.3 0.6 0.2
v -0.3 0.7 0.2
v -0.3 0.8 0.2
v -0.2 0.2 0.2
v -0.2 0.3 0.2
v -0.2 0.5 0.2
v -0.2 0.6 0.2
v -0.2 0.7 0.2
v -0.1 0.2 0.2
v -0.1 0.3 0.2
v -0.1 0.5 0.2
v -0.1 0.6 0.2
v 0.1 0 0.2
v 0.1 0.1 0.2
v 0.1 0.2 0.2
v 0.1 0.3 0.2
v 0.1 0.5 0.2
v 0.1 0.6 0.2
v 0.2 0 0.2
v 0.2 0.1 0.2
v 0.2 0.2 0.2
v 0.2 0.3 0.2
v 0.2 0.5 0.2
v 0.2 0.6 0.2
v 0.2 0.7 0.2
v 0.3 0.1 0.2
v 0.3 0.2 0.2
v 0.3 0.6 0.2
v 0.3 0.7 0.2
v 0.4 0.1 0.2
v 0.4 0.2 0.2
v 0.4 0.7 0.2
v 0.4 0.8 0.2
v 0.4 0.9 0.2
v 0.4 1 0.2
v 0.5 0.1 0.2
v 0.5 0.2 0.2
v 0.5 0.7 0.2
v 0.5 0.8 0.2
v 0.5 0.9 0.2
v 0.5 1 0.2
v 0.6 0.8 0.2
v 0.6 0.9 0.2
v -0.5 0.7 0.1
v -0.5 0.8 0.1
v -0.4 0.6 0.1
v -0.4 0.7 0.1
v -0.4 0.8 0.1
v -0.3 0.2 0.1
v -0.3 0.3 0.1
v -0.3 0.5 0.1
v -0.3 0.6 0.1
v -0.3 0.7 0.1
v -0.2 0.2 0.1
v -0.2 0.3 0.1
v -0.2 0.5 0.1
v -0.2 0.6 0.1
v -0.1 0.3 0.1
v -0.1 0.5 0.1
v -0.1 0.6 0.1
v 0.1 0.3 0.1
v 0.1 0.5 0.1
v 0.1 0.6 0.1
v 0.2 0 0.1
v 0.2 0.1 0.1
v 0.2 0.2 0.1
v 0.2 0.3 0.1
v 0.2 0.5 0.1
v 0.2 0.6 0.1
v 0.3 0.2 0.1
v 0.3 0.3 0.1
v 0.3 0.5 0.1
v 0.3 0.6 0.1
v 0.3 0.7 0.1
v 0.4 0 0.1
v 0.4 0.1 0.1
v 0.4 0.6 0.1
v 0.4 0.7 0.1
v -0.5 0 0
v -0.5 0.1 0
v -0.4 0 0
v -0.4 0.1 0
v -0.3 0.3 0
v -0.3 0.5 0
v -0.3 0.7 0
v -0.3 0.8 0
v -0.2 0.3 0
v -0.2 0.5 0
v -0.2 0.7 0
v -0.2 0.8 0
v 0.2 0.3 0
v 0.2 0.5 0
v 0.2 0.7 0
v 0.2 0.8 0
v 0.3 0.1 0
v 0.3 0.2 0
v 0.3 0.3 0
v 0.3 0.5 0
v 0.3 0.7 0
v 0.3 0.8 0
v 0.4 0 0
v 0.4 0.1 0
v 0.4 0.2 0
v 0.5 0 0
v 0.5 0.1 0
v -0.5 0.1 -0.2
v -0.5 0.2 -0.2
v -0.5 0.5 -0.2
v -0.5 0.7 -0.2
v -0.4 0.1 -0.2
v -0.4 0.2 -0.2
v -0.4 0.5 -0.2
v -0.4 0.6 -0.2
v -0.4 0.7 -0.2
v -0.3 0.5 -0.2
v -0.3 0.6 -0.2
v -0.2 0.5 -0.2
v -0.2 0.6 -0.2
v 0.2 0.5 -0.2
v 0.2 0.6 -0.2
v 0.3 0.5 -0.2
v 0.3 0.6 -0.2
v -0.4 0.3 -0.3
v -0.4 0.4 -0.3
v -0.3 0.3 -0.3
v -0.3 0.4 -0.3
v -0.3 0.5 -0.3
v -0.2 0.4 -0.3
v -0.2 0.5 -0.3
v -5.96046e-008 0.7 -0.3
v -5.96046e-008 0.8 -0.3
v 0.1 0.7 -0.3
v 0.1 0.8 -0.3
v 0.2 0.7 -0.3
v 0.2 0.8 -0.3
v 0.3 0.7 -0.3
v 0.3 0.8 -0.3
v 0.4 0.1 -0.3
v 0.4 0.2 -0.3
v 0.4 0.8 -0.3
v 0.4 0.9 -0.3
v 0.5 0.1 -0.3
v 0.5 0.2 -0.3
v 0.5 0.8 -0.3
v 0.5 0.9 -0.3
v -0.6 0 -0.4
v -0.6 0.1 -0.4
v -0.5 0.1 -0.4
v -0.4 0 -0.4
v -0.4 0.1 -0.4
v -0.3 0.1 -0.4
v -0.3 0.2 -0.4
v -0.2 0.1 -0.4
v -0.2 0.2 -0.4
v -0.2 0.3 -0.4
v -0.2 0.4 -0.4
v -0.1 0.3 -0.4
v -0.1 0.4 -0.4
v -0.1 0.7 -0.4
v -0.1 0.8 -0.4
v -5.96046e-008 0.7 -0.4
v -5.96046e-008 0.8 -0.4
v 0.1 0.7 -0.4
v 0.1 0.8 -0.4
v 0.2 0.7 -0.4
v 0.2 0.8 -0.4
v 0.3 0.8 -0.4
v 0.3 0.9 -0.4
v 0.4 0 -0.4
v 0.4 0.1 -0.4
v 0.4 0.8 -0.4
v 0.4 0.9 -0.4
v 0.5 0 -0.4
v 0.5 0.1 -0.4
v -0.3 0.5 -0.5
v -0.3 0.6 -0.5
v -0.2 0.5 -0.5
v -0.2 0.6 -0.5
v -0.2 0.7 -0.5
v -0.1 0.6 -0.5
v -0.1 0.7 -0.5
v 0.1 0.1 -0.5
v 0.1 0.2 -0.5
v 0.2 0.1 -0.5
v 0.2 0.2 -0.5
v 0.2 0.8 -0.5
v 0.2 0.9 -0.5
v 0.3 0.8 -0.5
v 0.3 0.9 -0.5
v 0.1 0.8 0.4
v 0.1 0.9 0.4
v 0.2 0.9 0.4
v 0.3 0.8 0.4
v 0.3 0.9 0.4
v -0.3 0.8 0.3
v -0.3 0.9 0.3
v -0.2 0.8 0.3
v -0.2 0.9 0.3
v 0.2 0.9 0.3
v 0.2 1 0.3
v 0.3 0.8 0.3
v 0.3 0.9 0.3
v 0.3 1 0.3
v 0.4 0.8 0.3
v 0.4 0.9 0.3
v -0.5 0 0.2
v -0.5 0.1 0.2
v -0.4 0 0.2
v -0.4 0.1 0.2
v -0.4 0.8 0.2
v -0.4 0.9 0.2
v -0.3 0.8 0.2
v -0.3 0.9 0.2
v -0.2 0.7 0.2
v -0.2 0.8 0.2
v -0.1 0.7 0.2
v -0.1 0.8 0.2
v 0.1 0.7 0.2
v 0.1 0.8 0.2
v 0.2 0.7 0.2
v 0.2 0.8 0.2
v 0.3 0.9 0.2
v 0.3 1 0.2
v 0.4 0.8 0.2
v 0.4 0.9 0.2
v 0.4 1 0.2
v 0.5 0.8 0.2
v 0.5 0.9 0.2
v -0.5 0.8 0.1
v -0.5 0.9 0.1
v -0.4 0.8 0.1
v -0.4 0.9 0.1
v -0.3 0.7 0.1
v -0.3 0.8 0.1
v -0.2 0.7 0.1
v -0.2 0.8 0.1
v -0.1 0.7 0.1
v -0.1 0.8 0.1
v 0.1 0.7 0.1
v 0.1 0.8 0.1
v 0.2 0.7 0.1
v 0.2 0.8 0.1
v 0.3 0.1 0.1
v 0.3 0.2 0.1
v 0.3 0.7 0.1
v 0.3 0.8 0.1
v 0.4 0.1 0.1
v 0.4 0.2 0.1
v 0.4 0.9 0.1
v 0.4 1 0.1
v 0.5 0.9 0.1
v 0.5 1 0.1
v -0.5 0.1 0
v -0.5 0.2 0
v -0.4 0.1 0
v -0.4 0.2 0
v -0.3 0.5 0
v -0.3 0.6 0
v -0.2 0.5 0
v -0.2 0.6 0
v 0.2 0.5 0
v 0.2 0.6 0
v 0.3 0.5 0
v 0.3 0.6 0
v 0.4 0.1 0
v 0.4 0.2 0
v 0.5 0.1 0
v 0.5 0.2 0
v 0.5 0.8 0
v 0.5 0.9 0
v 0.6 0.8 0
v 0.6 0.9 0
v -0.5 0 -0.2
v -0.5 0.1 -0.2
v -0.5 0.7 -0.2
v -0.5 0.8 -0.2
v -0.4 0 -0.2
v -0.4 0.1 -0.2
v -0.4 0.7 -0.2
v -0.4 0.8 -0.2
v -0.3 0.3 -0.2
v -0.3 0.5 -0.2
v -0.3 0.7 -0.2
v -0.3 0.8 -0.2
v -0.2 0.3 -0.2
v -0.2 0.5 -0.2
v -0.2 0.7 -0.2
v -0.2 0.8 -0.2
v 0.2 0.3 -0.2
v 0.2 0.5 -0.2
v 0.2 0.7 -0.2
v 0.2 0.8 -0.2
v 0.3 0.3 -0.2
v 0.3 0.5 -0.2
v 0.3 0.7 -0.2
v 0.3 0.8 -0.2
v -0.5 0.5 -0.3
v -0.5 0.7 -0.3
v -0.4 0.5 -0.3
v -0.4 0.6 -0.3
v -0.4 0.7 -0.3
v -0.4 0.8 -0.3
v -0.3 0.1 -0.3
v -0.3 0.2 -0.3
v -0.3 0.3 -0.3
v -0.3 0.6 -0.3
v -0.3 0.7 -0.3
v -0.3 0.8 -0.3
v -0.2 0.1 -0.3
v -0.2 0.2 -0.3
v -0.2 0.3 -0.3
v -0.2 0.4 -0.3
v -0.2 0.5 -0.3
v -0.2 0.6 -0.3
v -0.2 0.7 -0.3
v -0.1 0.3 -0.3
v -0.1 0.5 -0.3
v -0.1 0.6 -0.3
v -5.96046e-008 0.6 -0.3
v 0.1 0.3 -0.3
v 0.1 0.5 -0.3
v 0.1 0.6 -0.3
v 0.2 0.2 -0.3
v 0.2 0.3 -0.3
v 0.2 0.5 -0.3
v 0.2 0.6 -0.3
v 0.3 0.2 -0.3
v 0.3 0.3 -0.3
v 0.3 0.5 -0.3
v 0.3 0.6 -0.3
v 0.3 0.7 -0.3
v 0.4 0 -0.3
v 0.4 0.1 -0.3
v 0.4 0.6 -0.3
v 0.4 0.7 -0.3
v 0.4 0.8 -0.3
v 0.5 0 -0.3
v 0.5 0.1 -0.3
v 0.5 0.7 -0.3
v 0.5 0.8 -0.3
v -0.4 0.3 -0.4
v -0.4 0.4 -0.4
v -0.4 0.6 -0.4
v -0.4 0.7 -0.4
v -0.3 0.3 -0.4
v -0.3 0.4 -0.4
v -0.3 0.6 -0.4
v -0.3 0.7 -0.4
v -0.2 0.2 -0.4
v -0.2 0.3 -0.4
v -0.2 0.4 -0.4
v -0.2 0.5 -0.4
v -0.2 0.6 -0.4
v -0.2 0.7 -0.4
v -0.1 0.2 -0.4
v -0.1 0.3 -0.4
v -0.1 0.4 -0.4
v -0.1 0.5 -0.4
v -0.1 0.6 -0.4
v -0.1 0.7 -0.4
v 0.1 0.1 -0.4
v 0.1 0.2 -0.4
v 0.1 0.3 -0.4
v 0.1 0.5 -0.4
v 0.1 0.6 -0.4
v 0.2 0.1 -0.4
v 0.2 0.2 -0.4
v 0.2 0.3 -0.4
v 0.2 0.5 -0.4
v 0.2 0.6 -0.4
v 0.2 0.7 -0.4
v 0.3 0.6 -0.4
v 0.3 0.7 -0.4
v 0.3 0.8 -0.4
v 0.4 0.1 -0.4
v 0.4 0.2 -0.4
v 0.4 0.7 -0.4
v 0.4 0.8 -0.4
v 0.4 0.9 -0.4
v 0.5 0.1 -0.4
v 0.5 0.2 -0.4
v 0.5 0.8 -0.4
v 0.5 0.9 -0.4
v -0.5 0.1 -0.5
v -0.5 0.2 -0.5
v -0.4 0 -0.5
v -0.4 0.1 -0.5
v -0.4 0.2 -0.5
v -0.2 0.1 -0.5
v -0.2 0.3 -0.5
v -0.2 0.4 -0.5
v -0.2 0.5 -0.5
v -0.2 0.6 -0.5
v -0.1 0 -0.5
v -0.1 0.1 -0.5
v -0.1 0.2 -0.5
v -0.1 0.3 -0.5
v -0.1 0.4 -0.5
v -0.1 0.5 -0.5
v -0.1 0.6 -0.5
v -5.96046e-008 0.6 -0.5
v -5.96046e-008 0.7 -0.5
v 0.1 0 -0.5
v 0.1 0.1 -0.5
v 0.1 0.2 -0.5
v 0.2 0.6 -0.5
v 0.2 0.7 -0.5
v 0.2 0.8 -0.5
v 0.3 0 -0.5
v 0.3 0.1 -0.5
v 0.3 0.2 -0.5
v 0.3 0.7 -0.5
v 0.3 0.8 -0.5
v 0.3 0.9 -0.5
v 0.4 0.1 -0.5
v 0.4 0.2 -0.5
v 0.4 0.8 -0.5
v 0.4 0.9 -0.5
v -0.6 0 -0.6
v -0.6 0.1 -0.6
v -0.5 0 -0.6
v -0.5 0.1 -0.6
v -0.4 0.1 -0.6
v -0.4 0.2 -0.6
v -0.3 0.5 -0.6
v -0.3 0.6 -0.6
v -0.2 0.1 -0.6
v -0.2 0.2 -0.6
v -0.2 0.5 -0.6
v -0.2 0.6 -0.6
v -0.2 0.7 -0.6
v -0.1 0 -0.6
v -0.1 0.1 -0.6
v -0.1 0.2 -0.6
v -0.1 0.6 -0.6
v -0.1 0.7 -0.6
v -0.1 0.8 -0.6
v -5.96046e-008 0.6 -0.6
v -5.96046e-008 0.7 -0.6
v 0.1 0 -0.6
v 0.1 0.1 -0.6
v 0.1 0.2 -0.6
v 0.2 0.7 -0.6
v 0.2 0.8 -0.6
v 0.2 0.9 -0.6
v 0.3 0 -0.6
v 0.3 0.1 -0.6
v 0.3 0.2 -0.6
v 0.3 0.8 -0.6
v 0.3 0.9 -0.6
v 0.4 0 -0.6
v 0.4 0.1 -0.6
v 0.5 0 -0.6
v 0.5 0.1 -0.6
v -0.5 0 -0.7
v -0.5 0.1 -0.7
v -0.4 0 -0.7
v -0.4 0.1 -0.7
v -0.4 0 0.4
v -0.3 0 0.4
v -0.1 0 0.4
v -5.96046e-008 0 0.4
v -0.5 0 0.3
v -0.4 0 0.3
v -0.3 0 0.3
v -0.1 0 0.3
v -5.96046e-008 0 0.3
v 0.1 0 0.3
v -0.5 0 0.2
v -0.4 0 0.2
v -0.3 0 0.2
v 0.1 0 0.2
v 0.2 0 0.2
v 0.2 0 0.1
v 0.4 0 0.1
v -0.5 0 0
v -0.4 0 0
v -0.3 0 0
v 0.4 0 0
v 0.5 0 0
v -0.5 0 -0.2
v -0.4 0 -0.2
v -0.3 0 -0.2
v 0.4 0 -0.3
v 0.5 0 -0.3
v -0.6 0 -0.4
v -0.4 0 -0.4
v 0.4 0 -0.4
v 0.5 0 -0.4
v -0.5 0 -0.5
v -0.4 0 -0.5
v -0.1 0 -0.5
v 0.1 0 -0.5
v 0.3 0 -0.5
v 0.4 0 -0.5
v 0.5 0 -0.5
v -0.6 0 -0.6
v -0.5 0 -0.6
v -0.4 0 -0.6
v -0.1 0 -0.6
v 0.1 0 -0.6
v 0.3 0 -0.6
v 0.4 0 -0.6
v 0.5 0 -0.6
v -0.5 0 -0.7
v -0.4 0 -0.7
v -0.3 0.1 0.4
v -0.1 0.1 0.4
v 0.1 0.1 0.4
v 0.2 0.1 0.4
v -0.3 0.1 0.3
v -0.1 0.1 0.3
v 0.1 0.1 0.3
v 0.2 0.1 0.3
v 0.3 0.1 0.3
v -0.5 0.1 0.2
v -0.4 0.1 0.2
v 0.1 0.1 0.2
v 0.2 0.1 0.2
v 0.3 0.1 0.2
v 0.4 0.1 0.2
v 0.5 0.1 0.2
v 0.2 0.1 0.1
v 0.4 0.1 0.1
v -0.5 0.1 0
v -0.4 0.1 0
v 0.4 0.1 0
v 0.5 0.1 0
v -0.5 0.1 -0.2
v -0.4 0.1 -0.2
v -0.5 0.1 -0.3
v -0.4 0.1 -0.3
v 0.4 0.1 -0.3
v 0.5 0.1 -0.3
v -0.5 0.1 -0.4
v -0.4 0.1 -0.4
v 0.4 0.1 -0.4
v 0.5 0.1 -0.4
v -0.4 0.1 -0.5
v -0.2 0.1 -0.5
v -0.1 0.1 -0.5
v 0.1 0.1 -0.5
v 0.3 0.1 -0.5
v -0.4 0.1 -0.6
v -0.2 0.1 -0.6
v -0.1 0.1 -0.6
v 0.1 0.1 -0.6
v 0.3 0.1 -0.6
v -0.4 0.3 -0.3
v -0.3 0.3 -0.3
v -0.4 0.3 -0.4
v -0.3 0.3 -0.4
v -0.2 0.3 -0.4
v -0.1 0.3 -0.4
v -0.2 0.3 -0.5
v -0.1 0.3 -0.5
v -0.3 0.4 -0.3
v -0.2 0.4 -0.3
v -0.3 0.4 -0.4
v -0.2 0.4 -0.4
v -0.2 0.5 0.2
v -0.1 0.5 0.2
v 0.1 0.5 0.2
v 0.2 0.5 0.2
v -0.3 0.5 0.1
v -0.2 0.5 0.1
v -0.1 0.5 0.1
v 0.1 0.5 0.1
v 0.2 0.5 0.1
v 0.3 0.5 0.1
v -0.3 0.5 0
v -0.2 0.5 0
v 0.2 0.5 0
v 0.3 0.5 0
v -0.5 0.5 -0.2
v -0.4 0.5 -0.2
v -0.3 0.5 -0.2
v -0.2 0.5 -0.2
v 0.2 0.5 -0.2
v 0.3 0.5 -0.2
v -0.5 0.5 -0.3
v -0.4 0.5 -0.3
v -0.3 0.5 -0.3
v -0.2 0.5 -0.3
v -0.1 0.5 -0.3
v 0.1 0.5 -0.3
v 0.2 0.5 -0.3
v 0.3 0.5 -0.3
v -0.2 0.5 -0.4
v -0.1 0.5 -0.4
v 0.1 0.5 -0.4
v 0.2 0.5 -0.4
v -0.3 0.5 -0.5
v -0.2 0.5 -0.5
v -0.1 0.5 -0.5
v -0.3 0.5 -0.6
v -0.2 0.5 -0.6
v -0.2 0.6 0.3
v 0.2 0.6 0.3
v -0.3 0.6 0.2
v -0.2 0.6 0.2
v -0.1 0.6 0.2
v 0.1 0.6 0.2
v 0.2 0.6 0.2
v 0.3 0.6 0.2
v -0.4 0.6 0.1
v -0.3 0.6 0.1
v -0.2 0.6 0.1
v -0.1 0.6 0.1
v 0.1 0.6 0.1
v 0.2 0.6 0.1
v 0.3 0.6 0.1
v 0.4 0.6 0.1
v -0.3 0.6 0
v -0.2 0.6 0
v 0.2 0.6 0
v 0.3 0.6 0
v -0.4 0.6 -0.2
v -0.3 0.6 -0.2
v -0.2 0.6 -0.2
v 0.2 0.6 -0.2
v 0.3 0.6 -0.2
v -0.4 0.6 -0.3
v -0.3 0.6 -0.3
v -0.1 0.6 -0.3
v -5.96046e-008 0.6 -0.3
v 0.1 0.6 -0.3
v 0.2 0.6 -0.3
v 0.3 0.6 -0.3
v 0.4 0.6 -0.3
v -0.4 0.6 -0.4
v -0.3 0.6 -0.4
v -0.1 0.6 -0.4
v -5.96046e-008 0.6 -0.4
v 0.1 0.6 -0.4
v 0.2 0.6 -0.4
v 0.3 0.6 -0.4
v -0.2 0.6 -0.5
v -0.1 0.6 -0.5
v -5.96046e-008 0.6 -0.5
v 0.2 0.6 -0.5
v -0.2 0.6 -0.6
v -0.1 0.6 -0.6
v -5.96046e-008 0.6 -0.6
v -0.2 0.7 0.4
v 0.3 0.7 0.4
v -0.3 0.7 0.3
v -0.2 0.7 0.3
v 0.2 0.7 0.3
v 0.3 0.7 0.3
v 0.4 0.7 0.3
v -0.4 0.7 0.2
v -0.3 0.7 0.2
v -0.2 0.7 0.2
v 0.2 0.7 0.2
v 0.3 0.7 0.2
v 0.4 0.7 0.2
v 0.5 0.7 0.2
v -0.5 0.7 0.1
v -0.4 0.7 0.1
v -0.3 0.7 0.1
v 0.3 0.7 0.1
v 0.4 0.7 0.1
v -0.5 0.7 -0.2
v -0.4 0.7 -0.2
v 0.3 0.7 -0.3
v 0.4 0.7 -0.3
v 0.5 0.7 -0.3
v 0.2 0.7 -0.4
v 0.3 0.7 -0.4
v 0.4 0.7 -0.4
v -5.96046e-008 0.7 -0.5
v 0.2 0.7 -0.5
v 0.3 0.7 -0.5
v -5.96046e-008 0.7 -0.6
v 0.2 0.7 -0.6
v 0.1 0.8 0.5
v 0.3 0.8 0.5
v -0.3 0.8 0.4
v -0.2 0.8 0.4
v 0.1 0.8 0.4
v 0.3 0.8 0.4
v 0.4 0.8 0.4
v -0.4 0.8 0.3
v -0.3 0.8 0.3
v -0.2 0.8 0.3
v 0.3 0.8 0.3
v 0.4 0.8 0.3
v 0.5 0.8 0.3
v -0.5 0.8 0.2
v -0.4 0.8 0.2
v -0.3 0.8 0.2
v 0.4 0.8 0.2
v 0.5 0.8 0.2
v 0.6 0.8 0.2
v -0.5 0.8 0.1
v -0.4 0.8 0.1
v 0.5 0.8 0
v 0.6 0.8 0
v 0.4 0.8 -0.3
v 0.5 0.8 -0.3
v 0.3 0.8 -0.4
v 0.4 0.8 -0.4
v 0.5 0.8 -0.4
v 0.2 0.8 -0.5
v 0.3 0.8 -0.5
v 0.4 0.8 -0.5
v 0.2 0.8 -0.6
v 0.3 0.8 -0.6
v 0.2 0.9 0.4
v 0.3 0.9 0.4
v 0.2 0.9 0.3
v 0.3 0.9 0.3
v 0.4 0.9 0.3
v 0.3 0.9 0.2
v 0.4 0.9 0.2
v 0.5 0.9 0.2
v 0.4 0.9 0.1
v 0.5 0.9 0.1
v -0.4 0.1 0.4
v -0.3 0.1 0.4
v -0.1 0.1 0.4
v -5.96046e-008 0.1 0.4
v -0.5 0.1 0.3
v -0.4 0.1 0.3
v -0.3 0.1 0.3
v -0.1 0.1 0.3
v -5.96046e-008 0.1 0.3
v -0.5 0.1 0.2
v -0.4 0.1 0.2
v -0.3 0.1 0.2
v 0.3 0.1 0.1
v 0.4 0.1 0.1
v -0.5 0.1 0
v -0.4 0.1 0
v 0.3 0.1 0
v 0.4 0.1 0
v 0.5 0.1 0
v -0.5 0.1 -0.2
v -0.4 0.1 -0.2
v -0.3 0.1 -0.3
v -0.2 0.1 -0.3
v 0.4 0.1 -0.3
v 0.5 0.1 -0.3
v -0.6 0.1 -0.4
v -0.5 0.1 -0.4
v -0.3 0.1 -0.4
v -0.2 0.1 -0.4
v 0.1 0.1 -0.4
v 0.2 0.1 -0.4
v 0.4 0.1 -0.4
v 0.5 0.1 -0.4
v -0.5 0.1 -0.5
v -0.4 0.1 -0.5
v -0.1 0.1 -0.5
v 0.1 0.1 -0.5
v 0.2 0.1 -0.5
v 0.3 0.1 -0.5
v 0.4 0.1 -0.5
v 0.5 0.1 -0.5
v -0.6 0.1 -0.6
v -0.5 0.1 -0.6
v -0.4 0.1 -0.6
v -0.1 0.1 -0.6
v 0.1 0.1 -0.6
v 0.3 0.1 -0.6
v 0.4 0.1 -0.6
v 0.5 0.1 -0.6
v -0.5 0.1 -0.7
v -0.4 0.1 -0.7
v -0.3 0.2 0.4
v -0.1 0.2 0.4
v 0.1 0.2 0.4
v 0.2 0.2 0.4
v -0.3 0.2 0.3
v -0.2 0.2 0.3
v -0.1 0.2 0.3
v 0.1 0.2 0.3
v 0.2 0.2 0.3
v 0.3 0.2 0.3
v -0.5 0.2 0.2
v -0.4 0.2 0.2
v -0.3 0.2 0.2
v -0.2 0.2 0.2
v -0.1 0.2 0.2
v 0.1 0.2 0.2
v 0.2 0.2 0.2
v 0.3 0.2 0.2
v 0.4 0.2 0.2
v 0.5 0.2 0.2
v -0.4 0.2 0.1
v -0.3 0.2 0.1
v -0.2 0.2 0.1
v 0.2 0.2 0.1
v 0.3 0.2 0.1
v 0.4 0.2 0.1
v -0.5 0.2 0
v -0.4 0.2 0
v -0.3 0.2 0
v 0.3 0.2 0
v 0.4 0.2 0
v 0.5 0.2 0
v -0.5 0.2 -0.2
v -0.4 0.2 -0.2
v -0.3 0.2 -0.2
v 0.3 0.2 -0.2
v -0.5 0.2 -0.3
v -0.4 0.2 -0.3
v -0.3 0.2 -0.3
v 0.2 0.2 -0.3
v 0.3 0.2 -0.3
v 0.4 0.2 -0.3
v 0.5 0.2 -0.3
v -0.5 0.2 -0.4
v -0.4 0.2 -0.4
v -0.3 0.2 -0.4
v -0.2 0.2 -0.4
v -0.1 0.2 -0.4
v 0.1 0.2 -0.4
v 0.2 0.2 -0.4
v 0.3 0.2 -0.4
v 0.4 0.2 -0.4
v 0.5 0.2 -0.4
v -0.5 0.2 -0.5
v -0.4 0.2 -0.5
v -0.2 0.2 -0.5
v -0.1 0.2 -0.5
v 0.1 0.2 -0.5
v 0.2 0.2 -0.5
v 0.3 0.2 -0.5
v 0.4 0.2 -0.5
v -0.4 0.2 -0.6
v -0.2 0.2 -0.6
v -0.1 0.2 -0.6
v 0.1 0.2 -0.6
v 0.3 0.2 -0.6
v -0.2 0.3 0.2
v -0.1 0.3 0.2
v 0.1 0.3 0.2
v 0.2 0.3 0.2
v -0.3 0.3 0.1
v -0.2 0.3 0.1
v -0.1 0.3 0.1
v 0.1 0.3 0.1
v 0.2 0.3 0.1
v 0.3 0.3 0.1
v -0.3 0.3 0
v -0.2 0.3 0
v 0.2 0.3 0
v 0.3 0.3 0
v -0.3 0.3 -0.2
v -0.2 0.3 -0.2
v 0.2 0.3 -0.2
v 0.3 0.3 -0.2
v -0.3 0.3 -0.3
v -0.2 0.3 -0.3
v -0.1 0.3 -0.3
v 0.1 0.3 -0.3
v 0.2 0.3 -0.3
v 0.3 0.3 -0.3
v -0.2 0.3 -0.4
v -0.1 0.3 -0.4
v 0.1 0.3 -0.4
v 0.2 0.3 -0.4
v -0.4 0.4 -0.3
v -0.3 0.4 -0.3
v -0.4 0.4 -0.4
v -0.3 0.4 -0.4
v -0.2 0.4 -0.4
v -0.1 0.4 -0.4
v -0.2 0.4 -0.5
v -0.1 0.4 -0.5
v -0.1 0.5 0.2
v 0.1 0.5 0.2
v -0.1 0.5 0.1
v 0.1 0.5 0.1
v -0.3 0.5 0
v -0.2 0.5 0
v 0.2 0.5 0
v 0.3 0.5 0
v -0.3 0.5 -0.2
v -0.2 0.5 -0.2
v 0.2 0.5 -0.2
v 0.3 0.5 -0.2
v -0.1 0.5 -0.3
v 0.1 0.5 -0.3
v -0.1 0.5 -0.4
v 0.1 0.5 -0.4
v -0.3 0.6 -0.3
v -0.2 0.6 -0.3
v -0.3 0.6 -0.4
v -0.2 0.6 -0.4
v -0.1 0.6 -0.4
v -0.3 0.6 -0.5
v -0.2 0.6 -0.5
v -0.1 0.6 -0.5
v -0.3 0.6 -0.6
v -0.2 0.6 -0.6
v -0.2 0.7 0.2
v -0.1 0.7 0.2
v 0.1 0.7 0.2
v 0.2 0.7 0.2
v -0.3 0.7 0.1
v -0.2 0.7 0.1
v -0.1 0.7 0.1
v 0.1 0.7 0.1
v 0.2 0.7 0.1
v 0.3 0.7 0.1
v -0.3 0.7 0
v -0.2 0.7 0
v 0.2 0.7 0
v 0.3 0.7 0
v -0.5 0.7 -0.2
v -0.4 0.7 -0.2
v -0.3 0.7 -0.2
v -0.2 0.7 -0.2
v 0.2 0.7 -0.2
v 0.3 0.7 -0.2
v -0.5 0.7 -0.3
v -0.4 0.7 -0.3
v -0.3 0.7 -0.3
v -0.2 0.7 -0.3
v -0.1 0.7 -0.3
v -5.96046e-008 0.7 -0.3
v 0.1 0.7 -0.3
v 0.2 0.7 -0.3
v 0.3 0.7 -0.3
v -0.4 0.7 -0.4
v -0.3 0.7 -0.4
v -0.2 0.7 -0.4
v -0.1 0.7 -0.4
v -5.96046e-008 0.7 -0.4
v 0.1 0.7 -0.4
v 0.2 0.7 -0.4
v -0.2 0.7 -0.5
v -0.1 0.7 -0.5
v -0.2 0.7 -0.6
v -0.1 0.7 -0.6
v -0.2 0.8 0.4
v 0.1 0.8 0.4
v 0.3 0.8 0.4
v -0.3 0.8 0.3
v -0.2 0.8 0.3
v 0.2 0.8 0.3
v 0.3 0.8 0.3
v 0.4 0.8 0.3
v -0.4 0.8 0.2
v -0.3 0.8 0.2
v -0.2 0.8 0.2
v -0.1 0.8 0.2
v 0.1 0.8 0.2
v 0.2 0.8 0.2
v 0.3 0.8 0.2
v 0.4 0.8 0.2
v 0.5 0.8 0.2
v -0.5 0.8 0.1
v -0.4 0.8 0.1
v -0.3 0.8 0.1
v -0.2 0.8 0.1
v -0.1 0.8 0.1
v 0.1 0.8 0.1
v 0.2 0.8 0.1
v 0.3 0.8 0.1
v 0.4 0.8 0.1
v -0.3 0.8 0
v -0.2 0.8 0
v 0.2 0.8 0
v 0.3 0.8 0
v 0.5 0.8 0
v -0.5 0.8 -0.2
v -0.4 0.8 -0.2
v -0.3 0.8 -0.2
v -0.2 0.8 -0.2
v 0.2 0.8 -0.2
v 0.3 0.8 -0.2
v -0.4 0.8 -0.3
v -0.3 0.8 -0.3
v -5.96046e-008 0.8 -0.3
v 0.1 0.8 -0.3
v 0.2 0.8 -0.3
v 0.3 0.8 -0.3
v 0.4 0.8 -0.3
v 0.5 0.8 -0.3
v -0.1 0.8 -0.4
v -5.96046e-008 0.8 -0.4
v 0.1 0.8 -0.4
v 0.2 0.8 -0.4
v 0.3 0.8 -0.4
v 0.4 0.8 -0.4
v -0.1 0.8 -0.5
v 0.2 0.8 -0.5
v 0.3 0.8 -0.5
v -0.1 0.8 -0.6
v 0.2 0.8 -0.6
v 0.1 0.9 0.5
v 0.3 0.9 0.5
v -0.3 0.9 0.4
v -0.2 0.9 0.4
v 0.1 0.9 0.4
v 0.2 0.9 0.4
v 0.3 0.9 0.4
v 0.4 0.9 0.4
v -0.4 0.9 0.3
v -0.3 0.9 0.3
v -0.2 0.9 0.3
v 0.3 0.9 0.3
v 0.4 0.9 0.3
v 0.5 0.9 0.3
v -0.5 0.9 0.2
v -0.4 0.9 0.2
v -0.3 0.9 0.2
v 0.4 0.9 0.2
v 0.5 0.9 0.2
v 0.6 0.9 0.2
v -0.5 0.9 0.1
v -0.4 0.9 0.1
v 0.5 0.9 0.1
v 0.5 0.9 0
v 0.6 0.9 0
v 0.4 0.9 -0.3
v 0.5 0.9 -0.3
v 0.3 0.9 -0.4
v 0.4 0.9 -0.4
v 0.5 0.9 -0.4
v 0.2 0.9 -0.5
v 0.3 0.9 -0.5
v 0.4 0.9 -0.5
v 0.2 0.9 -0.6
v 0.3 0.9 -0.6
v 0.2 1 0.4
v 0.3 1 0.4
v 0.2 1 0.3
v 0.3 1 0.3
v 0.4 1 0.3
v 0.3 1 0.2
v 0.4 1 0.2
v 0.5 1 0.2
v 0.4 1 0.1
v 0.5 1 0.1

# faces
f 3/9/1 2/9/1 1/9/1
f 4/9/1 2/9/1 3/9/1
f 11/4/1 6/4/1 5/4/1
f 12/4/1 6/4/1 11/4/1
f 13/3/1 8/3/1 7/3/1
f 14/3/1 8/3/1 13/3/1
f 18/9/1 10/9/1 9/9/1
f 19/9/1 10/9/1 18/9/1
f 20/4/1 13/4/1 12/4/1
f 21/4/1 13/4/1 20/4/1
f 22/4/1 15/4/1 14/4/1
f 23/9/1 16/9/1 15/9/1
f 23/4/1 15/4/1 22/4/1
f 24/10/1 17/10/1 16/10/1
f 24/9/1 16/9/1 23/9/1
f 25/10/1 17/10/1 24/10/1
f 29/4/1 27/4/1 26/4/1
f 30/4/1 27/4/1 29/4/1
f 32/3/1 29/3/1 28/3/1
f 33/3/1 29/3/1 32/3/1
f 34/3/1 32/3/1 31/3/1
f 35/3/1 32/3/1 34/3/1
f 42/4/1 37/4/1 36/4/1
f 43/4/1 37/4/1 42/4/1
f 44/12/1 39/12/1 38/12/1
f 45/12/1 39/12/1 44/12/1
f 46/12/1 41/12/1 40/12/1
f 47/12/1 41/12/1 46/12/1
f 48/12/1 41/12/1 47/12/1
f 51/4/1 46/4/1 45/4/1
f 52/4/1 46/4/1 51/4/1
f 53/9/1 50/9/1 49/9/1
f 54/9/1 50/9/1 53/9/1
f 57/9/1 56/9/1 55/9/1
f 58/9/1 56/9/1 57/9/1
f 64/4/1 60/4/1 59/4/1
f 65/4/1 60/4/1 64/4/1
f 66/9/1 62/9/1 61/9/1
f 67/9/1 62/9/1 66/9/1
f 69/4/1 64/4/1 63/4/1
f 70/4/1 64/4/1 69/4/1
f 71/9/1 66/9/1 65/9/1
f 72/9/1 66/9/1 71/9/1
f 73/3/1 69/3/1 68/3/1
f 74/3/1 69/3/1 73/3/1
f 78/4/1 76/4/1 75/4/1
f 79/1/1 77/1/1 76/1/1
f 79/4/1 76/4/1 78/4/1
f 80/1/1 77/1/1 79/1/1
f 85/11/1 82/11/1 81/11/1
f 86/13/1 83/13/1 82/13/1
f 86/11/1 82/11/1 85/11/1
f 87/11/1 84/11/1 83/11/1
f 87/13/1 83/13/1 86/13/1
f 88/11/1 84/11/1 87/11/1
f 92/13/1 87/13/1 86/13/1
f 93/13/1 87/13/1 92/13/1
f 94/10/1 90/10/1 89/10/1
f 98/13/1 92/13/1 91/13/1
f 99/13/1 92/13/1 98/13/1
f 100/13/1 94/13/1 93/13/1
f 101/10/1 90/10/1 94/10/1
f 101/13/1 94/13/1 100/13/1
f 102/10/1 90/10/1 101/10/1
f 103/4/1 96/4/1 95/4/1
f 104/4/1 96/4/1 103/4/1
f 106/13/1 98/13/1 97/13/1
f 107/13/1 98/13/1 106/13/1
f 109/4/1 106/4/1 105/4/1
f 110/4/1 106/4/1 109/4/1
f 111/3/1 109/3/1 108/3/1
f 112/3/1 109/3/1 111/3/1
f 117/12/1 114/12/1 113/12/1
f 118/12/1 114/12/1 117/12/1
f 119/11/1 116/11/1 115/11/1
f 120/11/1 116/11/1 119/11/1
f 123/11/1 118/11/1 117/11/1
f 124/11/1 118/11/1 123/11/1
f 126/10/1 123/10/1 122/10/1
f 127/9/1 125/9/1 124/9/1
f 128/9/1 125/9/1 127/9/1
f 130/10/1 121/10/1 120/10/1
f 131/10/1 121/10/1 130/10/1
f 132/10/1 126/10/1 122/10/1
f 133/10/1 126/10/1 132/10/1
f 137/13/1 130/13/1 129/13/1
f 138/13/1 130/13/1 137/13/1
f 139/10/1 132/10/1 131/10/1
f 140/10/1 132/10/1 139/10/1
f 142/10/1 135/10/1 134/10/1
f 143/10/1 135/10/1 142/10/1
f 146/4/1 137/4/1 136/4/1
f 147/4/1 137/4/1 146/4/1
f 148/10/1 142/10/1 141/10/1
f 149/10/1 142/10/1 148/10/1
f 150/3/1 144/3/1 143/3/1
f 151/3/1 144/3/1 150/3/1
f 152/3/1 146/3/1 145/3/1
f 153/3/1 146/3/1 152/3/1
f 158/3/1 155/3/1 154/3/1
f 159/3/1 155/3/1 158/3/1
f 160/3/1 157/3/1 156/3/1
f 161/3/1 157/3/1 160/3/1
f 166/13/1 165/13/1 164/13/1
f 167/13/1 163/13/1 162/13/1
f 168/13/1 163/13/1 167/13/1
f 169/13/1 166/13/1 164/13/1
f 170/13/1 166/13/1 169/13/1
f 175/10/1 172/10/1 171/10/1
f 176/10/1 172/10/1 175/10/1
f 178/9/1 174/9/1 173/9/1
f 179/9/1 174/9/1 178/9/1
f 180/9/1 176/9/1 175/9/1
f 181/3/1 177/3/1 176/3/1
f 181/9/1 176/9/1 180/9/1
f 182/3/1 177/3/1 181/3/1
f 185/9/1 184/9/1 183/9/1
f 186/9/1 184/9/1 185/9/1
f 191/4/1 188/4/1 187/4/1
f 192/4/1 188/4/1 191/4/1
f 193/4/1 190/4/1 189/4/1
f 194/4/1 190/4/1 193/4/1
f 199/13/1 196/13/1 195/13/1
f 200/13/1 196/13/1 199/13/1
f 201/13/1 198/13/1 197/13/1
f 202/13/1 198/13/1 201/13/1
f 205/3/1 204/3/1 203/3/1
f 206/3/1 204/3/1 205/3/1
f 209/1/1 208/1/1 207/1/1
f 210/1/1 208/1/1 209/1/1
f 217/9/1 212/9/1 211/9/1
f 218/9/1 212/9/1 217/9/1
f 219/9/1 214/9/1 213/9/1
f 220/9/1 214/9/1 219/9/1
f 221/9/1 216/9/1 215/9/1
f 222/9/1 216/9/1 221/9/1
f 227/3/1 224/3/1 223/3/1
f 228/3/1 224/3/1 227/3/1
f 229/3/1 226/3/1 225/3/1
f 230/3/1 226/3/1 229/3/1
f 233/4/1 232/4/1 231/4/1
f 234/4/1 232/4/1 233/4/1
f 241/9/1 236/9/1 235/9/1
f 242/9/1 236/9/1 241/9/1
f 243/9/1 238/9/1 237/9/1
f 244/9/1 238/9/1 243/9/1
f 247/3/1 240/3/1 239/3/1
f 248/3/1 240/3/1 247/3/1
f 250/3/1 246/3/1 245/3/1
f 251/3/1 246/3/1 250/3/1
f 252/3/1 249/3/1 248/3/1
f 253/3/1 249/3/1 252/3/1
f 256/4/1 255/4/1 254/4/1
f 257/4/1 255/4/1 256/4/1
f 262/3/1 259/3/1 258/3/1
f 263/3/1 259/3/1 262/3/1
f 265/3/1 261/3/1 260/3/1
f 266/3/1 261/3/1 265/3/1
f 267/3/1 264/3/1 263/3/1
f 268/3/1 264/3/1 267/3/1
f 271/3/1 270/3/1 269/3/1
f 272/3/1 270/3/1 271/3/1
f 273/3/1 270/3/1 272/3/1
f 274/10/2 275/10/2 277/10/2
f 275/9/2 276/9/2 278/9/2
f 277/10/2 275/10/2 278/10/2
f 278/9/2 276/9/2 279/9/2
f 280/4/2 281/4/2 282/4/2
f 282/4/2 281/4/2 283/4/2
f 284/3/2 285/3/2 286/3/2
f 286/3/2 285/3/2 287/3/2
f 288/4/2 289/4/2 290/4/2
f 290/4/2 289/4/2 291/4/2
f 292/10/2 293/10/2 294/10/2
f 294/10/2 293/10/2 295/10/2
f 296/9/2 297/9/2 298/9/2
f 298/9/2 297/9/2 299/9/2
f 300/9/2 301/9/2 305/9/2
f 305/9/2 301/9/2 306/9/2
f 302/9/2 303/9/2 309/9/2
f 309/9/2 303/9/2 310/9/2
f 304/9/2 305/9/2 311/9/2
f 311/9/2 305/9/2 312/9/2
f 307/3/2 308/3/2 313/3/2
f 313/3/2 308/3/2 314/3/2
f 315/10/2 316/10/2 317/10/2
f 317/10/2 316/10/2 318/10/2
f 319/4/2 320/4/2 321/4/2
f 321/4/2 320/4/2 322/4/2
f 323/9/2 324/9/2 329/9/2
f 329/9/2 324/9/2 330/9/2
f 325/9/2 326/9/2 331/9/2
f 331/9/2 326/9/2 332/9/2
f 327/3/2 328/3/2 333/3/2
f 333/3/2 328/3/2 334/3/2
f 335/4/2 336/4/2 339/4/2
f 339/4/2 336/4/2 340/4/2
f 337/4/2 338/4/2 341/4/2
f 341/4/2 338/4/2 342/4/2
f 343/9/2 344/9/2 345/9/2
f 345/9/2 344/9/2 346/9/2
f 347/13/2 348/13/2 352/13/2
f 352/13/2 348/13/2 353/13/2
f 349/13/2 350/13/2 354/13/2
f 350/10/2 351/10/2 355/10/2
f 354/13/2 350/13/2 355/13/2
f 355/10/2 351/10/2 356/10/2
f 357/3/2 358/3/2 359/3/2
f 359/3/2 358/3/2 360/3/2
f 361/4/2 362/4/2 363/4/2
f 363/4/2 362/4/2 364/4/2
f 365/12/2 366/12/2 369/12/2
f 369/12/2 366/12/2 370/12/2
f 367/3/2 368/3/2 372/3/2
f 372/3/2 368/3/2 373/3/2
f 371/4/2 372/4/2 374/4/2
f 374/4/2 372/4/2 375/4/2
f 376/13/2 377/13/2 380/13/2
f 380/13/2 377/13/2 381/13/2
f 378/13/2 379/13/2 382/13/2
f 382/13/2 379/13/2 383/13/2
f 384/9/2 385/9/2 388/9/2
f 388/9/2 385/9/2 389/9/2
f 386/9/2 387/9/2 390/9/2
f 390/9/2 387/9/2 391/9/2
f 392/12/2 393/12/2 396/12/2
f 396/12/2 393/12/2 397/12/2
f 394/4/2 395/4/2 398/4/2
f 398/4/2 395/4/2 399/4/2
f 400/11/2 401/11/2 404/11/2
f 404/11/2 401/11/2 405/11/2
f 402/11/2 403/11/2 408/11/2
f 408/11/2 403/11/2 409/11/2
f 405/10/2 406/10/2 411/10/2
f 411/10/2 406/10/2 412/10/2
f 407/10/2 408/10/2 413/10/2
f 413/10/2 408/10/2 414/10/2
f 410/13/2 411/13/2 417/13/2
f 417/13/2 411/13/2 418/13/2
f 412/10/2 413/10/2 419/10/2
f 419/10/2 413/10/2 420/10/2
f 414/13/2 415/13/2 421/13/2
f 421/13/2 415/13/2 422/13/2
f 416/4/2 417/4/2 424/4/2
f 424/4/2 417/4/2 425/4/2
f 422/4/2 423/4/2 426/4/2
f 426/4/2 423/4/2 427/4/2
f 427/3/2 428/3/2 429/3/2
f 429/3/2 428/3/2 430/3/2
f 431/3/2 432/3/2 437/3/2
f 437/3/2 432/3/2 438/3/2
f 433/12/2 434/12/2 439/12/2
f 439/12/2 434/12/2 440/12/2
f 435/4/2 436/4/2 443/4/2
f 443/4/2 436/4/2 444/4/2
f 439/11/2 440/11/2 445/11/2
f 440/13/2 441/13/2 446/13/2
f 445/11/2 440/11/2 446/11/2
f 441/11/2 442/11/2 447/11/2
f 446/13/2 441/13/2 447/13/2
f 447/11/2 442/11/2 448/11/2
f 446/13/2 447/13/2 450/13/2
f 450/13/2 447/13/2 451/13/2
f 449/13/2 450/13/2 454/13/2
f 454/13/2 450/13/2 455/13/2
f 451/13/2 452/13/2 456/13/2
f 456/13/2 452/13/2 457/13/2
f 453/13/2 454/13/2 461/13/2
f 461/13/2 454/13/2 462/13/2
f 457/13/2 458/13/2 463/13/2
f 463/13/2 458/13/2 464/13/2
f 459/3/2 460/3/2 467/3/2
f 467/3/2 460/3/2 468/3/2
f 464/4/2 465/4/2 469/4/2
f 469/4/2 465/4/2 470/4/2
f 466/3/2 467/3/2 472/3/2
f 472/3/2 467/3/2 473/3/2
f 470/3/2 471/3/2 475/3/2
f 475/3/2 471/3/2 476/3/2
f 473/3/2 474/3/2 477/3/2
f 477/3/2 474/3/2 478/3/2
f 479/12/2 480/12/2 483/12/2
f 483/12/2 480/12/2 484/12/2
f 481/12/2 482/12/2 485/12/2
f 485/12/2 482/12/2 486/12/2
f 484/4/2 485/4/2 488/4/2
f 488/4/2 485/4/2 489/4/2
f 486/4/2 487/4/2 490/4/2
f 490/4/2 487/4/2 491/4/2
f 492/4/2 493/4/2 496/4/2
f 496/4/2 493/4/2 497/4/2
f 494/3/2 495/3/2 500/3/2
f 500/3/2 495/3/2 501/3/2
f 497/4/2 498/4/2 502/4/2
f 502/4/2 498/4/2 503/4/2
f 499/3/2 500/3/2 505/3/2
f 505/3/2 500/3/2 506/3/2
f 503/3/2 504/3/2 508/3/2
f 508/3/2 504/3/2 509/3/2
f 506/3/2 507/3/2 510/3/2
f 510/3/2 507/3/2 511/3/2
f 512/3/2 513/3/2 518/3/2
f 518/3/2 513/3/2 519/3/2
f 514/4/2 515/4/2 520/4/2
f 515/3/2 516/3/2 521/3/2
f 520/4/2 515/4/2 521/4/2
f 521/3/2 516/3/2 522/3/2
f 517/4/2 518/4/2 523/4/2
f 523/4/2 518/4/2 524/4/2
f 519/4/2 520/4/2 525/4/2
f 525/4/2 520/4/2 526/4/2
f 527/3/2 528/3/2 530/3/2
f 530/3/2 528/3/2 531/3/2
f 531/3/2 528/3/2 532/3/2
f 529/3/2 530/3/2 534/3/2
f 534/3/2 530/3/2 535/3/2
f 532/3/2 533/3/2 537/3/2
f 537/3/2 533/3/2 538/3/2
f 535/3/2 536/3/2 539/3/2
f 539/3/2 536/3/2 540/3/2
f 541/3/2 542/3/2 543/3/2
f 543/3/2 542/3/2 544/3/2
f 547/3/3 546/3/3 545/3/3
f 548/3/3 546/3/3 547/3/3
f 551/4/3 550/4/3 549/4/3
f 552/4/3 550/4/3 551/4/3
f 557/3/3 555/3/3 554/3/3
f 558/3/3 555/3/3 557/3/3
f 560/4/3 553/4/3 552/4/3
f 561/4/3 553/4/3 560/4/3
f 562/3/3 560/3/3 559/3/3
f 563/3/3 560/3/3 562/3/3
f 566/3/3 557/3/3 556/3/3
f 567/4/3 565/4/3 564/4/3
f 568/4/3 565/4/3 567/4/3
f 571/3/3 566/3/3 556/3/3
f 572/3/3 566/3/3 571/3/3
f 573/3/3 570/3/3 569/3/3
f 574/3/3 570/3/3 573/3/3
f 575/3/3 573/3/3 572/3/3
f 576/3/3 573/3/3 575/3/3
f 579/4/3 578/4/3 577/4/3
f 580/4/3 578/4/3 579/4/3
f 586/3/3 582/3/3 581/3/3
f 587/3/3 582/3/3 586/3/3
f 589/4/3 586/4/3 585/4/3
f 590/4/3 586/4/3 589/4/3
f 591/12/3 584/12/3 583/12/3
f 592/12/3 584/12/3 591/12/3
f 595/4/3 593/4/3 592/4/3
f 596/12/3 595/12/3 594/12/3
f 597/4/3 593/4/3 595/4/3
f 597/12/3 595/12/3 596/12/3
f 598/4/3 593/4/3 597/4/3
f 601/4/3 589/4/3 588/4/3
f 602/4/3 589/4/3 601/4/3
f 603/3/3 600/3/3 599/3/3
f 604/3/3 600/3/3 603/3/3
f 609/3/3 606/3/3 605/3/3
f 610/3/3 606/3/3 609/3/3
f 611/3/3 608/3/3 607/3/3
f 612/3/3 608/3/3 611/3/3
f 613/3/3 611/3/3 610/3/3
f 614/3/3 611/3/3 613/3/3
f 619/4/3 616/4/3 615/4/3
f 620/4/3 616/4/3 619/4/3
f 622/3/3 618/3/3 617/3/3
f 623/3/3 618/3/3 622/3/3
f 624/1/3 620/1/3 619/1/3
f 625/1/3 620/1/3 624/1/3
f 627/4/3 622/4/3 621/4/3
f 628/4/3 622/4/3 627/4/3
f 632/13/3 627/13/3 626/13/3
f 633/13/3 627/13/3 632/13/3
f 634/11/3 630/11/3 629/11/3
f 635/11/3 630/11/3 634/11/3
f 636/13/3 632/13/3 631/13/3
f 637/13/3 632/13/3 636/13/3
f 640/13/3 635/13/3 634/13/3
f 640/13/3 636/13/3 635/13/3
f 641/13/3 636/13/3 640/13/3
f 642/13/3 636/13/3 641/13/3
f 644/12/3 639/12/3 638/12/3
f 645/12/3 639/12/3 644/12/3
f 646/11/3 641/11/3 640/11/3
f 647/11/3 641/11/3 646/11/3
f 648/13/3 643/13/3 642/13/3
f 649/13/3 643/13/3 648/13/3
f 653/13/3 650/13/3 649/13/3
f 654/13/3 650/13/3 653/13/3
f 655/3/3 652/3/3 651/3/3
f 656/3/3 652/3/3 655/3/3
f 661/4/3 656/4/3 655/4/3
f 662/4/3 656/4/3 661/4/3
f 663/3/3 658/3/3 657/3/3
f 664/3/3 658/3/3 663/3/3
f 665/3/3 660/3/3 659/3/3
f 666/3/3 660/3/3 665/3/3
f 667/3/3 665/3/3 664/3/3
f 668/3/3 665/3/3 667/3/3
f 672/3/3 670/3/3 669/3/3
f 673/3/3 670/3/3 672/3/3
f 677/4/3 672/4/3 671/4/3
f 678/4/3 672/4/3 677/4/3
f 679/11/3 675/11/3 674/11/3
f 680/11/3 675/11/3 679/11/3
f 681/13/3 677/13/3 676/13/3
f 682/13/3 677/13/3 681/13/3
f 683/10/3 681/10/3 680/10/3
f 684/10/3 681/10/3 683/10/3
f 687/10/3 685/10/3 684/10/3
f 688/10/3 685/10/3 687/10/3
f 692/10/3 687/10/3 686/10/3
f 693/10/3 687/10/3 692/10/3
f 695/11/3 692/11/3 691/11/3
f 696/11/3 692/11/3 695/11/3
f 697/13/3 694/13/3 693/13/3
f 698/13/3 694/13/3 697/13/3
f 700/12/3 690/12/3 689/12/3
f 701/12/3 690/12/3 700/12/3
f 702/4/3 699/4/3 698/4/3
f 703/4/3 699/4/3 702/4/3
f 706/3/3 705/3/3 704/3/3
f 707/3/3 705/3/3 706/3/3
f 712/13/3 709/13/3 708/13/3
f 713/13/3 709/13/3 712/13/3
f 714/9/3 711/9/3 710/9/3
f 715/9/3 711/9/3 714/9/3
f 722/13/3 717/13/3 716/13/3
f 723/13/3 717/13/3 722/13/3
f 724/9/3 719/9/3 718/9/3
f 725/9/3 719/9/3 724/9/3
f 727/4/3 721/4/3 720/4/3
f 728/4/3 721/4/3 727/4/3
f 729/3/3 727/3/3 726/3/3
f 730/3/3 727/3/3 729/3/3
f 735/4/3 732/4/3 731/4/3
f 736/4/3 732/4/3 735/4/3
f 737/4/3 734/4/3 733/4/3
f 738/4/3 734/4/3 737/4/3
f 739/4/3 734/4/3 738/4/3
f 742/13/3 741/13/3 740/13/3
f 743/13/3 741/13/3 742/13/3
f 746/13/3 745/13/3 744/13/3
f 747/13/3 745/13/3 746/13/3
f 750/9/3 749/9/3 748/9/3
f 751/9/3 749/9/3 750/9/3
f 753/10/3 752/10/3 751/10/3
f 754/10/3 752/10/3 753/10/3
f 757/9/3 756/9/3 755/9/3
f 758/9/3 756/9/3 757/9/3
f 761/9/3 760/9/3 759/9/3
f 762/9/3 760/9/3 761/9/3
f 767/4/3 764/4/3 763/4/3
f 768/4/3 764/4/3 767/4/3
f 769/3/3 766/3/3 765/3/3
f 770/3/3 766/3/3 769/3/3
f 773/9/3 772/9/3 771/9/3
f 774/9/3 773/9/3 771/9/3
f 775/9/3 773/9/3 774/9/3
f 778/10/3 777/10/3 776/10/3
f 779/10/3 777/10/3 778/10/3
f 782/9/3 781/9/3 780/9/3
f 783/9/3 781/9/3 782/9/3
f 786/9/3 785/9/3 784/9/3
f 787/9/3 785/9/3 786/9/3
f 790/9/3 789/9/3 788/9/3
f 791/9/3 789/9/3 790/9/3
f 796/3/3 793/3/3 792/3/3
f 797/3/3 793/3/3 796/3/3
f 798/4/3 795/4/3 794/4/3
f 799/4/3 795/4/3 798/4/3
f 802/4/3 801/4/3 800/4/3
f 803/4/3 801/4/3 802/4/3
f 805/3/3 804/3/3 803/3/3
f 806/3/3 804/3/3 805/3/3
f 809/4/3 808/4/3 807/4/3
f 810/4/3 808/4/3 809/4/3
f 813/3/3 812/3/3 811/3/3
f 814/3/3 812/3/3 813/3/3
f 815/3/4 816/3/4 817/3/4
f 815/3/4 817/3/4 818/3/4
f 818/3/4 817/3/4 819/3/4
f 820/3/4 821/3/4 822/3/4
f 822/3/4 821/3/4 823/3/4
f 824/3/4 825/3/4 827/3/4
f 827/3/4 825/3/4 828/3/4
f 826/3/4 827/3/4 829/3/4
f 829/3/4 827/3/4 830/3/4
f 831/4/4 832/4/4 833/4/4
f 833/4/4 832/4/4 834/4/4
f 835/3/4 836/3/4 837/3/4
f 837/3/4 836/3/4 838/3/4
f 839/9/4 840/9/4 841/9/4
f 841/9/4 840/9/4 842/9/4
f 843/9/4 844/9/4 845/9/4
f 845/9/4 844/9/4 846/9/4
f 847/3/4 848/3/4 850/3/4
f 850/3/4 848/3/4 851/3/4
f 849/3/4 850/3/4 852/3/4
f 852/3/4 850/3/4 853/3/4
f 854/3/4 855/3/4 856/3/4
f 856/3/4 855/3/4 857/3/4
f 858/9/4 859/9/4 860/9/4
f 860/9/4 859/9/4 861/9/4
f 862/9/4 863/9/4 864/9/4
f 864/9/4 863/9/4 865/9/4
f 866/9/4 867/9/4 870/9/4
f 870/9/4 867/9/4 871/9/4
f 868/3/4 869/3/4 872/3/4
f 872/3/4 869/3/4 873/3/4
f 874/3/4 875/3/4 876/3/4
f 876/3/4 875/3/4 877/3/4
f 878/4/4 879/4/4 880/4/4
f 880/4/4 879/4/4 881/4/4
f 882/13/4 883/13/4 884/13/4
f 884/13/4 883/13/4 885/13/4
f 886/13/4 887/13/4 888/13/4
f 888/13/4 887/13/4 889/13/4
f 890/4/4 891/4/4 892/4/4
f 892/4/4 891/4/4 893/4/4
f 894/3/4 895/3/4 896/3/4
f 896/3/4 895/3/4 897/3/4
f 898/3/4 899/3/4 902/3/4
f 902/3/4 899/3/4 903/3/4
f 900/3/4 901/3/4 904/3/4
f 904/3/4 901/3/4 905/3/4
f 906/13/4 907/13/4 910/13/4
f 910/13/4 907/13/4 911/13/4
f 908/9/4 909/9/4 912/9/4
f 912/9/4 909/9/4 913/9/4
f 914/13/4 915/13/4 918/13/4
f 918/13/4 915/13/4 919/13/4
f 916/9/4 917/9/4 920/9/4
f 920/9/4 917/9/4 921/9/4
f 922/4/4 923/4/4 924/4/4
f 924/4/4 923/4/4 925/4/4
f 925/4/4 923/4/4 926/4/4
f 926/9/4 927/9/4 932/9/4
f 932/9/4 927/9/4 933/9/4
f 928/12/4 929/12/4 934/12/4
f 929/11/4 930/11/4 935/11/4
f 934/12/4 929/12/4 935/12/4
f 935/11/4 930/11/4 936/11/4
f 931/10/4 932/10/4 939/10/4
f 939/10/4 932/10/4 940/10/4
f 937/10/4 938/10/4 941/10/4
f 936/10/4 937/10/4 941/10/4
f 941/10/4 938/10/4 942/10/4
f 942/5/4 943/5/4 944/5/4
f 942/5/4 944/5/4 946/5/4
f 946/5/4 944/5/4 947/5/4
f 945/10/4 946/10/4 949/10/4
f 949/10/4 946/10/4 950/10/4
f 948/11/4 949/11/4 952/11/4
f 952/11/4 949/11/4 953/11/4
f 950/13/4 951/13/4 954/13/4
f 954/13/4 951/13/4 955/13/4
f 955/4/4 956/4/4 959/4/4
f 959/4/4 956/4/4 960/4/4
f 957/3/4 958/3/4 962/3/4
f 962/3/4 958/3/4 963/3/4
f 960/3/4 961/3/4 964/3/4
f 964/3/4 961/3/4 965/3/4
f 966/9/4 967/9/4 970/9/4
f 970/9/4 967/9/4 971/9/4
f 968/9/4 969/9/4 972/9/4
f 972/9/4 969/9/4 973/9/4
f 971/10/4 972/10/4 976/10/4
f 976/10/4 972/10/4 977/10/4
f 977/10/4 972/10/4 978/10/4
f 974/11/4 975/11/4 980/11/4
f 980/11/4 975/11/4 981/11/4
f 978/10/4 979/10/4 984/10/4
f 984/10/4 979/10/4 985/10/4
f 982/13/4 983/13/4 987/13/4
f 980/13/4 981/13/4 987/13/4
f 981/13/4 982/13/4 987/13/4
f 987/13/4 983/13/4 988/13/4
f 988/13/4 983/13/4 989/13/4
f 986/12/4 987/12/4 991/12/4
f 987/11/4 988/11/4 992/11/4
f 991/12/4 987/12/4 992/12/4
f 992/11/4 988/11/4 993/11/4
f 989/13/4 990/13/4 994/13/4
f 994/13/4 990/13/4 995/13/4
f 995/13/4 996/13/4 997/13/4
f 997/13/4 996/13/4 998/13/4
f 998/4/4 999/4/4 1002/4/4
f 1002/4/4 999/4/4 1003/4/4
f 1000/4/4 1001/4/4 1005/4/4
f 1005/4/4 1001/4/4 1006/4/4
f 1003/3/4 1004/3/4 1007/3/4
f 1007/3/4 1004/3/4 1008/3/4
f 1009/10/4 1010/10/4 1012/10/4
f 1012/10/4 1010/10/4 1013/10/4
f 1011/12/4 1012/12/4 1014/12/4
f 1011/12/4 1014/12/4 1019/12/4
f 1019/12/4 1014/12/4 1020/12/4
f 1015/9/4 1016/9/4 1022/9/4
f 1022/9/4 1016/9/4 1023/9/4
f 1017/10/4 1018/10/4 1024/10/4
f 1024/10/4 1018/10/4 1025/10/4
f 1020/4/4 1021/4/4 1029/4/4
f 1029/4/4 1021/4/4 1030/4/4
f 1026/4/4 1027/4/4 1031/4/4
f 1031/4/4 1027/4/4 1032/4/4
f 1028/12/4 1029/12/4 1034/12/4
f 1034/12/4 1029/12/4 1035/12/4
f 1032/4/4 1033/4/4 1037/4/4
f 1037/4/4 1033/4/4 1038/4/4
f 1035/4/4 1036/4/4 1040/4/4
f 1040/4/4 1036/4/4 1041/4/4
f 1038/3/4 1039/3/4 1042/3/4
f 1042/3/4 1039/3/4 1043/3/4
f 1044/9/4 1045/9/4 1046/9/4
f 1046/9/4 1045/9/4 1047/9/4
f 1048/9/4 1049/9/4 1052/9/4
f 1052/9/4 1049/9/4 1053/9/4
f 1050/4/4 1051/4/4 1054/4/4
f 1054/4/4 1051/4/4 1055/4/4
f 1052/4/4 1053/4/4 1058/4/4
f 1058/4/4 1053/4/4 1059/4/4
f 1055/3/4 1056/3/4 1060/3/4
f 1060/3/4 1056/3/4 1061/3/4
f 1060/4/4 1061/4/4 1063/4/4
f 1061/3/4 1062/3/4 1064/3/4
f 1063/4/4 1061/4/4 1064/4/4
f 1057/3/4 1058/3/4 1065/3/4
f 1065/3/4 1058/3/4 1066/3/4
f 1064/3/4 1062/3/4 1068/3/4
f 1068/3/4 1062/3/4 1069/3/4
f 1066/4/4 1067/4/4 1072/4/4
f 1072/4/4 1067/4/4 1073/4/4
f 1069/3/4 1070/3/4 1074/3/4
f 1074/3/4 1070/3/4 1075/3/4
f 1071/4/4 1072/4/4 1076/4/4
f 1076/4/4 1072/4/4 1077/4/4
f 1076/3/4 1077/3/4 1078/3/4
f 1078/3/4 1077/3/4 1079/3/4
f 1080/9/4 1081/9/4 1082/9/4
f 1082/9/4 1081/9/4 1083/9/4
f 1089/4/5 1085/4/5 1084/4/5
f 1090/4/5 1085/4/5 1089/4/5
f 1091/3/5 1087/3/5 1086/3/5
f 1092/3/5 1087/3/5 1091/3/5
f 1094/4/5 1089/4/5 1088/4/5
f 1095/3/5 1090/3/5 1089/3/5
f 1095/4/5 1089/4/5 1094/4/5
f 1096/12/5 1093/12/5 1092/12/5
f 1096/3/5 1090/3/5 1095/3/5
f 1096/12/5 1091/12/5 1090/12/5
f 1096/12/5 1092/12/5 1091/12/5
f 1097/12/5 1093/12/5 1096/12/5
f 1099/12/5 1098/12/5 1097/12/5
f 1099/12/5 1097/12/5 1096/12/5
f 1099/12/5 1096/12/5 1095/12/5
f 1102/12/5 1099/12/5 1095/12/5
f 1102/12/5 1100/12/5 1099/12/5
f 1103/12/5 1100/12/5 1102/12/5
f 1104/12/5 1100/12/5 1103/12/5
f 1106/3/5 1102/3/5 1101/3/5
f 1106/3/5 1103/3/5 1102/3/5
f 1107/3/5 1103/3/5 1106/3/5
f 1108/12/5 1104/12/5 1103/12/5
f 1108/3/5 1103/3/5 1107/3/5
f 1109/3/5 1105/3/5 1104/3/5
f 1109/12/5 1104/12/5 1108/12/5
f 1109/12/5 1108/12/5 1107/12/5
f 1110/3/5 1105/3/5 1109/3/5
f 1112/12/5 1109/12/5 1107/12/5
f 1113/12/5 1109/12/5 1112/12/5
f 1115/9/5 1112/9/5 1111/9/5
f 1116/12/5 1113/12/5 1112/12/5
f 1116/9/5 1112/9/5 1115/9/5
f 1117/12/5 1113/12/5 1116/12/5
f 1118/12/5 1113/12/5 1117/12/5
f 1119/12/5 1113/12/5 1118/12/5
f 1120/4/5 1114/4/5 1113/4/5
f 1120/12/5 1113/12/5 1119/12/5
f 1121/4/5 1114/4/5 1120/4/5
f 1122/9/5 1115/9/5 1111/9/5
f 1123/10/5 1116/10/5 1115/10/5
f 1123/9/5 1115/9/5 1122/9/5
f 1124/10/5 1116/10/5 1123/10/5
f 1125/3/5 1118/3/5 1117/3/5
f 1126/3/5 1118/3/5 1125/3/5
f 1127/4/5 1120/4/5 1119/4/5
f 1128/3/5 1121/3/5 1120/3/5
f 1128/4/5 1120/4/5 1127/4/5
f 1129/3/5 1121/3/5 1128/3/5
f 1130/9/5 1124/9/5 1123/9/5
f 1131/9/5 1124/9/5 1130/9/5
f 1136/4/5 1133/4/5 1132/4/5
f 1137/4/5 1133/4/5 1136/4/5
f 1138/4/5 1135/4/5 1134/4/5
f 1139/4/5 1135/4/5 1138/4/5
f 1143/1/5 1139/1/5 1138/1/5
f 1144/3/5 1140/3/5 1139/3/5
f 1144/1/5 1139/1/5 1143/1/5
f 1145/3/5 1140/3/5 1144/3/5
f 1148/3/5 1145/3/5 1144/3/5
f 1148/3/5 1146/3/5 1145/3/5
f 1149/4/5 1147/4/5 1146/4/5
f 1149/3/5 1146/3/5 1148/3/5
f 1150/4/5 1142/4/5 1141/4/5
f 1151/4/5 1142/4/5 1150/4/5
f 1152/4/5 1147/4/5 1149/4/5
f 1153/4/5 1147/4/5 1152/4/5
f 1156/4/5 1155/4/5 1154/4/5
f 1157/4/5 1155/4/5 1156/4/5
f 1160/9/5 1157/9/5 1156/9/5
f 1161/9/5 1157/9/5 1160/9/5
f 1162/4/5 1159/4/5 1158/4/5
f 1163/4/5 1159/4/5 1162/4/5
f 1169/9/5 1165/9/5 1164/9/5
f 1170/4/5 1166/4/5 1165/4/5
f 1170/9/5 1165/9/5 1169/9/5
f 1171/4/5 1166/4/5 1170/4/5
f 1172/4/5 1168/4/5 1167/4/5
f 1173/4/5 1168/4/5 1172/4/5
f 1176/9/5 1175/9/5 1174/9/5
f 1177/9/5 1175/9/5 1176/9/5
f 1180/9/5 1179/9/5 1178/9/5
f 1181/9/5 1179/9/5 1180/9/5
f 1184/10/5 1183/10/5 1182/10/5
f 1185/10/5 1183/10/5 1184/10/5
f 1191/13/5 1187/13/5 1186/13/5
f 1192/13/5 1187/13/5 1191/13/5
f 1193/13/5 1189/13/5 1188/13/5
f 1194/13/5 1189/13/5 1193/13/5
f 1196/13/5 1191/13/5 1190/13/5
f 1197/13/5 1191/13/5 1196/13/5
f 1198/13/5 1195/13/5 1194/13/5
f 1199/13/5 1195/13/5 1198/13/5
f 1206/4/5 1201/4/5 1200/4/5
f 1207/4/5 1201/4/5 1206/4/5
f 1208/13/5 1203/13/5 1202/13/5
f 1209/13/5 1203/13/5 1208/13/5
f 1212/13/5 1205/13/5 1204/13/5
f 1213/13/5 1205/13/5 1212/13/5
f 1214/13/5 1210/13/5 1209/13/5
f 1215/13/5 1210/13/5 1214/13/5
f 1216/13/5 1212/13/5 1211/13/5
f 1217/13/5 1212/13/5 1216/13/5
f 1219/10/5 1215/10/5 1214/10/5
f 1220/10/5 1215/10/5 1219/10/5
f 1221/4/5 1219/4/5 1218/4/5
f 1222/4/5 1219/4/5 1221/4/5
f 1226/4/5 1224/4/5 1223/4/5
f 1227/4/5 1224/4/5 1226/4/5
f 1228/4/5 1224/4/5 1227/4/5
f 1229/4/5 1224/4/5 1228/4/5
f 1232/13/5 1226/13/5 1225/13/5
f 1233/13/5 1226/13/5 1232/13/5
f 1234/12/5 1228/12/5 1227/12/5
f 1235/12/5 1228/12/5 1234/12/5
f 1236/13/5 1230/13/5 1229/13/5
f 1237/13/5 1230/13/5 1236/13/5
f 1239/4/5 1232/4/5 1231/4/5
f 1242/4/5 1238/4/5 1237/4/5
f 1243/4/5 1239/4/5 1231/4/5
f 1244/12/5 1240/12/5 1239/12/5
f 1244/4/5 1239/4/5 1243/4/5
f 1245/12/5 1240/12/5 1244/12/5
f 1246/12/5 1242/12/5 1241/12/5
f 1247/4/5 1238/4/5 1242/4/5
f 1247/12/5 1242/12/5 1246/12/5
f 1248/12/5 1244/12/5 1243/12/5
f 1249/12/5 1244/12/5 1248/12/5
f 1254/4/5 1238/4/5 1247/4/5
f 1255/4/5 1238/4/5 1254/4/5
f 1256/9/5 1249/9/5 1248/9/5
f 1257/9/5 1249/9/5 1256/9/5
f 1258/9/5 1251/9/5 1250/9/5
f 1259/12/5 1252/12/5 1251/12/5
f 1259/9/5 1251/9/5 1258/9/5
f 1260/12/5 1252/12/5 1259/12/5
f 1261/13/5 1254/13/5 1253/13/5
f 1262/13/5 1254/13/5 1261/13/5
f 1264/10/5 1259/10/5 1258/10/5
f 1265/4/5 1260/4/5 1259/4/5
f 1265/4/5 1261/4/5 1260/4/5
f 1265/10/5 1259/10/5 1264/10/5
f 1266/4/5 1261/4/5 1265/4/5
f 1267/3/5 1264/3/5 1263/3/5
f 1268/4/5 1265/4/5 1264/4/5
f 1268/3/5 1264/3/5 1267/3/5
f 1269/4/5 1265/4/5 1268/4/5
f 1273/3/5 1271/3/5 1270/3/5
f 1274/3/5 1271/3/5 1273/3/5
f 1275/3/5 1271/3/5 1274/3/5
f 1278/4/5 1273/4/5 1272/4/5
f 1279/4/5 1273/4/5 1278/4/5
f 1280/4/5 1275/4/5 1274/4/5
f 1281/3/5 1276/3/5 1275/3/5
f 1281/4/5 1275/4/5 1280/4/5
f 1282/3/5 1276/3/5 1281/3/5
f 1285/4/5 1278/4/5 1277/4/5
f 1286/4/5 1278/4/5 1285/4/5
f 1287/4/5 1282/4/5 1281/4/5
f 1288/3/5 1283/3/5 1282/3/5
f 1288/4/5 1282/4/5 1287/4/5
f 1289/3/5 1285/3/5 1284/3/5
f 1290/3/5 1285/3/5 1289/3/5
f 1292/3/5 1283/3/5 1288/3/5
f 1293/3/5 1283/3/5 1292/3/5
f 1295/4/5 1292/4/5 1291/4/5
f 1296/4/5 1292/4/5 1295/4/5
f 1298/4/5 1295/4/5 1294/4/5
f 1299/4/5 1295/4/5 1298/4/5
f 1300/3/5 1298/3/5 1297/3/5
f 1301/3/5 1298/3/5 1300/3/5
f 1306/3/5 1303/3/5 1302/3/5
f 1307/3/5 1303/3/5 1306/3/5
f 1310/3/5 1305/3/5 1304/3/5
f 1311/3/5 1305/3/5 1310/3/5
f 1312/3/5 1308/3/5 1307/3/5
f 1313/3/5 1308/3/5 1312/3/5
f 1316/3/5 1310/3/5 1309/3/5
f 1317/3/5 1310/3/5 1316/3/5
f 1318/3/5 1314/3/5 1313/3/5
f 1319/3/5 1314/3/5 1318/3/5
f 1321/3/5 1316/3/5 1315/3/5
f 1322/3/5 1316/3/5 1321/3/5
f 1323/3/5 1320/3/5 1319/3/5
f 1324/3/5 1320/3/5 1323/3/5
f 1328/3/5 1326/3/5 1325/3/5
f 1329/3/5 1326/3/5 1328/3/5
f 1331/3/5 1328/3/5 1327/3/5
f 1332/3/5 1328/3/5 1331/3/5
f 1333/3/5 1331/3/5 1330/3/5
f 1334/3/5 1331/3/5 1333/3/5
f 1337/3/5 1336/3/5 1335/3/5
f 1338/3/5 1336/3/5 1337/3/5
f 1340/3/5 1339/3/5 1338/3/5
f 1341/3/5 1339/3/5 1340/3/5
f 1343/3/5 1342/3/5 1341/3/5
f 1344/3/5 1342/3/5 1343/3/5
f 1345/4/6 1346/4/6 1350/4/6
f 1350/4/6 1346/4/6 1351/4/6
f 1347/3/6 1348/3/6 1352/3/6
f 1352/3/6 1348/3/6 1353/3/6
f 1349/4/6 1350/4/6 1354/4/6
f 1350/3/6 1351/3/6 1355/3/6
f 1354/4/6 1350/4/6 1355/4/6
f 1355/3/6 1351/3/6 1356/3/6
f 1357/12/6 1358/12/6 1361/12/6
f 1361/12/6 1358/12/6 1362/12/6
f 1359/3/6 1360/3/6 1364/3/6
f 1364/3/6 1360/3/6 1365/3/6
f 1362/3/6 1363/3/6 1368/3/6
f 1368/3/6 1363/3/6 1369/3/6
f 1366/12/6 1367/12/6 1372/12/6
f 1372/12/6 1367/12/6 1373/12/6
f 1370/9/6 1371/9/6 1378/9/6
f 1374/12/6 1375/12/6 1381/12/6
f 1381/12/6 1375/12/6 1382/12/6
f 1376/4/6 1377/4/6 1384/4/6
f 1384/4/6 1377/4/6 1385/4/6
f 1370/9/6 1378/9/6 1386/9/6
f 1378/10/6 1379/10/6 1387/10/6
f 1386/9/6 1378/9/6 1387/9/6
f 1387/10/6 1379/10/6 1388/10/6
f 1380/3/6 1381/3/6 1389/3/6
f 1389/3/6 1381/3/6 1390/3/6
f 1383/4/6 1384/4/6 1391/4/6
f 1384/3/6 1385/3/6 1392/3/6
f 1391/4/6 1384/4/6 1392/4/6
f 1392/3/6 1385/3/6 1393/3/6
f 1387/9/6 1388/9/6 1394/9/6
f 1394/9/6 1388/9/6 1395/9/6
f 1396/4/6 1397/4/6 1400/4/6
f 1400/4/6 1397/4/6 1401/4/6
f 1401/4/6 1397/4/6 1402/4/6
f 1398/4/6 1399/4/6 1403/4/6
f 1403/4/6 1399/4/6 1404/4/6
f 1400/1/6 1401/1/6 1408/1/6
f 1401/3/6 1402/3/6 1409/3/6
f 1408/1/6 1401/1/6 1409/1/6
f 1402/4/6 1403/4/6 1410/4/6
f 1409/3/6 1402/3/6 1410/3/6
f 1403/1/6 1404/1/6 1411/1/6
f 1410/4/6 1403/4/6 1411/4/6
f 1404/3/6 1405/3/6 1412/3/6
f 1411/1/6 1404/1/6 1412/1/6
f 1412/3/6 1405/3/6 1413/3/6
f 1407/1/6 1408/1/6 1416/1/6
f 1406/4/6 1407/4/6 1416/4/6
f 1408/7/6 1409/7/6 1417/7/6
f 1416/1/6 1408/1/6 1417/1/6
f 1417/7/6 1409/7/6 1418/7/6
f 1413/3/6 1414/3/6 1419/3/6
f 1412/3/6 1413/3/6 1419/3/6
f 1419/3/6 1414/3/6 1420/3/6
f 1414/4/6 1415/4/6 1421/4/6
f 1420/3/6 1414/3/6 1421/3/6
f 1406/4/6 1416/4/6 1422/4/6
f 1416/3/6 1417/3/6 1423/3/6
f 1422/4/6 1416/4/6 1423/4/6
f 1423/3/6 1417/3/6 1424/3/6
f 1421/4/6 1415/4/6 1426/4/6
f 1426/4/6 1415/4/6 1427/4/6
f 1423/4/6 1424/4/6 1429/4/6
f 1429/4/6 1424/4/6 1430/4/6
f 1425/4/6 1426/4/6 1431/4/6
f 1428/4/6 1429/4/6 1432/4/6
f 1429/9/6 1430/9/6 1433/9/6
f 1432/4/6 1429/4/6 1433/4/6
f 1433/9/6 1430/9/6 1434/9/6
f 1431/4/6 1426/4/6 1436/4/6
f 1436/4/6 1426/4/6 1437/4/6
f 1432/9/6 1433/9/6 1439/9/6
f 1433/10/6 1434/10/6 1440/10/6
f 1439/9/6 1433/9/6 1440/9/6
f 1440/10/6 1434/10/6 1441/10/6
f 1435/2/6 1436/2/6 1445/2/6
f 1436/1/6 1437/1/6 1446/1/6
f 1445/2/6 1436/2/6 1446/2/6
f 1437/4/6 1438/4/6 1447/4/6
f 1446/1/6 1437/1/6 1447/1/6
f 1447/4/6 1438/4/6 1448/4/6
f 1439/10/6 1440/10/6 1449/10/6
f 1440/10/6 1441/10/6 1449/10/6
f 1441/10/6 1442/10/6 1449/10/6
f 1449/10/6 1442/10/6 1450/10/6
f 1442/9/6 1443/9/6 1451/9/6
f 1450/10/6 1442/10/6 1451/10/6
f 1443/4/6 1444/4/6 1452/4/6
f 1451/9/6 1443/9/6 1452/9/6
f 1452/4/6 1444/4/6 1453/4/6
f 1445/1/6 1446/1/6 1454/1/6
f 1446/4/6 1447/4/6 1455/4/6
f 1454/1/6 1446/1/6 1455/1/6
f 1455/4/6 1447/4/6 1456/4/6
f 1450/9/6 1451/9/6 1457/9/6
f 1451/4/6 1452/4/6 1458/4/6
f 1457/9/6 1451/9/6 1458/9/6
f 1458/4/6 1452/4/6 1459/4/6
f 1454/4/6 1455/4/6 1460/4/6
f 1453/4/6 1454/4/6 1460/4/6
f 1460/4/6 1455/4/6 1461/4/6
f 1462/11/6 1463/11/6 1467/11/6
f 1467/11/6 1463/11/6 1468/11/6
f 1464/11/6 1465/11/6 1469/11/6
f 1469/11/6 1465/11/6 1470/11/6
f 1466/11/6 1467/11/6 1472/11/6
f 1472/11/6 1467/11/6 1473/11/6
f 1470/11/6 1471/11/6 1474/11/6
f 1474/11/6 1471/11/6 1475/11/6
f 1476/11/6 1477/11/6 1480/11/6
f 1480/11/6 1477/11/6 1481/11/6
f 1478/11/6 1479/11/6 1484/11/6
f 1484/11/6 1479/11/6 1485/11/6
f 1481/11/6 1482/11/6 1486/11/6
f 1486/11/6 1482/11/6 1487/11/6
f 1483/11/6 1484/11/6 1488/11/6
f 1488/11/6 1484/11/6 1489/11/6
f 1490/9/6 1491/9/6 1492/9/6
f 1492/9/6 1491/9/6 1493/9/6
f 1494/9/6 1495/9/6 1496/9/6
f 1496/9/6 1495/9/6 1497/9/6
f 1498/13/6 1499/13/6 1500/13/6
f 1500/13/6 1499/13/6 1501/13/6
f 1502/13/6 1503/13/6 1506/13/6
f 1506/13/6 1503/13/6 1507/13/6
f 1504/13/6 1505/13/6 1508/13/6
f 1508/13/6 1505/13/6 1509/13/6
f 1510/13/6 1511/13/6 1512/13/6
f 1512/13/6 1511/13/6 1513/13/6
f 1514/10/6 1515/10/6 1516/10/6
f 1516/10/6 1515/10/6 1517/10/6
f 1517/10/6 1518/10/6 1520/10/6
f 1520/10/6 1518/10/6 1521/10/6
f 1519/4/6 1520/4/6 1522/4/6
f 1522/4/6 1520/4/6 1523/4/6
f 1524/10/6 1525/10/6 1529/10/6
f 1529/10/6 1525/10/6 1530/10/6
f 1526/10/6 1527/10/6 1531/10/6
f 1531/10/6 1527/10/6 1532/10/6
f 1529/10/6 1530/10/6 1534/10/6
f 1532/10/6 1533/10/6 1534/10/6
f 1531/10/6 1532/10/6 1534/10/6
f 1530/10/6 1531/10/6 1534/10/6
f 1528/10/6 1529/10/6 1534/10/6
f 1534/10/6 1533/10/6 1535/10/6
f 1535/10/6 1533/10/6 1536/10/6
f 1536/10/6 1533/10/6 1537/10/6
f 1535/10/6 1536/10/6 1541/10/6
f 1541/10/6 1536/10/6 1542/10/6
f 1538/4/6 1539/4/6 1544/4/6
f 1544/4/6 1539/4/6 1545/4/6
f 1542/10/6 1543/10/6 1546/10/6
f 1540/10/6 1541/10/6 1546/10/6
f 1541/10/6 1542/10/6 1546/10/6
f 1546/10/6 1543/10/6 1547/10/6
f 1547/10/6 1543/10/6 1548/10/6
f 1548/10/6 1543/10/6 1549/10/6
f 1549/10/6 1543/10/6 1550/10/6
f 1550/10/6 1543/10/6 1551/10/6
f 1551/10/6 1543/10/6 1552/10/6
f 1545/9/6 1546/9/6 1553/9/6
f 1553/9/6 1546/9/6 1554/9/6
f 1547/10/6 1548/10/6 1555/10/6
f 1548/9/6 1549/9/6 1556/9/6
f 1555/10/6 1548/10/6 1556/10/6
f 1556/9/6 1549/9/6 1557/9/6
f 1550/10/6 1551/10/6 1558/10/6
f 1558/10/6 1551/10/6 1559/10/6
f 1560/3/6 1561/3/6 1562/3/6
f 1562/3/6 1561/3/6 1563/3/6
f 1564/3/6 1565/3/6 1568/3/6
f 1565/3/6 1566/3/6 1568/3/6
f 1568/3/6 1566/3/6 1569/3/6
f 1569/3/6 1566/3/6 1570/3/6
f 1567/4/6 1568/4/6 1573/4/6
f 1568/9/6 1569/9/6 1574/9/6
f 1573/4/6 1568/4/6 1574/4/6
f 1574/9/6 1569/9/6 1575/9/6
f 1575/9/6 1569/9/6 1576/9/6
f 1569/4/6 1570/4/6 1577/4/6
f 1576/9/6 1569/9/6 1577/9/6
f 1570/3/6 1571/3/6 1578/3/6
f 1577/4/6 1570/4/6 1578/4/6
f 1578/3/6 1571/3/6 1579/3/6
f 1572/4/6 1573/4/6 1582/4/6
f 1573/9/6 1574/9/6 1583/9/6
f 1582/4/6 1573/4/6 1583/4/6
f 1583/9/6 1574/9/6 1584/9/6
f 1575/9/6 1576/9/6 1585/9/6
f 1585/9/6 1576/9/6 1586/9/6
f 1577/9/6 1578/9/6 1587/9/6
f 1578/4/6 1579/4/6 1588/4/6
f 1587/9/6 1578/9/6 1588/9/6
f 1579/3/6 1580/3/6 1589/3/6
f 1588/4/6 1579/4/6 1589/4/6
f 1582/9/6 1583/9/6 1590/9/6
f 1588/9/6 1589/9/6 1593/9/6
f 1589/3/6 1580/3/6 1594/3/6
f 1581/3/6 1582/3/6 1595/3/6
f 1590/9/6 1591/9/6 1596/9/6
f 1595/3/6 1582/3/6 1596/3/6
f 1582/9/6 1590/9/6 1596/9/6
f 1596/9/6 1591/9/6 1597/9/6
f 1597/9/6 1591/9/6 1598/9/6
f 1592/9/6 1593/9/6 1599/9/6
f 1593/9/6 1589/9/6 1600/9/6
f 1599/9/6 1593/9/6 1600/9/6
f 1596/9/6 1597/9/6 1601/9/6
f 1601/9/6 1597/9/6 1602/9/6
f 1600/9/6 1589/9/6 1606/9/6
f 1589/3/6 1594/3/6 1607/3/6
f 1606/9/6 1589/9/6 1607/9/6
f 1607/3/6 1594/3/6 1608/3/6
f 1603/9/6 1604/9/6 1610/9/6
f 1610/9/6 1604/9/6 1611/9/6
f 1605/9/6 1606/9/6 1612/9/6
f 1606/4/6 1607/4/6 1613/4/6
f 1612/9/6 1606/9/6 1613/9/6
f 1613/4/6 1607/4/6 1614/4/6
f 1611/9/6 1612/9/6 1615/9/6
f 1610/9/6 1611/9/6 1615/9/6
f 1609/9/6 1610/9/6 1615/9/6
f 1612/4/6 1613/4/6 1616/4/6
f 1615/9/6 1612/9/6 1616/9/6
f 1616/4/6 1613/4/6 1617/4/6
f 1615/3/6 1616/3/6 1618/3/6
f 1618/3/6 1616/3/6 1619/3/6
f 1620/3/6 1621/3/6 1624/3/6
f 1624/3/6 1621/3/6 1625/3/6
f 1625/3/6 1621/3/6 1626/3/6
f 1622/3/6 1623/3/6 1629/3/6
f 1629/3/6 1623/3/6 1630/3/6
f 1626/3/6 1627/3/6 1631/3/6
f 1631/3/6 1627/3/6 1632/3/6
f 1628/3/6 1629/3/6 1635/3/6
f 1635/3/6 1629/3/6 1636/3/6
f 1632/3/6 1633/3/6 1637/3/6
f 1637/3/6 1633/3/6 1638/3/6
f 1634/3/6 1635/3/6 1640/3/6
f 1640/3/6 1635/3/6 1641/3/6
f 1638/3/6 1639/3/6 1642/3/6
f 1642/3/6 1639/3/6 1643/3/6
f 1643/3/6 1639/3/6 1644/3/6
f 1645/3/6 1646/3/6 1648/3/6
f 1648/3/6 1646/3/6 1649/3/6
f 1647/3/6 1648/3/6 1651/3/6
f 1651/3/6 1648/3/6 1652/3/6
f 1650/3/6 1651/3/6 1653/3/6
f 1653/3/6 1651/3/6 1654/3/6
f 1655/3/6 1656/3/6 1657/3/6
f 1657/3/6 1656/3/6 1658/3/6
f 1658/3/6 1659/3/6 1660/3/6
f 1660/3/6 1659/3/6 1661/3/6
f 1661/3/6 1662/3/6 1663/3/6
f 1663/3/6 1662/3/6 1664/3/6
