# MagicaVoxel @ Ephtracy

# group
o 

# material
mtllib NEW GAME-60.mtl
usemtl palette

# normals
vn -1 0 0
vn 1 0 0
vn 0 0 1
vn 0 0 -1
vn 0 -1 0
vn 0 1 0

# texcoords
vt 0.00195313 0.5
vt 0.0371094 0.5
vt 0.0683594 0.5
vt 0.720703 0.5
vt 0.751953 0.5
vt 0.880859 0.5
vt 0.884766 0.5
vt 0.888672 0.5
vt 0.892578 0.5

# verts
v -1.9 0 2.1
v -1.9 0 -1.9
v -1.9 0.2 2.1
v -1.9 0.2 2
v -1.9 0.2 1.9
v -1.9 0.2 1.7
v -1.9 0.2 1.5
v -1.9 0.2 1.4
v -1.9 0.2 1.3
v -1.9 0.2 1.1
v -1.9 0.2 1
v -1.9 0.2 0.9
v -1.9 0.2 0.6
v -1.9 0.2 0.4
v -1.9 0.2 0.3
v -1.9 0.2 0.0999999
v -1.9 0.2 -0.2
v -1.9 0.2 -0.8
v -1.9 0.2 -0.9
v -1.9 0.2 -1.2
v -1.9 0.2 -1.6
v -1.9 0.2 -1.9
v -1.9 0.3 2.1
v -1.9 0.3 2
v -1.9 0.3 1.9
v -1.9 0.3 1.7
v -1.9 0.3 1.5
v -1.9 0.3 1.4
v -1.9 0.3 1.3
v -1.9 0.3 1.1
v -1.9 0.3 1
v -1.9 0.3 0.9
v -1.9 0.3 0.6
v -1.9 0.3 0.4
v -1.9 0.3 0.3
v -1.9 0.3 0.0999999
v -1.9 0.3 -0.2
v -1.9 0.3 -0.8
v -1.9 0.3 -0.9
v -1.9 0.3 -1.2
v -1.9 0.3 -1.6
v -1.9 0.3 -1.9
v -1.1 0.2 0.8
v -1.1 0.2 0.7
v -1.1 0.2 0.4
v -1.1 0.2 0.3
v -1.1 0.3 0.8
v -1.1 0.3 0.7
v -1.1 0.3 0.4
v -1.1 0.3 0.3
v -1 0.2 -0.9
v -1 0.2 -1
v -1 0.2 -1.1
v -1 0.3 -0.9
v -1 0.3 -1.1
v -0.9 0.2 1
v -0.9 0.2 0.8
v -0.9 0.2 0.3
v -0.9 0.2 0
v -0.9 0.2 -0.0999999
v -0.9 0.2 -0.2
v -0.9 0.2 -1.1
v -0.9 0.2 -1.2
v -0.9 0.3 1
v -0.9 0.3 0.8
v -0.9 0.3 0.3
v -0.9 0.3 -0.2
v -0.9 0.3 -1.1
v -0.9 0.3 -1.2
v -0.8 0.2 1.1
v -0.8 0.2 1
v -0.8 0.2 -0.2
v -0.8 0.2 -0.3
v -0.8 0.3 1.1
v -0.8 0.3 1
v -0.8 0.3 -0.2
v -0.8 0.3 -0.3
v -0.7 0.2 1.2
v -0.7 0.2 1.1
v -0.7 0.3 1.2
v -0.7 0.3 1.1
v -0.6 0.2 -1.3
v -0.6 0.2 -1.4
v -0.6 0.3 -1.3
v -0.6 0.3 -1.4
v -0.5 0.2 1.3
v -0.5 0.2 1.2
v -0.5 0.2 -1.2
v -0.5 0.2 -1.3
v -0.5 0.3 1.3
v -0.5 0.3 1.2
v -0.5 0.3 -1.2
v -0.5 0.3 -1.3
v -0.4 0.2 1.4
v -0.4 0.2 1.3
v -0.4 0.3 1.4
v -0.4 0.3 1.3
v -0.2 0.2 1.5
v -0.2 0.2 1.4
v -0.2 0.3 1.5
v -0.2 0.3 1.4
v 1.2 0.2 -1.4
v 1.2 0.2 -1.5
v 1.2 0.3 -1.4
v 1.2 0.3 -1.5
v 1.3 0.2 1.1
v 1.3 0.2 1
v 1.3 0.3 1.1
v 1.3 0.3 1
v 1.4 0.2 1
v 1.4 0.2 0.8
v 1.4 0.2 -1.3
v 1.4 0.2 -1.4
v 1.4 0.3 1
v 1.4 0.3 0.8
v 1.4 0.3 -1.3
v 1.4 0.3 -1.4
v 1.5 0.2 0.8
v 1.5 0.2 0.5
v 1.5 0.2 -1.1
v 1.5 0.2 -1.3
v 1.5 0.3 0.8
v 1.5 0.3 0.5
v 1.5 0.3 -1.1
v 1.5 0.3 -1.3
v 1.6 0.2 -1
v 1.6 0.2 -1.1
v 1.6 0.3 -1
v 1.6 0.3 -1.1
v 1.7 0.2 -0.9
v 1.7 0.2 -1
v 1.7 0.3 -0.9
v 1.7 0.3 -1
v -1.4 0.2 0.9
v -1.4 0.2 0.8
v -1.4 0.2 0.7
v -1.4 0.3 0.9
v -1.4 0.3 0.7
v -1.3 0.2 1.2
v -1.3 0.2 0.9
v -1.3 0.2 -0.9
v -1.3 0.2 -1
v -1.3 0.3 1.2
v -1.3 0.3 0.9
v -1.3 0.3 -0.9
v -1.3 0.3 -1
v -1.2 0.2 1.3
v -1.2 0.2 1.2
v -1.2 0.2 0.4
v -1.2 0.2 0.2
v -1.2 0.2 0.0999999
v -1.2 0.2 0
v -1.2 0.2 -1
v -1.2 0.2 -1.1
v -1.2 0.2 -1.2
v -1.2 0.3 1.3
v -1.2 0.3 1.2
v -1.2 0.3 0.4
v -1.2 0.3 0
v -1.2 0.3 -1
v -1.2 0.3 -1.2
v -1.1 0.2 0
v -1.1 0.2 -0.2
v -1.1 0.2 -1.2
v -1.1 0.2 -1.3
v -1.1 0.3 0
v -1.1 0.3 -0.2
v -1.1 0.3 -1.2
v -1.1 0.3 -1.3
v -1 0.2 1.4
v -1 0.2 1.3
v -1 0.2 -0.2
v -1 0.2 -0.3
v -1 0.2 -1.3
v -1 0.2 -1.4
v -1 0.3 1.4
v -1 0.3 1.3
v -1 0.3 -0.2
v -1 0.3 -0.3
v -1 0.3 -1.3
v -1 0.3 -1.4
v -0.9 0.2 1.5
v -0.9 0.2 1.4
v -0.9 0.3 1.5
v -0.9 0.3 1.4
v 1 0.2 1.1
v 1 0.2 0.9
v 1 0.2 -1.4
v 1 0.2 -1.5
v 1 0.3 1.1
v 1 0.3 0.9
v 1 0.3 -1.4
v 1 0.3 -1.5
v 1.1 0.2 0.9
v 1.1 0.2 0.8
v 1.1 0.2 -1.3
v 1.1 0.2 -1.4
v 1.1 0.3 0.9
v 1.1 0.3 0.8
v 1.1 0.3 -1.3
v 1.1 0.3 -1.4
v 1.2 0.2 0.8
v 1.2 0.2 0.7
v 1.2 0.2 0.6
v 1.2 0.2 -1.1
v 1.2 0.2 -1.3
v 1.2 0.3 0.8
v 1.2 0.3 0.6
v 1.2 0.3 -1.1
v 1.2 0.3 -1.3
v 1.3 0.2 -1
v 1.3 0.2 -1.1
v 1.3 0.3 -1
v 1.3 0.3 -1.1
v 1.4 0.2 0.6
v 1.4 0.2 0.5
v 1.4 0.3 0.6
v 1.4 0.3 0.5
v 1.5 0.2 -0.9
v 1.5 0.2 -1
v 1.5 0.3 -0.9
v 1.5 0.3 -1
v 2.1 0 2.1
v 2.1 0 -1.9
v 2.1 0.1 1.4
v 2.1 0.1 1.3
v 2.1 0.2 2.1
v 2.1 0.2 1.7
v 2.1 0.2 1.6
v 2.1 0.2 1.5
v 2.1 0.2 1.4
v 2.1 0.2 1.3
v 2.1 0.2 1
v 2.1 0.2 0.7
v 2.1 0.2 -0.4
v 2.1 0.2 -0.6
v 2.1 0.2 -0.7
v 2.1 0.2 -0.8
v 2.1 0.2 -1.2
v 2.1 0.2 -1.3
v 2.1 0.2 -1.4
v 2.1 0.2 -1.5
v 2.1 0.2 -1.8
v 2.1 0.2 -1.9
v 2.1 0.3 2.1
v 2.1 0.3 1.7
v 2.1 0.3 1.6
v 2.1 0.3 1.5
v 2.1 0.3 1
v 2.1 0.3 0.7
v 2.1 0.3 -0.4
v 2.1 0.3 -0.6
v 2.1 0.3 -0.7
v 2.1 0.3 -0.8
v 2.1 0.3 -1.2
v 2.1 0.3 -1.3
v 2.1 0.3 -1.4
v 2.1 0.3 -1.5
v 2.1 0.3 -1.8
v 2.1 0.3 -1.9
v -1.9 0 2.1
v -1.9 0.2 2.1
v -1.9 0.3 2.1
v -1.8 0.2 2.1
v -1.8 0.3 2.1
v -1.6 0.2 2.1
v -1.6 0.3 2.1
v -1.5 0.2 2.1
v -1.5 0.3 2.1
v -1.3 0.2 2.1
v -1.3 0.3 2.1
v -1 0.2 2.1
v -1 0.3 2.1
v -0.6 0.2 2.1
v -0.6 0.3 2.1
v -0.3 0.2 2.1
v -0.3 0.3 2.1
v -0.2 0.2 2.1
v -0.2 0.3 2.1
v 0.3 0.2 2.1
v 0.3 0.3 2.1
v 0.4 0.2 2.1
v 0.4 0.3 2.1
v 1 0.2 2.1
v 1 0.3 2.1
v 1.1 0.2 2.1
v 1.1 0.3 2.1
v 1.3 0.2 2.1
v 1.3 0.3 2.1
v 1.6 0.2 2.1
v 1.6 0.3 2.1
v 1.8 0.2 2.1
v 1.8 0.3 2.1
v 2 0.2 2.1
v 2 0.3 2.1
v 2.1 0 2.1
v 2.1 0.2 2.1
v 2.1 0.3 2.1
v -0.4 0.2 1.4
v -0.4 0.3 1.4
v -0.2 0.2 1.4
v -0.2 0.3 1.4
v -0.5 0.2 1.3
v -0.5 0.3 1.3
v -0.4 0.2 1.3
v -0.4 0.3 1.3
v -0.7 0.2 1.2
v -0.7 0.3 1.2
v -0.5 0.2 1.2
v -0.5 0.3 1.2
v -0.8 0.2 1.1
v -0.8 0.3 1.1
v -0.7 0.2 1.1
v -0.7 0.3 1.1
v -0.9 0.2 1
v -0.9 0.3 1
v -0.8 0.2 1
v -0.8 0.3 1
v 1 0.2 0.9
v 1 0.3 0.9
v 1.1 0.2 0.9
v 1.1 0.3 0.9
v -1.1 0.2 0.8
v -1.1 0.3 0.8
v -0.9 0.2 0.8
v -0.9 0.3 0.8
v 1.1 0.2 0.8
v 1.1 0.3 0.8
v 1.2 0.2 0.8
v 1.2 0.3 0.8
v -1.4 0.2 0.7
v -1.4 0.3 0.7
v -1.2 0.2 0.7
v -1.1 0.2 0.7
v -1.1 0.3 0.7
v 1.2 0.2 0.6
v 1.2 0.3 0.6
v 1.3 0.2 0.6
v 1.4 0.2 0.6
v 1.4 0.3 0.6
v 1.4 0.2 0.5
v 1.4 0.3 0.5
v 1.5 0.2 0.5
v 1.5 0.3 0.5
v -1.2 0.2 0
v -1.2 0.3 0
v -1.1 0.2 0
v -1.1 0.3 0
v -1.1 0.2 -0.2
v -1.1 0.3 -0.2
v -1 0.2 -0.2
v -1 0.3 -0.2
v -1 0.2 -0.3
v -1 0.3 -0.3
v -0.8 0.2 -0.3
v -0.8 0.3 -0.3
v -1.3 0.2 -1
v -1.3 0.3 -1
v -1.2 0.2 -1
v -1.2 0.3 -1
v 1.6 0.2 -1
v 1.6 0.3 -1
v 1.7 0.2 -1
v 1.7 0.3 -1
v 1.5 0.2 -1.1
v 1.5 0.3 -1.1
v 1.6 0.2 -1.1
v 1.6 0.3 -1.1
v -1.2 0.2 -1.2
v -1.2 0.3 -1.2
v -1.1 0.2 -1.2
v -1.1 0.3 -1.2
v -1.1 0.2 -1.3
v -1.1 0.3 -1.3
v -1 0.2 -1.3
v -1 0.3 -1.3
v -0.6 0.2 -1.3
v -0.6 0.3 -1.3
v -0.5 0.2 -1.3
v -0.5 0.3 -1.3
v 1.4 0.2 -1.3
v 1.4 0.3 -1.3
v 1.5 0.2 -1.3
v 1.5 0.3 -1.3
v -1 0.2 -1.4
v -1 0.3 -1.4
v -0.8 0.2 -1.4
v -0.6 0.2 -1.4
v -0.6 0.3 -1.4
v 1.2 0.2 -1.4
v 1.2 0.3 -1.4
v 1.4 0.2 -1.4
v 1.4 0.3 -1.4
v 1 0.2 -1.5
v 1 0.3 -1.5
v 1.1 0.2 -1.5
v 1.2 0.2 -1.5
v 1.2 0.3 -1.5
v -0.9 0.2 1.5
v -0.9 0.3 1.5
v -0.7 0.2 1.5
v -0.6 0.2 1.5
v -0.4 0.2 1.5
v -0.2 0.2 1.5
v -0.2 0.3 1.5
v -1 0.2 1.4
v -1 0.3 1.4
v -0.9 0.2 1.4
v -0.9 0.3 1.4
v -1.2 0.2 1.3
v -1.2 0.3 1.3
v -1 0.2 1.3
v -1 0.3 1.3
v -1.3 0.2 1.2
v -1.3 0.3 1.2
v -1.2 0.2 1.2
v -1.2 0.3 1.2
v 1 0.2 1.1
v 1 0.3 1.1
v 1.2 0.2 1.1
v 1.3 0.2 1.1
v 1.3 0.3 1.1
v 1.3 0.2 1
v 1.3 0.3 1
v 1.4 0.2 1
v 1.4 0.3 1
v -1.4 0.2 0.9
v -1.4 0.3 0.9
v -1.3 0.2 0.9
v -1.3 0.3 0.9
v 1.4 0.2 0.8
v 1.4 0.3 0.8
v 1.5 0.2 0.8
v 1.5 0.3 0.8
v -1.2 0.2 0.4
v -1.2 0.3 0.4
v -1.1 0.2 0.4
v -1.1 0.3 0.4
v -1.1 0.2 0.3
v -1.1 0.3 0.3
v -0.9 0.2 0.3
v -0.9 0.3 0.3
v -0.9 0.2 -0.2
v -0.9 0.3 -0.2
v -0.8 0.2 -0.2
v -0.8 0.3 -0.2
v -1.3 0.2 -0.9
v -1.3 0.3 -0.9
v -1.2 0.2 -0.9
v -1 0.2 -0.9
v -1 0.3 -0.9
v 1.5 0.2 -0.9
v 1.5 0.3 -0.9
v 1.7 0.2 -0.9
v 1.7 0.3 -0.9
v 1.3 0.2 -1
v 1.3 0.3 -1
v 1.5 0.2 -1
v 1.5 0.3 -1
v -1 0.2 -1.1
v -1 0.3 -1.1
v -0.9 0.2 -1.1
v -0.9 0.3 -1.1
v 1.2 0.2 -1.1
v 1.2 0.3 -1.1
v 1.3 0.2 -1.1
v 1.3 0.3 -1.1
v -0.9 0.2 -1.2
v -0.9 0.3 -1.2
v -0.7 0.2 -1.2
v -0.5 0.2 -1.2
v -0.5 0.3 -1.2
v 1.1 0.2 -1.3
v 1.1 0.3 -1.3
v 1.2 0.2 -1.3
v 1.2 0.3 -1.3
v 1 0.2 -1.4
v 1 0.3 -1.4
v 1.1 0.2 -1.4
v 1.1 0.3 -1.4
v -1.9 0 -1.9
v -1.9 0.2 -1.9
v -1.9 0.3 -1.9
v -1.6 0.2 -1.9
v -1.6 0.3 -1.9
v -1 0.2 -1.9
v -1 0.3 -1.9
v -0.6 0.2 -1.9
v -0.6 0.3 -1.9
v -0.3 0.2 -1.9
v -0.3 0.3 -1.9
v -0.2 0.2 -1.9
v -0.2 0.3 -1.9
v 0.5 0.2 -1.9
v 0.5 0.3 -1.9
v 0.7 0.2 -1.9
v 0.7 0.3 -1.9
v 1.1 0.2 -1.9
v 1.1 0.3 -1.9
v 1.4 0.2 -1.9
v 1.4 0.3 -1.9
v 1.6 0.2 -1.9
v 1.6 0.3 -1.9
v 1.7 0.2 -1.9
v 1.7 0.3 -1.9
v 1.9 0.2 -1.9
v 1.9 0.3 -1.9
v 2.1 0 -1.9
v 2.1 0.2 -1.9
v 2.1 0.3 -1.9
v -1.9 0 2.1
v 2.1 0 2.1
v -1.9 0 -1.9
v 2.1 0 -1.9
v -0.9 0.2 1.5
v -0.7 0.2 1.5
v -0.6 0.2 1.5
v -0.4 0.2 1.5
v -0.2 0.2 1.5
v -1 0.2 1.4
v -0.9 0.2 1.4
v -0.8 0.2 1.4
v -0.7 0.2 1.4
v -0.4 0.2 1.4
v -0.2 0.2 1.4
v -1.2 0.2 1.3
v -1 0.2 1.3
v -0.8 0.2 1.3
v -0.6 0.2 1.3
v -0.5 0.2 1.3
v -0.4 0.2 1.3
v -1.3 0.2 1.2
v -1.2 0.2 1.2
v -1.1 0.2 1.2
v -0.9 0.2 1.2
v -0.7 0.2 1.2
v -0.5 0.2 1.2
v -1 0.2 1.1
v -0.9 0.2 1.1
v -0.8 0.2 1.1
v -0.7 0.2 1.1
v 1 0.2 1.1
v 1.2 0.2 1.1
v 1.3 0.2 1.1
v -1.2 0.2 1
v -1.1 0.2 1
v -1 0.2 1
v -0.9 0.2 1
v -0.8 0.2 1
v 1.1 0.2 1
v 1.2 0.2 1
v 1.3 0.2 1
v 1.4 0.2 1
v -1.4 0.2 0.9
v -1.3 0.2 0.9
v -1.2 0.2 0.9
v -1.1 0.2 0.9
v 1 0.2 0.9
v 1.1 0.2 0.9
v 1.2 0.2 0.9
v -1.4 0.2 0.8
v -1.2 0.2 0.8
v -1.1 0.2 0.8
v -0.9 0.2 0.8
v 1.1 0.2 0.8
v 1.2 0.2 0.8
v 1.3 0.2 0.8
v 1.4 0.2 0.8
v 1.5 0.2 0.8
v -1.4 0.2 0.7
v -1.2 0.2 0.7
v -1.1 0.2 0.7
v 1.2 0.2 0.7
v 1.3 0.2 0.7
v 1.2 0.2 0.6
v 1.3 0.2 0.6
v 1.4 0.2 0.6
v 1.4 0.2 0.5
v 1.5 0.2 0.5
v -1.2 0.2 0.4
v -1.1 0.2 0.4
v -1.1 0.2 0.3
v -0.9 0.2 0.3
v -1.2 0.2 0.2
v -1 0.2 0.2
v -1.2 0.2 0.0999999
v -1.1 0.2 0.0999999
v -1.2 0.2 0
v -1.1 0.2 0
v -1 0.2 0
v -0.9 0.2 0
v -1 0.2 -0.0999999
v -0.9 0.2 -0.0999999
v -1.1 0.2 -0.2
v -1 0.2 -0.2
v -0.9 0.2 -0.2
v -0.8 0.2 -0.2
v -1 0.2 -0.3
v -0.8 0.2 -0.3
v -1.3 0.2 -0.9
v -1.2 0.2 -0.9
v -1 0.2 -0.9
v 1.5 0.2 -0.9
v 1.7 0.2 -0.9
v -1.3 0.2 -1
v -1.2 0.2 -1
v -1 0.2 -1
v 1.3 0.2 -1
v 1.5 0.2 -1
v 1.6 0.2 -1
v 1.7 0.2 -1
v -1.2 0.2 -1.1
v -1.1 0.2 -1.1
v -1 0.2 -1.1
v -0.9 0.2 -1.1
v 1.2 0.2 -1.1
v 1.3 0.2 -1.1
v 1.5 0.2 -1.1
v 1.6 0.2 -1.1
v -1.2 0.2 -1.2
v -1.1 0.2 -1.2
v -1 0.2 -1.2
v -0.9 0.2 -1.2
v -0.7 0.2 -1.2
v -0.5 0.2 -1.2
v -1.1 0.2 -1.3
v -1 0.2 -1.3
v -0.8 0.2 -1.3
v -0.7 0.2 -1.3
v -0.6 0.2 -1.3
v -0.5 0.2 -1.3
v 1.1 0.2 -1.3
v 1.2 0.2 -1.3
v 1.3 0.2 -1.3
v 1.4 0.2 -1.3
v 1.5 0.2 -1.3
v -1 0.2 -1.4
v -0.8 0.2 -1.4
v -0.6 0.2 -1.4
v 1 0.2 -1.4
v 1.1 0.2 -1.4
v 1.2 0.2 -1.4
v 1.4 0.2 -1.4
v 1 0.2 -1.5
v 1.1 0.2 -1.5
v 1.2 0.2 -1.5
v -1.9 0.3 2.1
v -1.8 0.3 2.1
v -1.6 0.3 2.1
v -1.5 0.3 2.1
v -1.3 0.3 2.1
v -1 0.3 2.1
v -0.6 0.3 2.1
v -0.3 0.3 2.1
v -0.2 0.3 2.1
v 0.3 0.3 2.1
v 0.4 0.3 2.1
v 1 0.3 2.1
v 1.1 0.3 2.1
v 1.3 0.3 2.1
v 1.6 0.3 2.1
v 1.8 0.3 2.1
v 2 0.3 2.1
v 2.1 0.3 2.1
v -1.9 0.3 2
v -1.8 0.3 2
v -1.6 0.3 2
v -1.5 0.3 2
v -1.4 0.3 2
v -1.3 0.3 2
v -1 0.3 2
v -0.9 0.3 2
v -0.6 0.3 2
v -0.4 0.3 2
v -0.3 0.3 2
v -0.2 0.3 2
v 0 0.3 2
v 0.2 0.3 2
v 0.3 0.3 2
v 0.4 0.3 2
v 0.5 0.3 2
v 0.9 0.3 2
v 1 0.3 2
v 1.1 0.3 2
v 1.3 0.3 2
v 1.5 0.3 2
v 1.6 0.3 2
v 1.7 0.3 2
v 1.8 0.3 2
v 1.9 0.3 2
v -1.9 0.3 1.9
v -1.8 0.3 1.9
v -1.7 0.3 1.9
v -1.6 0.3 1.9
v -1.5 0.3 1.9
v -1.4 0.3 1.9
v -1.3 0.3 1.9
v -1.1 0.3 1.9
v -1 0.3 1.9
v -0.9 0.3 1.9
v -0.4 0.3 1.9
v -0.3 0.3 1.9
v -0.1 0.3 1.9
v 0 0.3 1.9
v 0.2 0.3 1.9
v 0.4 0.3 1.9
v 0.5 0.3 1.9
v 0.9 0.3 1.9
v 1 0.3 1.9
v 1.1 0.3 1.9
v 1.2 0.3 1.9
v 1.3 0.3 1.9
v 1.5 0.3 1.9
v 1.6 0.3 1.9
v 1.7 0.3 1.9
v 1.8 0.3 1.9
v 1.9 0.3 1.9
v 2 0.3 1.9
v -1.7 0.3 1.8
v -1.6 0.3 1.8
v -1.5 0.3 1.8
v -1.3 0.3 1.8
v -1.1 0.3 1.8
v -0.3 0.3 1.8
v -0.1 0.3 1.8
v 0.2 0.3 1.8
v 0.3 0.3 1.8
v 0.4 0.3 1.8
v 1.1 0.3 1.8
v 1.2 0.3 1.8
v 1.3 0.3 1.8
v 1.4 0.3 1.8
v 1.5 0.3 1.8
v 1.6 0.3 1.8
v 1.7 0.3 1.8
v 1.8 0.3 1.8
v 1.9 0.3 1.8
v -1.9 0.3 1.7
v -1.8 0.3 1.7
v -1.7 0.3 1.7
v -0.1 0.3 1.7
v 0.3 0.3 1.7
v 1.3 0.3 1.7
v 1.4 0.3 1.7
v 1.6 0.3 1.7
v 1.7 0.3 1.7
v 1.8 0.3 1.7
v 2 0.3 1.7
v 2.1 0.3 1.7
v -1.4 0.3 1.6
v -1.3 0.3 1.6
v 1.4 0.3 1.6
v 1.6 0.3 1.6
v 1.9 0.3 1.6
v 2 0.3 1.6
v 2.1 0.3 1.6
v -1.9 0.3 1.5
v -1.8 0.3 1.5
v -1.7 0.3 1.5
v -1.5 0.3 1.5
v -0.9 0.3 1.5
v -0.2 0.3 1.5
v 1.6 0.3 1.5
v 1.7 0.3 1.5
v 2 0.3 1.5
v 2.1 0.3 1.5
v -1.9 0.3 1.4
v -1.8 0.3 1.4
v -1.6 0.3 1.4
v -1.4 0.3 1.4
v -1 0.3 1.4
v -0.9 0.3 1.4
v -0.4 0.3 1.4
v -0.2 0.3 1.4
v 1.7 0.3 1.4
v 1.8 0.3 1.4
v 1.9 0.3 1.4
v 2 0.3 1.4
v -1.9 0.3 1.3
v -1.8 0.3 1.3
v -1.7 0.3 1.3
v -1.6 0.3 1.3
v -1.2 0.3 1.3
v -1 0.3 1.3
v -0.5 0.3 1.3
v -0.4 0.3 1.3
v 1.7 0.3 1.3
v 1.8 0.3 1.3
v -1.8 0.3 1.2
v -1.7 0.3 1.2
v -1.3 0.3 1.2
v -1.2 0.3 1.2
v -0.7 0.3 1.2
v -0.5 0.3 1.2
v -1.9 0.3 1.1
v -1.8 0.3 1.1
v -1.7 0.3 1.1
v -0.8 0.3 1.1
v -0.7 0.3 1.1
v 1 0.3 1.1
v 1.3 0.3 1.1
v 1.9 0.3 1.1
v 2 0.3 1.1
v -1.9 0.3 1
v -1.8 0.3 1
v -0.9 0.3 1
v -0.8 0.3 1
v 1.3 0.3 1
v 1.4 0.3 1
v 1.8 0.3 1
v 1.9 0.3 1
v 2 0.3 1
v 2.1 0.3 1
v -1.9 0.3 0.9
v -1.8 0.3 0.9
v -1.7 0.3 0.9
v -1.4 0.3 0.9
v -1.3 0.3 0.9
v 1 0.3 0.9
v 1.1 0.3 0.9
v -1.1 0.3 0.8
v -0.9 0.3 0.8
v 1.1 0.3 0.8
v 1.2 0.3 0.8
v 1.4 0.3 0.8
v 1.5 0.3 0.8
v 1.9 0.3 0.8
v 2 0.3 0.8
v -1.4 0.3 0.7
v -1.1 0.3 0.7
v 2 0.3 0.7
v 2.1 0.3 0.7
v -1.9 0.3 0.6
v -1.8 0.3 0.6
v 1.2 0.3 0.6
v 1.4 0.3 0.6
v -1.8 0.3 0.5
v -1.7 0.3 0.5
v 1.4 0.3 0.5
v 1.5 0.3 0.5
v -1.9 0.3 0.4
v -1.8 0.3 0.4
v -1.7 0.3 0.4
v -1.6 0.3 0.4
v -1.2 0.3 0.4
v -1.1 0.3 0.4
v -1.9 0.3 0.3
v -1.8 0.3 0.3
v -1.7 0.3 0.3
v -1.6 0.3 0.3
v -1.1 0.3 0.3
v -0.9 0.3 0.3
v 1.9 0.3 0.3
v 2 0.3 0.3
v -1.9 0.3 0.0999999
v -1.8 0.3 0.0999999
v -1.7 0.3 0.0999999
v -1.6 0.3 0.0999999
v 1.8 0.3 0.0999999
v 1.9 0.3 0.0999999
v 2 0.3 0.0999999
v -1.7 0.3 0
v -1.6 0.3 0
v -1.2 0.3 0
v -1.1 0.3 0
v -1.8 0.3 -0.0999999
v -1.7 0.3 -0.0999999
v 1.8 0.3 -0.0999999
v 1.9 0.3 -0.0999999
v -1.9 0.3 -0.2
v -1.8 0.3 -0.2
v -1.1 0.3 -0.2
v -1 0.3 -0.2
v -0.9 0.3 -0.2
v -0.8 0.3 -0.2
v 1.7 0.3 -0.2
v 1.8 0.3 -0.2
v -1.8 0.3 -0.3
v -1.7 0.3 -0.3
v -1 0.3 -0.3
v -0.8 0.3 -0.3
v 1.7 0.3 -0.4
v 1.8 0.3 -0.4
v 1.9 0.3 -0.4
v 2 0.3 -0.4
v 2.1 0.3 -0.4
v 1.8 0.3 -0.6
v 1.9 0.3 -0.6
v 2 0.3 -0.6
v 2.1 0.3 -0.6
v 1.7 0.3 -0.7
v 1.9 0.3 -0.7
v 2 0.3 -0.7
v 2.1 0.3 -0.7
v -1.9 0.3 -0.8
v -1.8 0.3 -0.8
v 1.7 0.3 -0.8
v 1.8 0.3 -0.8
v 2 0.3 -0.8
v 2.1 0.3 -0.8
v -1.9 0.3 -0.9
v -1.8 0.3 -0.9
v -1.3 0.3 -0.9
v -1 0.3 -0.9
v 1.5 0.3 -0.9
v 1.7 0.3 -0.9
v 1.8 0.3 -0.9
v 1.9 0.3 -0.9
v 2 0.3 -0.9
v -1.3 0.3 -1
v -1.2 0.3 -1
v 1.3 0.3 -1
v 1.5 0.3 -1
v 1.6 0.3 -1
v 1.7 0.3 -1
v -1.8 0.3 -1.1
v -1.7 0.3 -1.1
v -1 0.3 -1.1
v -0.9 0.3 -1.1
v 1.2 0.3 -1.1
v 1.3 0.3 -1.1
v 1.5 0.3 -1.1
v 1.6 0.3 -1.1
v -1.9 0.3 -1.2
v -1.8 0.3 -1.2
v -1.2 0.3 -1.2
v -1.1 0.3 -1.2
v -0.9 0.3 -1.2
v -0.5 0.3 -1.2
v 1.8 0.3 -1.2
v 1.9 0.3 -1.2
v 2 0.3 -1.2
v 2.1 0.3 -1.2
v -1.7 0.3 -1.3
v -1.6 0.3 -1.3
v -1.1 0.3 -1.3
v -1 0.3 -1.3
v -0.6 0.3 -1.3
v -0.5 0.3 -1.3
v 1.1 0.3 -1.3
v 1.2 0.3 -1.3
v 1.4 0.3 -1.3
v 1.5 0.3 -1.3
v 1.7 0.3 -1.3
v 1.8 0.3 -1.3
v 1.9 0.3 -1.3
v 2 0.3 -1.3
v 2.1 0.3 -1.3
v -1.8 0.3 -1.4
v -1.6 0.3 -1.4
v -1.5 0.3 -1.4
v -1 0.3 -1.4
v -0.6 0.3 -1.4
v 1 0.3 -1.4
v 1.1 0.3 -1.4
v 1.2 0.3 -1.4
v 1.4 0.3 -1.4
v 1.6 0.3 -1.4
v 1.7 0.3 -1.4
v 1.8 0.3 -1.4
v 1.9 0.3 -1.4
v 2 0.3 -1.4
v 2.1 0.3 -1.4
v -1.8 0.3 -1.5
v -1.6 0.3 -1.5
v -1.5 0.3 -1.5
v -1.3 0.3 -1.5
v 1 0.3 -1.5
v 1.2 0.3 -1.5
v 1.6 0.3 -1.5
v 1.7 0.3 -1.5
v 1.8 0.3 -1.5
v 1.9 0.3 -1.5
v 2 0.3 -1.5
v 2.1 0.3 -1.5
v -1.9 0.3 -1.6
v -1.8 0.3 -1.6
v -1.7 0.3 -1.6
v -1.5 0.3 -1.6
v -1.3 0.3 -1.6
v -1.2 0.3 -1.6
v -1.1 0.3 -1.6
v -1 0.3 -1.6
v -0.2 0.3 -1.6
v -0.1 0.3 -1.6
v 0.2 0.3 -1.6
v 0.4 0.3 -1.6
v 1.5 0.3 -1.6
v 1.6 0.3 -1.6
v 1.8 0.3 -1.6
v 1.9 0.3 -1.6
v -1.5 0.3 -1.7
v -1.4 0.3 -1.7
v -1.3 0.3 -1.7
v -1.2 0.3 -1.7
v -1.1 0.3 -1.7
v -1 0.3 -1.7
v -0.9 0.3 -1.7
v -0.8 0.3 -1.7
v -0.4 0.3 -1.7
v -0.3 0.3 -1.7
v -0.2 0.3 -1.7
v -0.1 0.3 -1.7
v 0.1 0.3 -1.7
v 0.2 0.3 -1.7
v 0.4 0.3 -1.7
v 0.6 0.3 -1.7
v 0.8 0.3 -1.7
v 0.9 0.3 -1.7
v 1.3 0.3 -1.7
v 1.4 0.3 -1.7
v 1.5 0.3 -1.7
v 1.7 0.3 -1.7
v 1.8 0.3 -1.7
v 2 0.3 -1.7
v -1.8 0.3 -1.8
v -1.7 0.3 -1.8
v -1.6 0.3 -1.8
v -1.5 0.3 -1.8
v -1.4 0.3 -1.8
v -1.3 0.3 -1.8
v -1 0.3 -1.8
v -0.9 0.3 -1.8
v -0.8 0.3 -1.8
v -0.6 0.3 -1.8
v -0.4 0.3 -1.8
v -0.3 0.3 -1.8
v -0.2 0.3 -1.8
v -0.1 0.3 -1.8
v 0.1 0.3 -1.8
v 0.5 0.3 -1.8
v 0.6 0.3 -1.8
v 0.7 0.3 -1.8
v 0.8 0.3 -1.8
v 0.9 0.3 -1.8
v 1.1 0.3 -1.8
v 1.3 0.3 -1.8
v 1.4 0.3 -1.8
v 1.6 0.3 -1.8
v 1.7 0.3 -1.8
v 1.8 0.3 -1.8
v 1.9 0.3 -1.8
v 2.1 0.3 -1.8
v -1.9 0.3 -1.9
v -1.6 0.3 -1.9
v -1 0.3 -1.9
v -0.6 0.3 -1.9
v -0.3 0.3 -1.9
v -0.2 0.3 -1.9
v 0.5 0.3 -1.9
v 0.7 0.3 -1.9
v 1.1 0.3 -1.9
v 1.4 0.3 -1.9
v 1.6 0.3 -1.9
v 1.7 0.3 -1.9
v 1.9 0.3 -1.9
v 2.1 0.3 -1.9

# faces
f 3/1/1 2/1/1 1/1/1
f 4/1/1 2/1/1 3/1/1
f 5/1/1 2/1/1 4/1/1
f 6/1/1 2/1/1 5/1/1
f 7/1/1 2/1/1 6/1/1
f 8/1/1 2/1/1 7/1/1
f 9/1/1 2/1/1 8/1/1
f 10/1/1 2/1/1 9/1/1
f 11/1/1 2/1/1 10/1/1
f 12/1/1 2/1/1 11/1/1
f 13/1/1 2/1/1 12/1/1
f 14/1/1 2/1/1 13/1/1
f 15/1/1 2/1/1 14/1/1
f 16/1/1 2/1/1 15/1/1
f 17/1/1 2/1/1 16/1/1
f 18/1/1 2/1/1 17/1/1
f 19/1/1 2/1/1 18/1/1
f 20/1/1 2/1/1 19/1/1
f 21/1/1 2/1/1 20/1/1
f 22/1/1 2/1/1 21/1/1
f 23/9/1 4/9/1 3/9/1
f 24/7/1 5/7/1 4/7/1
f 24/9/1 4/9/1 23/9/1
f 25/8/1 6/8/1 5/8/1
f 25/7/1 5/7/1 24/7/1
f 26/7/1 7/7/1 6/7/1
f 26/8/1 6/8/1 25/8/1
f 27/9/1 8/9/1 7/9/1
f 27/7/1 7/7/1 26/7/1
f 28/7/1 9/7/1 8/7/1
f 28/9/1 8/9/1 27/9/1
f 29/9/1 10/9/1 9/9/1
f 29/7/1 9/7/1 28/7/1
f 30/8/1 11/8/1 10/8/1
f 30/9/1 10/9/1 29/9/1
f 31/9/1 12/9/1 11/9/1
f 31/8/1 11/8/1 30/8/1
f 32/7/1 13/7/1 12/7/1
f 32/9/1 12/9/1 31/9/1
f 33/9/1 14/9/1 13/9/1
f 33/7/1 13/7/1 32/7/1
f 34/7/1 15/7/1 14/7/1
f 34/9/1 14/9/1 33/9/1
f 35/9/1 16/9/1 15/9/1
f 35/7/1 15/7/1 34/7/1
f 36/8/1 17/8/1 16/8/1
f 36/9/1 16/9/1 35/9/1
f 37/9/1 18/9/1 17/9/1
f 37/8/1 17/8/1 36/8/1
f 38/7/1 19/7/1 18/7/1
f 38/9/1 18/9/1 37/9/1
f 39/9/1 20/9/1 19/9/1
f 39/7/1 19/7/1 38/7/1
f 40/8/1 21/8/1 20/8/1
f 40/9/1 20/9/1 39/9/1
f 41/7/1 22/7/1 21/7/1
f 41/8/1 21/8/1 40/8/1
f 42/7/1 22/7/1 41/7/1
f 47/2/1 44/2/1 43/2/1
f 48/2/1 44/2/1 47/2/1
f 49/2/1 46/2/1 45/2/1
f 50/2/1 46/2/1 49/2/1
f 54/2/1 52/2/1 51/2/1
f 54/2/1 53/2/1 52/2/1
f 55/2/1 53/2/1 54/2/1
f 64/2/1 57/2/1 56/2/1
f 65/2/1 57/2/1 64/2/1
f 66/2/1 59/2/1 58/2/1
f 66/2/1 60/2/1 59/2/1
f 66/2/1 61/2/1 60/2/1
f 67/2/1 61/2/1 66/2/1
f 68/2/1 63/2/1 62/2/1
f 69/2/1 63/2/1 68/2/1
f 74/2/1 71/2/1 70/2/1
f 75/2/1 71/2/1 74/2/1
f 76/2/1 73/2/1 72/2/1
f 77/2/1 73/2/1 76/2/1
f 80/2/1 79/2/1 78/2/1
f 81/2/1 79/2/1 80/2/1
f 84/2/1 83/2/1 82/2/1
f 85/2/1 83/2/1 84/2/1
f 90/2/1 87/2/1 86/2/1
f 91/2/1 87/2/1 90/2/1
f 92/2/1 89/2/1 88/2/1
f 93/2/1 89/2/1 92/2/1
f 96/2/1 95/2/1 94/2/1
f 97/2/1 95/2/1 96/2/1
f 100/2/1 99/2/1 98/2/1
f 101/2/1 99/2/1 100/2/1
f 104/2/1 103/2/1 102/2/1
f 105/2/1 103/2/1 104/2/1
f 108/2/1 107/2/1 106/2/1
f 109/2/1 107/2/1 108/2/1
f 114/2/1 111/2/1 110/2/1
f 115/2/1 111/2/1 114/2/1
f 116/2/1 113/2/1 112/2/1
f 117/2/1 113/2/1 116/2/1
f 122/2/1 119/2/1 118/2/1
f 123/2/1 119/2/1 122/2/1
f 124/2/1 121/2/1 120/2/1
f 125/2/1 121/2/1 124/2/1
f 128/2/1 127/2/1 126/2/1
f 129/2/1 127/2/1 128/2/1
f 132/2/1 131/2/1 130/2/1
f 133/2/1 131/2/1 132/2/1
f 134/2/2 135/2/2 137/2/2
f 135/2/2 136/2/2 137/2/2
f 137/2/2 136/2/2 138/2/2
f 139/2/2 140/2/2 143/2/2
f 143/2/2 140/2/2 144/2/2
f 141/2/2 142/2/2 145/2/2
f 145/2/2 142/2/2 146/2/2
f 147/2/2 148/2/2 156/2/2
f 156/2/2 148/2/2 157/2/2
f 149/2/2 150/2/2 158/2/2
f 150/2/2 151/2/2 158/2/2
f 151/2/2 152/2/2 158/2/2
f 158/2/2 152/2/2 159/2/2
f 154/2/2 155/2/2 160/2/2
f 153/2/2 154/2/2 160/2/2
f 160/2/2 155/2/2 161/2/2
f 162/2/2 163/2/2 166/2/2
f 166/2/2 163/2/2 167/2/2
f 164/2/2 165/2/2 168/2/2
f 168/2/2 165/2/2 169/2/2
f 170/2/2 171/2/2 176/2/2
f 176/2/2 171/2/2 177/2/2
f 172/2/2 173/2/2 178/2/2
f 178/2/2 173/2/2 179/2/2
f 174/2/2 175/2/2 180/2/2
f 180/2/2 175/2/2 181/2/2
f 182/2/2 183/2/2 184/2/2
f 184/2/2 183/2/2 185/2/2
f 186/2/2 187/2/2 190/2/2
f 190/2/2 187/2/2 191/2/2
f 188/2/2 189/2/2 192/2/2
f 192/2/2 189/2/2 193/2/2
f 194/2/2 195/2/2 198/2/2
f 198/2/2 195/2/2 199/2/2
f 196/2/2 197/2/2 200/2/2
f 200/2/2 197/2/2 201/2/2
f 202/2/2 203/2/2 207/2/2
f 203/2/2 204/2/2 207/2/2
f 207/2/2 204/2/2 208/2/2
f 205/2/2 206/2/2 209/2/2
f 209/2/2 206/2/2 210/2/2
f 211/2/2 212/2/2 213/2/2
f 213/2/2 212/2/2 214/2/2
f 215/2/2 216/2/2 217/2/2
f 217/2/2 216/2/2 218/2/2
f 219/2/2 220/2/2 221/2/2
f 221/2/2 220/2/2 222/2/2
f 223/1/2 224/1/2 225/1/2
f 225/1/2 224/1/2 226/1/2
f 223/1/2 225/1/2 227/1/2
f 227/1/2 225/1/2 228/1/2
f 228/1/2 225/1/2 229/1/2
f 229/1/2 225/1/2 230/1/2
f 225/8/2 226/8/2 231/8/2
f 230/1/2 225/1/2 231/1/2
f 226/1/2 224/1/2 232/1/2
f 231/8/2 226/8/2 232/8/2
f 232/1/2 224/1/2 233/1/2
f 233/1/2 224/1/2 234/1/2
f 234/1/2 224/1/2 235/1/2
f 235/1/2 224/1/2 236/1/2
f 236/1/2 224/1/2 237/1/2
f 237/1/2 224/1/2 238/1/2
f 238/1/2 224/1/2 239/1/2
f 239/1/2 224/1/2 240/1/2
f 240/1/2 224/1/2 241/1/2
f 241/1/2 224/1/2 242/1/2
f 242/1/2 224/1/2 243/1/2
f 243/1/2 224/1/2 244/1/2
f 227/8/2 228/8/2 245/8/2
f 228/9/2 229/9/2 246/9/2
f 245/8/2 228/8/2 246/8/2
f 229/7/2 230/7/2 247/7/2
f 246/9/2 229/9/2 247/9/2
f 230/9/2 231/9/2 248/9/2
f 247/7/2 230/7/2 248/7/2
f 231/9/2 232/9/2 248/9/2
f 232/9/2 233/9/2 248/9/2
f 233/7/2 234/7/2 249/7/2
f 248/9/2 233/9/2 249/9/2
f 234/9/2 235/9/2 250/9/2
f 249/7/2 234/7/2 250/7/2
f 235/8/2 236/8/2 251/8/2
f 250/9/2 235/9/2 251/9/2
f 236/9/2 237/9/2 252/9/2
f 251/8/2 236/8/2 252/8/2
f 237/7/2 238/7/2 253/7/2
f 252/9/2 237/9/2 253/9/2
f 238/9/2 239/9/2 254/9/2
f 253/7/2 238/7/2 254/7/2
f 239/7/2 240/7/2 255/7/2
f 254/9/2 239/9/2 255/9/2
f 240/9/2 241/9/2 256/9/2
f 255/7/2 240/7/2 256/7/2
f 241/8/2 242/8/2 257/8/2
f 256/9/2 241/9/2 257/9/2
f 242/9/2 243/9/2 258/9/2
f 257/8/2 242/8/2 258/8/2
f 243/7/2 244/7/2 259/7/2
f 258/9/2 243/9/2 259/9/2
f 259/7/2 244/7/2 260/7/2
f 264/1/3 262/1/3 261/1/3
f 264/9/3 263/9/3 262/9/3
f 265/9/3 263/9/3 264/9/3
f 266/1/3 264/1/3 261/1/3
f 266/7/3 265/7/3 264/7/3
f 267/7/3 265/7/3 266/7/3
f 268/1/3 266/1/3 261/1/3
f 268/9/3 267/9/3 266/9/3
f 269/9/3 267/9/3 268/9/3
f 270/1/3 268/1/3 261/1/3
f 270/7/3 269/7/3 268/7/3
f 271/7/3 269/7/3 270/7/3
f 272/1/3 270/1/3 261/1/3
f 272/9/3 271/9/3 270/9/3
f 273/9/3 271/9/3 272/9/3
f 274/1/3 272/1/3 261/1/3
f 274/7/3 273/7/3 272/7/3
f 275/7/3 273/7/3 274/7/3
f 276/1/3 274/1/3 261/1/3
f 276/9/3 275/9/3 274/9/3
f 277/9/3 275/9/3 276/9/3
f 278/1/3 276/1/3 261/1/3
f 278/6/3 277/6/3 276/6/3
f 279/6/3 277/6/3 278/6/3
f 280/1/3 278/1/3 261/1/3
f 280/9/3 279/9/3 278/9/3
f 281/9/3 279/9/3 280/9/3
f 282/1/3 280/1/3 261/1/3
f 282/8/3 281/8/3 280/8/3
f 283/8/3 281/8/3 282/8/3
f 284/1/3 282/1/3 261/1/3
f 284/9/3 283/9/3 282/9/3
f 285/9/3 283/9/3 284/9/3
f 286/1/3 284/1/3 261/1/3
f 286/6/3 285/6/3 284/6/3
f 287/6/3 285/6/3 286/6/3
f 288/1/3 286/1/3 261/1/3
f 288/9/3 287/9/3 286/9/3
f 289/9/3 287/9/3 288/9/3
f 290/1/3 288/1/3 261/1/3
f 290/8/3 289/8/3 288/8/3
f 291/8/3 289/8/3 290/8/3
f 292/1/3 290/1/3 261/1/3
f 292/7/3 291/7/3 290/7/3
f 293/7/3 291/7/3 292/7/3
f 294/1/3 292/1/3 261/1/3
f 294/9/3 293/9/3 292/9/3
f 295/9/3 293/9/3 294/9/3
f 296/1/3 294/1/3 261/1/3
f 297/8/3 295/8/3 294/8/3
f 297/1/3 294/1/3 296/1/3
f 298/8/3 295/8/3 297/8/3
f 301/2/3 300/2/3 299/2/3
f 302/2/3 300/2/3 301/2/3
f 305/2/3 304/2/3 303/2/3
f 306/2/3 304/2/3 305/2/3
f 309/2/3 308/2/3 307/2/3
f 310/2/3 308/2/3 309/2/3
f 313/2/3 312/2/3 311/2/3
f 314/2/3 312/2/3 313/2/3
f 317/2/3 316/2/3 315/2/3
f 318/2/3 316/2/3 317/2/3
f 321/2/3 320/2/3 319/2/3
f 322/2/3 320/2/3 321/2/3
f 325/2/3 324/2/3 323/2/3
f 326/2/3 324/2/3 325/2/3
f 329/2/3 328/2/3 327/2/3
f 330/2/3 328/2/3 329/2/3
f 333/2/3 332/2/3 331/2/3
f 334/2/3 332/2/3 333/2/3
f 335/2/3 332/2/3 334/2/3
f 338/2/3 337/2/3 336/2/3
f 339/2/3 337/2/3 338/2/3
f 340/2/3 337/2/3 339/2/3
f 343/2/3 342/2/3 341/2/3
f 344/2/3 342/2/3 343/2/3
f 347/2/3 346/2/3 345/2/3
f 348/2/3 346/2/3 347/2/3
f 351/2/3 350/2/3 349/2/3
f 352/2/3 350/2/3 351/2/3
f 355/2/3 354/2/3 353/2/3
f 356/2/3 354/2/3 355/2/3
f 359/2/3 358/2/3 357/2/3
f 360/2/3 358/2/3 359/2/3
f 363/2/3 362/2/3 361/2/3
f 364/2/3 362/2/3 363/2/3
f 367/2/3 366/2/3 365/2/3
f 368/2/3 366/2/3 367/2/3
f 371/2/3 370/2/3 369/2/3
f 372/2/3 370/2/3 371/2/3
f 375/2/3 374/2/3 373/2/3
f 376/2/3 374/2/3 375/2/3
f 379/2/3 378/2/3 377/2/3
f 380/2/3 378/2/3 379/2/3
f 383/2/3 382/2/3 381/2/3
f 384/2/3 382/2/3 383/2/3
f 387/2/3 386/2/3 385/2/3
f 388/2/3 386/2/3 387/2/3
f 389/2/3 386/2/3 388/2/3
f 392/2/3 391/2/3 390/2/3
f 393/2/3 391/2/3 392/2/3
f 396/2/3 395/2/3 394/2/3
f 397/2/3 395/2/3 396/2/3
f 398/2/3 395/2/3 397/2/3
f 399/2/4 400/2/4 401/2/4
f 401/2/4 400/2/4 402/2/4
f 402/2/4 400/2/4 403/2/4
f 403/2/4 400/2/4 404/2/4
f 404/2/4 400/2/4 405/2/4
f 406/2/4 407/2/4 408/2/4
f 408/2/4 407/2/4 409/2/4
f 410/2/4 411/2/4 412/2/4
f 412/2/4 411/2/4 413/2/4
f 414/2/4 415/2/4 416/2/4
f 416/2/4 415/2/4 417/2/4
f 418/2/4 419/2/4 420/2/4
f 420/2/4 419/2/4 421/2/4
f 421/2/4 419/2/4 422/2/4
f 423/2/4 424/2/4 425/2/4
f 425/2/4 424/2/4 426/2/4
f 427/2/4 428/2/4 429/2/4
f 429/2/4 428/2/4 430/2/4
f 431/2/4 432/2/4 433/2/4
f 433/2/4 432/2/4 434/2/4
f 435/2/4 436/2/4 437/2/4
f 437/2/4 436/2/4 438/2/4
f 439/2/4 440/2/4 441/2/4
f 441/2/4 440/2/4 442/2/4
f 443/2/4 444/2/4 445/2/4
f 445/2/4 444/2/4 446/2/4
f 447/2/4 448/2/4 449/2/4
f 449/2/4 448/2/4 450/2/4
f 450/2/4 448/2/4 451/2/4
f 452/2/4 453/2/4 454/2/4
f 454/2/4 453/2/4 455/2/4
f 456/2/4 457/2/4 458/2/4
f 458/2/4 457/2/4 459/2/4
f 460/2/4 461/2/4 462/2/4
f 462/2/4 461/2/4 463/2/4
f 464/2/4 465/2/4 466/2/4
f 466/2/4 465/2/4 467/2/4
f 468/2/4 469/2/4 470/2/4
f 470/2/4 469/2/4 471/2/4
f 471/2/4 469/2/4 472/2/4
f 473/2/4 474/2/4 475/2/4
f 475/2/4 474/2/4 476/2/4
f 477/2/4 478/2/4 479/2/4
f 479/2/4 478/2/4 480/2/4
f 481/1/4 482/1/4 484/1/4
f 482/7/4 483/7/4 484/7/4
f 484/7/4 483/7/4 485/7/4
f 481/1/4 484/1/4 486/1/4
f 484/9/4 485/9/4 486/9/4
f 486/9/4 485/9/4 487/9/4
f 481/1/4 486/1/4 488/1/4
f 486/7/4 487/7/4 488/7/4
f 488/7/4 487/7/4 489/7/4
f 481/1/4 488/1/4 490/1/4
f 488/9/4 489/9/4 490/9/4
f 490/9/4 489/9/4 491/9/4
f 481/1/4 490/1/4 492/1/4
f 490/6/4 491/6/4 492/6/4
f 492/6/4 491/6/4 493/6/4
f 481/1/4 492/1/4 494/1/4
f 492/9/4 493/9/4 494/9/4
f 494/9/4 493/9/4 495/9/4
f 481/1/4 494/1/4 496/1/4
f 494/6/4 495/6/4 496/6/4
f 496/6/4 495/6/4 497/6/4
f 481/1/4 496/1/4 498/1/4
f 496/9/4 497/9/4 498/9/4
f 498/9/4 497/9/4 499/9/4
f 481/1/4 498/1/4 500/1/4
f 498/7/4 499/7/4 500/7/4
f 500/7/4 499/7/4 501/7/4
f 481/1/4 500/1/4 502/1/4
f 500/9/4 501/9/4 502/9/4
f 502/9/4 501/9/4 503/9/4
f 481/1/4 502/1/4 504/1/4
f 502/8/4 503/8/4 504/8/4
f 504/8/4 503/8/4 505/8/4
f 481/1/4 504/1/4 506/1/4
f 504/9/4 505/9/4 506/9/4
f 506/9/4 505/9/4 507/9/4
f 481/1/4 506/1/4 508/1/4
f 506/7/4 507/7/4 509/7/4
f 508/1/4 506/1/4 509/1/4
f 509/7/4 507/7/4 510/7/4
f 513/1/5 512/1/5 511/1/5
f 514/1/5 512/1/5 513/1/5
f 515/5/6 516/5/6 521/5/6
f 521/5/6 516/5/6 522/5/6
f 516/4/6 517/4/6 523/4/6
f 522/5/6 516/5/6 523/5/6
f 518/4/6 519/4/6 524/4/6
f 517/5/6 518/5/6 524/5/6
f 524/4/6 519/4/6 525/4/6
f 521/5/6 522/5/6 527/5/6
f 520/5/6 521/5/6 527/5/6
f 522/4/6 523/4/6 528/4/6
f 527/5/6 522/5/6 528/5/6
f 523/4/6 517/4/6 529/4/6
f 528/4/6 523/4/6 529/4/6
f 517/5/6 524/5/6 529/5/6
f 529/5/6 524/5/6 530/5/6
f 530/5/6 524/5/6 531/5/6
f 527/5/6 528/5/6 533/5/6
f 526/5/6 527/5/6 533/5/6
f 529/5/6 530/5/6 533/5/6
f 528/5/6 529/5/6 533/5/6
f 533/5/6 530/5/6 534/5/6
f 534/5/6 530/5/6 535/5/6
f 535/5/6 530/5/6 536/5/6
f 536/5/6 530/5/6 537/5/6
f 534/4/6 535/4/6 538/4/6
f 535/5/6 536/5/6 539/5/6
f 538/4/6 535/4/6 539/4/6
f 539/5/6 536/5/6 540/5/6
f 540/5/6 536/5/6 541/5/6
f 532/5/6 533/5/6 545/5/6
f 533/5/6 534/5/6 545/5/6
f 534/4/6 538/4/6 546/4/6
f 545/5/6 534/5/6 546/5/6
f 539/5/6 540/5/6 547/5/6
f 546/4/6 538/4/6 547/4/6
f 538/5/6 539/5/6 547/5/6
f 547/5/6 540/5/6 548/5/6
f 548/5/6 540/5/6 549/5/6
f 542/4/6 543/4/6 550/4/6
f 543/5/6 544/5/6 551/5/6
f 550/4/6 543/4/6 551/4/6
f 551/5/6 544/5/6 552/5/6
f 532/5/6 545/5/6 555/5/6
f 545/4/6 546/4/6 556/4/6
f 555/5/6 545/5/6 556/5/6
f 546/5/6 547/5/6 557/5/6
f 556/4/6 546/4/6 557/4/6
f 547/5/6 548/5/6 557/5/6
f 542/4/6 550/4/6 558/4/6
f 551/5/6 552/5/6 559/5/6
f 558/4/6 550/4/6 559/4/6
f 550/5/6 551/5/6 559/5/6
f 559/5/6 552/5/6 560/5/6
f 554/5/6 555/5/6 561/5/6
f 555/5/6 556/5/6 561/5/6
f 556/5/6 557/5/6 561/5/6
f 561/5/6 557/5/6 562/5/6
f 557/5/6 548/5/6 563/5/6
f 562/5/6 557/5/6 563/5/6
f 563/5/6 548/5/6 564/5/6
f 559/4/6 560/4/6 565/4/6
f 560/5/6 552/5/6 566/5/6
f 565/4/6 560/4/6 566/4/6
f 552/4/6 553/4/6 567/4/6
f 566/5/6 552/5/6 567/5/6
f 567/4/6 553/4/6 568/4/6
f 561/4/6 562/4/6 570/4/6
f 562/5/6 563/5/6 571/5/6
f 570/4/6 562/4/6 571/4/6
f 571/5/6 563/5/6 572/5/6
f 567/5/6 568/5/6 573/5/6
f 566/5/6 567/5/6 573/5/6
f 573/5/6 568/5/6 574/5/6
f 573/4/6 574/4/6 575/4/6
f 574/5/6 568/5/6 576/5/6
f 575/4/6 574/4/6 576/4/6
f 568/4/6 569/4/6 577/4/6
f 576/5/6 568/5/6 577/5/6
f 577/4/6 569/4/6 578/4/6
f 578/4/6 569/4/6 579/4/6
f 580/5/6 581/5/6 582/5/6
f 580/5/6 582/5/6 584/5/6
f 582/5/6 583/5/6 584/5/6
f 584/5/6 583/5/6 585/5/6
f 584/4/6 585/4/6 586/4/6
f 586/4/6 585/4/6 587/4/6
f 586/5/6 587/5/6 588/5/6
f 587/4/6 585/4/6 589/4/6
f 588/5/6 587/5/6 589/5/6
f 585/5/6 583/5/6 590/5/6
f 589/4/6 585/4/6 590/4/6
f 590/5/6 583/5/6 591/5/6
f 589/5/6 590/5/6 592/5/6
f 590/4/6 591/4/6 592/4/6
f 592/4/6 591/4/6 593/4/6
f 589/5/6 592/5/6 594/5/6
f 592/5/6 593/5/6 594/5/6
f 594/5/6 593/5/6 595/5/6
f 595/5/6 593/5/6 596/5/6
f 595/5/6 596/5/6 598/5/6
f 596/5/6 597/5/6 598/5/6
f 598/5/6 597/5/6 599/5/6
f 600/4/6 601/4/6 605/4/6
f 601/5/6 602/5/6 606/5/6
f 605/4/6 601/4/6 606/4/6
f 606/5/6 602/5/6 607/5/6
f 603/4/6 604/4/6 609/4/6
f 609/4/6 604/4/6 610/4/6
f 610/4/6 604/4/6 611/4/6
f 606/4/6 607/4/6 612/4/6
f 612/4/6 607/4/6 613/4/6
f 613/4/6 607/4/6 614/4/6
f 608/4/6 609/4/6 617/4/6
f 609/5/6 610/5/6 618/5/6
f 617/4/6 609/4/6 618/4/6
f 618/5/6 610/5/6 619/5/6
f 612/5/6 613/5/6 620/5/6
f 613/4/6 614/4/6 621/4/6
f 620/5/6 613/5/6 621/5/6
f 614/5/6 615/5/6 622/5/6
f 621/4/6 614/4/6 622/4/6
f 622/5/6 615/5/6 623/5/6
f 621/5/6 622/5/6 626/5/6
f 623/4/6 624/4/6 627/4/6
f 626/5/6 622/5/6 627/5/6
f 622/4/6 623/4/6 627/4/6
f 627/4/6 624/4/6 628/4/6
f 624/5/6 625/5/6 629/5/6
f 628/4/6 624/4/6 629/4/6
f 629/5/6 625/5/6 630/5/6
f 630/5/6 625/5/6 631/5/6
f 616/4/6 617/4/6 633/4/6
f 617/5/6 618/5/6 634/5/6
f 633/4/6 617/4/6 634/4/6
f 634/5/6 618/5/6 635/5/6
f 635/5/6 618/5/6 636/5/6
f 627/5/6 628/5/6 637/5/6
f 628/4/6 629/4/6 638/4/6
f 637/5/6 628/5/6 638/5/6
f 629/4/6 630/4/6 638/4/6
f 638/4/6 630/4/6 639/4/6
f 632/4/6 633/4/6 641/4/6
f 634/5/6 635/5/6 642/5/6
f 633/5/6 634/5/6 642/5/6
f 641/4/6 633/4/6 642/4/6
f 642/5/6 635/5/6 643/5/6
f 640/4/6 641/4/6 644/4/6
f 641/5/6 642/5/6 645/5/6
f 644/4/6 641/4/6 645/4/6
f 645/5/6 642/5/6 646/5/6
f 647/9/6 648/9/6 665/9/6
f 648/7/6 649/7/6 666/7/6
f 665/9/6 648/9/6 666/9/6
f 649/9/6 650/9/6 667/9/6
f 666/7/6 649/7/6 667/7/6
f 650/7/6 651/7/6 668/7/6
f 667/9/6 650/9/6 668/9/6
f 668/7/6 651/7/6 669/7/6
f 651/9/6 652/9/6 670/9/6
f 669/7/6 651/7/6 670/7/6
f 652/7/6 653/7/6 671/7/6
f 670/9/6 652/9/6 671/9/6
f 671/7/6 653/7/6 672/7/6
f 653/9/6 654/9/6 673/9/6
f 672/7/6 653/7/6 673/7/6
f 673/9/6 654/9/6 674/9/6
f 654/6/6 655/6/6 675/6/6
f 674/9/6 654/9/6 675/9/6
f 655/9/6 656/9/6 676/9/6
f 675/6/6 655/6/6 676/6/6
f 676/9/6 656/9/6 677/9/6
f 677/9/6 656/9/6 678/9/6
f 656/8/6 657/8/6 679/8/6
f 678/9/6 656/9/6 679/9/6
f 657/9/6 658/9/6 680/9/6
f 679/8/6 657/8/6 680/8/6
f 680/9/6 658/9/6 681/9/6
f 681/9/6 658/9/6 682/9/6
f 658/6/6 659/6/6 683/6/6
f 682/9/6 658/9/6 683/9/6
f 659/9/6 660/9/6 684/9/6
f 683/6/6 659/6/6 684/6/6
f 660/8/6 661/8/6 685/8/6
f 684/9/6 660/9/6 685/9/6
f 685/8/6 661/8/6 686/8/6
f 661/7/6 662/7/6 687/7/6
f 686/8/6 661/8/6 687/8/6
f 687/7/6 662/7/6 688/7/6
f 662/9/6 663/9/6 689/9/6
f 688/7/6 662/7/6 689/7/6
f 689/9/6 663/9/6 690/9/6
f 665/7/6 666/7/6 691/7/6
f 666/8/6 667/8/6 692/8/6
f 691/7/6 666/7/6 692/7/6
f 667/8/6 668/8/6 692/8/6
f 692/8/6 668/8/6 693/8/6
f 693/8/6 668/8/6 694/8/6
f 668/9/6 669/9/6 695/9/6
f 694/8/6 668/8/6 695/8/6
f 669/6/6 670/6/6 696/6/6
f 695/9/6 669/9/6 696/9/6
f 670/6/6 671/6/6 696/6/6
f 696/6/6 671/6/6 697/6/6
f 697/6/6 671/6/6 698/6/6
f 671/7/6 672/7/6 699/7/6
f 698/6/6 671/6/6 699/6/6
f 673/2/6 674/2/6 700/2/6
f 699/7/6 672/7/6 700/7/6
f 672/2/6 673/2/6 700/2/6
f 674/7/6 675/7/6 701/7/6
f 700/2/6 674/2/6 701/2/6
f 675/6/6 676/6/6 702/6/6
f 701/7/6 675/7/6 702/7/6
f 676/6/6 677/6/6 702/6/6
f 702/6/6 677/6/6 703/6/6
f 677/9/6 678/9/6 704/9/6
f 703/6/6 677/6/6 704/6/6
f 678/6/6 679/6/6 705/6/6
f 704/9/6 678/9/6 705/9/6
f 679/6/6 680/6/6 705/6/6
f 680/7/6 681/7/6 706/7/6
f 705/6/6 680/6/6 706/6/6
f 681/2/6 682/2/6 707/2/6
f 706/7/6 681/7/6 707/7/6
f 682/7/6 683/7/6 708/7/6
f 707/2/6 682/2/6 708/2/6
f 683/6/6 684/6/6 709/6/6
f 708/7/6 683/7/6 709/7/6
f 684/6/6 685/6/6 709/6/6
f 709/6/6 685/6/6 710/6/6
f 710/6/6 685/6/6 711/6/6
f 685/9/6 686/9/6 712/9/6
f 711/6/6 685/6/6 712/6/6
f 687/8/6 688/8/6 713/8/6
f 712/9/6 686/9/6 713/9/6
f 686/8/6 687/8/6 713/8/6
f 713/8/6 688/8/6 714/8/6
f 689/7/6 690/7/6 715/7/6
f 714/8/6 688/8/6 715/8/6
f 688/7/6 689/7/6 715/7/6
f 715/7/6 690/7/6 716/7/6
f 690/9/6 663/9/6 717/9/6
f 716/7/6 690/7/6 717/7/6
f 663/8/6 664/8/6 718/8/6
f 717/9/6 663/9/6 718/9/6
f 693/9/6 694/9/6 719/9/6
f 692/8/6 693/8/6 719/8/6
f 691/8/6 692/8/6 719/8/6
f 694/6/6 695/6/6 720/6/6
f 719/9/6 694/9/6 720/9/6
f 696/6/6 697/6/6 720/6/6
f 695/6/6 696/6/6 720/6/6
f 720/6/6 697/6/6 721/6/6
f 697/7/6 698/7/6 722/7/6
f 721/6/6 697/6/6 722/6/6
f 698/2/6 699/2/6 723/2/6
f 722/7/6 698/7/6 723/7/6
f 699/2/6 700/2/6 723/2/6
f 700/2/6 701/2/6 723/2/6
f 701/2/6 702/2/6 723/2/6
f 702/7/6 703/7/6 724/7/6
f 723/2/6 702/2/6 724/2/6
f 703/6/6 704/6/6 725/6/6
f 724/7/6 703/7/6 725/7/6
f 704/6/6 705/6/6 725/6/6
f 705/7/6 706/7/6 726/7/6
f 725/6/6 705/6/6 726/6/6
f 726/7/6 706/7/6 727/7/6
f 706/2/6 707/2/6 728/2/6
f 727/7/6 706/7/6 728/7/6
f 707/2/6 708/2/6 728/2/6
f 708/2/6 709/2/6 728/2/6
f 709/2/6 710/2/6 728/2/6
f 710/7/6 711/7/6 729/7/6
f 728/2/6 710/2/6 729/2/6
f 711/6/6 712/6/6 730/6/6
f 729/7/6 711/7/6 730/7/6
f 712/6/6 713/6/6 730/6/6
f 730/6/6 713/6/6 731/6/6
f 731/6/6 713/6/6 732/6/6
f 713/9/6 714/9/6 733/9/6
f 732/6/6 713/6/6 733/6/6
f 714/8/6 715/8/6 734/8/6
f 733/9/6 714/9/6 734/9/6
f 715/9/6 716/9/6 735/9/6
f 734/8/6 715/8/6 735/8/6
f 716/7/6 717/7/6 736/7/6
f 735/9/6 716/9/6 736/9/6
f 717/7/6 718/7/6 736/7/6
f 736/7/6 718/7/6 737/7/6
f 691/8/6 719/8/6 738/8/6
f 738/8/6 719/8/6 739/8/6
f 720/6/6 721/6/6 740/6/6
f 739/8/6 719/8/6 740/8/6
f 719/6/6 720/6/6 740/6/6
f 722/2/6 723/2/6 741/2/6
f 723/2/6 724/2/6 741/2/6
f 724/2/6 725/2/6 741/2/6
f 726/7/6 727/7/6 741/7/6
f 725/7/6 726/7/6 741/7/6
f 729/2/6 730/2/6 742/2/6
f 741/7/6 727/7/6 742/7/6
f 727/2/6 728/2/6 742/2/6
f 728/2/6 729/2/6 742/2/6
f 730/2/6 731/2/6 742/2/6
f 731/7/6 732/7/6 743/7/6
f 742/2/6 731/2/6 743/2/6
f 734/6/6 735/6/6 744/6/6
f 743/7/6 732/7/6 744/7/6
f 733/6/6 734/6/6 744/6/6
f 732/6/6 733/6/6 744/6/6
f 744/6/6 735/6/6 745/6/6
f 736/9/6 737/9/6 746/9/6
f 745/6/6 735/6/6 746/6/6
f 735/9/6 736/9/6 746/9/6
f 746/9/6 737/9/6 747/9/6
f 718/8/6 664/8/6 748/8/6
f 737/7/6 718/7/6 748/7/6
f 748/8/6 664/8/6 749/8/6
f 721/7/6 722/7/6 750/7/6
f 742/2/6 743/2/6 751/2/6
f 750/7/6 722/7/6 751/7/6
f 741/2/6 742/2/6 751/2/6
f 743/2/6 744/2/6 751/2/6
f 722/2/6 741/2/6 751/2/6
f 744/7/6 745/7/6 752/7/6
f 751/2/6 744/2/6 752/2/6
f 746/6/6 747/6/6 753/6/6
f 752/7/6 745/7/6 753/7/6
f 745/6/6 746/6/6 753/6/6
f 747/9/6 737/9/6 754/9/6
f 737/7/6 748/7/6 754/7/6
f 748/9/6 749/9/6 755/9/6
f 754/7/6 748/7/6 755/7/6
f 755/9/6 749/9/6 756/9/6
f 738/7/6 739/7/6 757/7/6
f 739/6/6 740/6/6 758/6/6
f 757/7/6 739/7/6 758/7/6
f 740/6/6 721/6/6 759/6/6
f 758/6/6 740/6/6 759/6/6
f 721/7/6 750/7/6 760/7/6
f 759/6/6 721/6/6 760/6/6
f 751/2/6 752/2/6 761/2/6
f 750/2/6 751/2/6 761/2/6
f 752/2/6 753/2/6 761/2/6
f 761/2/6 753/2/6 762/2/6
f 753/6/6 747/6/6 763/6/6
f 762/2/6 753/2/6 763/2/6
f 763/6/6 747/6/6 764/6/6
f 755/7/6 756/7/6 765/7/6
f 754/9/6 755/9/6 765/9/6
f 765/7/6 756/7/6 766/7/6
f 757/9/6 758/9/6 767/9/6
f 758/6/6 759/6/6 768/6/6
f 767/9/6 758/9/6 768/9/6
f 759/7/6 760/7/6 769/7/6
f 760/7/6 750/7/6 770/7/6
f 769/7/6 760/7/6 770/7/6
f 750/2/6 761/2/6 770/2/6
f 770/2/6 761/2/6 771/2/6
f 771/2/6 761/2/6 772/2/6
f 763/2/6 764/2/6 774/2/6
f 762/2/6 763/2/6 774/2/6
f 764/6/6 747/6/6 775/6/6
f 774/2/6 764/2/6 775/2/6
f 747/9/6 754/9/6 776/9/6
f 775/6/6 747/6/6 776/6/6
f 765/9/6 766/9/6 776/9/6
f 754/9/6 765/9/6 776/9/6
f 776/9/6 766/9/6 777/9/6
f 777/9/6 766/9/6 778/9/6
f 767/7/6 768/7/6 779/7/6
f 768/6/6 759/6/6 780/6/6
f 779/7/6 768/7/6 780/7/6
f 759/7/6 769/7/6 781/7/6
f 780/6/6 759/6/6 781/6/6
f 770/2/6 771/2/6 782/2/6
f 781/7/6 769/7/6 782/7/6
f 769/2/6 770/2/6 782/2/6
f 782/2/6 771/2/6 783/2/6
f 783/2/6 771/2/6 784/2/6
f 774/2/6 775/2/6 786/2/6
f 773/2/6 774/2/6 786/2/6
f 775/7/6 776/7/6 787/7/6
f 786/2/6 775/2/6 787/2/6
f 776/6/6 777/6/6 788/6/6
f 787/7/6 776/7/6 788/7/6
f 779/9/6 780/9/6 789/9/6
f 780/6/6 781/6/6 789/6/6
f 782/2/6 783/2/6 790/2/6
f 789/6/6 781/6/6 790/6/6
f 781/2/6 782/2/6 790/2/6
f 790/2/6 783/2/6 791/2/6
f 791/2/6 783/2/6 792/2/6
f 787/2/6 788/2/6 794/2/6
f 786/2/6 787/2/6 794/2/6
f 785/2/6 786/2/6 794/2/6
f 779/9/6 789/9/6 795/9/6
f 789/7/6 790/7/6 796/7/6
f 795/9/6 789/9/6 796/9/6
f 790/2/6 791/2/6 797/2/6
f 796/7/6 790/7/6 797/7/6
f 793/2/6 794/2/6 799/2/6
f 794/2/6 788/2/6 800/2/6
f 799/2/6 794/2/6 800/2/6
f 800/2/6 788/2/6 801/2/6
f 788/6/6 777/6/6 802/6/6
f 777/8/6 778/8/6 802/8/6
f 778/9/6 766/9/6 803/9/6
f 802/8/6 778/8/6 803/8/6
f 795/8/6 796/8/6 804/8/6
f 796/9/6 797/9/6 805/9/6
f 804/8/6 796/8/6 805/8/6
f 798/2/6 799/2/6 807/2/6
f 799/2/6 800/2/6 807/2/6
f 801/2/6 788/2/6 808/2/6
f 808/2/6 788/2/6 809/2/6
f 788/6/6 802/6/6 810/6/6
f 809/2/6 788/2/6 810/2/6
f 802/9/6 803/9/6 811/9/6
f 810/6/6 802/6/6 811/6/6
f 803/9/6 766/9/6 812/9/6
f 811/9/6 803/9/6 812/9/6
f 812/9/6 766/9/6 813/9/6
f 804/9/6 805/9/6 814/9/6
f 805/9/6 797/9/6 815/9/6
f 814/9/6 805/9/6 815/9/6
f 797/2/6 791/2/6 816/2/6
f 815/9/6 797/9/6 816/9/6
f 816/2/6 791/2/6 817/2/6
f 817/2/6 791/2/6 818/2/6
f 806/2/6 807/2/6 819/2/6
f 807/2/6 800/2/6 819/2/6
f 819/2/6 820/2/6 822/2/6
f 806/2/6 819/2/6 822/2/6
f 822/2/6 820/2/6 823/2/6
f 810/2/6 811/2/6 825/2/6
f 809/2/6 810/2/6 825/2/6
f 825/2/6 811/2/6 826/2/6
f 811/6/6 812/6/6 827/6/6
f 826/2/6 811/2/6 827/2/6
f 812/7/6 813/7/6 828/7/6
f 827/6/6 812/6/6 828/6/6
f 815/2/6 816/2/6 829/2/6
f 816/2/6 817/2/6 829/2/6
f 823/2/6 824/2/6 830/2/6
f 822/2/6 823/2/6 830/2/6
f 821/2/6 822/2/6 830/2/6
f 828/7/6 813/7/6 831/7/6
f 826/2/6 827/2/6 831/2/6
f 827/2/6 828/2/6 831/2/6
f 831/7/6 813/7/6 832/7/6
f 814/7/6 815/7/6 833/7/6
f 829/2/6 830/2/6 834/2/6
f 833/7/6 815/7/6 834/7/6
f 815/2/6 829/2/6 834/2/6
f 830/2/6 824/2/6 835/2/6
f 834/2/6 830/2/6 835/2/6
f 833/9/6 834/9/6 837/9/6
f 835/2/6 836/2/6 837/2/6
f 834/2/6 835/2/6 837/2/6
f 837/2/6 836/2/6 838/2/6
f 838/2/6 836/2/6 839/2/6
f 826/2/6 831/2/6 840/2/6
f 833/9/6 837/9/6 841/9/6
f 837/7/6 838/7/6 842/7/6
f 841/9/6 837/9/6 842/9/6
f 838/2/6 839/2/6 843/2/6
f 842/7/6 838/7/6 843/7/6
f 839/2/6 840/2/6 843/2/6
f 843/2/6 840/2/6 844/2/6
f 844/2/6 840/2/6 845/2/6
f 845/2/6 840/2/6 846/2/6
f 841/7/6 842/7/6 847/7/6
f 842/6/6 843/6/6 848/6/6
f 847/7/6 842/7/6 848/7/6
f 843/7/6 844/7/6 849/7/6
f 848/6/6 843/6/6 849/6/6
f 844/2/6 845/2/6 850/2/6
f 849/7/6 844/7/6 850/7/6
f 846/2/6 840/2/6 851/2/6
f 851/2/6 840/2/6 852/2/6
f 840/2/6 831/2/6 853/2/6
f 852/2/6 840/2/6 853/2/6
f 831/9/6 832/9/6 854/9/6
f 853/2/6 831/2/6 854/2/6
f 847/9/6 848/9/6 855/9/6
f 848/6/6 849/6/6 856/6/6
f 855/9/6 848/9/6 856/9/6
f 849/6/6 850/6/6 856/6/6
f 856/6/6 850/6/6 857/6/6
f 850/2/6 845/2/6 858/2/6
f 857/6/6 850/6/6 858/6/6
f 852/2/6 853/2/6 859/2/6
f 853/7/6 854/7/6 860/7/6
f 859/2/6 853/2/6 860/2/6
f 854/9/6 832/9/6 861/9/6
f 860/7/6 854/7/6 861/7/6
f 856/6/6 857/6/6 862/6/6
f 857/7/6 858/7/6 862/7/6
f 858/2/6 845/2/6 863/2/6
f 862/7/6 858/7/6 863/7/6
f 863/2/6 845/2/6 864/2/6
f 856/6/6 862/6/6 866/6/6
f 855/8/6 856/8/6 866/8/6
f 864/2/6 865/2/6 867/2/6
f 866/6/6 862/6/6 867/6/6
f 863/2/6 864/2/6 867/2/6
f 862/2/6 863/2/6 867/2/6
f 859/7/6 860/7/6 868/7/6
f 852/2/6 859/2/6 868/2/6
f 860/6/6 861/6/6 869/6/6
f 868/7/6 860/7/6 869/7/6
f 855/8/6 866/8/6 870/8/6
f 866/7/6 867/7/6 871/7/6
f 870/8/6 866/8/6 871/8/6
f 867/2/6 865/2/6 872/2/6
f 852/2/6 868/2/6 874/2/6
f 874/2/6 868/2/6 875/2/6
f 875/2/6 868/2/6 876/2/6
f 868/6/6 869/6/6 877/6/6
f 876/2/6 868/2/6 877/2/6
f 871/7/6 867/7/6 878/7/6
f 870/9/6 871/9/6 878/9/6
f 872/2/6 873/2/6 879/2/6
f 878/7/6 867/7/6 879/7/6
f 867/2/6 872/2/6 879/2/6
f 879/2/6 873/2/6 880/2/6
f 875/2/6 876/2/6 881/2/6
f 879/2/6 880/2/6 882/2/6
f 880/2/6 881/2/6 882/2/6
f 881/2/6 876/2/6 882/2/6
f 876/7/6 877/7/6 882/7/6
f 878/2/6 879/2/6 882/2/6
f 877/6/6 869/6/6 883/6/6
f 882/7/6 877/7/6 883/7/6
f 869/6/6 861/6/6 884/6/6
f 883/6/6 869/6/6 884/6/6
f 861/9/6 832/9/6 885/9/6
f 884/6/6 861/6/6 885/6/6
f 885/9/6 832/9/6 886/9/6
f 882/6/6 883/6/6 887/6/6
f 883/7/6 884/7/6 887/7/6
f 884/6/6 885/6/6 888/6/6
f 887/7/6 884/7/6 888/7/6
f 885/8/6 886/8/6 889/8/6
f 888/6/6 885/6/6 889/6/6
f 889/8/6 886/8/6 890/8/6
f 887/6/6 888/6/6 891/6/6
f 878/2/6 882/2/6 891/2/6
f 882/6/6 887/6/6 891/6/6
f 888/6/6 889/6/6 891/6/6
f 891/6/6 889/6/6 892/6/6
f 889/9/6 890/9/6 893/9/6
f 892/6/6 889/6/6 893/6/6
f 893/9/6 890/9/6 894/9/6
f 870/9/6 878/9/6 895/9/6
f 878/2/6 891/2/6 896/2/6
f 895/9/6 878/9/6 896/9/6
f 891/7/6 892/7/6 897/7/6
f 896/2/6 891/2/6 897/2/6
f 897/7/6 892/7/6 898/7/6
f 892/6/6 893/6/6 899/6/6
f 893/7/6 894/7/6 899/7/6
f 899/7/6 894/7/6 900/7/6
f 895/7/6 896/7/6 901/7/6
f 897/2/6 898/2/6 902/2/6
f 901/7/6 896/7/6 902/7/6
f 896/2/6 897/2/6 902/2/6
f 902/2/6 898/2/6 903/2/6
f 903/2/6 898/2/6 904/2/6
f 904/2/6 898/2/6 905/2/6
f 905/2/6 898/2/6 906/2/6
f 898/7/6 892/7/6 907/7/6
f 906/2/6 898/2/6 907/2/6
f 892/6/6 899/6/6 908/6/6
f 907/7/6 892/7/6 908/7/6
f 899/9/6 900/9/6 909/9/6
f 908/6/6 899/6/6 909/6/6
f 902/2/6 903/2/6 910/2/6
f 904/2/6 905/2/6 912/2/6
f 912/2/6 905/2/6 913/2/6
f 907/2/6 908/2/6 915/2/6
f 906/2/6 907/2/6 915/2/6
f 901/9/6 902/9/6 916/9/6
f 910/2/6 911/2/6 916/2/6
f 902/2/6 910/2/6 916/2/6
f 916/2/6 911/2/6 917/2/6
f 904/2/6 912/2/6 918/2/6
f 918/2/6 912/2/6 919/2/6
f 919/2/6 912/2/6 920/2/6
f 920/2/6 912/2/6 921/2/6
f 914/2/6 915/2/6 923/2/6
f 901/9/6 916/9/6 924/9/6
f 916/7/6 917/7/6 925/7/6
f 924/9/6 916/9/6 925/9/6
f 917/2/6 911/2/6 926/2/6
f 919/2/6 920/2/6 928/2/6
f 928/2/6 920/2/6 929/2/6
f 922/2/6 923/2/6 930/2/6
f 915/2/6 908/2/6 930/2/6
f 923/2/6 915/2/6 930/2/6
f 908/8/6 909/8/6 931/8/6
f 930/2/6 908/2/6 931/2/6
f 909/9/6 900/9/6 932/9/6
f 931/8/6 909/8/6 932/8/6
f 932/9/6 900/9/6 933/9/6
f 925/7/6 917/7/6 934/7/6
f 926/2/6 927/2/6 934/2/6
f 917/2/6 926/2/6 934/2/6
f 934/2/6 927/2/6 935/2/6
f 935/2/6 927/2/6 936/2/6
f 929/2/6 920/2/6 939/2/6
f 939/2/6 920/2/6 940/2/6
f 940/2/6 920/2/6 941/2/6
f 922/2/6 930/2/6 943/2/6
f 943/2/6 930/2/6 944/2/6
f 930/7/6 931/7/6 945/7/6
f 944/2/6 930/2/6 945/2/6
f 931/9/6 932/9/6 946/9/6
f 945/7/6 931/7/6 946/7/6
f 932/7/6 933/7/6 947/7/6
f 946/9/6 932/9/6 947/9/6
f 947/7/6 933/7/6 948/7/6
f 924/8/6 925/8/6 949/8/6
f 925/7/6 934/7/6 949/7/6
f 934/7/6 935/7/6 949/7/6
f 936/2/6 937/2/6 950/2/6
f 949/7/6 935/7/6 950/7/6
f 935/2/6 936/2/6 950/2/6
f 950/2/6 937/2/6 951/2/6
f 951/2/6 937/2/6 952/2/6
f 938/2/6 939/2/6 953/2/6
f 939/2/6 940/2/6 953/2/6
f 953/2/6 940/2/6 954/2/6
f 954/2/6 940/2/6 955/2/6
f 943/2/6 944/2/6 957/2/6
f 942/2/6 943/2/6 957/2/6
f 957/2/6 944/2/6 958/2/6
f 944/7/6 945/7/6 959/7/6
f 958/2/6 944/2/6 959/2/6
f 945/6/6 946/6/6 960/6/6
f 959/7/6 945/7/6 960/7/6
f 946/6/6 947/6/6 960/6/6
f 960/6/6 947/6/6 961/6/6
f 947/9/6 948/9/6 962/9/6
f 961/6/6 947/6/6 962/6/6
f 962/9/6 948/9/6 963/9/6
f 924/8/6 949/8/6 964/8/6
f 950/6/6 951/6/6 964/6/6
f 949/6/6 950/6/6 964/6/6
f 964/6/6 951/6/6 965/6/6
f 953/2/6 954/2/6 966/2/6
f 965/6/6 951/6/6 966/6/6
f 951/2/6 952/2/6 966/2/6
f 952/2/6 953/2/6 966/2/6
f 966/2/6 954/2/6 967/2/6
f 967/2/6 954/2/6 968/2/6
f 957/2/6 958/2/6 969/2/6
f 956/2/6 957/2/6 969/2/6
f 958/7/6 959/7/6 970/7/6
f 969/2/6 958/2/6 970/2/6
f 960/6/6 961/6/6 971/6/6
f 970/7/6 959/7/6 971/7/6
f 959/6/6 960/6/6 971/6/6
f 971/6/6 961/6/6 972/6/6
f 962/8/6 963/8/6 973/8/6
f 972/6/6 961/6/6 973/6/6
f 961/8/6 962/8/6 973/8/6
f 973/8/6 963/8/6 974/8/6
f 974/8/6 963/8/6 975/8/6
f 964/8/6 965/8/6 976/8/6
f 924/8/6 964/8/6 976/8/6
f 976/8/6 965/8/6 977/8/6
f 977/8/6 965/8/6 978/8/6
f 966/7/6 967/7/6 979/7/6
f 965/6/6 966/6/6 979/6/6
f 968/2/6 969/2/6 980/2/6
f 979/7/6 967/7/6 980/7/6
f 967/2/6 968/2/6 980/2/6
f 969/2/6 970/2/6 980/2/6
f 980/2/6 970/2/6 981/2/6
f 981/2/6 970/2/6 982/2/6
f 982/2/6 970/2/6 983/2/6
f 983/2/6 970/2/6 984/2/6
f 984/2/6 970/2/6 985/2/6
f 985/2/6 970/2/6 986/2/6
f 986/2/6 970/2/6 987/2/6
f 987/2/6 970/2/6 988/2/6
f 971/6/6 972/6/6 989/6/6
f 988/2/6 970/2/6 989/2/6
f 970/6/6 971/6/6 989/6/6
f 972/9/6 973/9/6 990/9/6
f 989/6/6 972/6/6 990/6/6
f 973/8/6 974/8/6 991/8/6
f 990/9/6 973/9/6 991/9/6
f 965/6/6 979/6/6 992/6/6
f 979/6/6 980/6/6 992/6/6
f 980/6/6 981/6/6 992/6/6
f 992/6/6 981/6/6 993/6/6
f 993/6/6 981/6/6 994/6/6
f 981/7/6 982/7/6 995/7/6
f 994/6/6 981/6/6 995/6/6
f 982/6/6 983/6/6 996/6/6
f 995/7/6 982/7/6 996/7/6
f 983/2/6 984/2/6 997/2/6
f 996/6/6 983/6/6 997/6/6
f 997/2/6 984/2/6 998/2/6
f 998/2/6 984/2/6 999/2/6
f 999/2/6 984/2/6 1000/2/6
f 1000/2/6 984/2/6 1001/2/6
f 984/7/6 985/7/6 1002/7/6
f 1001/2/6 984/2/6 1002/2/6
f 985/6/6 986/6/6 1003/6/6
f 1002/7/6 985/7/6 1003/7/6
f 1003/6/6 986/6/6 1004/6/6
f 986/7/6 987/7/6 1005/7/6
f 1004/6/6 986/6/6 1005/6/6
f 987/2/6 988/2/6 1006/2/6
f 1005/7/6 987/7/6 1006/7/6
f 1006/2/6 988/2/6 1007/2/6
f 1007/2/6 988/2/6 1008/2/6
f 1008/2/6 988/2/6 1009/2/6
f 1009/2/6 988/2/6 1010/2/6
f 1010/2/6 988/2/6 1011/2/6
f 988/6/6 989/6/6 1012/6/6
f 1011/2/6 988/2/6 1012/2/6
f 989/6/6 990/6/6 1012/6/6
f 1012/6/6 990/6/6 1013/6/6
f 990/8/6 991/8/6 1014/8/6
f 1013/6/6 990/6/6 1014/6/6
f 991/8/6 974/8/6 1015/8/6
f 1014/8/6 991/8/6 1015/8/6
f 974/9/6 975/9/6 1015/9/6
f 976/7/6 977/7/6 1016/7/6
f 977/9/6 978/9/6 1016/9/6
f 978/8/6 965/8/6 1017/8/6
f 1016/9/6 978/9/6 1017/9/6
f 965/6/6 992/6/6 1018/6/6
f 1017/8/6 965/8/6 1018/8/6
f 992/8/6 993/8/6 1019/8/6
f 1018/6/6 992/6/6 1019/6/6
f 993/9/6 994/9/6 1020/9/6
f 1019/8/6 993/8/6 1020/8/6
f 994/6/6 995/6/6 1021/6/6
f 1020/9/6 994/9/6 1021/9/6
f 995/6/6 996/6/6 1021/6/6
f 996/6/6 997/6/6 1021/6/6
f 997/6/6 998/6/6 1021/6/6
f 1021/6/6 998/6/6 1022/6/6
f 998/7/6 999/7/6 1023/7/6
f 1022/6/6 998/6/6 1023/6/6
f 999/2/6 1000/2/6 1024/2/6
f 1023/7/6 999/7/6 1024/7/6
f 1024/2/6 1000/2/6 1025/2/6
f 1000/7/6 1001/7/6 1026/7/6
f 1025/2/6 1000/2/6 1026/2/6
f 1001/6/6 1002/6/6 1027/6/6
f 1026/7/6 1001/7/6 1027/7/6
f 1002/6/6 1003/6/6 1027/6/6
f 1027/6/6 1003/6/6 1028/6/6
f 1003/9/6 1004/9/6 1029/9/6
f 1028/6/6 1003/6/6 1029/6/6
f 1004/6/6 1005/6/6 1030/6/6
f 1029/9/6 1004/9/6 1030/9/6
f 1006/6/6 1007/6/6 1030/6/6
f 1005/6/6 1006/6/6 1030/6/6
f 1030/6/6 1007/6/6 1031/6/6
f 1007/7/6 1008/7/6 1032/7/6
f 1031/6/6 1007/6/6 1032/6/6
f 1032/7/6 1008/7/6 1033/7/6
f 1008/8/6 1009/8/6 1034/8/6
f 1033/7/6 1008/7/6 1034/7/6
f 1009/2/6 1010/2/6 1035/2/6
f 1034/8/6 1009/8/6 1035/8/6
f 1035/2/6 1010/2/6 1036/2/6
f 1010/7/6 1011/7/6 1037/7/6
f 1036/2/6 1010/2/6 1037/2/6
f 1011/6/6 1012/6/6 1038/6/6
f 1037/7/6 1011/7/6 1038/7/6
f 1012/6/6 1013/6/6 1038/6/6
f 1038/6/6 1013/6/6 1039/6/6
f 1013/8/6 1014/8/6 1040/8/6
f 1039/6/6 1013/6/6 1040/6/6
f 1014/9/6 1015/9/6 1041/9/6
f 1040/8/6 1014/8/6 1041/8/6
f 1041/9/6 1015/9/6 1042/9/6
f 1015/9/6 975/9/6 1043/9/6
f 1042/9/6 1015/9/6 1043/9/6
f 976/7/6 1016/7/6 1044/7/6
f 1016/7/6 1017/7/6 1044/7/6
f 1017/7/6 1018/7/6 1044/7/6
f 1018/9/6 1019/9/6 1045/9/6
f 1044/7/6 1018/7/6 1045/7/6
f 1019/9/6 1020/9/6 1045/9/6
f 1021/9/6 1022/9/6 1045/9/6
f 1020/9/6 1021/9/6 1045/9/6
f 1024/7/6 1025/7/6 1046/7/6
f 1045/9/6 1022/9/6 1046/9/6
f 1022/7/6 1023/7/6 1046/7/6
f 1023/7/6 1024/7/6 1046/7/6
f 1025/9/6 1026/9/6 1047/9/6
f 1046/7/6 1025/7/6 1047/7/6
f 1026/9/6 1027/9/6 1047/9/6
f 1027/6/6 1028/6/6 1048/6/6
f 1047/9/6 1027/9/6 1048/9/6
f 1028/9/6 1029/9/6 1049/9/6
f 1048/6/6 1028/6/6 1049/6/6
f 1030/9/6 1031/9/6 1049/9/6
f 1029/9/6 1030/9/6 1049/9/6
f 1032/6/6 1033/6/6 1050/6/6
f 1049/9/6 1031/9/6 1050/9/6
f 1031/6/6 1032/6/6 1050/6/6
f 1035/9/6 1036/9/6 1051/9/6
f 1050/6/6 1033/6/6 1051/6/6
f 1033/9/6 1034/9/6 1051/9/6
f 1034/9/6 1035/9/6 1051/9/6
f 1036/7/6 1037/7/6 1052/7/6
f 1051/9/6 1036/9/6 1052/9/6
f 1037/7/6 1038/7/6 1052/7/6
f 1038/9/6 1039/9/6 1053/9/6
f 1052/7/6 1038/7/6 1053/7/6
f 1039/8/6 1040/8/6 1054/8/6
f 1053/9/6 1039/9/6 1054/9/6
f 1041/9/6 1042/9/6 1055/9/6
f 1054/8/6 1040/8/6 1055/8/6
f 1040/9/6 1041/9/6 1055/9/6
f 1042/7/6 1043/7/6 1056/7/6
f 1055/9/6 1042/9/6 1056/9/6
f 1056/7/6 1043/7/6 1057/7/6
