# MagicaVoxel @ Ephtracy

# group
o 

# material
mtllib NEW GAME-13.mtl
usemtl palette

# normals
vn -1 0 0
vn 1 0 0
vn 0 0 1
vn 0 0 -1
vn 0 -1 0
vn 0 1 0

# texcoords
vt 0.00195313 0.5
vt 0.0175781 0.5
vt 0.0214844 0.5
vt 0.0371094 0.5
vt 0.0410156 0.5
vt 0.0449219 0.5
vt 0.0683594 0.5
vt 0.880859 0.5
vt 0.884766 0.5
vt 0.888672 0.5
vt 0.892578 0.5

# verts
v -1.9 0 2.1
v -1.9 0 -1.9
v -1.9 0.4 2.1
v -1.9 0.4 2
v -1.9 0.4 1.9
v -1.9 0.4 1.7
v -1.9 0.4 1
v -1.9 0.4 0.9
v -1.9 0.4 0.3
v -1.9 0.4 0.0999999
v -1.9 0.4 -0.2
v -1.9 0.4 -0.8
v -1.9 0.4 -1.2
v -1.9 0.4 -1.9
v -1.9 0.5 2.1
v -1.9 0.5 2
v -1.9 0.5 1.4
v -1.9 0.5 1
v -1.9 0.5 0.6
v -1.9 0.5 0.3
v -1.9 0.5 0.0999999
v -1.9 0.5 -0.2
v -1.9 0.5 -0.8
v -1.9 0.5 -0.9
v -1.9 0.5 -1.2
v -1.9 0.5 -1.6
v -1.9 0.6 1.9
v -1.9 0.6 1.7
v -1.9 0.6 1
v -1.9 0.6 0.9
v -1.9 0.6 0.6
v -1.9 0.6 0.3
v -1.9 0.6 0.0999999
v -1.9 0.6 -0.9
v -1.9 0.6 -1.2
v -1.9 0.6 -1.6
v -1.9 0.6 -1.9
v -1.9 0.7 2.1
v -1.9 0.7 1.7
v -1.9 0.7 1.4
v -1.8 0.5 1.4
v -1.8 0.5 1.2
v -1.8 0.5 1.1
v -1.8 0.5 1
v -1.8 0.5 0.4
v -1.8 0.5 0.3
v -1.8 0.5 0.0999999
v -1.8 0.5 -0.0999999
v -1.8 0.5 -1.4
v -1.8 0.5 -1.5
v -1.8 0.6 1.4
v -1.8 0.6 1.2
v -1.8 0.6 1.1
v -1.8 0.6 1
v -1.8 0.6 0.4
v -1.8 0.6 0.3
v -1.8 0.6 0.0999999
v -1.8 0.6 -0.0999999
v -1.8 0.6 -1.4
v -1.8 0.6 -1.5
v -1.7 0.6 0.4
v -1.7 0.6 0.3
v -1.7 0.7 0.4
v -1.7 0.7 0.3
v -1.6 0.4 -0.9
v -1.6 0.4 -1.1
v -1.6 0.5 1.9
v -1.6 0.5 1.8
v -1.6 0.5 -0.9
v -1.6 0.5 -1.1
v -1.6 0.5 -1.5
v -1.6 0.5 -1.8
v -1.6 0.6 1.9
v -1.6 0.6 1.8
v -1.6 0.6 -1.5
v -1.6 0.6 -1.8
v -1.5 0.4 -0.5
v -1.5 0.4 -0.9
v -1.5 0.5 2.1
v -1.5 0.5 2
v -1.5 0.5 -0.5
v -1.5 0.5 -0.9
v -1.5 0.6 2.1
v -1.5 0.6 2
v -1.4 0.5 2
v -1.4 0.5 1.9
v -1.4 0.5 -1.7
v -1.4 0.5 -1.8
v -1.4 0.6 2
v -1.4 0.6 1.9
v -1.4 0.6 -1.7
v -1.4 0.6 -1.8
v -1.1 0.4 0.8
v -1.1 0.4 0.7
v -1.1 0.4 0.4
v -1.1 0.4 0.3
v -1.1 0.5 0.8
v -1.1 0.5 0.7
v -1.1 0.5 0.4
v -1.1 0.5 0.3
v -1.1 0.5 -1.6
v -1.1 0.5 -1.7
v -1.1 0.6 -1.6
v -1.1 0.6 -1.7
v -1 0.4 -0.9
v -1 0.4 -1.1
v -1 0.5 -0.9
v -1 0.5 -1.1
v -0.9 0.4 1
v -0.9 0.4 0.8
v -0.9 0.4 0.3
v -0.9 0.4 -0.2
v -0.9 0.4 -1.1
v -0.9 0.4 -1.2
v -0.9 0.5 1
v -0.9 0.5 0.8
v -0.9 0.5 0.3
v -0.9 0.5 -0.2
v -0.9 0.5 -1.1
v -0.9 0.5 -1.2
v -0.8 0.4 1.1
v -0.8 0.4 1
v -0.8 0.4 -0.2
v -0.8 0.4 -0.3
v -0.8 0.5 1.1
v -0.8 0.5 1
v -0.8 0.5 -0.2
v -0.8 0.5 -0.3
v -0.7 0.4 1.2
v -0.7 0.4 1.1
v -0.7 0.5 1.2
v -0.7 0.5 1.1
v -0.6 0.4 -1.3
v -0.6 0.4 -1.4
v -0.6 0.5 -1.3
v -0.6 0.5 -1.4
v -0.5 0.4 1.3
v -0.5 0.4 1.2
v -0.5 0.4 -1.2
v -0.5 0.4 -1.3
v -0.5 0.5 1.3
v -0.5 0.5 1.2
v -0.5 0.5 -1.2
v -0.5 0.5 -1.3
v -0.4 0.4 1.4
v -0.4 0.4 1.3
v -0.4 0.5 1.4
v -0.4 0.5 1.3
v -0.3 0.5 2
v -0.3 0.5 1.9
v -0.3 0.6 2
v -0.3 0.6 1.9
v -0.2 0.4 1.5
v -0.2 0.4 1.4
v -0.2 0.5 1.5
v -0.2 0.5 1.4
v -0.2 0.5 -1.8
v -0.2 0.5 -1.9
v -0.2 0.6 -1.8
v -0.2 0.6 -1.9
v -0.1 0.5 1.9
v -0.1 0.5 1.8
v -0.1 0.5 -1.6
v -0.1 0.5 -1.7
v -0.1 0.5 -1.8
v -0.1 0.6 1.9
v -0.1 0.6 1.8
v -0.1 0.6 -1.6
v -0.1 0.6 -1.7
v -0.1 0.6 -1.8
v 0 0.4 -0.4
v 0 0.4 -0.5
v 0 0.5 -0.4
v 0 0.5 -0.5
v 0.1 0.4 -0.5
v 0.1 0.4 -0.7
v 0.1 0.4 -1.4
v 0.1 0.4 -1.5
v 0.1 0.5 -0.5
v 0.1 0.5 -0.7
v 0.1 0.5 -1.4
v 0.1 0.5 -1.5
v 0.2 0.4 -0.7
v 0.2 0.4 -0.8
v 0.2 0.5 -0.7
v 0.2 0.5 -0.8
v 0.3 0.4 -0.8
v 0.3 0.4 -1
v 0.3 0.4 -1.3
v 0.3 0.4 -1.4
v 0.3 0.5 -0.8
v 0.3 0.5 -1
v 0.3 0.5 -1.3
v 0.3 0.5 -1.4
v 0.4 0.4 -1.2
v 0.4 0.4 -1.3
v 0.4 0.5 -1.2
v 0.4 0.5 -1.3
v 0.5 0.4 -1
v 0.5 0.4 -1.2
v 0.5 0.5 -1
v 0.5 0.5 -1.2
v 0.8 0.4 -0.5
v 0.8 0.4 -0.7
v 0.8 0.5 -0.5
v 0.8 0.5 -0.7
v 0.9 0.4 1.8
v 0.9 0.4 1.7
v 0.9 0.4 1.5
v 0.9 0.4 1.4
v 0.9 0.4 -0.2
v 0.9 0.4 -0.3
v 0.9 0.4 -0.7
v 0.9 0.4 -0.8
v 0.9 0.4 -1.1
v 0.9 0.4 -1.3
v 0.9 0.5 1.8
v 0.9 0.5 1.7
v 0.9 0.5 1.5
v 0.9 0.5 1.4
v 0.9 0.5 -0.2
v 0.9 0.5 -0.3
v 0.9 0.5 -0.7
v 0.9 0.5 -0.8
v 0.9 0.5 -1.1
v 0.9 0.5 -1.3
v 1 0.4 1.7
v 1 0.4 1.5
v 1 0.4 -0.8
v 1 0.4 -1.1
v 1 0.5 2.1
v 1 0.5 1.9
v 1 0.5 1.7
v 1 0.5 1.5
v 1 0.5 -0.8
v 1 0.5 -1.1
v 1 0.6 2.1
v 1 0.6 1.9
v 1.1 0.4 -0.3
v 1.1 0.4 -0.5
v 1.1 0.5 -0.3
v 1.1 0.5 -0.5
v 1.2 0.4 -1.4
v 1.2 0.4 -1.5
v 1.2 0.5 1.9
v 1.2 0.5 1.8
v 1.2 0.5 -1.4
v 1.2 0.5 -1.5
v 1.2 0.6 1.9
v 1.2 0.6 1.8
v 1.3 0.4 1.1
v 1.3 0.4 1
v 1.3 0.5 1.1
v 1.3 0.5 1
v 1.4 0.4 1
v 1.4 0.4 0.8
v 1.4 0.4 -1.3
v 1.4 0.4 -1.4
v 1.4 0.5 1.8
v 1.4 0.5 1.7
v 1.4 0.5 1
v 1.4 0.5 0.8
v 1.4 0.5 -1.3
v 1.4 0.5 -1.4
v 1.4 0.6 1.8
v 1.4 0.6 1.7
v 1.5 0.4 0.8
v 1.5 0.4 0.5
v 1.5 0.4 -1.1
v 1.5 0.4 -1.3
v 1.5 0.5 2
v 1.5 0.5 1.9
v 1.5 0.5 0.8
v 1.5 0.5 0.5
v 1.5 0.5 -1.1
v 1.5 0.5 -1.3
v 1.5 0.6 2
v 1.5 0.6 1.9
v 1.6 0.4 -1
v 1.6 0.4 -1.1
v 1.6 0.5 1.9
v 1.6 0.5 1.8
v 1.6 0.5 1.7
v 1.6 0.5 1.6
v 1.6 0.5 1.5
v 1.6 0.5 -1
v 1.6 0.5 -1.1
v 1.6 0.6 1.9
v 1.6 0.6 1.8
v 1.6 0.6 1.7
v 1.6 0.6 1.5
v 1.7 0.4 -0.9
v 1.7 0.4 -1
v 1.7 0.5 1.5
v 1.7 0.5 1.4
v 1.7 0.5 -0.4
v 1.7 0.5 -0.7
v 1.7 0.5 -0.9
v 1.7 0.5 -1
v 1.7 0.5 -1.8
v 1.7 0.5 -1.9
v 1.7 0.6 1.5
v 1.7 0.6 1.4
v 1.7 0.6 -0.4
v 1.7 0.6 -0.7
v 1.7 0.6 -1.8
v 1.7 0.6 -1.9
v 1.8 0.5 -0.0999999
v 1.8 0.5 -0.2
v 1.8 0.5 -0.4
v 1.8 0.5 -1.7
v 1.8 0.5 -1.8
v 1.8 0.6 2.1
v 1.8 0.6 2
v 1.8 0.6 -0.0999999
v 1.8 0.6 -0.4
v 1.8 0.6 -1.7
v 1.8 0.6 -1.8
v 1.8 0.7 2.1
v 1.8 0.7 2
v 1.9 0.5 1.1
v 1.9 0.5 1
v 1.9 0.5 0.0999999
v 1.9 0.5 -0.0999999
v 1.9 0.5 -0.7
v 1.9 0.5 -0.9
v 1.9 0.6 2
v 1.9 0.6 1.9
v 1.9 0.6 1.1
v 1.9 0.6 1
v 1.9 0.6 0.0999999
v 1.9 0.6 -0.0999999
v 1.9 0.6 -0.7
v 1.9 0.6 -0.9
v 1.9 0.6 -1.8
v 1.9 0.6 -1.9
v 1.9 0.7 2
v 1.9 0.7 1.9
v 1.9 0.7 -1.8
v 1.9 0.7 -1.9
v 2 0.5 1.4
v 2 0.5 1.1
v 2 0.5 -1.5
v 2 0.5 -1.7
v 2 0.6 1.9
v 2 0.6 1.7
v 2 0.6 1.4
v 2 0.6 1.1
v 2 0.6 -1.5
v 2 0.6 -1.7
v 2 0.7 1.9
v 2 0.7 1.7
v -1.8 0.5 2.1
v -1.8 0.5 2
v -1.8 0.5 0.9
v -1.8 0.5 0.6
v -1.8 0.5 -0.9
v -1.8 0.5 -1.1
v -1.8 0.5 -1.2
v -1.8 0.6 2
v -1.8 0.6 1.7
v -1.8 0.6 1.4
v -1.8 0.6 0.9
v -1.8 0.6 0.6
v -1.8 0.6 -0.9
v -1.8 0.6 -1.2
v -1.8 0.7 2.1
v -1.8 0.7 1.7
v -1.8 0.7 1.4
v -1.7 0.4 -0.6
v -1.7 0.4 -1.1
v -1.7 0.5 1.9
v -1.7 0.5 1.8
v -1.7 0.5 1.5
v -1.7 0.5 1.3
v -1.7 0.5 1.2
v -1.7 0.5 1.1
v -1.7 0.5 0.9
v -1.7 0.5 0.0999999
v -1.7 0.5 0
v -1.7 0.5 -0.0999999
v -1.7 0.5 -0.6
v -1.7 0.5 -1.1
v -1.7 0.5 -1.6
v -1.7 0.5 -1.8
v -1.7 0.6 1.9
v -1.7 0.6 1.8
v -1.7 0.6 1.5
v -1.7 0.6 1.2
v -1.7 0.6 1.1
v -1.7 0.6 0.9
v -1.7 0.6 0.0999999
v -1.7 0.6 -0.0999999
v -1.7 0.6 -1.6
v -1.7 0.6 -1.8
v -1.6 0.4 -0.5
v -1.6 0.4 -0.6
v -1.6 0.5 0.4
v -1.6 0.5 0.3
v -1.6 0.5 0.0999999
v -1.6 0.5 -0.5
v -1.6 0.5 -0.6
v -1.6 0.6 0.3
v -1.6 0.6 0.0999999
v -1.6 0.7 0.4
v -1.6 0.7 0.3
v -1.5 0.5 2
v -1.5 0.5 1.9
v -1.5 0.5 1.8
v -1.5 0.5 1.5
v -1.5 0.5 -1.4
v -1.5 0.5 -1.5
v -1.5 0.5 -1.6
v -1.5 0.5 -1.7
v -1.5 0.5 -1.8
v -1.5 0.6 2
v -1.5 0.6 1.9
v -1.5 0.6 1.8
v -1.5 0.6 1.5
v -1.5 0.6 -1.4
v -1.5 0.6 -1.6
v -1.5 0.6 -1.7
v -1.5 0.6 -1.8
v -1.4 0.4 0.9
v -1.4 0.4 0.7
v -1.4 0.5 0.9
v -1.4 0.5 0.7
v -1.3 0.4 1.2
v -1.3 0.4 0.9
v -1.3 0.4 -0.9
v -1.3 0.4 -1
v -1.3 0.5 1.9
v -1.3 0.5 1.8
v -1.3 0.5 1.2
v -1.3 0.5 0.9
v -1.3 0.5 -0.9
v -1.3 0.5 -1
v -1.3 0.6 1.9
v -1.3 0.6 1.8
v -1.2 0.4 1.3
v -1.2 0.4 1.2
v -1.2 0.4 0.4
v -1.2 0.4 0
v -1.2 0.4 -1
v -1.2 0.4 -1.2
v -1.2 0.5 1.3
v -1.2 0.5 1.2
v -1.2 0.5 0.4
v -1.2 0.5 0
v -1.2 0.5 -1
v -1.2 0.5 -1.2
v -1.2 0.5 -1.6
v -1.2 0.5 -1.7
v -1.2 0.6 -1.6
v -1.2 0.6 -1.7
v -1.1 0.4 0
v -1.1 0.4 -0.2
v -1.1 0.4 -1.2
v -1.1 0.4 -1.3
v -1.1 0.5 0
v -1.1 0.5 -0.2
v -1.1 0.5 -1.2
v -1.1 0.5 -1.3
v -1 0.4 1.4
v -1 0.4 1.3
v -1 0.4 -0.2
v -1 0.4 -0.3
v -1 0.4 -1.3
v -1 0.4 -1.4
v -1 0.5 1.4
v -1 0.5 1.3
v -1 0.5 -0.2
v -1 0.5 -0.3
v -1 0.5 -1.3
v -1 0.5 -1.4
v -1 0.5 -1.6
v -1 0.5 -1.7
v -1 0.5 -1.8
v -1 0.5 -1.9
v -1 0.6 -1.6
v -1 0.6 -1.7
v -1 0.6 -1.8
v -1 0.6 -1.9
v -0.9 0.4 1.5
v -0.9 0.4 1.4
v -0.9 0.5 2
v -0.9 0.5 1.9
v -0.9 0.5 1.5
v -0.9 0.5 1.4
v -0.9 0.5 -1.7
v -0.9 0.5 -1.8
v -0.9 0.6 2
v -0.9 0.6 1.9
v -0.9 0.6 -1.7
v -0.9 0.6 -1.8
v -0.3 0.4 -1.1
v -0.3 0.4 -1.4
v -0.3 0.5 -1.1
v -0.3 0.5 -1.4
v -0.1 0.4 -0.4
v -0.1 0.4 -0.8
v -0.1 0.4 -1
v -0.1 0.4 -1.1
v -0.1 0.4 -1.4
v -0.1 0.4 -1.5
v -0.1 0.5 -0.4
v -0.1 0.5 -0.8
v -0.1 0.5 -1
v -0.1 0.5 -1.1
v -0.1 0.5 -1.4
v -0.1 0.5 -1.5
v 0 0.4 -0.8
v 0 0.4 -1
v 0 0.5 -0.8
v 0 0.5 -1
v 0.2 0.5 1.9
v 0.2 0.5 1.8
v 0.2 0.5 -1.6
v 0.2 0.5 -1.7
v 0.2 0.6 1.9
v 0.2 0.6 1.8
v 0.2 0.6 -1.6
v 0.2 0.6 -1.7
v 0.3 0.4 -0.4
v 0.3 0.4 -0.7
v 0.3 0.5 2.1
v 0.3 0.5 2
v 0.3 0.5 -0.4
v 0.3 0.5 -0.7
v 0.3 0.6 2.1
v 0.3 0.6 2
v 0.4 0.4 1.8
v 0.4 0.4 1.7
v 0.4 0.4 -0.3
v 0.4 0.4 -0.4
v 0.4 0.4 -0.7
v 0.4 0.4 -0.8
v 0.4 0.5 2
v 0.4 0.5 1.9
v 0.4 0.5 1.8
v 0.4 0.5 1.7
v 0.4 0.5 -0.3
v 0.4 0.5 -0.4
v 0.4 0.5 -0.7
v 0.4 0.5 -0.8
v 0.4 0.6 2
v 0.4 0.6 1.9
v 0.5 0.4 1.7
v 0.5 0.4 1.5
v 0.5 0.4 -0.2
v 0.5 0.4 -0.3
v 0.5 0.4 -0.8
v 0.5 0.4 -0.9
v 0.5 0.5 1.7
v 0.5 0.5 1.5
v 0.5 0.5 -0.2
v 0.5 0.5 -0.3
v 0.5 0.5 -0.8
v 0.5 0.5 -0.9
v 0.6 0.4 1.5
v 0.6 0.4 1.4
v 0.6 0.4 -0.9
v 0.6 0.4 -1.1
v 0.6 0.5 1.5
v 0.6 0.5 1.4
v 0.6 0.5 -0.9
v 0.6 0.5 -1.1
v 0.6 0.5 -1.7
v 0.6 0.5 -1.8
v 0.6 0.6 -1.7
v 0.6 0.6 -1.8
v 0.7 0.4 -1.1
v 0.7 0.4 -1.3
v 0.7 0.5 -1.1
v 0.7 0.5 -1.3
v 1 0.4 1.1
v 1 0.4 0.9
v 1 0.4 -1.4
v 1 0.4 -1.5
v 1 0.5 1.1
v 1 0.5 0.9
v 1 0.5 -1.4
v 1 0.5 -1.5
v 1.1 0.4 0.9
v 1.1 0.4 0.8
v 1.1 0.4 -1.3
v 1.1 0.4 -1.4
v 1.1 0.5 0.9
v 1.1 0.5 0.8
v 1.1 0.5 -1.3
v 1.1 0.5 -1.4
v 1.1 0.5 -1.8
v 1.1 0.5 -1.9
v 1.1 0.6 -1.8
v 1.1 0.6 -1.9
v 1.2 0.4 0.8
v 1.2 0.4 0.6
v 1.2 0.4 -1.1
v 1.2 0.4 -1.3
v 1.2 0.5 0.8
v 1.2 0.5 0.6
v 1.2 0.5 -1.1
v 1.2 0.5 -1.3
v 1.3 0.4 -1
v 1.3 0.4 -1.1
v 1.3 0.5 2
v 1.3 0.5 1.9
v 1.3 0.5 -1
v 1.3 0.5 -1.1
v 1.3 0.6 2
v 1.3 0.6 1.9
v 1.4 0.4 0.6
v 1.4 0.4 0.5
v 1.4 0.5 0.6
v 1.4 0.5 0.5
v 1.5 0.4 -0.9
v 1.5 0.4 -1
v 1.5 0.5 1.9
v 1.5 0.5 1.8
v 1.5 0.5 -0.9
v 1.5 0.5 -1
v 1.5 0.6 1.9
v 1.5 0.6 1.8
v 2 0.5 0.0999999
v 2 0.5 -0.9
v 2 0.6 0.0999999
v 2 0.6 -0.9
v 2.1 0 2.1
v 2.1 0 -1.9
v 2.1 0.4 2.1
v 2.1 0.4 1.5
v 2.1 0.4 1
v 2.1 0.4 -1.5
v 2.1 0.4 -1.8
v 2.1 0.4 -1.9
v 2.1 0.5 1
v 2.1 0.5 -1.5
v 2.1 0.6 1.7
v 2.1 0.6 1.5
v 2.1 0.6 1
v 2.1 0.6 -1.5
v 2.1 0.6 -1.8
v 2.1 0.7 2.1
v 2.1 0.7 1.7
v 2.1 0.7 -1.8
v 2.1 0.7 -1.9
v -1.9 0 2.1
v -1.9 0.4 2.1
v -1.9 0.5 2.1
v -1.9 0.7 2.1
v -1.8 0.4 2.1
v -1.8 0.5 2.1
v -1.8 0.7 2.1
v -1.5 0.4 2.1
v -1.5 0.5 2.1
v -1.5 0.6 2.1
v -0.3 0.4 2.1
v -0.3 0.6 2.1
v -0.2 0.4 2.1
v -0.2 0.6 2.1
v 0.3 0.4 2.1
v 0.3 0.5 2.1
v 0.3 0.6 2.1
v 1 0.4 2.1
v 1 0.5 2.1
v 1 0.6 2.1
v 1.1 0.4 2.1
v 1.1 0.6 2.1
v 1.6 0.4 2.1
v 1.6 0.6 2.1
v 1.8 0.6 2.1
v 1.8 0.7 2.1
v 2.1 0 2.1
v 2.1 0.4 2.1
v 2.1 0.7 2.1
v -1.8 0.5 2
v -1.8 0.6 2
v -1.5 0.5 2
v -1.5 0.6 2
v 0.3 0.5 2
v 0.3 0.6 2
v 0.4 0.5 2
v 0.4 0.6 2
v -1.5 0.5 1.9
v -1.5 0.6 1.9
v -1.4 0.5 1.9
v -1.4 0.6 1.9
v 1.3 0.5 1.9
v 1.3 0.6 1.9
v 1.5 0.5 1.9
v 1.5 0.6 1.9
v -1.7 0.5 1.8
v -1.7 0.6 1.8
v -1.6 0.5 1.8
v -1.6 0.6 1.8
v 1.5 0.5 1.8
v 1.5 0.6 1.8
v 1.6 0.5 1.8
v 1.6 0.6 1.8
v 0.4 0.4 1.7
v 0.4 0.5 1.7
v 0.5 0.4 1.7
v 0.5 0.5 1.7
v 0.5 0.4 1.5
v 0.5 0.5 1.5
v 0.6 0.4 1.5
v 0.6 0.5 1.5
v 0.9 0.4 1.5
v 0.9 0.5 1.5
v 1 0.4 1.5
v 1 0.5 1.5
v -0.4 0.4 1.4
v -0.4 0.5 1.4
v -0.2 0.4 1.4
v -0.2 0.5 1.4
v 0.6 0.4 1.4
v 0.6 0.5 1.4
v 0.9 0.4 1.4
v 0.9 0.5 1.4
v -0.5 0.4 1.3
v -0.5 0.5 1.3
v -0.4 0.4 1.3
v -0.4 0.5 1.3
v -0.7 0.4 1.2
v -0.7 0.5 1.2
v -0.5 0.4 1.2
v -0.5 0.5 1.2
v -1.8 0.5 1.1
v -1.8 0.6 1.1
v -1.7 0.5 1.1
v -1.7 0.6 1.1
v -0.8 0.4 1.1
v -0.8 0.5 1.1
v -0.7 0.4 1.1
v -0.7 0.5 1.1
v 1.9 0.5 1.1
v 1.9 0.6 1.1
v 2 0.5 1.1
v 2 0.6 1.1
v -1.9 0.5 1
v -1.9 0.6 1
v -1.8 0.5 1
v -1.8 0.6 1
v -0.9 0.4 1
v -0.9 0.5 1
v -0.8 0.4 1
v -0.8 0.5 1
v 1 0.4 0.9
v 1 0.5 0.9
v 1.1 0.4 0.9
v 1.1 0.5 0.9
v -1.1 0.4 0.8
v -1.1 0.5 0.8
v -0.9 0.4 0.8
v -0.9 0.5 0.8
v 1.1 0.4 0.8
v 1.1 0.5 0.8
v 1.2 0.4 0.8
v 1.2 0.5 0.8
v -1.4 0.4 0.7
v -1.4 0.5 0.7
v -1.1 0.4 0.7
v -1.1 0.5 0.7
v 1.2 0.4 0.6
v 1.2 0.5 0.6
v 1.4 0.4 0.6
v 1.4 0.5 0.6
v 1.4 0.4 0.5
v 1.4 0.5 0.5
v 1.5 0.4 0.5
v 1.5 0.5 0.5
v -1.8 0.5 0.4
v -1.8 0.6 0.4
v -1.7 0.5 0.4
v -1.7 0.6 0.4
v -1.7 0.7 0.4
v -1.6 0.5 0.4
v -1.6 0.7 0.4
v -1.9 0.5 0.3
v -1.9 0.6 0.3
v -1.8 0.5 0.3
v -1.8 0.6 0.3
v 1.9 0.5 0.0999999
v 1.9 0.6 0.0999999
v 2 0.5 0.0999999
v 2 0.6 0.0999999
v -1.2 0.4 0
v -1.2 0.5 0
v -1.1 0.4 0
v -1.1 0.5 0
v 1.8 0.5 -0.0999999
v 1.8 0.6 -0.0999999
v 1.9 0.5 -0.0999999
v 1.9 0.6 -0.0999999
v -1.1 0.4 -0.2
v -1.1 0.5 -0.2
v -1 0.4 -0.2
v -1 0.5 -0.2
v -1 0.4 -0.3
v -1 0.5 -0.3
v -0.8 0.4 -0.3
v -0.8 0.5 -0.3
v 1.7 0.5 -0.4
v 1.7 0.6 -0.4
v 1.8 0.5 -0.4
v 1.8 0.6 -0.4
v 0.8 0.4 -0.5
v 0.8 0.5 -0.5
v 1.1 0.4 -0.5
v 1.1 0.5 -0.5
v 0.3 0.4 -0.7
v 0.3 0.5 -0.7
v 0.4 0.4 -0.7
v 0.4 0.5 -0.7
v -0.1 0.4 -0.8
v -0.1 0.5 -0.8
v 0 0.4 -0.8
v 0 0.5 -0.8
v 0.4 0.4 -0.8
v 0.4 0.5 -0.8
v 0.5 0.4 -0.8
v 0.5 0.5 -0.8
v -1.9 0.5 -0.9
v -1.9 0.6 -0.9
v -1.8 0.5 -0.9
v -1.8 0.6 -0.9
v -1.6 0.4 -0.9
v -1.6 0.5 -0.9
v -1.5 0.4 -0.9
v -1.5 0.5 -0.9
v 0.5 0.4 -0.9
v 0.5 0.5 -0.9
v 0.6 0.4 -0.9
v 0.6 0.5 -0.9
v -1.3 0.4 -1
v -1.3 0.5 -1
v -1.2 0.4 -1
v -1.2 0.5 -1
v 1.6 0.4 -1
v 1.6 0.5 -1
v 1.7 0.4 -1
v 1.7 0.5 -1
v -1.7 0.4 -1.1
v -1.7 0.5 -1.1
v -1.6 0.4 -1.1
v -1.6 0.5 -1.1
v 0.6 0.4 -1.1
v 0.6 0.5 -1.1
v 0.7 0.4 -1.1
v 0.7 0.5 -1.1
v 0.9 0.4 -1.1
v 0.9 0.5 -1.1
v 1 0.4 -1.1
v 1 0.5 -1.1
v 1.5 0.4 -1.1
v 1.5 0.5 -1.1
v 1.6 0.4 -1.1
v 1.6 0.5 -1.1
v -1.2 0.4 -1.2
v -1.2 0.5 -1.2
v -1.1 0.4 -1.2
v -1.1 0.5 -1.2
v 0.4 0.4 -1.2
v 0.4 0.5 -1.2
v 0.5 0.4 -1.2
v 0.5 0.5 -1.2
v -1.1 0.4 -1.3
v -1.1 0.5 -1.3
v -1 0.4 -1.3
v -1 0.5 -1.3
v -0.6 0.4 -1.3
v -0.6 0.5 -1.3
v -0.5 0.4 -1.3
v -0.5 0.5 -1.3
v 0.3 0.4 -1.3
v 0.3 0.5 -1.3
v 0.4 0.4 -1.3
v 0.4 0.5 -1.3
v 0.7 0.4 -1.3
v 0.7 0.5 -1.3
v 0.9 0.4 -1.3
v 0.9 0.5 -1.3
v 1.4 0.4 -1.3
v 1.4 0.5 -1.3
v 1.5 0.4 -1.3
v 1.5 0.5 -1.3
v -1.8 0.5 -1.4
v -1.8 0.6 -1.4
v -1.6 0.5 -1.4
v -1.5 0.5 -1.4
v -1.5 0.6 -1.4
v -1 0.4 -1.4
v -1 0.5 -1.4
v -0.6 0.4 -1.4
v -0.6 0.5 -1.4
v -0.3 0.4 -1.4
v -0.3 0.5 -1.4
v -0.1 0.4 -1.4
v -0.1 0.5 -1.4
v 0.1 0.4 -1.4
v 0.1 0.5 -1.4
v 0.3 0.4 -1.4
v 0.3 0.5 -1.4
v 1.2 0.4 -1.4
v 1.2 0.5 -1.4
v 1.4 0.4 -1.4
v 1.4 0.5 -1.4
v -0.1 0.4 -1.5
v -0.1 0.5 -1.5
v 0.1 0.4 -1.5
v 0.1 0.5 -1.5
v 1 0.4 -1.5
v 1 0.5 -1.5
v 1.2 0.4 -1.5
v 1.2 0.5 -1.5
v 2 0.5 -1.5
v 2 0.6 -1.5
v 2.1 0.5 -1.5
v 2.1 0.6 -1.5
v -1.9 0.5 -1.6
v -1.9 0.6 -1.6
v -1.8 0.5 -1.6
v -1.8 0.6 -1.6
v -1.7 0.5 -1.6
v -1.7 0.6 -1.6
v -1.5 0.5 -1.6
v -1.5 0.6 -1.6
v -1.3 0.5 -1.6
v -1.2 0.5 -1.6
v -1.2 0.6 -1.6
v -1.1 0.5 -1.6
v -1.1 0.6 -1.6
v -1 0.5 -1.6
v -1 0.6 -1.6
v -0.1 0.5 -1.6
v -0.1 0.6 -1.6
v 0.2 0.5 -1.6
v 0.2 0.6 -1.6
v -1.2 0.5 -1.7
v -1.2 0.6 -1.7
v -1.1 0.5 -1.7
v -1.1 0.6 -1.7
v -1 0.5 -1.7
v -1 0.6 -1.7
v -0.9 0.5 -1.7
v -0.9 0.6 -1.7
v 0.2 0.5 -1.7
v 0.2 0.6 -1.7
v 0.4 0.5 -1.7
v 0.6 0.5 -1.7
v 0.6 0.6 -1.7
v 1.8 0.5 -1.7
v 1.8 0.6 -1.7
v 2 0.5 -1.7
v 2 0.6 -1.7
v -1.7 0.5 -1.8
v -1.7 0.6 -1.8
v -1.6 0.5 -1.8
v -1.6 0.6 -1.8
v -1.5 0.5 -1.8
v -1.5 0.6 -1.8
v -1.4 0.5 -1.8
v -1.4 0.6 -1.8
v -0.2 0.5 -1.8
v -0.2 0.6 -1.8
v -0.1 0.5 -1.8
v -0.1 0.6 -1.8
v 0.6 0.5 -1.8
v 0.6 0.6 -1.8
v 0.7 0.5 -1.8
v 0.7 0.6 -1.8
v 0.8 0.5 -1.8
v 1.1 0.5 -1.8
v 1.1 0.6 -1.8
v 1.7 0.5 -1.8
v 1.7 0.6 -1.8
v 1.8 0.5 -1.8
v 1.8 0.6 -1.8
v 1.9 0.6 -1.8
v 1.9 0.7 -1.8
v 2.1 0.6 -1.8
v 2.1 0.7 -1.8
v -1.5 0.5 2
v -1.5 0.6 2
v -1.4 0.5 2
v -1.4 0.6 2
v -0.9 0.5 2
v -0.9 0.6 2
v -0.4 0.5 2
v -0.3 0.5 2
v -0.3 0.6 2
v 1.3 0.5 2
v 1.3 0.6 2
v 1.5 0.5 2
v 1.5 0.6 2
v 1.8 0.6 2
v 1.8 0.7 2
v 1.9 0.6 2
v 1.9 0.7 2
v -1.7 0.5 1.9
v -1.7 0.6 1.9
v -1.6 0.5 1.9
v -1.6 0.6 1.9
v -1.3 0.5 1.9
v -1.3 0.6 1.9
v -1.1 0.5 1.9
v -1 0.5 1.9
v -1 0.6 1.9
v -0.9 0.5 1.9
v -0.9 0.6 1.9
v -0.3 0.5 1.9
v -0.3 0.6 1.9
v -0.1 0.5 1.9
v -0.1 0.6 1.9
v 0.2 0.5 1.9
v 0.2 0.6 1.9
v 0.4 0.5 1.9
v 0.4 0.6 1.9
v 1 0.5 1.9
v 1 0.6 1.9
v 1.1 0.5 1.9
v 1.2 0.5 1.9
v 1.2 0.6 1.9
v 1.5 0.5 1.9
v 1.5 0.6 1.9
v 1.6 0.5 1.9
v 1.6 0.6 1.9
v 1.9 0.6 1.9
v 1.9 0.7 1.9
v 2 0.6 1.9
v 2 0.7 1.9
v -1.5 0.5 1.8
v -1.5 0.6 1.8
v -1.3 0.5 1.8
v -1.3 0.6 1.8
v -0.1 0.5 1.8
v -0.1 0.6 1.8
v 0.2 0.5 1.8
v 0.2 0.6 1.8
v 0.4 0.4 1.8
v 0.4 0.5 1.8
v 0.9 0.4 1.8
v 0.9 0.5 1.8
v 1.2 0.5 1.8
v 1.2 0.6 1.8
v 1.3 0.5 1.8
v 1.4 0.5 1.8
v 1.4 0.6 1.8
v 0.9 0.4 1.7
v 0.9 0.5 1.7
v 1 0.4 1.7
v 1 0.5 1.7
v 1.4 0.5 1.7
v 1.4 0.6 1.7
v 1.6 0.5 1.7
v 1.6 0.6 1.7
v 2 0.6 1.7
v 2 0.7 1.7
v 2.1 0.6 1.7
v 2.1 0.7 1.7
v -1.7 0.5 1.5
v -1.7 0.6 1.5
v -1.5 0.5 1.5
v -1.5 0.6 1.5
v -0.9 0.4 1.5
v -0.9 0.5 1.5
v -0.2 0.4 1.5
v -0.2 0.5 1.5
v 1.6 0.5 1.5
v 1.6 0.6 1.5
v 1.7 0.5 1.5
v 1.7 0.6 1.5
v -1.9 0.5 1.4
v -1.9 0.7 1.4
v -1.8 0.5 1.4
v -1.8 0.6 1.4
v -1.8 0.7 1.4
v -1 0.4 1.4
v -1 0.5 1.4
v -0.9 0.4 1.4
v -0.9 0.5 1.4
v 1.7 0.5 1.4
v 1.7 0.6 1.4
v 1.8 0.5 1.4
v 1.8 0.6 1.4
v 2 0.5 1.4
v 2 0.6 1.4
v -1.2 0.4 1.3
v -1.2 0.5 1.3
v -1 0.4 1.3
v -1 0.5 1.3
v -1.8 0.5 1.2
v -1.8 0.6 1.2
v -1.7 0.5 1.2
v -1.7 0.6 1.2
v -1.3 0.4 1.2
v -1.3 0.5 1.2
v -1.2 0.4 1.2
v -1.2 0.5 1.2
v 1 0.4 1.1
v 1 0.5 1.1
v 1.3 0.4 1.1
v 1.3 0.5 1.1
v 1.3 0.4 1
v 1.3 0.5 1
v 1.4 0.4 1
v 1.4 0.5 1
v 1.9 0.5 1
v 1.9 0.6 1
v 2.1 0.5 1
v 2.1 0.6 1
v -1.8 0.5 0.9
v -1.8 0.6 0.9
v -1.7 0.5 0.9
v -1.7 0.6 0.9
v -1.4 0.4 0.9
v -1.4 0.5 0.9
v -1.3 0.4 0.9
v -1.3 0.5 0.9
v 1.4 0.4 0.8
v 1.4 0.5 0.8
v 1.5 0.4 0.8
v 1.5 0.5 0.8
v -1.9 0.5 0.6
v -1.9 0.6 0.6
v -1.8 0.5 0.6
v -1.8 0.6 0.6
v -1.2 0.4 0.4
v -1.2 0.5 0.4
v -1.1 0.4 0.4
v -1.1 0.5 0.4
v -1.7 0.6 0.3
v -1.7 0.7 0.3
v -1.6 0.6 0.3
v -1.6 0.7 0.3
v -1.1 0.4 0.3
v -1.1 0.5 0.3
v -0.9 0.4 0.3
v -0.9 0.5 0.3
v -1.9 0.5 0.0999999
v -1.9 0.6 0.0999999
v -1.8 0.5 0.0999999
v -1.8 0.6 0.0999999
v -1.7 0.5 0.0999999
v -1.7 0.6 0.0999999
v -1.6 0.5 0.0999999
v -1.6 0.6 0.0999999
v -1.8 0.5 -0.0999999
v -1.8 0.6 -0.0999999
v -1.7 0.5 -0.0999999
v -1.7 0.6 -0.0999999
v -0.9 0.4 -0.2
v -0.9 0.5 -0.2
v -0.8 0.4 -0.2
v -0.8 0.5 -0.2
v 0.5 0.4 -0.2
v 0.5 0.5 -0.2
v 0.9 0.4 -0.2
v 0.9 0.5 -0.2
v 0.4 0.4 -0.3
v 0.4 0.5 -0.3
v 0.5 0.4 -0.3
v 0.5 0.5 -0.3
v 0.9 0.4 -0.3
v 0.9 0.5 -0.3
v 1.1 0.4 -0.3
v 1.1 0.5 -0.3
v -0.1 0.4 -0.4
v -0.1 0.5 -0.4
v 0 0.4 -0.4
v 0 0.5 -0.4
v 0.3 0.4 -0.4
v 0.3 0.5 -0.4
v 0.4 0.4 -0.4
v 0.4 0.5 -0.4
v -1.6 0.4 -0.5
v -1.6 0.5 -0.5
v -1.5 0.4 -0.5
v -1.5 0.5 -0.5
v 0 0.4 -0.5
v 0 0.5 -0.5
v 0.1 0.4 -0.5
v 0.1 0.5 -0.5
v -1.7 0.4 -0.6
v -1.7 0.5 -0.6
v -1.6 0.4 -0.6
v -1.6 0.5 -0.6
v 0.1 0.4 -0.7
v 0.1 0.5 -0.7
v 0.2 0.4 -0.7
v 0.2 0.5 -0.7
v 0.8 0.4 -0.7
v 0.8 0.5 -0.7
v 0.9 0.4 -0.7
v 0.9 0.5 -0.7
v 1.7 0.5 -0.7
v 1.7 0.6 -0.7
v 1.9 0.5 -0.7
v 1.9 0.6 -0.7
v 0.2 0.4 -0.8
v 0.2 0.5 -0.8
v 0.3 0.4 -0.8
v 0.3 0.5 -0.8
v 0.9 0.4 -0.8
v 0.9 0.5 -0.8
v 1 0.4 -0.8
v 1 0.5 -0.8
v -1.3 0.4 -0.9
v -1.3 0.5 -0.9
v -1 0.4 -0.9
v -1 0.5 -0.9
v 1.5 0.4 -0.9
v 1.5 0.5 -0.9
v 1.7 0.4 -0.9
v 1.7 0.5 -0.9
v 1.9 0.5 -0.9
v 1.9 0.6 -0.9
v 2 0.5 -0.9
v 2 0.6 -0.9
v -0.1 0.4 -1
v -0.1 0.5 -1
v 0 0.4 -1
v 0 0.5 -1
v 0.3 0.4 -1
v 0.3 0.5 -1
v 0.5 0.4 -1
v 0.5 0.5 -1
v 1.3 0.4 -1
v 1.3 0.5 -1
v 1.5 0.4 -1
v 1.5 0.5 -1
v -1 0.4 -1.1
v -1 0.5 -1.1
v -0.9 0.4 -1.1
v -0.9 0.5 -1.1
v -0.3 0.4 -1.1
v -0.3 0.5 -1.1
v -0.1 0.4 -1.1
v -0.1 0.5 -1.1
v 1.2 0.4 -1.1
v 1.2 0.5 -1.1
v 1.3 0.4 -1.1
v 1.3 0.5 -1.1
v -1.9 0.5 -1.2
v -1.9 0.6 -1.2
v -1.8 0.5 -1.2
v -1.8 0.6 -1.2
v -0.9 0.4 -1.2
v -0.9 0.5 -1.2
v -0.5 0.4 -1.2
v -0.5 0.5 -1.2
v 1.1 0.4 -1.3
v 1.1 0.5 -1.3
v 1.2 0.4 -1.3
v 1.2 0.5 -1.3
v 1 0.4 -1.4
v 1 0.5 -1.4
v 1.1 0.4 -1.4
v 1.1 0.5 -1.4
v -1.8 0.5 -1.5
v -1.8 0.6 -1.5
v -1.6 0.5 -1.5
v -1.6 0.6 -1.5
v -1.5 0.5 -1.7
v -1.5 0.6 -1.7
v -1.4 0.5 -1.7
v -1.4 0.6 -1.7
v -1 0.5 -1.8
v -1 0.6 -1.8
v -0.9 0.5 -1.8
v -0.9 0.6 -1.8
v -1.9 0 -1.9
v -1.9 0.4 -1.9
v -1.9 0.6 -1.9
v -1.6 0.4 -1.9
v -1.6 0.6 -1.9
v -1 0.4 -1.9
v -1 0.5 -1.9
v -1 0.6 -1.9
v -0.2 0.4 -1.9
v -0.2 0.5 -1.9
v -0.2 0.6 -1.9
v 0.5 0.4 -1.9
v 0.5 0.6 -1.9
v 0.7 0.4 -1.9
v 0.7 0.6 -1.9
v 1.1 0.4 -1.9
v 1.1 0.5 -1.9
v 1.1 0.6 -1.9
v 1.7 0.4 -1.9
v 1.7 0.5 -1.9
v 1.7 0.6 -1.9
v 1.9 0.4 -1.9
v 1.9 0.6 -1.9
v 1.9 0.7 -1.9
v 2.1 0 -1.9
v 2.1 0.4 -1.9
v 2.1 0.7 -1.9
v -1.9 0 2.1
v 2.1 0 2.1
v -1.9 0 -1.9
v 2.1 0 -1.9
v 0.4 0.4 1.8
v 0.9 0.4 1.8
v 0.4 0.4 1.7
v 0.5 0.4 1.7
v 0.9 0.4 1.7
v 1 0.4 1.7
v -0.9 0.4 1.5
v -0.2 0.4 1.5
v 0.5 0.4 1.5
v 0.6 0.4 1.5
v 0.9 0.4 1.5
v 1 0.4 1.5
v -1 0.4 1.4
v -0.9 0.4 1.4
v -0.4 0.4 1.4
v -0.2 0.4 1.4
v 0.6 0.4 1.4
v 0.9 0.4 1.4
v -1.2 0.4 1.3
v -1 0.4 1.3
v -0.5 0.4 1.3
v -0.4 0.4 1.3
v -1.3 0.4 1.2
v -1.2 0.4 1.2
v -0.7 0.4 1.2
v -0.5 0.4 1.2
v -0.8 0.4 1.1
v -0.7 0.4 1.1
v 1 0.4 1.1
v 1.3 0.4 1.1
v -0.9 0.4 1
v -0.8 0.4 1
v 1.3 0.4 1
v 1.4 0.4 1
v -1.4 0.4 0.9
v -1.3 0.4 0.9
v 1 0.4 0.9
v 1.1 0.4 0.9
v -1.1 0.4 0.8
v -0.9 0.4 0.8
v 1.1 0.4 0.8
v 1.2 0.4 0.8
v 1.4 0.4 0.8
v 1.5 0.4 0.8
v -1.4 0.4 0.7
v -1.1 0.4 0.7
v 1.2 0.4 0.6
v 1.4 0.4 0.6
v 1.4 0.4 0.5
v 1.5 0.4 0.5
v -1.2 0.4 0.4
v -1.1 0.4 0.4
v -1.1 0.4 0.3
v -0.9 0.4 0.3
v -1.2 0.4 0
v -1.1 0.4 0
v -1.1 0.4 -0.2
v -1 0.4 -0.2
v -0.9 0.4 -0.2
v -0.8 0.4 -0.2
v 0.5 0.4 -0.2
v 0.9 0.4 -0.2
v -1 0.4 -0.3
v -0.8 0.4 -0.3
v 0.4 0.4 -0.3
v 0.5 0.4 -0.3
v 0.9 0.4 -0.3
v 1.1 0.4 -0.3
v -0.1 0.4 -0.4
v 0 0.4 -0.4
v 0.3 0.4 -0.4
v 0.4 0.4 -0.4
v -1.6 0.4 -0.5
v -1.5 0.4 -0.5
v 0 0.4 -0.5
v 0.1 0.4 -0.5
v 0.8 0.4 -0.5
v 1.1 0.4 -0.5
v -1.7 0.4 -0.6
v -1.6 0.4 -0.6
v 0.1 0.4 -0.7
v 0.2 0.4 -0.7
v 0.3 0.4 -0.7
v 0.4 0.4 -0.7
v 0.8 0.4 -0.7
v 0.9 0.4 -0.7
v -0.1 0.4 -0.8
v 0 0.4 -0.8
v 0.2 0.4 -0.8
v 0.3 0.4 -0.8
v 0.4 0.4 -0.8
v 0.5 0.4 -0.8
v 0.9 0.4 -0.8
v 1 0.4 -0.8
v -1.6 0.4 -0.9
v -1.5 0.4 -0.9
v -1.3 0.4 -0.9
v -1 0.4 -0.9
v 0.5 0.4 -0.9
v 0.6 0.4 -0.9
v 1.5 0.4 -0.9
v 1.7 0.4 -0.9
v -1.3 0.4 -1
v -1.2 0.4 -1
v -0.1 0.4 -1
v 0 0.4 -1
v 0.3 0.4 -1
v 0.5 0.4 -1
v 1.3 0.4 -1
v 1.5 0.4 -1
v 1.6 0.4 -1
v 1.7 0.4 -1
v -1.7 0.4 -1.1
v -1.6 0.4 -1.1
v -1 0.4 -1.1
v -0.9 0.4 -1.1
v -0.3 0.4 -1.1
v -0.1 0.4 -1.1
v 0.6 0.4 -1.1
v 0.7 0.4 -1.1
v 0.9 0.4 -1.1
v 1 0.4 -1.1
v 1.2 0.4 -1.1
v 1.3 0.4 -1.1
v 1.5 0.4 -1.1
v 1.6 0.4 -1.1
v -1.2 0.4 -1.2
v -1.1 0.4 -1.2
v -0.9 0.4 -1.2
v -0.5 0.4 -1.2
v 0.4 0.4 -1.2
v 0.5 0.4 -1.2
v -1.1 0.4 -1.3
v -1 0.4 -1.3
v -0.6 0.4 -1.3
v -0.5 0.4 -1.3
v 0.3 0.4 -1.3
v 0.4 0.4 -1.3
v 0.7 0.4 -1.3
v 0.9 0.4 -1.3
v 1.1 0.4 -1.3
v 1.2 0.4 -1.3
v 1.4 0.4 -1.3
v 1.5 0.4 -1.3
v -1 0.4 -1.4
v -0.6 0.4 -1.4
v -0.3 0.4 -1.4
v -0.1 0.4 -1.4
v 0.1 0.4 -1.4
v 0.3 0.4 -1.4
v 1 0.4 -1.4
v 1.1 0.4 -1.4
v 1.2 0.4 -1.4
v 1.4 0.4 -1.4
v -0.1 0.4 -1.5
v 0.1 0.4 -1.5
v 1 0.4 -1.5
v 1.2 0.4 -1.5
v -1.8 0.5 2.1
v -1.5 0.5 2.1
v 0.3 0.5 2.1
v 1 0.5 2.1
v -1.8 0.5 2
v -1.5 0.5 2
v -1.4 0.5 2
v -0.9 0.5 2
v -0.4 0.5 2
v -0.3 0.5 2
v 0.3 0.5 2
v 0.4 0.5 2
v 0.5 0.5 2
v 0.9 0.5 2
v 1.3 0.5 2
v 1.5 0.5 2
v -1.7 0.5 1.9
v -1.6 0.5 1.9
v -1.5 0.5 1.9
v -1.4 0.5 1.9
v -1.3 0.5 1.9
v -1.1 0.5 1.9
v -1 0.5 1.9
v -0.9 0.5 1.9
v -0.4 0.5 1.9
v -0.3 0.5 1.9
v -0.1 0.5 1.9
v 0.2 0.5 1.9
v 0.4 0.5 1.9
v 0.5 0.5 1.9
v 0.9 0.5 1.9
v 1 0.5 1.9
v 1.1 0.5 1.9
v 1.2 0.5 1.9
v 1.3 0.5 1.9
v 1.5 0.5 1.9
v 1.6 0.5 1.9
v -1.7 0.5 1.8
v -1.6 0.5 1.8
v -1.5 0.5 1.8
v -1.3 0.5 1.8
v -1.1 0.5 1.8
v -0.3 0.5 1.8
v -0.1 0.5 1.8
v 0.2 0.5 1.8
v 0.3 0.5 1.8
v 0.4 0.5 1.8
v 0.9 0.5 1.8
v 1.1 0.5 1.8
v 1.2 0.5 1.8
v 1.3 0.5 1.8
v 1.4 0.5 1.8
v 1.5 0.5 1.8
v 1.6 0.5 1.8
v -0.1 0.5 1.7
v 0.3 0.5 1.7
v 0.4 0.5 1.7
v 0.5 0.5 1.7
v 0.9 0.5 1.7
v 1 0.5 1.7
v 1.3 0.5 1.7
v 1.4 0.5 1.7
v 1.6 0.5 1.7
v -1.4 0.5 1.6
v -1.3 0.5 1.6
v 1.4 0.5 1.6
v 1.6 0.5 1.6
v -1.7 0.5 1.5
v -1.5 0.5 1.5
v -0.9 0.5 1.5
v -0.2 0.5 1.5
v 0.5 0.5 1.5
v 0.6 0.5 1.5
v 0.9 0.5 1.5
v 1 0.5 1.5
v 1.6 0.5 1.5
v 1.7 0.5 1.5
v -1.9 0.5 1.4
v -1.8 0.5 1.4
v -1.6 0.5 1.4
v -1.4 0.5 1.4
v -1 0.5 1.4
v -0.9 0.5 1.4
v -0.4 0.5 1.4
v -0.2 0.5 1.4
v 0.6 0.5 1.4
v 0.9 0.5 1.4
v 1.7 0.5 1.4
v 1.8 0.5 1.4
v 2 0.5 1.4
v -1.7 0.5 1.3
v -1.6 0.5 1.3
v -1.2 0.5 1.3
v -1 0.5 1.3
v -0.5 0.5 1.3
v -0.4 0.5 1.3
v 1.7 0.5 1.3
v 1.8 0.5 1.3
v -1.8 0.5 1.2
v -1.7 0.5 1.2
v -1.3 0.5 1.2
v -1.2 0.5 1.2
v -0.7 0.5 1.2
v -0.5 0.5 1.2
v -1.8 0.5 1.1
v -1.7 0.5 1.1
v -0.8 0.5 1.1
v -0.7 0.5 1.1
v 1 0.5 1.1
v 1.3 0.5 1.1
v 1.9 0.5 1.1
v 2 0.5 1.1
v -1.9 0.5 1
v -1.8 0.5 1
v -0.9 0.5 1
v -0.8 0.5 1
v 1.3 0.5 1
v 1.4 0.5 1
v 1.8 0.5 1
v 1.9 0.5 1
v 2.1 0.5 1
v -1.8 0.5 0.9
v -1.7 0.5 0.9
v -1.4 0.5 0.9
v -1.3 0.5 0.9
v 1 0.5 0.9
v 1.1 0.5 0.9
v -1.1 0.5 0.8
v -0.9 0.5 0.8
v 1.1 0.5 0.8
v 1.2 0.5 0.8
v 1.4 0.5 0.8
v 1.5 0.5 0.8
v 1.9 0.5 0.8
v 2 0.5 0.8
v -1.4 0.5 0.7
v -1.1 0.5 0.7
v -1.9 0.5 0.6
v -1.8 0.5 0.6
v 1.2 0.5 0.6
v 1.4 0.5 0.6
v -1.8 0.5 0.5
v -1.7 0.5 0.5
v 1.4 0.5 0.5
v 1.5 0.5 0.5
v -1.8 0.5 0.4
v -1.7 0.5 0.4
v -1.6 0.5 0.4
v -1.2 0.5 0.4
v -1.1 0.5 0.4
v -1.9 0.5 0.3
v -1.8 0.5 0.3
v -1.6 0.5 0.3
v -1.1 0.5 0.3
v -0.9 0.5 0.3
v 1.9 0.5 0.3
v 2 0.5 0.3
v -1.9 0.5 0.0999999
v -1.8 0.5 0.0999999
v -1.7 0.5 0.0999999
v -1.6 0.5 0.0999999
v 1.8 0.5 0.0999999
v 1.9 0.5 0.0999999
v 2 0.5 0.0999999
v -1.7 0.5 0
v -1.6 0.5 0
v -1.2 0.5 0
v -1.1 0.5 0
v -1.8 0.5 -0.0999999
v -1.7 0.5 -0.0999999
v 1.8 0.5 -0.0999999
v 1.9 0.5 -0.0999999
v -1.9 0.5 -0.2
v -1.8 0.5 -0.2
v -1.1 0.5 -0.2
v -1 0.5 -0.2
v -0.9 0.5 -0.2
v -0.8 0.5 -0.2
v 0.5 0.5 -0.2
v 0.9 0.5 -0.2
v 1.7 0.5 -0.2
v 1.8 0.5 -0.2
v -1.8 0.5 -0.3
v -1.7 0.5 -0.3
v -1 0.5 -0.3
v -0.8 0.5 -0.3
v 0.4 0.5 -0.3
v 0.5 0.5 -0.3
v 0.9 0.5 -0.3
v 1.1 0.5 -0.3
v -0.1 0.5 -0.4
v 0 0.5 -0.4
v 0.3 0.5 -0.4
v 0.4 0.5 -0.4
v 1.7 0.5 -0.4
v 1.8 0.5 -0.4
v -1.6 0.5 -0.5
v -1.5 0.5 -0.5
v 0 0.5 -0.5
v 0.1 0.5 -0.5
v 0.8 0.5 -0.5
v 1.1 0.5 -0.5
v -1.7 0.5 -0.6
v -1.6 0.5 -0.6
v 0.1 0.5 -0.7
v 0.2 0.5 -0.7
v 0.3 0.5 -0.7
v 0.4 0.5 -0.7
v 0.8 0.5 -0.7
v 0.9 0.5 -0.7
v 1.7 0.5 -0.7
v 1.9 0.5 -0.7
v -1.9 0.5 -0.8
v -1.8 0.5 -0.8
v -0.1 0.5 -0.8
v 0 0.5 -0.8
v 0.2 0.5 -0.8
v 0.3 0.5 -0.8
v 0.4 0.5 -0.8
v 0.5 0.5 -0.8
v 0.9 0.5 -0.8
v 1 0.5 -0.8
v 1.7 0.5 -0.8
v 1.8 0.5 -0.8
v -1.9 0.5 -0.9
v -1.8 0.5 -0.9
v -1.6 0.5 -0.9
v -1.5 0.5 -0.9
v -1.3 0.5 -0.9
v -1 0.5 -0.9
v 0.5 0.5 -0.9
v 0.6 0.5 -0.9
v 1.5 0.5 -0.9
v 1.7 0.5 -0.9
v 1.8 0.5 -0.9
v 1.9 0.5 -0.9
v 2 0.5 -0.9
v -1.3 0.5 -1
v -1.2 0.5 -1
v -0.1 0.5 -1
v 0 0.5 -1
v 0.3 0.5 -1
v 0.5 0.5 -1
v 1.3 0.5 -1
v 1.5 0.5 -1
v 1.6 0.5 -1
v 1.7 0.5 -1
v -1.8 0.5 -1.1
v -1.7 0.5 -1.1
v -1.6 0.5 -1.1
v -1 0.5 -1.1
v -0.9 0.5 -1.1
v -0.3 0.5 -1.1
v -0.1 0.5 -1.1
v 0.6 0.5 -1.1
v 0.7 0.5 -1.1
v 0.9 0.5 -1.1
v 1 0.5 -1.1
v 1.2 0.5 -1.1
v 1.3 0.5 -1.1
v 1.5 0.5 -1.1
v 1.6 0.5 -1.1
v -1.9 0.5 -1.2
v -1.8 0.5 -1.2
v -1.2 0.5 -1.2
v -1.1 0.5 -1.2
v -0.9 0.5 -1.2
v -0.5 0.5 -1.2
v 0.4 0.5 -1.2
v 0.5 0.5 -1.2
v 1.8 0.5 -1.2
v 1.9 0.5 -1.2
v -1.7 0.5 -1.3
v -1.6 0.5 -1.3
v -1.1 0.5 -1.3
v -1 0.5 -1.3
v -0.6 0.5 -1.3
v -0.5 0.5 -1.3
v 0.3 0.5 -1.3
v 0.4 0.5 -1.3
v 0.7 0.5 -1.3
v 0.9 0.5 -1.3
v 1.1 0.5 -1.3
v 1.2 0.5 -1.3
v 1.4 0.5 -1.3
v 1.5 0.5 -1.3
v 1.7 0.5 -1.3
v 1.8 0.5 -1.3
v -1.8 0.5 -1.4
v -1.6 0.5 -1.4
v -1.5 0.5 -1.4
v -1 0.5 -1.4
v -0.6 0.5 -1.4
v -0.3 0.5 -1.4
v -0.1 0.5 -1.4
v 0.1 0.5 -1.4
v 0.3 0.5 -1.4
v 1 0.5 -1.4
v 1.1 0.5 -1.4
v 1.2 0.5 -1.4
v 1.4 0.5 -1.4
v 1.6 0.5 -1.4
v 1.7 0.5 -1.4
v -1.8 0.5 -1.5
v -1.6 0.5 -1.5
v -1.5 0.5 -1.5
v -1.3 0.5 -1.5
v -0.1 0.5 -1.5
v 0.1 0.5 -1.5
v 1 0.5 -1.5
v 1.2 0.5 -1.5
v 2 0.5 -1.5
v 2.1 0.5 -1.5
v -1.9 0.5 -1.6
v -1.8 0.5 -1.6
v -1.7 0.5 -1.6
v -1.5 0.5 -1.6
v -1.3 0.5 -1.6
v -1.2 0.5 -1.6
v -1.1 0.5 -1.6
v -1 0.5 -1.6
v -0.2 0.5 -1.6
v -0.1 0.5 -1.6
v 0.2 0.5 -1.6
v 0.4 0.5 -1.6
v 1.5 0.5 -1.6
v 1.6 0.5 -1.6
v -1.5 0.5 -1.7
v -1.4 0.5 -1.7
v -1.2 0.5 -1.7
v -1.1 0.5 -1.7
v -1 0.5 -1.7
v -0.9 0.5 -1.7
v -0.8 0.5 -1.7
v -0.4 0.5 -1.7
v -0.2 0.5 -1.7
v -0.1 0.5 -1.7
v 0.2 0.5 -1.7
v 0.4 0.5 -1.7
v 0.6 0.5 -1.7
v 0.8 0.5 -1.7
v 1.3 0.5 -1.7
v 1.5 0.5 -1.7
v 1.8 0.5 -1.7
v 2 0.5 -1.7
v -1.7 0.5 -1.8
v -1.6 0.5 -1.8
v -1.5 0.5 -1.8
v -1.4 0.5 -1.8
v -1 0.5 -1.8
v -0.9 0.5 -1.8
v -0.8 0.5 -1.8
v -0.4 0.5 -1.8
v -0.2 0.5 -1.8
v -0.1 0.5 -1.8
v 0.6 0.5 -1.8
v 0.7 0.5 -1.8
v 0.8 0.5 -1.8
v 1.1 0.5 -1.8
v 1.3 0.5 -1.8
v 1.7 0.5 -1.8
v 1.8 0.5 -1.8
v -1 0.5 -1.9
v -0.2 0.5 -1.9
v 1.1 0.5 -1.9
v 1.7 0.5 -1.9
v -1.5 0.6 2.1
v -0.3 0.6 2.1
v -0.2 0.6 2.1
v 0.3 0.6 2.1
v 1 0.6 2.1
v 1.1 0.6 2.1
v 1.6 0.6 2.1
v 1.8 0.6 2.1
v -1.8 0.6 2
v -1.5 0.6 2
v -1.4 0.6 2
v -1 0.6 2
v -0.9 0.6 2
v -0.3 0.6 2
v -0.2 0.6 2
v 0 0.6 2
v 0.2 0.6 2
v 0.3 0.6 2
v 0.4 0.6 2
v 1.1 0.6 2
v 1.3 0.6 2
v 1.5 0.6 2
v 1.6 0.6 2
v 1.7 0.6 2
v 1.8 0.6 2
v 1.9 0.6 2
v -1.7 0.6 1.9
v -1.6 0.6 1.9
v -1.5 0.6 1.9
v -1.4 0.6 1.9
v -1.3 0.6 1.9
v -1 0.6 1.9
v -0.9 0.6 1.9
v -0.3 0.6 1.9
v -0.1 0.6 1.9
v 0 0.6 1.9
v 0.2 0.6 1.9
v 0.4 0.6 1.9
v 1 0.6 1.9
v 1.2 0.6 1.9
v 1.3 0.6 1.9
v 1.5 0.6 1.9
v 1.6 0.6 1.9
v 1.7 0.6 1.9
v 1.8 0.6 1.9
v 1.9 0.6 1.9
v 2 0.6 1.9
v -1.7 0.6 1.8
v -1.6 0.6 1.8
v -1.5 0.6 1.8
v -1.3 0.6 1.8
v -0.1 0.6 1.8
v 0.2 0.6 1.8
v 1.2 0.6 1.8
v 1.4 0.6 1.8
v 1.5 0.6 1.8
v 1.6 0.6 1.8
v 1.7 0.6 1.8
v 1.8 0.6 1.8
v 1.9 0.6 1.8
v -1.8 0.6 1.7
v -1.7 0.6 1.7
v 1.4 0.6 1.7
v 1.6 0.6 1.7
v 1.7 0.6 1.7
v 1.8 0.6 1.7
v 2 0.6 1.7
v 2.1 0.6 1.7
v 1.9 0.6 1.6
v 2 0.6 1.6
v -1.7 0.6 1.5
v -1.5 0.6 1.5
v 1.6 0.6 1.5
v 1.7 0.6 1.5
v 2 0.6 1.5
v 2.1 0.6 1.5
v -1.8 0.6 1.4
v 1.7 0.6 1.4
v 1.8 0.6 1.4
v 2 0.6 1.4
v -1.8 0.6 1.2
v -1.7 0.6 1.2
v -1.8 0.6 1.1
v -1.7 0.6 1.1
v 1.9 0.6 1.1
v 2 0.6 1.1
v -1.9 0.6 1
v -1.8 0.6 1
v 1.9 0.6 1
v 2.1 0.6 1
v -1.9 0.6 0.9
v -1.8 0.6 0.9
v -1.7 0.6 0.9
v -1.9 0.6 0.6
v -1.8 0.6 0.6
v -1.8 0.6 0.4
v -1.7 0.6 0.4
v -1.9 0.6 0.3
v -1.8 0.6 0.3
v -1.7 0.6 0.3
v -1.6 0.6 0.3
v -1.9 0.6 0.0999999
v -1.8 0.6 0.0999999
v -1.7 0.6 0.0999999
v -1.6 0.6 0.0999999
v 1.9 0.6 0.0999999
v 2 0.6 0.0999999
v -1.8 0.6 -0.0999999
v -1.7 0.6 -0.0999999
v 1.8 0.6 -0.0999999
v 1.9 0.6 -0.0999999
v 1.7 0.6 -0.4
v 1.8 0.6 -0.4
v 1.7 0.6 -0.7
v 1.9 0.6 -0.7
v -1.9 0.6 -0.9
v -1.8 0.6 -0.9
v 1.9 0.6 -0.9
v 2 0.6 -0.9
v -1.9 0.6 -1.2
v -1.8 0.6 -1.2
v -1.8 0.6 -1.4
v -1.5 0.6 -1.4
v -1.8 0.6 -1.5
v -1.6 0.6 -1.5
v 2 0.6 -1.5
v 2.1 0.6 -1.5
v -1.9 0.6 -1.6
v -1.8 0.6 -1.6
v -1.7 0.6 -1.6
v -1.5 0.6 -1.6
v -1.2 0.6 -1.6
v -1.1 0.6 -1.6
v -1 0.6 -1.6
v -0.1 0.6 -1.6
v 0.2 0.6 -1.6
v -1.5 0.6 -1.7
v -1.4 0.6 -1.7
v -1.3 0.6 -1.7
v -1.2 0.6 -1.7
v -1.1 0.6 -1.7
v -1 0.6 -1.7
v -0.9 0.6 -1.7
v -0.1 0.6 -1.7
v 0.1 0.6 -1.7
v 0.2 0.6 -1.7
v 0.6 0.6 -1.7
v 1.8 0.6 -1.7
v 2 0.6 -1.7
v -1.8 0.6 -1.8
v -1.7 0.6 -1.8
v -1.6 0.6 -1.8
v -1.5 0.6 -1.8
v -1.4 0.6 -1.8
v -1.3 0.6 -1.8
v -1 0.6 -1.8
v -0.9 0.6 -1.8
v -0.2 0.6 -1.8
v -0.1 0.6 -1.8
v 0.1 0.6 -1.8
v 0.5 0.6 -1.8
v 0.6 0.6 -1.8
v 0.7 0.6 -1.8
v 1.1 0.6 -1.8
v 1.7 0.6 -1.8
v 1.8 0.6 -1.8
v 1.9 0.6 -1.8
v 2.1 0.6 -1.8
v -1.9 0.6 -1.9
v -1.6 0.6 -1.9
v -1 0.6 -1.9
v -0.2 0.6 -1.9
v 0.5 0.6 -1.9
v 0.7 0.6 -1.9
v 1.1 0.6 -1.9
v 1.7 0.6 -1.9
v 1.9 0.6 -1.9
v -1.9 0.7 2.1
v -1.8 0.7 2.1
v 1.8 0.7 2.1
v 2.1 0.7 2.1
v 1.8 0.7 2
v 1.9 0.7 2
v 1.9 0.7 1.9
v 2 0.7 1.9
v -1.9 0.7 1.7
v -1.8 0.7 1.7
v 2 0.7 1.7
v 2.1 0.7 1.7
v -1.9 0.7 1.4
v -1.8 0.7 1.4
v -1.7 0.7 0.4
v -1.6 0.7 0.4
v -1.7 0.7 0.3
v -1.6 0.7 0.3
v 1.9 0.7 -1.8
v 2.1 0.7 -1.8
v 1.9 0.7 -1.9
v 2.1 0.7 -1.9

# faces
f 3/2/1 2/2/1 1/2/1
f 4/2/1 2/2/1 3/2/1
f 5/2/1 2/2/1 4/2/1
f 6/2/1 2/2/1 5/2/1
f 7/2/1 2/2/1 6/2/1
f 8/2/1 2/2/1 7/2/1
f 9/2/1 2/2/1 8/2/1
f 10/2/1 2/2/1 9/2/1
f 11/2/1 2/2/1 10/2/1
f 12/2/1 2/2/1 11/2/1
f 13/2/1 2/2/1 12/2/1
f 14/2/1 2/2/1 13/2/1
f 15/5/1 4/5/1 3/5/1
f 16/2/1 5/2/1 4/2/1
f 16/5/1 4/5/1 15/5/1
f 17/5/1 7/5/1 6/5/1
f 18/6/1 8/6/1 7/6/1
f 18/5/1 7/5/1 17/5/1
f 19/5/1 9/5/1 8/5/1
f 20/6/1 10/6/1 9/6/1
f 20/5/1 9/5/1 19/5/1
f 21/5/1 11/5/1 10/5/1
f 21/6/1 10/6/1 20/6/1
f 22/6/1 12/6/1 11/6/1
f 22/5/1 11/5/1 21/5/1
f 23/5/1 13/5/1 12/5/1
f 23/6/1 12/6/1 22/6/1
f 24/5/1 13/5/1 23/5/1
f 25/3/1 14/3/1 13/3/1
f 25/5/1 13/5/1 24/5/1
f 26/3/1 14/3/1 25/3/1
f 27/6/1 6/6/1 5/6/1
f 27/2/1 5/2/1 16/2/1
f 27/2/1 16/2/1 15/2/1
f 28/5/1 17/5/1 6/5/1
f 28/6/1 6/6/1 27/6/1
f 29/6/1 8/6/1 18/6/1
f 30/5/1 19/5/1 8/5/1
f 30/6/1 8/6/1 29/6/1
f 31/5/1 19/5/1 30/5/1
f 32/6/1 21/6/1 20/6/1
f 33/6/1 21/6/1 32/6/1
f 34/5/1 25/5/1 24/5/1
f 35/5/1 25/5/1 34/5/1
f 36/3/1 14/3/1 26/3/1
f 37/3/1 14/3/1 36/3/1
f 38/2/1 27/2/1 15/2/1
f 38/2/1 28/2/1 27/2/1
f 39/5/1 17/5/1 28/5/1
f 39/2/1 28/2/1 38/2/1
f 40/5/1 17/5/1 39/5/1
f 51/3/1 42/3/1 41/3/1
f 52/3/1 42/3/1 51/3/1
f 53/6/1 44/6/1 43/6/1
f 54/6/1 44/6/1 53/6/1
f 55/3/1 46/3/1 45/3/1
f 56/3/1 46/3/1 55/3/1
f 57/3/1 48/3/1 47/3/1
f 58/3/1 48/3/1 57/3/1
f 59/3/1 50/3/1 49/3/1
f 60/3/1 50/3/1 59/3/1
f 63/5/1 62/5/1 61/5/1
f 64/5/1 62/5/1 63/5/1
f 69/2/1 66/2/1 65/2/1
f 70/2/1 66/2/1 69/2/1
f 73/3/1 68/3/1 67/3/1
f 74/3/1 68/3/1 73/3/1
f 75/3/1 72/3/1 71/3/1
f 76/3/1 72/3/1 75/3/1
f 81/2/1 78/2/1 77/2/1
f 82/2/1 78/2/1 81/2/1
f 83/5/1 80/5/1 79/5/1
f 84/5/1 80/5/1 83/5/1
f 89/3/1 86/3/1 85/3/1
f 90/3/1 86/3/1 89/3/1
f 91/6/1 88/6/1 87/6/1
f 92/6/1 88/6/1 91/6/1
f 97/2/1 94/2/1 93/2/1
f 98/2/1 94/2/1 97/2/1
f 99/2/1 96/2/1 95/2/1
f 100/2/1 96/2/1 99/2/1
f 103/3/1 102/3/1 101/3/1
f 104/3/1 102/3/1 103/3/1
f 107/2/1 106/2/1 105/2/1
f 108/2/1 106/2/1 107/2/1
f 115/2/1 110/2/1 109/2/1
f 116/2/1 110/2/1 115/2/1
f 117/2/1 112/2/1 111/2/1
f 118/2/1 112/2/1 117/2/1
f 119/2/1 114/2/1 113/2/1
f 120/2/1 114/2/1 119/2/1
f 125/2/1 122/2/1 121/2/1
f 126/2/1 122/2/1 125/2/1
f 127/2/1 124/2/1 123/2/1
f 128/2/1 124/2/1 127/2/1
f 131/2/1 130/2/1 129/2/1
f 132/2/1 130/2/1 131/2/1
f 135/2/1 134/2/1 133/2/1
f 136/2/1 134/2/1 135/2/1
f 141/2/1 138/2/1 137/2/1
f 142/2/1 138/2/1 141/2/1
f 143/2/1 140/2/1 139/2/1
f 144/2/1 140/2/1 143/2/1
f 147/2/1 146/2/1 145/2/1
f 148/2/1 146/2/1 147/2/1
f 151/3/1 150/3/1 149/3/1
f 152/3/1 150/3/1 151/3/1
f 155/2/1 154/2/1 153/2/1
f 156/2/1 154/2/1 155/2/1
f 159/6/1 158/6/1 157/6/1
f 160/6/1 158/6/1 159/6/1
f 166/3/1 162/3/1 161/3/1
f 167/3/1 162/3/1 166/3/1
f 168/3/1 164/3/1 163/3/1
f 169/6/1 165/6/1 164/6/1
f 169/3/1 164/3/1 168/3/1
f 170/6/1 165/6/1 169/6/1
f 173/2/1 172/2/1 171/2/1
f 174/2/1 172/2/1 173/2/1
f 179/2/1 176/2/1 175/2/1
f 180/2/1 176/2/1 179/2/1
f 181/2/1 178/2/1 177/2/1
f 182/2/1 178/2/1 181/2/1
f 185/2/1 184/2/1 183/2/1
f 186/2/1 184/2/1 185/2/1
f 191/2/1 188/2/1 187/2/1
f 192/2/1 188/2/1 191/2/1
f 193/2/1 190/2/1 189/2/1
f 194/2/1 190/2/1 193/2/1
f 197/2/1 196/2/1 195/2/1
f 198/2/1 196/2/1 197/2/1
f 201/2/1 200/2/1 199/2/1
f 202/2/1 200/2/1 201/2/1
f 205/2/1 204/2/1 203/2/1
f 206/2/1 204/2/1 205/2/1
f 217/2/1 208/2/1 207/2/1
f 218/2/1 208/2/1 217/2/1
f 219/2/1 210/2/1 209/2/1
f 220/2/1 210/2/1 219/2/1
f 221/2/1 212/2/1 211/2/1
f 222/2/1 212/2/1 221/2/1
f 223/2/1 214/2/1 213/2/1
f 224/2/1 214/2/1 223/2/1
f 225/2/1 216/2/1 215/2/1
f 226/2/1 216/2/1 225/2/1
f 233/2/1 228/2/1 227/2/1
f 234/2/1 228/2/1 233/2/1
f 235/2/1 230/2/1 229/2/1
f 236/2/1 230/2/1 235/2/1
f 237/3/1 232/3/1 231/3/1
f 238/3/1 232/3/1 237/3/1
f 241/2/1 240/2/1 239/2/1
f 242/2/1 240/2/1 241/2/1
f 247/2/1 244/2/1 243/2/1
f 248/2/1 244/2/1 247/2/1
f 249/3/1 246/3/1 245/3/1
f 250/3/1 246/3/1 249/3/1
f 253/2/1 252/2/1 251/2/1
f 254/2/1 252/2/1 253/2/1
f 261/2/1 256/2/1 255/2/1
f 262/2/1 256/2/1 261/2/1
f 263/2/1 258/2/1 257/2/1
f 264/2/1 258/2/1 263/2/1
f 265/3/1 260/3/1 259/3/1
f 266/3/1 260/3/1 265/3/1
f 273/2/1 268/2/1 267/2/1
f 274/2/1 268/2/1 273/2/1
f 275/2/1 270/2/1 269/2/1
f 276/2/1 270/2/1 275/2/1
f 277/5/1 272/5/1 271/5/1
f 278/5/1 272/5/1 277/5/1
f 286/2/1 280/2/1 279/2/1
f 287/2/1 280/2/1 286/2/1
f 288/5/1 282/5/1 281/5/1
f 289/5/1 282/5/1 288/5/1
f 290/3/1 285/3/1 284/3/1
f 290/3/1 284/3/1 283/3/1
f 291/3/1 285/3/1 290/3/1
f 298/2/1 293/2/1 292/2/1
f 299/2/1 293/2/1 298/2/1
f 302/3/1 295/3/1 294/3/1
f 303/3/1 295/3/1 302/3/1
f 304/3/1 297/3/1 296/3/1
f 305/3/1 297/3/1 304/3/1
f 306/6/1 301/6/1 300/6/1
f 307/6/1 301/6/1 306/6/1
f 315/3/1 309/3/1 308/3/1
f 315/3/1 310/3/1 309/3/1
f 316/3/1 310/3/1 315/3/1
f 317/6/1 312/6/1 311/6/1
f 318/6/1 312/6/1 317/6/1
f 319/3/1 314/3/1 313/3/1
f 320/3/1 314/3/1 319/3/1
f 329/6/1 322/6/1 321/6/1
f 330/6/1 322/6/1 329/6/1
f 331/3/1 324/3/1 323/3/1
f 332/3/1 324/3/1 331/3/1
f 333/3/1 326/3/1 325/3/1
f 334/3/1 326/3/1 333/3/1
f 337/3/1 328/3/1 327/3/1
f 338/3/1 328/3/1 337/3/1
f 339/3/1 336/3/1 335/3/1
f 340/3/1 336/3/1 339/3/1
f 347/6/1 342/6/1 341/6/1
f 348/6/1 342/6/1 347/6/1
f 349/6/1 344/6/1 343/6/1
f 350/6/1 344/6/1 349/6/1
f 351/3/1 346/3/1 345/3/1
f 352/3/1 346/3/1 351/3/1
f 353/2/2 354/2/2 360/2/2
f 355/5/2 356/5/2 363/5/2
f 363/5/2 356/5/2 364/5/2
f 358/5/2 359/5/2 365/5/2
f 357/5/2 358/5/2 365/5/2
f 365/5/2 359/5/2 366/5/2
f 353/2/2 360/2/2 367/2/2
f 360/2/2 361/2/2 367/2/2
f 361/5/2 362/5/2 368/5/2
f 367/2/2 361/2/2 368/2/2
f 368/5/2 362/5/2 369/5/2
f 370/2/2 371/2/2 382/2/2
f 382/2/2 371/2/2 383/2/2
f 372/6/2 373/6/2 386/6/2
f 386/6/2 373/6/2 387/6/2
f 374/3/2 375/3/2 388/3/2
f 375/3/2 376/3/2 388/3/2
f 388/3/2 376/3/2 389/3/2
f 377/6/2 378/6/2 390/6/2
f 390/6/2 378/6/2 391/6/2
f 380/3/2 381/3/2 392/3/2
f 379/3/2 380/3/2 392/3/2
f 392/3/2 381/3/2 393/3/2
f 384/6/2 385/6/2 394/6/2
f 394/6/2 385/6/2 395/6/2
f 396/2/2 397/2/2 401/2/2
f 401/2/2 397/2/2 402/2/2
f 399/3/2 400/3/2 403/3/2
f 398/5/2 399/5/2 403/5/2
f 403/3/2 400/3/2 404/3/2
f 398/5/2 403/5/2 405/5/2
f 405/5/2 403/5/2 406/5/2
f 407/6/2 408/6/2 416/6/2
f 416/6/2 408/6/2 417/6/2
f 409/3/2 410/3/2 418/3/2
f 418/3/2 410/3/2 419/3/2
f 411/3/2 412/3/2 420/3/2
f 412/3/2 413/3/2 420/3/2
f 420/3/2 413/3/2 421/3/2
f 414/3/2 415/3/2 422/3/2
f 422/3/2 415/3/2 423/3/2
f 424/2/2 425/2/2 426/2/2
f 426/2/2 425/2/2 427/2/2
f 428/2/2 429/2/2 434/2/2
f 434/2/2 429/2/2 435/2/2
f 430/2/2 431/2/2 436/2/2
f 436/2/2 431/2/2 437/2/2
f 432/3/2 433/3/2 438/3/2
f 438/3/2 433/3/2 439/3/2
f 440/2/2 441/2/2 446/2/2
f 446/2/2 441/2/2 447/2/2
f 442/2/2 443/2/2 448/2/2
f 448/2/2 443/2/2 449/2/2
f 444/2/2 445/2/2 450/2/2
f 450/2/2 445/2/2 451/2/2
f 452/3/2 453/3/2 454/3/2
f 454/3/2 453/3/2 455/3/2
f 456/2/2 457/2/2 460/2/2
f 460/2/2 457/2/2 461/2/2
f 458/2/2 459/2/2 462/2/2
f 462/2/2 459/2/2 463/2/2
f 464/2/2 465/2/2 470/2/2
f 470/2/2 465/2/2 471/2/2
f 466/2/2 467/2/2 472/2/2
f 472/2/2 467/2/2 473/2/2
f 468/2/2 469/2/2 474/2/2
f 474/2/2 469/2/2 475/2/2
f 476/3/2 477/3/2 480/3/2
f 480/3/2 477/3/2 481/3/2
f 478/6/2 479/6/2 482/6/2
f 482/6/2 479/6/2 483/6/2
f 484/2/2 485/2/2 488/2/2
f 488/2/2 485/2/2 489/2/2
f 486/5/2 487/5/2 492/5/2
f 492/5/2 487/5/2 493/5/2
f 490/3/2 491/3/2 494/3/2
f 494/3/2 491/3/2 495/3/2
f 496/2/2 497/2/2 498/2/2
f 498/2/2 497/2/2 499/2/2
f 500/2/2 501/2/2 506/2/2
f 506/2/2 501/2/2 507/2/2
f 502/2/2 503/2/2 508/2/2
f 508/2/2 503/2/2 509/2/2
f 504/2/2 505/2/2 510/2/2
f 510/2/2 505/2/2 511/2/2
f 512/2/2 513/2/2 514/2/2
f 514/2/2 513/2/2 515/2/2
f 516/3/2 517/3/2 520/3/2
f 520/3/2 517/3/2 521/3/2
f 518/3/2 519/3/2 522/3/2
f 522/3/2 519/3/2 523/3/2
f 524/2/2 525/2/2 528/2/2
f 528/2/2 525/2/2 529/2/2
f 526/6/2 527/6/2 530/6/2
f 530/6/2 527/6/2 531/6/2
f 532/2/2 533/2/2 540/2/2
f 540/2/2 533/2/2 541/2/2
f 534/2/2 535/2/2 542/2/2
f 542/2/2 535/2/2 543/2/2
f 536/2/2 537/2/2 544/2/2
f 544/2/2 537/2/2 545/2/2
f 538/3/2 539/3/2 546/3/2
f 546/3/2 539/3/2 547/3/2
f 548/2/2 549/2/2 554/2/2
f 554/2/2 549/2/2 555/2/2
f 550/2/2 551/2/2 556/2/2
f 556/2/2 551/2/2 557/2/2
f 552/2/2 553/2/2 558/2/2
f 558/2/2 553/2/2 559/2/2
f 560/2/2 561/2/2 564/2/2
f 564/2/2 561/2/2 565/2/2
f 562/2/2 563/2/2 566/2/2
f 566/2/2 563/2/2 567/2/2
f 568/3/2 569/3/2 570/3/2
f 570/3/2 569/3/2 571/3/2
f 572/2/2 573/2/2 574/2/2
f 574/2/2 573/2/2 575/2/2
f 576/2/2 577/2/2 580/2/2
f 580/2/2 577/2/2 581/2/2
f 578/2/2 579/2/2 582/2/2
f 582/2/2 579/2/2 583/2/2
f 584/2/2 585/2/2 588/2/2
f 588/2/2 585/2/2 589/2/2
f 586/2/2 587/2/2 590/2/2
f 590/2/2 587/2/2 591/2/2
f 592/6/2 593/6/2 594/6/2
f 594/6/2 593/6/2 595/6/2
f 596/2/2 597/2/2 600/2/2
f 600/2/2 597/2/2 601/2/2
f 598/2/2 599/2/2 602/2/2
f 602/2/2 599/2/2 603/2/2
f 604/2/2 605/2/2 608/2/2
f 608/2/2 605/2/2 609/2/2
f 606/3/2 607/3/2 610/3/2
f 610/3/2 607/3/2 611/3/2
f 612/2/2 613/2/2 614/2/2
f 614/2/2 613/2/2 615/2/2
f 616/2/2 617/2/2 620/2/2
f 620/2/2 617/2/2 621/2/2
f 618/3/2 619/3/2 622/3/2
f 622/3/2 619/3/2 623/3/2
f 624/3/2 625/3/2 626/3/2
f 626/3/2 625/3/2 627/3/2
f 628/2/2 629/2/2 630/2/2
f 630/2/2 629/2/2 631/2/2
f 631/2/2 629/2/2 632/2/2
f 632/2/2 629/2/2 633/2/2
f 633/2/2 629/2/2 634/2/2
f 634/2/2 629/2/2 635/2/2
f 631/6/2 632/6/2 636/6/2
f 632/3/2 633/3/2 636/3/2
f 633/6/2 634/6/2 637/6/2
f 636/3/2 633/3/2 637/3/2
f 630/3/2 631/3/2 638/3/2
f 631/6/2 636/6/2 639/6/2
f 638/3/2 631/3/2 639/3/2
f 639/6/2 636/6/2 640/6/2
f 637/6/2 634/6/2 641/6/2
f 634/3/2 635/3/2 642/3/2
f 641/6/2 634/6/2 642/6/2
f 630/3/2 638/3/2 643/3/2
f 643/3/2 638/3/2 644/3/2
f 642/3/2 635/3/2 645/3/2
f 645/3/2 635/3/2 646/3/2
f 651/2/3 648/2/3 647/2/3
f 651/5/3 649/5/3 648/5/3
f 652/2/3 650/2/3 649/2/3
f 652/5/3 649/5/3 651/5/3
f 653/2/3 650/2/3 652/2/3
f 654/2/3 651/2/3 647/2/3
f 654/2/3 652/2/3 651/2/3
f 655/2/3 652/2/3 654/2/3
f 657/2/3 654/2/3 647/2/3
f 657/5/3 656/5/3 655/5/3
f 657/5/3 655/5/3 654/5/3
f 658/5/3 656/5/3 657/5/3
f 659/2/3 657/2/3 647/2/3
f 659/3/3 658/3/3 657/3/3
f 660/3/3 658/3/3 659/3/3
f 661/2/3 659/2/3 647/2/3
f 661/6/3 660/6/3 659/6/3
f 662/6/3 660/6/3 661/6/3
f 663/6/3 660/6/3 662/6/3
f 664/2/3 661/2/3 647/2/3
f 664/5/3 662/5/3 661/5/3
f 665/5/3 662/5/3 664/5/3
f 667/2/3 664/2/3 647/2/3
f 667/3/3 666/3/3 665/3/3
f 667/3/3 665/3/3 664/3/3
f 668/3/3 666/3/3 667/3/3
f 669/2/3 667/2/3 647/2/3
f 669/5/3 668/5/3 667/5/3
f 670/5/3 668/5/3 669/5/3
f 671/3/3 670/3/3 669/3/3
f 673/2/3 669/2/3 647/2/3
f 674/3/3 671/3/3 669/3/3
f 674/2/3 669/2/3 673/2/3
f 674/3/3 672/3/3 671/3/3
f 675/3/3 672/3/3 674/3/3
f 678/6/3 677/6/3 676/6/3
f 679/6/3 677/6/3 678/6/3
f 682/3/3 681/3/3 680/3/3
f 683/3/3 681/3/3 682/3/3
f 686/3/3 685/3/3 684/3/3
f 687/3/3 685/3/3 686/3/3
f 690/3/3 689/3/3 688/3/3
f 691/3/3 689/3/3 690/3/3
f 694/3/3 693/3/3 692/3/3
f 695/3/3 693/3/3 694/3/3
f 698/3/3 697/3/3 696/3/3
f 699/3/3 697/3/3 698/3/3
f 702/2/3 701/2/3 700/2/3
f 703/2/3 701/2/3 702/2/3
f 706/2/3 705/2/3 704/2/3
f 707/2/3 705/2/3 706/2/3
f 710/2/3 709/2/3 708/2/3
f 711/2/3 709/2/3 710/2/3
f 714/2/3 713/2/3 712/2/3
f 715/2/3 713/2/3 714/2/3
f 718/2/3 717/2/3 716/2/3
f 719/2/3 717/2/3 718/2/3
f 722/2/3 721/2/3 720/2/3
f 723/2/3 721/2/3 722/2/3
f 726/2/3 725/2/3 724/2/3
f 727/2/3 725/2/3 726/2/3
f 730/6/3 729/6/3 728/6/3
f 731/6/3 729/6/3 730/6/3
f 734/2/3 733/2/3 732/2/3
f 735/2/3 733/2/3 734/2/3
f 738/6/3 737/6/3 736/6/3
f 739/6/3 737/6/3 738/6/3
f 742/6/3 741/6/3 740/6/3
f 743/6/3 741/6/3 742/6/3
f 746/2/3 745/2/3 744/2/3
f 747/2/3 745/2/3 746/2/3
f 750/2/3 749/2/3 748/2/3
f 751/2/3 749/2/3 750/2/3
f 754/2/3 753/2/3 752/2/3
f 755/2/3 753/2/3 754/2/3
f 758/2/3 757/2/3 756/2/3
f 759/2/3 757/2/3 758/2/3
f 762/2/3 761/2/3 760/2/3
f 763/2/3 761/2/3 762/2/3
f 766/2/3 765/2/3 764/2/3
f 767/2/3 765/2/3 766/2/3
f 770/2/3 769/2/3 768/2/3
f 771/2/3 769/2/3 770/2/3
f 774/3/3 773/3/3 772/3/3
f 775/3/3 773/3/3 774/3/3
f 777/5/3 775/5/3 774/5/3
f 777/5/3 776/5/3 775/5/3
f 778/5/3 776/5/3 777/5/3
f 781/6/3 780/6/3 779/6/3
f 782/6/3 780/6/3 781/6/3
f 785/3/3 784/3/3 783/3/3
f 786/3/3 784/3/3 785/3/3
f 789/2/3 788/2/3 787/2/3
f 790/2/3 788/2/3 789/2/3
f 793/3/3 792/3/3 791/3/3
f 794/3/3 792/3/3 793/3/3
f 797/2/3 796/2/3 795/2/3
f 798/2/3 796/2/3 797/2/3
f 801/2/3 800/2/3 799/2/3
f 802/2/3 800/2/3 801/2/3
f 805/3/3 804/3/3 803/3/3
f 806/3/3 804/3/3 805/3/3
f 809/2/3 808/2/3 807/2/3
f 810/2/3 808/2/3 809/2/3
f 813/2/3 812/2/3 811/2/3
f 814/2/3 812/2/3 813/2/3
f 817/2/3 816/2/3 815/2/3
f 818/2/3 816/2/3 817/2/3
f 821/2/3 820/2/3 819/2/3
f 822/2/3 820/2/3 821/2/3
f 825/5/3 824/5/3 823/5/3
f 826/5/3 824/5/3 825/5/3
f 829/2/3 828/2/3 827/2/3
f 830/2/3 828/2/3 829/2/3
f 833/2/3 832/2/3 831/2/3
f 834/2/3 832/2/3 833/2/3
f 837/2/3 836/2/3 835/2/3
f 838/2/3 836/2/3 837/2/3
f 841/2/3 840/2/3 839/2/3
f 842/2/3 840/2/3 841/2/3
f 845/2/3 844/2/3 843/2/3
f 846/2/3 844/2/3 845/2/3
f 849/2/3 848/2/3 847/2/3
f 850/2/3 848/2/3 849/2/3
f 853/2/3 852/2/3 851/2/3
f 854/2/3 852/2/3 853/2/3
f 857/2/3 856/2/3 855/2/3
f 858/2/3 856/2/3 857/2/3
f 861/2/3 860/2/3 859/2/3
f 862/2/3 860/2/3 861/2/3
f 865/2/3 864/2/3 863/2/3
f 866/2/3 864/2/3 865/2/3
f 869/2/3 868/2/3 867/2/3
f 870/2/3 868/2/3 869/2/3
f 873/2/3 872/2/3 871/2/3
f 874/2/3 872/2/3 873/2/3
f 877/2/3 876/2/3 875/2/3
f 878/2/3 876/2/3 877/2/3
f 881/2/3 880/2/3 879/2/3
f 882/2/3 880/2/3 881/2/3
f 885/2/3 884/2/3 883/2/3
f 886/2/3 884/2/3 885/2/3
f 889/3/3 888/3/3 887/3/3
f 890/3/3 888/3/3 889/3/3
f 891/3/3 888/3/3 890/3/3
f 894/2/3 893/2/3 892/2/3
f 895/2/3 893/2/3 894/2/3
f 898/2/3 897/2/3 896/2/3
f 899/2/3 897/2/3 898/2/3
f 902/2/3 901/2/3 900/2/3
f 903/2/3 901/2/3 902/2/3
f 906/2/3 905/2/3 904/2/3
f 907/2/3 905/2/3 906/2/3
f 910/2/3 909/2/3 908/2/3
f 911/2/3 909/2/3 910/2/3
f 914/2/3 913/2/3 912/2/3
f 915/2/3 913/2/3 914/2/3
f 918/6/3 917/6/3 916/6/3
f 919/6/3 917/6/3 918/6/3
f 922/3/3 921/3/3 920/3/3
f 923/3/3 921/3/3 922/3/3
f 924/6/3 923/6/3 922/6/3
f 925/6/3 923/6/3 924/6/3
f 928/3/3 927/3/3 926/3/3
f 929/3/3 927/3/3 928/3/3
f 930/3/3 927/3/3 929/3/3
f 933/3/3 932/3/3 931/3/3
f 934/3/3 932/3/3 933/3/3
f 937/3/3 936/3/3 935/3/3
f 938/3/3 936/3/3 937/3/3
f 941/3/3 940/3/3 939/3/3
f 942/3/3 940/3/3 941/3/3
f 945/3/3 944/3/3 943/3/3
f 946/3/3 944/3/3 945/3/3
f 949/3/3 948/3/3 947/3/3
f 950/3/3 948/3/3 949/3/3
f 951/3/3 948/3/3 950/3/3
f 954/6/3 953/6/3 952/6/3
f 955/6/3 953/6/3 954/6/3
f 958/3/3 957/3/3 956/3/3
f 959/3/3 957/3/3 958/3/3
f 962/6/3 961/6/3 960/6/3
f 963/6/3 961/6/3 962/6/3
f 966/6/3 965/6/3 964/6/3
f 967/6/3 965/6/3 966/6/3
f 970/3/3 969/3/3 968/3/3
f 971/3/3 969/3/3 970/3/3
f 972/6/3 971/6/3 970/6/3
f 973/6/3 971/6/3 972/6/3
f 974/6/3 971/6/3 973/6/3
f 977/6/3 976/6/3 975/6/3
f 978/6/3 976/6/3 977/6/3
f 981/3/3 980/3/3 979/3/3
f 982/3/3 980/3/3 981/3/3
f 983/5/4 984/5/4 985/5/4
f 985/5/4 984/5/4 986/5/4
f 987/5/4 988/5/4 989/5/4
f 989/5/4 988/5/4 990/5/4
f 990/5/4 988/5/4 991/5/4
f 992/5/4 993/5/4 994/5/4
f 994/5/4 993/5/4 995/5/4
f 996/3/4 997/3/4 998/3/4
f 998/3/4 997/3/4 999/3/4
f 1000/6/4 1001/6/4 1002/6/4
f 1002/6/4 1001/6/4 1003/6/4
f 1004/3/4 1005/3/4 1006/3/4
f 1006/3/4 1005/3/4 1007/3/4
f 1007/3/4 1005/3/4 1008/3/4
f 1007/5/4 1008/5/4 1009/5/4
f 1009/5/4 1008/5/4 1010/5/4
f 1011/3/4 1012/3/4 1013/3/4
f 1013/3/4 1012/3/4 1014/3/4
f 1015/3/4 1016/3/4 1017/3/4
f 1017/3/4 1016/3/4 1018/3/4
f 1019/3/4 1020/3/4 1021/3/4
f 1021/3/4 1020/3/4 1022/3/4
f 1022/3/4 1020/3/4 1023/3/4
f 1024/5/4 1025/5/4 1026/5/4
f 1026/5/4 1025/5/4 1027/5/4
f 1028/3/4 1029/3/4 1030/3/4
f 1030/3/4 1029/3/4 1031/3/4
f 1032/3/4 1033/3/4 1034/3/4
f 1034/3/4 1033/3/4 1035/3/4
f 1036/3/4 1037/3/4 1038/3/4
f 1038/3/4 1037/3/4 1039/3/4
f 1040/2/4 1041/2/4 1042/2/4
f 1042/2/4 1041/2/4 1043/2/4
f 1044/3/4 1045/3/4 1046/3/4
f 1046/3/4 1045/3/4 1047/3/4
f 1047/3/4 1045/3/4 1048/3/4
f 1049/2/4 1050/2/4 1051/2/4
f 1051/2/4 1050/2/4 1052/2/4
f 1053/3/4 1054/3/4 1055/3/4
f 1055/3/4 1054/3/4 1056/3/4
f 1057/3/4 1058/3/4 1059/3/4
f 1059/3/4 1058/3/4 1060/3/4
f 1061/3/4 1062/3/4 1063/3/4
f 1063/3/4 1062/3/4 1064/3/4
f 1065/2/4 1066/2/4 1067/2/4
f 1067/2/4 1066/2/4 1068/2/4
f 1069/3/4 1070/3/4 1071/3/4
f 1071/3/4 1070/3/4 1072/3/4
f 1073/5/4 1074/5/4 1075/5/4
f 1075/5/4 1074/5/4 1076/5/4
f 1076/5/4 1074/5/4 1077/5/4
f 1078/2/4 1079/2/4 1080/2/4
f 1080/2/4 1079/2/4 1081/2/4
f 1082/3/4 1083/3/4 1084/3/4
f 1084/3/4 1083/3/4 1085/3/4
f 1084/6/4 1085/6/4 1086/6/4
f 1086/6/4 1085/6/4 1087/6/4
f 1088/2/4 1089/2/4 1090/2/4
f 1090/2/4 1089/2/4 1091/2/4
f 1092/3/4 1093/3/4 1094/3/4
f 1094/3/4 1093/3/4 1095/3/4
f 1096/2/4 1097/2/4 1098/2/4
f 1098/2/4 1097/2/4 1099/2/4
f 1100/2/4 1101/2/4 1102/2/4
f 1102/2/4 1101/2/4 1103/2/4
f 1104/2/4 1105/2/4 1106/2/4
f 1106/2/4 1105/2/4 1107/2/4
f 1108/6/4 1109/6/4 1110/6/4
f 1110/6/4 1109/6/4 1111/6/4
f 1112/6/4 1113/6/4 1114/6/4
f 1114/6/4 1113/6/4 1115/6/4
f 1116/2/4 1117/2/4 1118/2/4
f 1118/2/4 1117/2/4 1119/2/4
f 1120/2/4 1121/2/4 1122/2/4
f 1122/2/4 1121/2/4 1123/2/4
f 1124/5/4 1125/5/4 1126/5/4
f 1126/5/4 1125/5/4 1127/5/4
f 1128/2/4 1129/2/4 1130/2/4
f 1130/2/4 1129/2/4 1131/2/4
f 1132/5/4 1133/5/4 1134/5/4
f 1134/5/4 1133/5/4 1135/5/4
f 1136/2/4 1137/2/4 1138/2/4
f 1138/2/4 1137/2/4 1139/2/4
f 1140/6/4 1141/6/4 1142/6/4
f 1142/6/4 1141/6/4 1143/6/4
f 1144/3/4 1145/3/4 1146/3/4
f 1146/3/4 1145/3/4 1147/3/4
f 1148/3/4 1149/3/4 1150/3/4
f 1150/3/4 1149/3/4 1151/3/4
f 1152/2/4 1153/2/4 1154/2/4
f 1154/2/4 1153/2/4 1155/2/4
f 1156/2/4 1157/2/4 1158/2/4
f 1158/2/4 1157/2/4 1159/2/4
f 1160/2/4 1161/2/4 1162/2/4
f 1162/2/4 1161/2/4 1163/2/4
f 1164/2/4 1165/2/4 1166/2/4
f 1166/2/4 1165/2/4 1167/2/4
f 1168/2/4 1169/2/4 1170/2/4
f 1170/2/4 1169/2/4 1171/2/4
f 1172/2/4 1173/2/4 1174/2/4
f 1174/2/4 1173/2/4 1175/2/4
f 1176/2/4 1177/2/4 1178/2/4
f 1178/2/4 1177/2/4 1179/2/4
f 1180/2/4 1181/2/4 1182/2/4
f 1182/2/4 1181/2/4 1183/2/4
f 1184/2/4 1185/2/4 1186/2/4
f 1186/2/4 1185/2/4 1187/2/4
f 1188/2/4 1189/2/4 1190/2/4
f 1190/2/4 1189/2/4 1191/2/4
f 1192/2/4 1193/2/4 1194/2/4
f 1194/2/4 1193/2/4 1195/2/4
f 1196/3/4 1197/3/4 1198/3/4
f 1198/3/4 1197/3/4 1199/3/4
f 1200/2/4 1201/2/4 1202/2/4
f 1202/2/4 1201/2/4 1203/2/4
f 1204/2/4 1205/2/4 1206/2/4
f 1206/2/4 1205/2/4 1207/2/4
f 1208/2/4 1209/2/4 1210/2/4
f 1210/2/4 1209/2/4 1211/2/4
f 1212/2/4 1213/2/4 1214/2/4
f 1214/2/4 1213/2/4 1215/2/4
f 1216/3/4 1217/3/4 1218/3/4
f 1218/3/4 1217/3/4 1219/3/4
f 1220/2/4 1221/2/4 1222/2/4
f 1222/2/4 1221/2/4 1223/2/4
f 1224/2/4 1225/2/4 1226/2/4
f 1226/2/4 1225/2/4 1227/2/4
f 1228/2/4 1229/2/4 1230/2/4
f 1230/2/4 1229/2/4 1231/2/4
f 1232/2/4 1233/2/4 1234/2/4
f 1234/2/4 1233/2/4 1235/2/4
f 1236/2/4 1237/2/4 1238/2/4
f 1238/2/4 1237/2/4 1239/2/4
f 1240/2/4 1241/2/4 1242/2/4
f 1242/2/4 1241/2/4 1243/2/4
f 1244/5/4 1245/5/4 1246/5/4
f 1246/5/4 1245/5/4 1247/5/4
f 1248/2/4 1249/2/4 1250/2/4
f 1250/2/4 1249/2/4 1251/2/4
f 1252/2/4 1253/2/4 1254/2/4
f 1254/2/4 1253/2/4 1255/2/4
f 1256/2/4 1257/2/4 1258/2/4
f 1258/2/4 1257/2/4 1259/2/4
f 1260/3/4 1261/3/4 1262/3/4
f 1262/3/4 1261/3/4 1263/3/4
f 1264/3/4 1265/3/4 1266/3/4
f 1266/3/4 1265/3/4 1267/3/4
f 1268/3/4 1269/3/4 1270/3/4
f 1270/3/4 1269/3/4 1271/3/4
f 1272/2/4 1273/2/4 1275/2/4
f 1273/3/4 1274/3/4 1275/3/4
f 1275/3/4 1274/3/4 1276/3/4
f 1272/2/4 1275/2/4 1277/2/4
f 1275/6/4 1276/6/4 1277/6/4
f 1277/6/4 1276/6/4 1278/6/4
f 1278/6/4 1276/6/4 1279/6/4
f 1272/2/4 1277/2/4 1280/2/4
f 1277/3/4 1278/3/4 1280/3/4
f 1280/3/4 1278/3/4 1281/3/4
f 1272/2/4 1280/2/4 1283/2/4
f 1281/6/4 1282/6/4 1283/6/4
f 1280/6/4 1281/6/4 1283/6/4
f 1283/6/4 1282/6/4 1284/6/4
f 1272/2/4 1283/2/4 1285/2/4
f 1283/3/4 1284/3/4 1285/3/4
f 1285/3/4 1284/3/4 1286/3/4
f 1272/2/4 1285/2/4 1287/2/4
f 1285/6/4 1286/6/4 1287/6/4
f 1287/6/4 1286/6/4 1288/6/4
f 1288/6/4 1286/6/4 1289/6/4
f 1272/2/4 1287/2/4 1290/2/4
f 1287/3/4 1288/3/4 1290/3/4
f 1290/3/4 1288/3/4 1291/3/4
f 1272/2/4 1290/2/4 1293/2/4
f 1291/6/4 1292/6/4 1293/6/4
f 1290/6/4 1291/6/4 1293/6/4
f 1293/6/4 1292/6/4 1294/6/4
f 1272/2/4 1293/2/4 1296/2/4
f 1293/3/4 1294/3/4 1297/3/4
f 1296/2/4 1293/2/4 1297/2/4
f 1294/3/4 1295/3/4 1297/3/4
f 1297/3/4 1295/3/4 1298/3/4
f 1301/2/5 1300/2/5 1299/2/5
f 1302/2/5 1300/2/5 1301/2/5
f 1303/3/6 1304/3/6 1305/3/6
f 1305/3/6 1304/3/6 1306/3/6
f 1306/3/6 1304/3/6 1307/3/6
f 1307/3/6 1308/3/6 1311/3/6
f 1306/3/6 1307/3/6 1311/3/6
f 1311/3/6 1308/3/6 1312/3/6
f 1312/3/6 1308/3/6 1313/3/6
f 1313/3/6 1308/3/6 1314/3/6
f 1309/6/6 1310/6/6 1316/6/6
f 1316/6/6 1310/6/6 1317/6/6
f 1317/6/6 1310/6/6 1318/6/6
f 1312/3/6 1313/3/6 1319/3/6
f 1319/3/6 1313/3/6 1320/3/6
f 1315/6/6 1316/6/6 1322/6/6
f 1316/6/6 1317/6/6 1322/6/6
f 1322/6/6 1317/6/6 1323/6/6
f 1323/6/6 1317/6/6 1324/6/6
f 1321/6/6 1322/6/6 1326/6/6
f 1322/6/6 1323/6/6 1326/6/6
f 1326/6/6 1323/6/6 1327/6/6
f 1327/6/6 1323/6/6 1328/6/6
f 1325/6/6 1326/6/6 1329/6/6
f 1326/6/6 1327/6/6 1329/6/6
f 1329/6/6 1327/6/6 1330/6/6
f 1325/6/6 1329/6/6 1333/6/6
f 1333/6/6 1329/6/6 1334/6/6
f 1331/6/6 1332/6/6 1335/6/6
f 1325/6/6 1333/6/6 1338/6/6
f 1335/6/6 1336/6/6 1339/6/6
f 1331/6/6 1335/6/6 1339/6/6
f 1339/6/6 1336/6/6 1340/6/6
f 1337/6/6 1338/6/6 1341/6/6
f 1338/6/6 1333/6/6 1341/6/6
f 1341/6/6 1333/6/6 1342/6/6
f 1340/6/6 1336/6/6 1343/6/6
f 1343/6/6 1336/6/6 1344/6/6
f 1344/6/6 1336/6/6 1345/6/6
f 1337/6/6 1341/6/6 1347/6/6
f 1347/6/6 1341/6/6 1348/6/6
f 1345/6/6 1346/6/6 1349/6/6
f 1344/6/6 1345/6/6 1349/6/6
f 1349/6/6 1346/6/6 1350/6/6
f 1350/6/6 1346/6/6 1351/6/6
f 1351/6/6 1346/6/6 1352/6/6
f 1353/6/6 1354/6/6 1355/6/6
f 1353/6/6 1355/6/6 1357/6/6
f 1355/6/6 1356/6/6 1357/6/6
f 1357/6/6 1356/6/6 1358/6/6
f 1358/6/6 1356/6/6 1359/6/6
f 1359/6/6 1356/6/6 1360/6/6
f 1360/6/6 1356/6/6 1361/6/6
f 1360/6/6 1361/6/6 1365/6/6
f 1361/6/6 1362/6/6 1365/6/6
f 1365/6/6 1362/6/6 1366/6/6
f 1363/3/6 1364/3/6 1368/3/6
f 1368/3/6 1364/3/6 1369/3/6
f 1369/3/6 1370/3/6 1374/3/6
f 1367/3/6 1368/3/6 1374/3/6
f 1368/3/6 1369/3/6 1374/3/6
f 1371/3/6 1372/3/6 1377/3/6
f 1374/3/6 1370/3/6 1379/3/6
f 1373/3/6 1374/3/6 1379/3/6
f 1379/3/6 1370/3/6 1380/3/6
f 1375/3/6 1376/3/6 1382/3/6
f 1377/3/6 1378/3/6 1383/3/6
f 1373/3/6 1379/3/6 1385/3/6
f 1385/3/6 1379/3/6 1386/3/6
f 1386/3/6 1379/3/6 1387/3/6
f 1371/3/6 1377/3/6 1389/3/6
f 1383/3/6 1384/3/6 1389/3/6
f 1377/3/6 1383/3/6 1389/3/6
f 1389/3/6 1384/3/6 1390/3/6
f 1390/3/6 1384/3/6 1391/3/6
f 1387/3/6 1388/3/6 1393/3/6
f 1386/3/6 1387/3/6 1393/3/6
f 1393/3/6 1388/3/6 1394/3/6
f 1394/3/6 1388/3/6 1395/3/6
f 1381/3/6 1382/3/6 1397/3/6
f 1382/3/6 1376/3/6 1397/3/6
f 1397/3/6 1376/3/6 1398/3/6
f 1395/3/6 1396/3/6 1401/3/6
f 1394/3/6 1395/3/6 1401/3/6
f 1401/3/6 1396/3/6 1402/3/6
f 1399/6/6 1400/6/6 1405/6/6
f 1405/6/6 1400/6/6 1406/6/6
f 1391/3/6 1392/3/6 1408/3/6
f 1390/3/6 1391/3/6 1408/3/6
f 1408/3/6 1392/3/6 1409/3/6
f 1403/6/6 1404/6/6 1412/6/6
f 1412/6/6 1404/6/6 1413/6/6
f 1413/6/6 1404/6/6 1414/6/6
f 1381/3/6 1397/3/6 1415/3/6
f 1415/3/6 1397/3/6 1416/3/6
f 1406/6/6 1400/6/6 1417/6/6
f 1409/3/6 1410/3/6 1420/3/6
f 1407/3/6 1408/3/6 1420/3/6
f 1408/3/6 1409/3/6 1420/3/6
f 1402/3/6 1396/3/6 1421/3/6
f 1421/3/6 1396/3/6 1422/3/6
f 1422/3/6 1396/3/6 1423/3/6
f 1423/3/6 1396/3/6 1424/3/6
f 1412/6/6 1413/6/6 1426/6/6
f 1411/6/6 1412/6/6 1426/6/6
f 1426/6/6 1413/6/6 1427/6/6
f 1427/6/6 1413/6/6 1428/6/6
f 1417/6/6 1418/6/6 1429/6/6
f 1406/6/6 1417/6/6 1429/6/6
f 1429/6/6 1418/6/6 1430/6/6
f 1430/6/6 1418/6/6 1431/6/6
f 1419/3/6 1420/3/6 1433/3/6
f 1420/3/6 1410/3/6 1433/3/6
f 1433/3/6 1410/3/6 1434/3/6
f 1431/6/6 1432/6/6 1435/6/6
f 1430/6/6 1431/6/6 1435/6/6
f 1435/6/6 1432/6/6 1436/6/6
f 1436/6/6 1432/6/6 1437/6/6
f 1437/6/6 1432/6/6 1438/6/6
f 1419/3/6 1433/3/6 1439/3/6
f 1439/3/6 1433/3/6 1440/3/6
f 1422/3/6 1423/3/6 1441/3/6
f 1441/3/6 1423/3/6 1442/3/6
f 1426/6/6 1427/6/6 1444/6/6
f 1425/6/6 1426/6/6 1444/6/6
f 1444/6/6 1427/6/6 1445/6/6
f 1445/6/6 1427/6/6 1446/6/6
f 1436/6/6 1437/6/6 1447/6/6
f 1447/6/6 1437/6/6 1448/6/6
f 1419/3/6 1439/3/6 1449/3/6
f 1449/3/6 1439/3/6 1450/3/6
f 1450/3/6 1439/3/6 1451/3/6
f 1451/3/6 1439/3/6 1452/3/6
f 1444/6/6 1445/6/6 1454/6/6
f 1443/6/6 1444/6/6 1454/6/6
f 1454/6/6 1445/6/6 1455/6/6
f 1455/6/6 1445/6/6 1456/6/6
f 1450/3/6 1451/3/6 1457/3/6
f 1457/3/6 1451/3/6 1458/3/6
f 1454/6/6 1455/6/6 1459/6/6
f 1453/6/6 1454/6/6 1459/6/6
f 1459/6/6 1455/6/6 1460/6/6
f 1461/2/6 1462/2/6 1465/2/6
f 1465/2/6 1462/2/6 1466/2/6
f 1463/5/6 1464/5/6 1471/5/6
f 1471/5/6 1464/5/6 1472/5/6
f 1472/5/6 1464/5/6 1473/5/6
f 1473/5/6 1464/5/6 1474/5/6
f 1466/2/6 1467/2/6 1479/2/6
f 1479/2/6 1467/2/6 1480/2/6
f 1468/2/6 1469/2/6 1484/2/6
f 1469/5/6 1470/5/6 1485/5/6
f 1484/2/6 1469/2/6 1485/2/6
f 1485/5/6 1470/5/6 1486/5/6
f 1472/5/6 1473/5/6 1489/5/6
f 1473/2/6 1474/2/6 1490/2/6
f 1489/5/6 1473/5/6 1490/5/6
f 1474/5/6 1464/5/6 1491/5/6
f 1490/2/6 1474/2/6 1491/2/6
f 1491/5/6 1464/5/6 1492/5/6
f 1475/3/6 1476/3/6 1495/3/6
f 1495/3/6 1476/3/6 1496/3/6
f 1477/5/6 1478/5/6 1498/5/6
f 1498/5/6 1478/5/6 1499/5/6
f 1481/5/6 1482/5/6 1501/5/6
f 1483/2/6 1484/2/6 1502/2/6
f 1482/2/6 1483/2/6 1502/2/6
f 1501/5/6 1482/5/6 1502/5/6
f 1484/2/6 1485/2/6 1502/2/6
f 1485/2/6 1486/2/6 1502/2/6
f 1486/5/6 1487/5/6 1503/5/6
f 1502/2/6 1486/2/6 1503/2/6
f 1503/5/6 1487/5/6 1504/5/6
f 1488/5/6 1489/5/6 1505/5/6
f 1505/5/6 1489/5/6 1506/5/6
f 1489/2/6 1490/2/6 1507/2/6
f 1506/5/6 1489/5/6 1507/5/6
f 1492/2/6 1493/2/6 1507/2/6
f 1490/2/6 1491/2/6 1507/2/6
f 1491/2/6 1492/2/6 1507/2/6
f 1507/2/6 1493/2/6 1508/2/6
f 1493/5/6 1494/5/6 1509/5/6
f 1508/2/6 1493/2/6 1509/2/6
f 1509/5/6 1494/5/6 1510/5/6
f 1496/5/6 1497/5/6 1513/5/6
f 1513/5/6 1497/5/6 1514/5/6
f 1505/5/6 1506/5/6 1515/5/6
f 1501/2/6 1502/2/6 1515/2/6
f 1503/2/6 1504/2/6 1515/2/6
f 1504/5/6 1505/5/6 1515/5/6
f 1502/2/6 1503/2/6 1515/2/6
f 1506/2/6 1507/2/6 1516/2/6
f 1515/5/6 1506/5/6 1516/5/6
f 1516/2/6 1507/2/6 1517/2/6
f 1510/2/6 1511/2/6 1519/2/6
f 1509/2/6 1510/2/6 1519/2/6
f 1508/2/6 1509/2/6 1519/2/6
f 1519/2/6 1511/2/6 1520/2/6
f 1511/5/6 1512/5/6 1521/5/6
f 1520/2/6 1511/2/6 1521/2/6
f 1521/5/6 1512/5/6 1522/5/6
f 1500/5/6 1501/5/6 1524/5/6
f 1517/2/6 1518/2/6 1525/2/6
f 1524/5/6 1501/5/6 1525/5/6
f 1516/2/6 1517/2/6 1525/2/6
f 1515/2/6 1516/2/6 1525/2/6
f 1501/2/6 1515/2/6 1525/2/6
f 1522/5/6 1523/5/6 1526/5/6
f 1521/2/6 1522/2/6 1526/2/6
f 1520/2/6 1521/2/6 1526/2/6
f 1526/5/6 1523/5/6 1527/5/6
f 1500/5/6 1524/5/6 1529/5/6
f 1525/2/6 1518/2/6 1530/2/6
f 1524/2/6 1525/2/6 1530/2/6
f 1530/2/6 1518/2/6 1531/2/6
f 1531/2/6 1518/2/6 1532/2/6
f 1520/2/6 1526/2/6 1535/2/6
f 1526/2/6 1527/2/6 1535/2/6
f 1535/2/6 1527/2/6 1536/2/6
f 1528/5/6 1529/5/6 1540/5/6
f 1529/5/6 1524/5/6 1541/5/6
f 1540/5/6 1529/5/6 1541/5/6
f 1524/2/6 1530/2/6 1541/2/6
f 1541/2/6 1530/2/6 1542/2/6
f 1542/2/6 1530/2/6 1543/2/6
f 1532/2/6 1533/2/6 1545/2/6
f 1531/2/6 1532/2/6 1545/2/6
f 1545/2/6 1533/2/6 1546/2/6
f 1535/2/6 1536/2/6 1547/2/6
f 1534/2/6 1535/2/6 1547/2/6
f 1536/2/6 1537/2/6 1547/2/6
f 1547/2/6 1537/2/6 1548/2/6
f 1528/5/6 1540/5/6 1551/5/6
f 1541/2/6 1542/2/6 1552/2/6
f 1551/5/6 1540/5/6 1552/5/6
f 1540/2/6 1541/2/6 1552/2/6
f 1552/2/6 1542/2/6 1553/2/6
f 1553/2/6 1542/2/6 1554/2/6
f 1545/2/6 1546/2/6 1556/2/6
f 1544/2/6 1545/2/6 1556/2/6
f 1547/2/6 1548/2/6 1556/2/6
f 1546/2/6 1547/2/6 1556/2/6
f 1549/5/6 1550/5/6 1557/5/6
f 1548/5/6 1549/5/6 1557/5/6
f 1556/2/6 1548/2/6 1557/2/6
f 1557/5/6 1550/5/6 1558/5/6
f 1538/5/6 1539/5/6 1559/5/6
f 1552/2/6 1553/2/6 1560/2/6
f 1551/2/6 1552/2/6 1560/2/6
f 1560/2/6 1553/2/6 1561/2/6
f 1561/2/6 1553/2/6 1562/2/6
f 1557/2/6 1558/2/6 1564/2/6
f 1555/2/6 1556/2/6 1564/2/6
f 1556/2/6 1557/2/6 1564/2/6
f 1538/5/6 1559/5/6 1565/5/6
f 1559/5/6 1560/5/6 1565/5/6
f 1560/2/6 1561/2/6 1566/2/6
f 1565/5/6 1560/5/6 1566/5/6
f 1563/2/6 1564/2/6 1568/2/6
f 1564/2/6 1558/2/6 1569/2/6
f 1568/2/6 1564/2/6 1569/2/6
f 1569/2/6 1558/2/6 1570/2/6
f 1558/5/6 1550/5/6 1571/5/6
f 1571/5/6 1550/5/6 1572/5/6
f 1538/5/6 1565/5/6 1573/5/6
f 1573/5/6 1565/5/6 1574/5/6
f 1567/2/6 1568/2/6 1576/2/6
f 1568/2/6 1569/2/6 1576/2/6
f 1570/2/6 1558/2/6 1577/2/6
f 1577/2/6 1558/2/6 1578/2/6
f 1558/5/6 1571/5/6 1579/5/6
f 1578/2/6 1558/2/6 1579/2/6
f 1579/5/6 1571/5/6 1580/5/6
f 1566/2/6 1561/2/6 1583/2/6
f 1583/2/6 1561/2/6 1584/2/6
f 1584/2/6 1561/2/6 1585/2/6
f 1575/2/6 1576/2/6 1586/2/6
f 1576/2/6 1569/2/6 1586/2/6
f 1586/2/6 1587/2/6 1589/2/6
f 1575/2/6 1586/2/6 1589/2/6
f 1589/2/6 1587/2/6 1590/2/6
f 1579/2/6 1580/2/6 1592/2/6
f 1578/2/6 1579/2/6 1592/2/6
f 1592/2/6 1580/2/6 1593/2/6
f 1580/3/6 1581/3/6 1594/3/6
f 1593/2/6 1580/2/6 1594/2/6
f 1594/3/6 1581/3/6 1595/3/6
f 1582/2/6 1583/2/6 1596/2/6
f 1583/2/6 1584/2/6 1596/2/6
f 1590/2/6 1591/2/6 1597/2/6
f 1589/2/6 1590/2/6 1597/2/6
f 1588/2/6 1589/2/6 1597/2/6
f 1582/2/6 1596/2/6 1599/2/6
f 1596/2/6 1597/2/6 1599/2/6
f 1597/2/6 1591/2/6 1600/2/6
f 1599/2/6 1597/2/6 1600/2/6
f 1598/5/6 1599/5/6 1602/5/6
f 1600/2/6 1601/2/6 1602/2/6
f 1599/2/6 1600/2/6 1602/2/6
f 1602/2/6 1601/2/6 1603/2/6
f 1603/2/6 1601/2/6 1604/2/6
f 1594/2/6 1595/2/6 1605/2/6
f 1593/2/6 1594/2/6 1605/2/6
f 1602/5/6 1603/5/6 1606/5/6
f 1598/5/6 1602/5/6 1606/5/6
f 1603/2/6 1604/2/6 1607/2/6
f 1606/5/6 1603/5/6 1607/5/6
f 1604/2/6 1605/2/6 1607/2/6
f 1607/2/6 1605/2/6 1608/2/6
f 1608/2/6 1605/2/6 1609/2/6
f 1609/2/6 1605/2/6 1610/2/6
f 1598/5/6 1606/5/6 1611/5/6
f 1611/5/6 1606/5/6 1612/5/6
f 1608/2/6 1609/2/6 1613/2/6
f 1610/2/6 1605/2/6 1614/2/6
f 1614/2/6 1605/2/6 1615/2/6
f 1605/2/6 1595/2/6 1616/2/6
f 1615/2/6 1605/2/6 1616/2/6
f 1595/3/6 1581/3/6 1617/3/6
f 1616/2/6 1595/2/6 1617/2/6
f 1613/2/6 1609/2/6 1621/2/6
f 1615/2/6 1616/2/6 1622/2/6
f 1616/3/6 1617/3/6 1623/3/6
f 1622/2/6 1616/2/6 1623/2/6
f 1617/3/6 1581/3/6 1624/3/6
f 1623/3/6 1617/3/6 1624/3/6
f 1620/5/6 1621/5/6 1625/5/6
f 1621/2/6 1609/2/6 1626/2/6
f 1625/5/6 1621/5/6 1626/5/6
f 1626/2/6 1609/2/6 1627/2/6
f 1618/5/6 1619/5/6 1629/5/6
f 1627/2/6 1628/2/6 1630/2/6
f 1625/2/6 1626/2/6 1630/2/6
f 1626/2/6 1627/2/6 1630/2/6
f 1622/3/6 1623/3/6 1631/3/6
f 1615/2/6 1622/2/6 1631/2/6
f 1631/3/6 1623/3/6 1632/3/6
f 1618/5/6 1629/5/6 1633/5/6
f 1629/5/6 1630/5/6 1633/5/6
f 1633/5/6 1630/5/6 1634/5/6
f 1630/2/6 1628/2/6 1635/2/6
f 1615/2/6 1631/2/6 1637/2/6
f 1637/2/6 1631/2/6 1638/2/6
f 1638/2/6 1631/2/6 1639/2/6
f 1639/2/6 1631/2/6 1640/2/6
f 1640/2/6 1631/2/6 1641/2/6
f 1641/2/6 1631/2/6 1642/2/6
f 1634/5/6 1630/5/6 1643/5/6
f 1633/6/6 1634/6/6 1643/6/6
f 1635/2/6 1636/2/6 1644/2/6
f 1643/5/6 1630/5/6 1644/5/6
f 1630/2/6 1635/2/6 1644/2/6
f 1644/2/6 1636/2/6 1645/2/6
f 1638/2/6 1639/2/6 1646/2/6
f 1646/2/6 1639/2/6 1647/2/6
f 1647/2/6 1639/2/6 1648/2/6
f 1640/2/6 1641/2/6 1649/2/6
f 1649/2/6 1641/2/6 1650/2/6
f 1644/2/6 1645/2/6 1651/2/6
f 1643/2/6 1644/2/6 1651/2/6
f 1646/2/6 1647/2/6 1651/2/6
f 1645/2/6 1646/2/6 1651/2/6
f 1651/2/6 1647/2/6 1652/2/6
f 1652/2/6 1647/2/6 1653/2/6
f 1653/2/6 1647/2/6 1654/2/6
f 1641/3/6 1642/3/6 1655/3/6
f 1650/2/6 1641/2/6 1655/2/6
f 1655/3/6 1642/3/6 1656/3/6
f 1643/2/6 1651/2/6 1657/2/6
f 1657/2/6 1651/2/6 1658/2/6
f 1652/2/6 1653/2/6 1659/2/6
f 1659/2/6 1653/2/6 1660/2/6
f 1650/2/6 1655/2/6 1662/2/6
f 1643/2/6 1657/2/6 1663/2/6
f 1663/2/6 1657/2/6 1664/2/6
f 1660/2/6 1653/2/6 1665/2/6
f 1665/2/6 1653/2/6 1666/2/6
f 1666/2/6 1653/2/6 1667/2/6
f 1661/2/6 1662/2/6 1669/2/6
f 1669/2/6 1662/2/6 1670/2/6
f 1662/2/6 1655/2/6 1671/2/6
f 1670/2/6 1662/2/6 1671/2/6
f 1633/6/6 1643/6/6 1673/6/6
f 1643/2/6 1663/2/6 1674/2/6
f 1673/6/6 1643/6/6 1674/6/6
f 1658/2/6 1651/2/6 1675/2/6
f 1667/2/6 1668/2/6 1677/2/6
f 1666/2/6 1667/2/6 1677/2/6
f 1677/2/6 1668/2/6 1678/2/6
f 1678/2/6 1668/2/6 1679/2/6
f 1670/2/6 1671/2/6 1681/2/6
f 1681/2/6 1671/2/6 1682/2/6
f 1671/3/6 1672/3/6 1683/3/6
f 1682/2/6 1671/2/6 1683/2/6
f 1683/3/6 1672/3/6 1684/3/6
f 1673/5/6 1674/5/6 1685/5/6
f 1674/2/6 1663/2/6 1686/2/6
f 1685/5/6 1674/5/6 1686/5/6
f 1675/2/6 1676/2/6 1688/2/6
f 1658/2/6 1675/2/6 1688/2/6
f 1688/2/6 1676/2/6 1689/2/6
f 1689/2/6 1676/2/6 1690/2/6
f 1679/2/6 1680/2/6 1691/2/6
f 1678/2/6 1679/2/6 1691/2/6
f 1683/2/6 1684/2/6 1693/2/6
f 1682/2/6 1683/2/6 1693/2/6
f 1693/2/6 1684/2/6 1694/2/6
f 1684/3/6 1672/3/6 1695/3/6
f 1694/2/6 1684/2/6 1695/2/6
f 1695/3/6 1672/3/6 1696/3/6
f 1624/3/6 1581/3/6 1697/3/6
f 1687/2/6 1688/2/6 1698/2/6
f 1688/2/6 1689/2/6 1698/2/6
f 1690/2/6 1676/2/6 1700/2/6
f 1700/2/6 1676/2/6 1701/2/6
f 1691/2/6 1692/2/6 1702/2/6
f 1678/2/6 1691/2/6 1702/2/6
f 1702/2/6 1692/2/6 1703/2/6
f 1682/2/6 1693/2/6 1704/2/6
f 1704/2/6 1693/2/6 1705/2/6
f 1695/2/6 1696/2/6 1707/2/6
f 1694/2/6 1695/2/6 1707/2/6
f 1686/2/6 1663/2/6 1708/2/6
f 1708/2/6 1663/2/6 1709/2/6
f 1698/2/6 1699/2/6 1710/2/6
f 1687/2/6 1698/2/6 1710/2/6
f 1690/2/6 1700/2/6 1711/2/6
f 1711/2/6 1700/2/6 1712/2/6
f 1712/2/6 1700/2/6 1713/2/6
f 1713/2/6 1700/2/6 1714/2/6
f 1703/2/6 1692/2/6 1715/2/6
f 1682/2/6 1704/2/6 1718/2/6
f 1718/2/6 1704/2/6 1719/2/6
f 1719/2/6 1704/2/6 1720/2/6
f 1706/2/6 1707/2/6 1722/2/6
f 1708/5/6 1709/5/6 1724/5/6
f 1709/2/6 1710/2/6 1725/2/6
f 1710/2/6 1699/2/6 1725/2/6
f 1712/2/6 1713/2/6 1727/2/6
f 1727/2/6 1713/2/6 1728/2/6
f 1715/2/6 1716/2/6 1730/2/6
f 1703/2/6 1715/2/6 1730/2/6
f 1721/2/6 1722/2/6 1731/2/6
f 1707/2/6 1696/2/6 1731/2/6
f 1722/2/6 1707/2/6 1731/2/6
f 1696/3/6 1697/3/6 1732/3/6
f 1731/2/6 1696/2/6 1732/2/6
f 1724/5/6 1709/5/6 1733/5/6
f 1725/2/6 1726/2/6 1733/2/6
f 1709/2/6 1725/2/6 1733/2/6
f 1733/2/6 1726/2/6 1734/2/6
f 1734/2/6 1726/2/6 1735/2/6
f 1728/2/6 1713/2/6 1738/2/6
f 1729/2/6 1730/2/6 1740/2/6
f 1730/2/6 1716/2/6 1741/2/6
f 1740/2/6 1730/2/6 1741/2/6
f 1718/2/6 1719/2/6 1742/2/6
f 1717/2/6 1718/2/6 1742/2/6
f 1742/2/6 1719/2/6 1743/2/6
f 1743/2/6 1719/2/6 1744/2/6
f 1721/2/6 1731/2/6 1746/2/6
f 1746/2/6 1731/2/6 1747/2/6
f 1731/3/6 1732/3/6 1748/3/6
f 1747/2/6 1731/2/6 1748/2/6
f 1723/3/6 1724/3/6 1749/3/6
f 1724/5/6 1733/5/6 1749/5/6
f 1733/5/6 1734/5/6 1749/5/6
f 1735/2/6 1736/2/6 1750/2/6
f 1749/5/6 1734/5/6 1750/5/6
f 1734/2/6 1735/2/6 1750/2/6
f 1750/2/6 1736/2/6 1751/2/6
f 1751/2/6 1736/2/6 1752/2/6
f 1737/2/6 1738/2/6 1753/2/6
f 1738/2/6 1713/2/6 1754/2/6
f 1753/2/6 1738/2/6 1754/2/6
f 1740/2/6 1741/2/6 1757/2/6
f 1739/2/6 1740/2/6 1757/2/6
f 1742/2/6 1743/2/6 1757/2/6
f 1741/2/6 1742/2/6 1757/2/6
f 1757/2/6 1743/2/6 1758/2/6
f 1758/2/6 1743/2/6 1759/2/6
f 1746/2/6 1747/2/6 1761/2/6
f 1745/2/6 1746/2/6 1761/2/6
f 1761/2/6 1747/2/6 1762/2/6
f 1747/3/6 1748/3/6 1763/3/6
f 1762/2/6 1747/2/6 1763/2/6
f 1723/3/6 1749/3/6 1764/3/6
f 1751/2/6 1752/2/6 1766/2/6
f 1754/2/6 1755/2/6 1766/2/6
f 1753/2/6 1754/2/6 1766/2/6
f 1752/2/6 1753/2/6 1766/2/6
f 1766/2/6 1755/2/6 1767/2/6
f 1767/2/6 1755/2/6 1768/2/6
f 1756/2/6 1757/2/6 1769/2/6
f 1757/2/6 1758/2/6 1769/2/6
f 1769/2/6 1758/2/6 1770/2/6
f 1761/2/6 1762/2/6 1771/2/6
f 1760/2/6 1761/2/6 1771/2/6
f 1763/3/6 1748/3/6 1772/3/6
f 1748/3/6 1732/3/6 1772/3/6
f 1697/3/6 1581/3/6 1772/3/6
f 1732/3/6 1697/3/6 1772/3/6
f 1762/3/6 1763/3/6 1772/3/6
f 1772/3/6 1581/3/6 1773/3/6
f 1764/3/6 1765/3/6 1774/3/6
f 1723/3/6 1764/3/6 1774/3/6
f 1774/3/6 1765/3/6 1775/3/6
f 1775/3/6 1765/3/6 1776/3/6
f 1766/3/6 1767/3/6 1777/3/6
f 1770/2/6 1771/2/6 1778/2/6
f 1777/3/6 1767/3/6 1778/3/6
f 1767/2/6 1768/2/6 1778/2/6
f 1769/2/6 1770/2/6 1778/2/6
f 1768/2/6 1769/2/6 1778/2/6
f 1778/2/6 1771/2/6 1779/2/6
f 1779/2/6 1771/2/6 1780/2/6
f 1780/2/6 1771/2/6 1781/2/6
f 1781/2/6 1771/2/6 1782/2/6
f 1782/2/6 1771/2/6 1783/2/6
f 1783/2/6 1771/2/6 1784/2/6
f 1784/2/6 1771/2/6 1785/2/6
f 1771/2/6 1762/2/6 1786/2/6
f 1785/2/6 1771/2/6 1786/2/6
f 1762/3/6 1772/3/6 1787/3/6
f 1786/2/6 1762/2/6 1787/2/6
f 1779/3/6 1780/3/6 1790/3/6
f 1790/3/6 1780/3/6 1791/3/6
f 1781/2/6 1782/2/6 1792/2/6
f 1792/2/6 1782/2/6 1793/2/6
f 1793/2/6 1782/2/6 1794/2/6
f 1794/2/6 1782/2/6 1795/2/6
f 1782/3/6 1783/3/6 1796/3/6
f 1795/2/6 1782/2/6 1796/2/6
f 1796/3/6 1783/3/6 1797/3/6
f 1784/3/6 1785/3/6 1798/3/6
f 1785/2/6 1786/2/6 1799/2/6
f 1798/3/6 1785/3/6 1799/3/6
f 1799/2/6 1786/2/6 1800/2/6
f 1800/2/6 1786/2/6 1801/2/6
f 1801/2/6 1786/2/6 1802/2/6
f 1786/3/6 1787/3/6 1803/3/6
f 1802/2/6 1786/2/6 1803/2/6
f 1787/3/6 1772/3/6 1804/3/6
f 1803/3/6 1787/3/6 1804/3/6
f 1804/3/6 1772/3/6 1805/3/6
f 1776/3/6 1765/3/6 1806/3/6
f 1806/3/6 1765/3/6 1807/3/6
f 1788/3/6 1789/3/6 1808/3/6
f 1808/3/6 1789/3/6 1809/3/6
f 1793/3/6 1794/3/6 1811/3/6
f 1794/2/6 1795/2/6 1812/2/6
f 1811/3/6 1794/3/6 1812/3/6
f 1796/3/6 1797/3/6 1813/3/6
f 1812/2/6 1795/2/6 1813/2/6
f 1795/3/6 1796/3/6 1813/3/6
f 1813/3/6 1797/3/6 1814/3/6
f 1814/3/6 1797/3/6 1815/3/6
f 1800/3/6 1801/3/6 1816/3/6
f 1816/3/6 1801/3/6 1817/3/6
f 1801/2/6 1802/2/6 1818/2/6
f 1817/3/6 1801/3/6 1818/3/6
f 1818/2/6 1802/2/6 1819/2/6
f 1802/3/6 1803/3/6 1820/3/6
f 1819/2/6 1802/2/6 1820/2/6
f 1803/3/6 1804/3/6 1820/3/6
f 1820/3/6 1804/3/6 1821/3/6
f 1821/3/6 1804/3/6 1822/3/6
f 1811/3/6 1812/3/6 1823/3/6
f 1810/3/6 1811/3/6 1823/3/6
f 1813/3/6 1814/3/6 1823/3/6
f 1812/3/6 1813/3/6 1823/3/6
f 1823/3/6 1814/3/6 1824/3/6
f 1820/3/6 1821/3/6 1825/3/6
f 1819/3/6 1820/3/6 1825/3/6
f 1825/3/6 1821/3/6 1826/3/6
f 1827/5/6 1828/5/6 1836/5/6
f 1836/5/6 1828/5/6 1837/5/6
f 1837/5/6 1828/5/6 1838/5/6
f 1838/5/6 1828/5/6 1839/5/6
f 1828/3/6 1829/3/6 1840/3/6
f 1839/5/6 1828/5/6 1840/5/6
f 1829/6/6 1830/6/6 1841/6/6
f 1840/3/6 1829/3/6 1841/3/6
f 1841/6/6 1830/6/6 1842/6/6
f 1842/6/6 1830/6/6 1843/6/6
f 1843/6/6 1830/6/6 1844/6/6
f 1831/3/6 1832/3/6 1846/3/6
f 1832/5/6 1833/5/6 1846/5/6
f 1846/5/6 1833/5/6 1847/5/6
f 1847/5/6 1833/5/6 1848/5/6
f 1833/3/6 1834/3/6 1849/3/6
f 1848/5/6 1833/5/6 1849/5/6
f 1849/3/6 1834/3/6 1850/3/6
f 1850/3/6 1834/3/6 1851/3/6
f 1835/6/6 1836/6/6 1853/6/6
f 1853/6/6 1836/6/6 1854/6/6
f 1854/6/6 1836/6/6 1855/6/6
f 1837/3/6 1838/3/6 1856/3/6
f 1856/3/6 1838/3/6 1857/3/6
f 1838/5/6 1839/5/6 1858/5/6
f 1857/3/6 1838/3/6 1858/3/6
f 1858/5/6 1839/5/6 1859/5/6
f 1840/3/6 1841/3/6 1860/3/6
f 1841/3/6 1842/3/6 1860/3/6
f 1860/3/6 1842/3/6 1861/3/6
f 1842/6/6 1843/6/6 1862/6/6
f 1861/3/6 1842/3/6 1862/3/6
f 1844/3/6 1845/3/6 1863/3/6
f 1862/6/6 1843/6/6 1863/6/6
f 1843/3/6 1844/3/6 1863/3/6
f 1863/3/6 1845/3/6 1864/3/6
f 1831/3/6 1846/3/6 1865/3/6
f 1846/3/6 1847/3/6 1865/3/6
f 1865/3/6 1847/3/6 1866/3/6
f 1866/3/6 1847/3/6 1867/3/6
f 1849/5/6 1850/5/6 1868/5/6
f 1848/5/6 1849/5/6 1868/5/6
f 1868/5/6 1850/5/6 1869/5/6
f 1851/3/6 1852/3/6 1870/3/6
f 1869/5/6 1850/5/6 1870/5/6
f 1850/3/6 1851/3/6 1870/3/6
f 1870/3/6 1852/3/6 1871/3/6
f 1871/3/6 1852/3/6 1872/3/6
f 1835/6/6 1853/6/6 1874/6/6
f 1856/3/6 1857/3/6 1875/3/6
f 1854/3/6 1855/3/6 1875/3/6
f 1855/3/6 1856/3/6 1875/3/6
f 1875/3/6 1857/3/6 1876/3/6
f 1876/3/6 1857/3/6 1877/3/6
f 1861/3/6 1862/3/6 1878/3/6
f 1862/3/6 1863/3/6 1878/3/6
f 1878/3/6 1863/3/6 1879/3/6
f 1867/3/6 1868/3/6 1880/3/6
f 1866/3/6 1867/3/6 1880/3/6
f 1880/3/6 1868/3/6 1881/3/6
f 1881/3/6 1868/3/6 1882/3/6
f 1869/5/6 1870/5/6 1883/5/6
f 1870/6/6 1871/6/6 1884/6/6
f 1883/5/6 1870/5/6 1884/5/6
f 1872/3/6 1873/3/6 1885/3/6
f 1884/6/6 1871/6/6 1885/6/6
f 1871/3/6 1872/3/6 1885/3/6
f 1885/3/6 1873/3/6 1886/3/6
f 1835/6/6 1874/6/6 1887/6/6
f 1875/3/6 1876/3/6 1888/3/6
f 1887/6/6 1874/6/6 1888/6/6
f 1874/3/6 1875/3/6 1888/3/6
f 1883/3/6 1884/3/6 1889/3/6
f 1882/3/6 1883/3/6 1889/3/6
f 1881/3/6 1882/3/6 1889/3/6
f 1889/3/6 1884/3/6 1890/3/6
f 1885/6/6 1886/6/6 1891/6/6
f 1890/3/6 1884/3/6 1891/3/6
f 1884/6/6 1885/6/6 1891/6/6
f 1891/6/6 1886/6/6 1892/6/6
f 1886/3/6 1873/3/6 1893/3/6
f 1892/6/6 1886/6/6 1895/6/6
f 1893/3/6 1894/3/6 1895/3/6
f 1886/3/6 1893/3/6 1895/3/6
f 1895/3/6 1894/3/6 1896/3/6
f 1888/3/6 1876/3/6 1897/3/6
f 1887/3/6 1888/3/6 1897/3/6
f 1897/3/6 1876/3/6 1898/3/6
f 1891/3/6 1892/3/6 1899/3/6
f 1890/3/6 1891/3/6 1899/3/6
f 1899/3/6 1892/3/6 1900/3/6
f 1896/3/6 1894/3/6 1901/3/6
f 1895/6/6 1896/6/6 1901/6/6
f 1901/3/6 1894/3/6 1902/3/6
f 1887/3/6 1897/3/6 1903/3/6
f 1900/3/6 1892/3/6 1904/3/6
f 1901/6/6 1902/6/6 1905/6/6
f 1904/3/6 1892/3/6 1905/3/6
f 1895/6/6 1901/6/6 1905/6/6
f 1892/6/6 1895/6/6 1905/6/6
f 1905/6/6 1902/6/6 1906/6/6
f 1903/3/6 1897/3/6 1907/3/6
f 1907/3/6 1897/3/6 1908/3/6
f 1906/6/6 1902/6/6 1912/6/6
f 1909/6/6 1910/6/6 1914/6/6
f 1911/6/6 1912/6/6 1915/6/6
f 1912/6/6 1902/6/6 1916/6/6
f 1915/6/6 1912/6/6 1916/6/6
f 1913/6/6 1914/6/6 1917/6/6
f 1914/6/6 1910/6/6 1918/6/6
f 1917/6/6 1914/6/6 1918/6/6
f 1918/6/6 1910/6/6 1919/6/6
f 1917/5/6 1918/5/6 1920/5/6
f 1920/5/6 1918/5/6 1921/5/6
f 1922/3/6 1923/3/6 1925/3/6
f 1925/3/6 1923/3/6 1926/3/6
f 1924/6/6 1925/6/6 1928/6/6
f 1925/3/6 1926/3/6 1929/3/6
f 1928/6/6 1925/6/6 1929/6/6
f 1926/3/6 1927/3/6 1929/3/6
f 1929/3/6 1927/3/6 1930/3/6
f 1930/3/6 1927/3/6 1931/3/6
f 1929/3/6 1930/3/6 1934/3/6
f 1934/3/6 1930/3/6 1935/3/6
f 1932/3/6 1933/3/6 1937/3/6
f 1936/3/6 1937/3/6 1939/3/6
f 1938/3/6 1939/3/6 1940/3/6
f 1937/3/6 1933/3/6 1941/3/6
f 1940/3/6 1939/3/6 1941/3/6
f 1939/3/6 1937/3/6 1941/3/6
f 1941/3/6 1933/3/6 1944/3/6
f 1944/3/6 1933/3/6 1945/3/6
f 1942/5/6 1943/5/6 1946/5/6
f 1946/5/6 1943/5/6 1947/5/6
f 1948/3/6 1949/3/6 1950/3/6
f 1950/3/6 1949/3/6 1951/3/6
f 1951/3/6 1949/3/6 1957/3/6
f 1951/3/6 1957/3/6 1963/3/6
f 1957/3/6 1958/3/6 1963/3/6
f 1963/3/6 1958/3/6 1964/3/6
f 1964/3/6 1958/3/6 1965/3/6
f 1965/3/6 1958/3/6 1966/3/6
f 1959/3/6 1960/3/6 1967/3/6
f 1967/3/6 1960/3/6 1968/3/6
f 1961/3/6 1962/3/6 1970/3/6
f 1970/3/6 1962/3/6 1971/3/6
f 1971/3/6 1962/3/6 1972/3/6
f 1952/6/6 1953/6/6 1975/6/6
f 1955/6/6 1956/6/6 1976/6/6
f 1954/3/6 1955/3/6 1976/3/6
f 1976/6/6 1956/6/6 1977/6/6
f 1951/3/6 1963/3/6 1978/3/6
f 1978/3/6 1963/3/6 1979/3/6
f 1964/6/6 1965/6/6 1980/6/6
f 1968/3/6 1969/3/6 1981/3/6
f 1965/3/6 1966/3/6 1981/3/6
f 1980/6/6 1965/6/6 1981/6/6
f 1966/3/6 1967/3/6 1981/3/6
f 1967/3/6 1968/3/6 1981/3/6
f 1981/3/6 1969/3/6 1982/3/6
f 1982/3/6 1969/3/6 1983/3/6
f 1970/6/6 1971/6/6 1985/6/6
f 1972/3/6 1973/3/6 1986/3/6
f 1971/3/6 1972/3/6 1986/3/6
f 1985/6/6 1971/6/6 1986/6/6
f 1986/3/6 1973/3/6 1987/3/6
f 1987/3/6 1973/3/6 1988/3/6
f 1974/6/6 1975/6/6 1992/6/6
f 1992/6/6 1975/6/6 1993/6/6
f 1975/6/6 1953/6/6 1994/6/6
f 1993/6/6 1975/6/6 1994/6/6
f 1976/3/6 1977/3/6 1995/3/6
f 1977/3/6 1978/3/6 1995/3/6
f 1954/3/6 1976/3/6 1995/3/6
f 1979/6/6 1980/6/6 1996/6/6
f 1995/3/6 1978/3/6 1996/3/6
f 1978/6/6 1979/6/6 1996/6/6
f 1980/6/6 1981/6/6 1996/6/6
f 1981/6/6 1982/6/6 1996/6/6
f 1996/6/6 1982/6/6 1997/6/6
f 1984/6/6 1985/6/6 1998/6/6
f 1986/6/6 1987/6/6 1998/6/6
f 1985/6/6 1986/6/6 1998/6/6
f 1987/3/6 1988/3/6 1999/3/6
f 1998/6/6 1987/6/6 1999/6/6
f 1988/3/6 1989/3/6 1999/3/6
f 1989/6/6 1990/6/6 2000/6/6
f 1999/3/6 1989/3/6 2000/3/6
f 2000/6/6 1990/6/6 2001/6/6
f 1992/6/6 1993/6/6 2002/6/6
f 1991/6/6 1992/6/6 2002/6/6
f 2002/6/6 1993/6/6 2003/6/6
f 2006/3/6 2007/3/6 2008/3/6
f 2008/3/6 2007/3/6 2009/3/6
f 2009/3/6 2007/3/6 2010/3/6
f 2010/3/6 2007/3/6 2011/3/6
f 2004/2/6 2005/2/6 2012/2/6
f 2012/2/6 2005/2/6 2013/2/6
f 2011/3/6 2007/3/6 2014/3/6
f 2014/3/6 2007/3/6 2015/3/6
f 2012/5/6 2013/5/6 2016/5/6
f 2016/5/6 2013/5/6 2017/5/6
f 2018/5/6 2019/5/6 2020/5/6
f 2020/5/6 2019/5/6 2021/5/6
f 2022/3/6 2023/3/6 2024/3/6
f 2024/3/6 2023/3/6 2025/3/6
