# MagicaVoxel @ Ephtracy

# group
o 

# material
mtllib NEW GAME-25.mtl
usemtl palette

# normals
vn -1 0 0
vn 1 0 0
vn 0 0 -1
vn 0 0 1
vn 0 -1 0
vn 0 1 0

# texcoords
vt 0.0136719 0.5
vt 0.0175781 0.5
vt 0.0214844 0.5
vt 0.0253906 0.5
vt 0.0410156 0.5
vt 0.0449219 0.5

# verts
v -1.9 0 -1.9
v -1.9 0 2.1
v -1.9 0.4 -0.8
v -1.9 0.4 0.4
v -1.9 0.5 -1.9
v -1.9 0.5 -0.8
v -1.9 0.5 0.4
v -1.9 0.5 1.4
v -1.9 0.6 -1.9
v -1.9 0.6 -0.8
v -1.9 0.6 0.4
v -1.9 0.6 1.4
v -1.9 0.6 1.8
v -1.9 0.6 2.1
v -1.9 0.7 1.4
v -1.9 0.7 1.8
v -1.8 0.6 1.8
v -1.8 0.6 1.9
v -1.8 0.7 1.8
v -1.8 0.7 1.9
v -1.7 0.6 1.9
v -1.7 0.6 2
v -1.7 0.7 1.9
v -1.7 0.7 2
v -1.3 0.6 2
v -1.3 0.6 2.1
v -1.3 0.7 2
v -1.3 0.7 2.1
v -0.4 0.5 -1.9
v -0.4 0.5 -1.8
v -0.4 0.6 -1.9
v -0.4 0.6 -1.8
v -0.3 0.5 -1.8
v -0.3 0.5 -1.7
v -0.3 0.6 -1.8
v -0.3 0.6 -1.7
v 0 0.4 -1.6
v 0 0.4 -1.5
v 0 0.5 -1.6
v 0 0.5 -1.5
v 0.2 0.5 -1.7
v 0.2 0.5 -1.6
v 0.2 0.6 -1.9
v 0.2 0.6 -1.8
v 0.2 0.6 -1.7
v 0.2 0.6 -1.6
v 0.2 0.7 -1.9
v 0.2 0.7 -1.8
v 0.4 0.4 -1.5
v 0.4 0.4 -1.4
v 0.4 0.4 1.6
v 0.4 0.4 1.7
v 0.4 0.5 -1.5
v 0.4 0.5 -1.4
v 0.4 0.5 1.6
v 0.4 0.5 1.7
v 0.4 0.6 -1.8
v 0.4 0.6 -1.7
v 0.4 0.7 -1.8
v 0.4 0.7 -1.7
v 0.5 0.5 1.9
v 0.5 0.5 2.1
v 0.5 0.6 1.9
v 0.5 0.6 2.1
v 0.7 0.5 -1.6
v 0.7 0.5 -1.5
v 0.7 0.6 -1.6
v 0.7 0.6 -1.5
v 0.9 0.4 -1.4
v 0.9 0.4 -1.3
v 0.9 0.5 -1.4
v 0.9 0.5 -1.3
v 1.2 0.6 -1.7
v 1.2 0.6 -1.6
v 1.2 0.6 2
v 1.2 0.6 2.1
v 1.2 0.7 -1.7
v 1.2 0.7 -1.6
v 1.2 0.7 2
v 1.2 0.7 2.1
v 1.3 0.4 1.7
v 1.3 0.4 1.8
v 1.3 0.5 1.7
v 1.3 0.5 1.8
v 1.4 0.5 1.8
v 1.4 0.5 1.9
v 1.4 0.6 1.8
v 1.4 0.6 1.9
v 1.5 0.4 1.4
v 1.5 0.4 1.5
v 1.5 0.4 1.6
v 1.5 0.4 1.7
v 1.5 0.5 1.4
v 1.5 0.5 1.5
v 1.5 0.5 1.7
v 1.5 0.6 1.9
v 1.5 0.6 2
v 1.5 0.7 1.9
v 1.5 0.7 2
v 1.6 0.4 -1.3
v 1.6 0.4 -1.2
v 1.6 0.4 0.9
v 1.6 0.4 1.3
v 1.6 0.4 1.4
v 1.6 0.5 -1.3
v 1.6 0.5 -1.2
v 1.6 0.5 0.9
v 1.6 0.5 1.4
v 1.6 0.5 1.7
v 1.6 0.5 1.8
v 1.6 0.6 1.7
v 1.6 0.6 1.8
v 1.7 0.4 -1.2
v 1.7 0.4 -1.1
v 1.7 0.4 -1
v 1.7 0.4 -0.9
v 1.7 0.4 -0.7
v 1.7 0.4 -0.6
v 1.7 0.4 0.3
v 1.7 0.4 0.9
v 1.7 0.5 -1.2
v 1.7 0.5 -0.9
v 1.7 0.5 -0.7
v 1.7 0.5 -0.6
v 1.7 0.5 0.3
v 1.7 0.5 0.9
v 1.7 0.6 -1.6
v 1.7 0.6 -1.5
v 1.7 0.7 -1.6
v 1.7 0.7 -1.5
v 1.8 0.4 -0.6
v 1.8 0.4 0.3
v 1.8 0.5 -1.5
v 1.8 0.5 -1.2
v 1.8 0.5 -0.6
v 1.8 0.5 0.3
v 1.8 0.5 0.7
v 1.8 0.5 1.7
v 1.8 0.6 -1.5
v 1.8 0.6 -1.2
v 1.8 0.6 0.7
v 1.8 0.6 1.7
v 1.9 0.5 -1.2
v 1.9 0.5 -0.6
v 1.9 0.5 0.4
v 1.9 0.5 0.7
v 1.9 0.6 -1.2
v 1.9 0.6 -0.6
v 1.9 0.6 0.4
v 1.9 0.6 0.7
v 1.9 0.6 0.9
v 1.9 0.6 1.3
v 1.9 0.6 1.9
v 1.9 0.7 0.9
v 1.9 0.7 1.3
v 1.9 0.7 1.9
v 2 0.5 -0.3
v 2 0.5 0.4
v 2 0.6 -1.5
v 2 0.6 -0.9
v 2 0.6 -0.3
v 2 0.6 0.4
v 2 0.6 0.5
v 2 0.6 0.9
v 2 0.7 -1.5
v 2 0.7 -0.9
v 2 0.7 0.5
v 2 0.7 0.9
v -1.8 0.5 -1
v -1.8 0.5 -0.8
v -1.8 0.5 0.4
v -1.8 0.5 1.2
v -1.8 0.6 -1
v -1.8 0.6 -0.8
v -1.8 0.6 0.4
v -1.8 0.6 1.2
v -1.8 0.6 1.4
v -1.8 0.6 1.7
v -1.8 0.7 1.4
v -1.8 0.7 1.7
v -1.7 0.5 -1.2
v -1.7 0.5 -1
v -1.7 0.5 1.2
v -1.7 0.5 1.5
v -1.7 0.6 -1.2
v -1.7 0.6 -1
v -1.7 0.6 1.2
v -1.7 0.6 1.5
v -1.6 0.4 -0.9
v -1.6 0.4 -0.8
v -1.6 0.4 -0.7
v -1.6 0.4 -0.6
v -1.6 0.4 -0.5
v -1.6 0.4 0.1
v -1.6 0.4 0.5
v -1.6 0.4 1.1
v -1.6 0.5 -1.3
v -1.6 0.5 -1.2
v -1.6 0.5 -0.9
v -1.6 0.5 -0.7
v -1.6 0.5 -0.5
v -1.6 0.5 0.1
v -1.6 0.5 0.5
v -1.6 0.5 1.1
v -1.6 0.5 1.5
v -1.6 0.5 1.6
v -1.6 0.6 -1.3
v -1.6 0.6 -1.2
v -1.6 0.6 1.5
v -1.6 0.6 1.6
v -1.6 0.6 1.7
v -1.6 0.6 1.8
v -1.6 0.6 1.9
v -1.6 0.7 1.7
v -1.6 0.7 1.9
v -1.5 0.4 -1.2
v -1.5 0.4 -0.9
v -1.5 0.4 0.1
v -1.5 0.4 0.5
v -1.5 0.4 1.1
v -1.5 0.4 1.2
v -1.5 0.4 1.3
v -1.5 0.5 -1.2
v -1.5 0.5 -0.9
v -1.5 0.5 0.1
v -1.5 0.5 0.5
v -1.5 0.5 1.1
v -1.5 0.5 1.3
v -1.4 0.4 1.3
v -1.4 0.4 1.4
v -1.4 0.5 -1.6
v -1.4 0.5 -1.5
v -1.4 0.5 -1.3
v -1.4 0.5 1.3
v -1.4 0.5 1.4
v -1.4 0.5 1.6
v -1.4 0.5 1.8
v -1.4 0.6 -1.6
v -1.4 0.6 -1.3
v -1.4 0.6 1.6
v -1.4 0.6 1.8
v -1.3 0.4 -1.5
v -1.3 0.4 -1.2
v -1.3 0.4 1.4
v -1.3 0.4 1.5
v -1.3 0.4 1.6
v -1.3 0.5 -1.7
v -1.3 0.5 -1.6
v -1.3 0.5 -1.5
v -1.3 0.5 -1.2
v -1.3 0.5 1.4
v -1.3 0.5 1.6
v -1.3 0.6 -1.7
v -1.3 0.6 -1.6
v -1.2 0.6 1.9
v -1.2 0.6 2
v -1.2 0.7 1.9
v -1.2 0.7 2
v -1.1 0.4 -1.6
v -1.1 0.4 -1.5
v -1.1 0.5 -1.6
v -1.1 0.5 -1.5
v -1 0.5 -1.8
v -1 0.5 -1.7
v -1 0.5 1.8
v -1 0.5 1.9
v -1 0.6 -1.8
v -1 0.6 -1.7
v -1 0.6 1.8
v -1 0.6 1.9
v -0.9 0.6 2
v -0.9 0.6 2.1
v -0.9 0.7 2
v -0.9 0.7 2.1
v -0.8 0.5 1.9
v -0.8 0.5 2
v -0.8 0.6 1.9
v -0.8 0.6 2
v -0.7 0.4 1.6
v -0.7 0.4 1.7
v -0.7 0.5 -1.9
v -0.7 0.5 -1.8
v -0.7 0.5 1.6
v -0.7 0.5 1.7
v -0.7 0.6 -1.9
v -0.7 0.6 -1.8
v -0.5 0.5 2
v -0.5 0.5 2.1
v -0.5 0.6 2
v -0.5 0.6 2.1
v 0.7 0.4 1.6
v 0.7 0.4 1.8
v 0.7 0.5 1.6
v 0.7 0.5 1.8
v 1.5 0.6 -1.9
v 1.5 0.6 -1.8
v 1.5 0.7 -1.9
v 1.5 0.7 -1.8
v 1.8 0.6 -1.8
v 1.8 0.6 -1.7
v 1.8 0.7 -1.8
v 1.8 0.7 -1.7
v 2.1 0 -1.9
v 2.1 0 2.1
v 2.1 0.4 -0.6
v 2.1 0.4 -0.3
v 2.1 0.5 -1.9
v 2.1 0.5 -1.7
v 2.1 0.5 -0.9
v 2.1 0.5 -0.6
v 2.1 0.5 -0.3
v 2.1 0.5 0.5
v 2.1 0.6 -1.9
v 2.1 0.6 -1.7
v 2.1 0.6 -0.9
v 2.1 0.6 -0.6
v 2.1 0.6 -0.3
v 2.1 0.6 0.5
v 2.1 0.6 1.1
v 2.1 0.6 2.1
v 2.1 0.7 -1.7
v 2.1 0.7 -0.9
v 2.1 0.7 0.5
v 2.1 0.7 1.1
v 2.1 0.7 2.1
v -1.9 0 -1.9
v -1.9 0.5 -1.9
v -1.9 0.6 -1.9
v -1 0.4 -1.9
v -1 0.5 -1.9
v -0.7 0.4 -1.9
v -0.7 0.5 -1.9
v -0.7 0.6 -1.9
v -0.4 0.4 -1.9
v -0.4 0.5 -1.9
v -0.4 0.6 -1.9
v -0.3 0.5 -1.9
v -0.3 0.6 -1.9
v -0.2 0.5 -1.9
v -0.2 0.6 -1.9
v 0 0.5 -1.9
v 0 0.6 -1.9
v 0.1 0.5 -1.9
v 0.1 0.6 -1.9
v 0.2 0.5 -1.9
v 0.2 0.6 -1.9
v 0.2 0.7 -1.9
v 1.5 0.5 -1.9
v 1.5 0.6 -1.9
v 1.5 0.7 -1.9
v 2.1 0 -1.9
v 2.1 0.5 -1.9
v 2.1 0.6 -1.9
v 1.5 0.6 -1.8
v 1.5 0.7 -1.8
v 1.8 0.6 -1.8
v 1.8 0.7 -1.8
v 1.8 0.6 -1.7
v 1.8 0.7 -1.7
v 2.1 0.6 -1.7
v 2.1 0.7 -1.7
v 2 0.5 -0.3
v 2 0.6 -0.3
v 2.1 0.5 -0.3
v 2.1 0.6 -0.3
v -1.6 0.4 0.1
v -1.6 0.5 0.1
v -1.5 0.4 0.1
v -1.5 0.5 0.1
v 1.7 0.4 0.3
v 1.7 0.5 0.3
v 1.8 0.4 0.3
v 1.8 0.5 0.3
v -1.9 0.5 0.4
v -1.9 0.6 0.4
v -1.8 0.5 0.4
v -1.8 0.6 0.4
v 1.9 0.5 0.4
v 1.9 0.6 0.4
v 2 0.5 0.4
v 2 0.6 0.4
v 2 0.6 0.5
v 2 0.7 0.5
v 2.1 0.6 0.5
v 2.1 0.7 0.5
v 1.8 0.5 0.7
v 1.8 0.6 0.7
v 1.9 0.5 0.7
v 1.9 0.6 0.7
v 1.6 0.4 0.9
v 1.6 0.5 0.9
v 1.7 0.4 0.9
v 1.7 0.5 0.9
v 1.9 0.6 0.9
v 1.9 0.7 0.9
v 2 0.6 0.9
v 2 0.7 0.9
v -1.6 0.4 1.1
v -1.6 0.5 1.1
v -1.5 0.4 1.1
v -1.5 0.5 1.1
v -1.8 0.5 1.2
v -1.8 0.6 1.2
v -1.7 0.5 1.2
v -1.7 0.6 1.2
v -1.5 0.4 1.3
v -1.5 0.5 1.3
v -1.4 0.4 1.3
v -1.4 0.5 1.3
v -1.9 0.6 1.4
v -1.9 0.7 1.4
v -1.8 0.6 1.4
v -1.8 0.7 1.4
v -1.4 0.4 1.4
v -1.4 0.5 1.4
v -1.3 0.4 1.4
v -1.3 0.5 1.4
v 1.5 0.4 1.4
v 1.5 0.5 1.4
v 1.6 0.4 1.4
v 1.6 0.5 1.4
v -1.7 0.5 1.5
v -1.7 0.6 1.5
v -1.6 0.5 1.5
v -1.6 0.6 1.5
v -1.6 0.5 1.6
v -1.6 0.6 1.6
v -1.5 0.5 1.6
v -1.4 0.5 1.6
v -1.4 0.6 1.6
v -1.3 0.4 1.6
v -1.3 0.5 1.6
v -1.1 0.4 1.6
v -0.7 0.4 1.6
v -0.7 0.5 1.6
v 0.4 0.4 1.6
v 0.4 0.5 1.6
v 0.5 0.4 1.6
v 0.5 0.5 1.6
v 0.7 0.4 1.6
v 0.7 0.5 1.6
v -1.8 0.6 1.7
v -1.8 0.7 1.7
v -1.7 0.6 1.7
v -1.6 0.6 1.7
v -1.6 0.7 1.7
v -0.7 0.4 1.7
v -0.7 0.5 1.7
v 0.1 0.4 1.7
v 0.4 0.4 1.7
v 0.4 0.5 1.7
v 1.3 0.4 1.7
v 1.3 0.5 1.7
v 1.4 0.4 1.7
v 1.5 0.4 1.7
v 1.5 0.5 1.7
v 1.6 0.5 1.7
v 1.6 0.6 1.7
v 1.8 0.5 1.7
v 1.8 0.6 1.7
v -1.4 0.5 1.8
v -1.4 0.6 1.8
v -1 0.5 1.8
v -1 0.6 1.8
v 0.7 0.4 1.8
v 0.7 0.5 1.8
v 1.3 0.4 1.8
v 1.3 0.5 1.8
v 1.4 0.5 1.8
v 1.4 0.6 1.8
v 1.6 0.5 1.8
v 1.6 0.6 1.8
v -1.6 0.6 1.9
v -1.6 0.7 1.9
v -1.2 0.6 1.9
v -1.2 0.7 1.9
v -1 0.5 1.9
v -1 0.6 1.9
v -0.8 0.5 1.9
v -0.8 0.6 1.9
v 0.5 0.5 1.9
v 0.5 0.6 1.9
v 1.4 0.5 1.9
v 1.4 0.6 1.9
v 1.5 0.6 1.9
v 1.5 0.7 1.9
v 1.9 0.6 1.9
v 1.9 0.7 1.9
v -1.2 0.6 2
v -1.2 0.7 2
v -0.9 0.6 2
v -0.9 0.7 2
v -0.8 0.5 2
v -0.8 0.6 2
v -0.5 0.5 2
v -0.5 0.6 2
v 1.2 0.6 2
v 1.2 0.7 2
v 1.5 0.6 2
v 1.5 0.7 2
v -1 0.5 -1.8
v -1 0.6 -1.8
v -0.8 0.5 -1.8
v -0.7 0.5 -1.8
v -0.7 0.6 -1.8
v -0.4 0.5 -1.8
v -0.4 0.6 -1.8
v -0.3 0.5 -1.8
v -0.3 0.6 -1.8
v 0.2 0.6 -1.8
v 0.2 0.7 -1.8
v 0.4 0.6 -1.8
v 0.4 0.7 -1.8
v -1.3 0.5 -1.7
v -1.3 0.6 -1.7
v -1 0.5 -1.7
v -1 0.6 -1.7
v -0.3 0.5 -1.7
v -0.3 0.6 -1.7
v 0 0.5 -1.7
v 0 0.6 -1.7
v 0.1 0.5 -1.7
v 0.1 0.6 -1.7
v 0.2 0.5 -1.7
v 0.2 0.6 -1.7
v 0.4 0.6 -1.7
v 0.4 0.7 -1.7
v 1.2 0.6 -1.7
v 1.2 0.7 -1.7
v -1.4 0.5 -1.6
v -1.4 0.6 -1.6
v -1.3 0.5 -1.6
v -1.3 0.6 -1.6
v -1.1 0.4 -1.6
v -1.1 0.5 -1.6
v -0.7 0.4 -1.6
v -0.7 0.5 -1.6
v -0.5 0.4 -1.6
v -0.5 0.5 -1.6
v -0.3 0.4 -1.6
v -0.3 0.5 -1.6
v 0 0.4 -1.6
v 0 0.5 -1.6
v 0.2 0.5 -1.6
v 0.2 0.6 -1.6
v 0.6 0.5 -1.6
v 0.7 0.5 -1.6
v 0.7 0.6 -1.6
v 1.2 0.6 -1.6
v 1.2 0.7 -1.6
v 1.5 0.6 -1.6
v 1.6 0.6 -1.6
v 1.6 0.7 -1.6
v 1.7 0.6 -1.6
v 1.7 0.7 -1.6
v -1.3 0.4 -1.5
v -1.3 0.5 -1.5
v -1.1 0.4 -1.5
v -1.1 0.5 -1.5
v 0 0.4 -1.5
v 0 0.5 -1.5
v 0.4 0.4 -1.5
v 0.4 0.5 -1.5
v 0.7 0.5 -1.5
v 0.7 0.6 -1.5
v 0.8 0.5 -1.5
v 0.9 0.5 -1.5
v 0.9 0.6 -1.5
v 1.4 0.5 -1.5
v 1.5 0.5 -1.5
v 1.5 0.6 -1.5
v 1.7 0.5 -1.5
v 1.7 0.6 -1.5
v 1.7 0.7 -1.5
v 1.8 0.5 -1.5
v 1.8 0.6 -1.5
v 1.9 0.6 -1.5
v 1.9 0.7 -1.5
v 2 0.6 -1.5
v 2 0.7 -1.5
v 0.4 0.4 -1.4
v 0.4 0.5 -1.4
v 0.5 0.4 -1.4
v 0.5 0.5 -1.4
v 0.8 0.4 -1.4
v 0.8 0.5 -1.4
v 0.9 0.4 -1.4
v 0.9 0.5 -1.4
v -1.6 0.5 -1.3
v -1.6 0.6 -1.3
v -1.4 0.5 -1.3
v -1.4 0.6 -1.3
v 0.9 0.4 -1.3
v 0.9 0.5 -1.3
v 1.6 0.4 -1.3
v 1.6 0.5 -1.3
v -1.7 0.5 -1.2
v -1.7 0.6 -1.2
v -1.6 0.5 -1.2
v -1.6 0.6 -1.2
v -1.5 0.4 -1.2
v -1.5 0.5 -1.2
v -1.3 0.4 -1.2
v -1.3 0.5 -1.2
v 1.6 0.4 -1.2
v 1.6 0.5 -1.2
v 1.7 0.4 -1.2
v 1.7 0.5 -1.2
v 1.8 0.5 -1.2
v 1.8 0.6 -1.2
v 1.9 0.5 -1.2
v 1.9 0.6 -1.2
v -1.8 0.5 -1
v -1.8 0.6 -1
v -1.7 0.5 -1
v -1.7 0.6 -1
v -1.6 0.4 -0.9
v -1.6 0.5 -0.9
v -1.5 0.4 -0.9
v -1.5 0.5 -0.9
v 2 0.6 -0.9
v 2 0.7 -0.9
v 2.1 0.6 -0.9
v 2.1 0.7 -0.9
v -1.9 0.5 -0.8
v -1.9 0.6 -0.8
v -1.8 0.5 -0.8
v -1.8 0.6 -0.8
v 1.7 0.4 -0.6
v 1.7 0.5 -0.6
v 1.8 0.4 -0.6
v 1.8 0.5 -0.6
v 1.9 0.5 -0.6
v 1.9 0.6 -0.6
v 2.1 0.5 -0.6
v 2.1 0.6 -0.6
v -1.6 0.4 0.5
v -1.6 0.5 0.5
v -1.5 0.4 0.5
v -1.5 0.5 0.5
v -1.9 0.6 1.8
v -1.9 0.7 1.8
v -1.8 0.6 1.8
v -1.8 0.7 1.8
v -1.8 0.6 1.9
v -1.8 0.7 1.9
v -1.7 0.6 1.9
v -1.7 0.7 1.9
v -1.7 0.6 2
v -1.7 0.7 2
v -1.3 0.6 2
v -1.3 0.7 2
v -1.9 0 2.1
v -1.9 0.6 2.1
v -1.3 0.6 2.1
v -1.3 0.7 2.1
v -0.9 0.5 2.1
v -0.9 0.6 2.1
v -0.9 0.7 2.1
v -0.5 0.4 2.1
v -0.5 0.5 2.1
v -0.5 0.6 2.1
v 0.5 0.4 2.1
v 0.5 0.5 2.1
v 0.5 0.6 2.1
v 1.2 0.5 2.1
v 1.2 0.6 2.1
v 1.2 0.7 2.1
v 1.5 0.6 2.1
v 1.5 0.7 2.1
v 2.1 0 2.1
v 2.1 0.6 2.1
v 2.1 0.7 2.1
v -1.9 0 -1.9
v 2.1 0 -1.9
v -1.9 0 2.1
v 2.1 0 2.1
v -1.1 0.4 -1.6
v -0.7 0.4 -1.6
v -0.5 0.4 -1.6
v -0.3 0.4 -1.6
v 0 0.4 -1.6
v -1.3 0.4 -1.5
v -1.1 0.4 -1.5
v -0.7 0.4 -1.5
v -0.6 0.4 -1.5
v 0 0.4 -1.5
v 0.4 0.4 -1.5
v -1 0.4 -1.4
v -0.7 0.4 -1.4
v -0.6 0.4 -1.4
v -0.2 0.4 -1.4
v 0 0.4 -1.4
v 0.2 0.4 -1.4
v 0.4 0.4 -1.4
v 0.5 0.4 -1.4
v 0.8 0.4 -1.4
v 0.9 0.4 -1.4
v -1.2 0.4 -1.3
v -1 0.4 -1.3
v -0.7 0.4 -1.3
v -0.3 0.4 -1.3
v -0.2 0.4 -1.3
v 0 0.4 -1.3
v 0.1 0.4 -1.3
v 0.2 0.4 -1.3
v 0.3 0.4 -1.3
v 0.9 0.4 -1.3
v 1.6 0.4 -1.3
v -1.5 0.4 -1.2
v -1.3 0.4 -1.2
v -0.7 0.4 -1.2
v -0.4 0.4 -1.2
v 0.3 0.4 -1.2
v 0.6 0.4 -1.2
v 0.8 0.4 -1.2
v 1.4 0.4 -1.2
v 1.5 0.4 -1.2
v 1.6 0.4 -1.2
v 1.7 0.4 -1.2
v -1.4 0.4 -1.1
v -1.2 0.4 -1.1
v -1 0.4 -1.1
v -0.7 0.4 -1.1
v -0.4 0.4 -1.1
v -0.3 0.4 -1.1
v 0.1 0.4 -1.1
v 0.3 0.4 -1.1
v 0.6 0.4 -1.1
v 0.8 0.4 -1.1
v 1.3 0.4 -1.1
v 1.4 0.4 -1.1
v 1.5 0.4 -1.1
v 1.7 0.4 -1.1
v -1.4 0.4 -1
v -1.2 0.4 -1
v -1.1 0.4 -1
v -1 0.4 -1
v -0.7 0.4 -1
v 0.3 0.4 -1
v 0.5 0.4 -1
v 1.3 0.4 -1
v 1.5 0.4 -1
v 1.6 0.4 -1
v 1.7 0.4 -1
v -1.6 0.4 -0.9
v -1.5 0.4 -0.9
v -1.4 0.4 -0.9
v -1.3 0.4 -0.9
v -1.1 0.4 -0.9
v -0.8 0.4 -0.9
v -0.2 0.4 -0.9
v 0.3 0.4 -0.9
v 0.4 0.4 -0.9
v 0.5 0.4 -0.9
v 0.7 0.4 -0.9
v 1.7 0.4 -0.9
v -1.6 0.4 -0.8
v -1.5 0.4 -0.8
v -1.4 0.4 -0.8
v -1.3 0.4 -0.8
v -1.1 0.4 -0.8
v -1 0.4 -0.8
v -0.8 0.4 -0.8
v -0.2 0.4 -0.8
v 0.3 0.4 -0.8
v 0.4 0.4 -0.8
v 0.7 0.4 -0.8
v 0.8 0.4 -0.8
v 1.4 0.4 -0.8
v 1.5 0.4 -0.8
v -1.6 0.4 -0.7
v -1.2 0.4 -0.7
v -1.1 0.4 -0.7
v -0.2 0.4 -0.7
v 0.3 0.4 -0.7
v 1.5 0.4 -0.7
v 1.6 0.4 -0.7
v 1.7 0.4 -0.7
v -1.6 0.4 -0.6
v -1.5 0.4 -0.6
v -1.4 0.4 -0.6
v -1.3 0.4 -0.6
v -1.2 0.4 -0.6
v 0.9 0.4 -0.6
v 1 0.4 -0.6
v 1.3 0.4 -0.6
v 1.4 0.4 -0.6
v 1.5 0.4 -0.6
v 1.6 0.4 -0.6
v 1.7 0.4 -0.6
v 1.8 0.4 -0.6
v -1.6 0.4 -0.5
v -1.5 0.4 -0.5
v -1.3 0.4 -0.5
v -1.1 0.4 -0.5
v -1 0.4 -0.5
v -0.6 0.4 -0.5
v -0.5 0.4 -0.5
v -0.4 0.4 -0.5
v -0.2 0.4 -0.5
v 0 0.4 -0.5
v 0.2 0.4 -0.5
v 0.3 0.4 -0.5
v 0.4 0.4 -0.5
v 0.8 0.4 -0.5
v 0.9 0.4 -0.5
v -1.3 0.4 -0.4
v -1.2 0.4 -0.4
v -0.4 0.4 -0.4
v -0.3 0.4 -0.4
v -0.2 0.4 -0.4
v 0 0.4 -0.4
v 0.2 0.4 -0.4
v 0.3 0.4 -0.4
v 0.4 0.4 -0.4
v 0.5 0.4 -0.4
v 0.7 0.4 -0.4
v 0.8 0.4 -0.4
v 0.9 0.4 -0.4
v 1 0.4 -0.4
v 1.5 0.4 -0.4
v 1.6 0.4 -0.4
v 1.7 0.4 -0.4
v -1.1 0.4 -0.3
v -1 0.4 -0.3
v -0.3 0.4 -0.3
v -0.2 0.4 -0.3
v -0.1 0.4 -0.3
v 0.3 0.4 -0.3
v 0.4 0.4 -0.3
v 1.2 0.4 -0.3
v 1.3 0.4 -0.3
v 1.5 0.4 -0.3
v 1.6 0.4 -0.3
v -1.4 0.4 -0.2
v -1.3 0.4 -0.2
v -1.2 0.4 -0.2
v -1.1 0.4 -0.2
v -0.5 0.4 -0.2
v -0.4 0.4 -0.2
v -0.3 0.4 -0.2
v -0.2 0.4 -0.2
v -0.1 0.4 -0.2
v 0 0.4 -0.2
v 0.3 0.4 -0.2
v 0.4 0.4 -0.2
v 0.5 0.4 -0.2
v 0.8 0.4 -0.2
v 0.9 0.4 -0.2
v 1.4 0.4 -0.2
v 1.5 0.4 -0.2
v -0.7 0.4 -0.1
v -0.6 0.4 -0.1
v -0.1 0.4 -0.1
v 0 0.4 -0.1
v 0.2 0.4 -0.1
v 0.7 0.4 -0.1
v 0.8 0.4 -0.1
v -0.5 0.4 0
v -0.4 0.4 0
v -0.2 0.4 0
v 0.2 0.4 0
v 0.3 0.4 0
v 0.4 0.4 0
v 0.6 0.4 0
v 1.2 0.4 0
v 1.3 0.4 0
v 1.4 0.4 0
v -1.6 0.4 0.1
v -1.5 0.4 0.1
v -1.2 0.4 0.1
v -1.1 0.4 0.1
v -0.6 0.4 0.1
v -0.4 0.4 0.1
v -0.3 0.4 0.1
v -0.2 0.4 0.1
v -0.1 0.4 0.1
v 0.2 0.4 0.1
v 0.3 0.4 0.1
v 1.3 0.4 0.1
v 1.4 0.4 0.1
v -1.3 0.4 0.2
v -1.2 0.4 0.2
v -0.8 0.4 0.2
v -0.7 0.4 0.2
v -0.4 0.4 0.2
v -0.3 0.4 0.2
v -0.1 0.4 0.2
v 0.1 0.4 0.2
v 0.2 0.4 0.2
v 0.3 0.4 0.2
v 0.4 0.4 0.2
v 0.8 0.4 0.2
v 0.9 0.4 0.2
v -1.4 0.4 0.3
v -1.3 0.4 0.3
v -0.3 0.4 0.3
v -0.2 0.4 0.3
v 0 0.4 0.3
v 0.1 0.4 0.3
v 0.2 0.4 0.3
v 0.4 0.4 0.3
v 1.3 0.4 0.3
v 1.4 0.4 0.3
v 1.7 0.4 0.3
v 1.8 0.4 0.3
v -0.7 0.4 0.4
v -0.6 0.4 0.4
v -0.3 0.4 0.4
v -0.2 0.4 0.4
v -0.1 0.4 0.4
v 0 0.4 0.4
v 0.1 0.4 0.4
v 0.3 0.4 0.4
v 0.4 0.4 0.4
v 0.5 0.4 0.4
v 1.2 0.4 0.4
v 1.3 0.4 0.4
v 1.4 0.4 0.4
v -1.6 0.4 0.5
v -1.5 0.4 0.5
v -0.9 0.4 0.5
v -0.8 0.4 0.5
v -0.7 0.4 0.5
v -0.2 0.4 0.5
v -0.1 0.4 0.5
v 0.3 0.4 0.5
v 0.4 0.4 0.5
v 0.8 0.4 0.5
v 0.9 0.4 0.5
v 1 0.4 0.5
v -1.4 0.4 0.6
v -1.3 0.4 0.6
v -0.9 0.4 0.6
v -0.8 0.4 0.6
v -0.6 0.4 0.6
v -0.5 0.4 0.6
v -0.2 0.4 0.6
v -0.1 0.4 0.6
v 0 0.4 0.6
v 0.3 0.4 0.6
v 0.4 0.4 0.6
v 0.5 0.4 0.6
v 0.6 0.4 0.6
v 1.1 0.4 0.6
v 1.2 0.4 0.6
v 1.3 0.4 0.6
v 1.4 0.4 0.6
v 1.5 0.4 0.6
v -0.8 0.4 0.7
v -0.6 0.4 0.7
v 0.2 0.4 0.7
v 0.3 0.4 0.7
v 0.4 0.4 0.7
v 0.5 0.4 0.7
v 0.9 0.4 0.7
v 1 0.4 0.7
v -1.5 0.4 0.8
v -1.4 0.4 0.8
v -0.9 0.4 0.8
v -0.8 0.4 0.8
v -0.7 0.4 0.8
v -0.6 0.4 0.8
v -0.5 0.4 0.8
v -0.4 0.4 0.8
v -0.3 0.4 0.8
v -0.1 0.4 0.8
v 0 0.4 0.8
v 0.1 0.4 0.8
v 0.2 0.4 0.8
v 0.4 0.4 0.8
v 0.5 0.4 0.8
v 1 0.4 0.8
v 1.1 0.4 0.8
v 1.2 0.4 0.8
v 1.4 0.4 0.8
v 1.5 0.4 0.8
v -1.3 0.4 0.9
v -1.1 0.4 0.9
v -0.8 0.4 0.9
v -0.7 0.4 0.9
v -0.5 0.4 0.9
v -0.4 0.4 0.9
v 0 0.4 0.9
v 0.1 0.4 0.9
v 0.2 0.4 0.9
v 0.8 0.4 0.9
v 1 0.4 0.9
v 1.1 0.4 0.9
v 1.3 0.4 0.9
v 1.4 0.4 0.9
v 1.6 0.4 0.9
v 1.7 0.4 0.9
v -1.5 0.4 1
v -1.4 0.4 1
v -0.8 0.4 1
v -0.5 0.4 1
v -0.1 0.4 1
v 0.2 0.4 1
v 0.6 0.4 1
v 0.8 0.4 1
v 1 0.4 1
v -1.6 0.4 1.1
v -1.5 0.4 1.1
v -1.4 0.4 1.1
v -1.3 0.4 1.1
v -1.2 0.4 1.1
v -1.1 0.4 1.1
v -0.9 0.4 1.1
v -0.8 0.4 1.1
v -0.1 0.4 1.1
v 0.5 0.4 1.1
v 0.6 0.4 1.1
v 0.8 0.4 1.1
v 1.2 0.4 1.1
v 1.3 0.4 1.1
v -1.5 0.4 1.2
v -1.4 0.4 1.2
v -1.3 0.4 1.2
v 0.1 0.4 1.2
v 0.4 0.4 1.2
v 0.5 0.4 1.2
v 0.6 0.4 1.2
v 0.9 0.4 1.2
v 1.2 0.4 1.2
v -1.5 0.4 1.3
v -1.4 0.4 1.3
v -1.3 0.4 1.3
v -1.2 0.4 1.3
v -1.1 0.4 1.3
v -0.9 0.4 1.3
v -0.8 0.4 1.3
v -0.5 0.4 1.3
v -0.4 0.4 1.3
v 0.1 0.4 1.3
v 0.4 0.4 1.3
v 0.5 0.4 1.3
v 0.9 0.4 1.3
v 1.4 0.4 1.3
v 1.6 0.4 1.3
v -1.4 0.4 1.4
v -1.3 0.4 1.4
v -1.2 0.4 1.4
v -1.1 0.4 1.4
v -1 0.4 1.4
v -0.8 0.4 1.4
v -0.5 0.4 1.4
v -0.4 0.4 1.4
v -0.3 0.4 1.4
v 1.3 0.4 1.4
v 1.4 0.4 1.4
v 1.5 0.4 1.4
v 1.6 0.4 1.4
v -1.3 0.4 1.5
v -1.1 0.4 1.5
v -1 0.4 1.5
v -0.7 0.4 1.5
v -0.5 0.4 1.5
v -0.4 0.4 1.5
v -0.1 0.4 1.5
v 0.4 0.4 1.5
v 1.2 0.4 1.5
v 1.3 0.4 1.5
v 1.5 0.4 1.5
v -1.3 0.4 1.6
v -1.1 0.4 1.6
v -0.7 0.4 1.6
v -0.5 0.4 1.6
v -0.3 0.4 1.6
v -0.1 0.4 1.6
v 0.1 0.4 1.6
v 0.4 0.4 1.6
v 0.5 0.4 1.6
v 0.7 0.4 1.6
v 1.2 0.4 1.6
v 1.3 0.4 1.6
v 1.4 0.4 1.6
v 1.5 0.4 1.6
v -0.7 0.4 1.7
v 0.1 0.4 1.7
v 0.4 0.4 1.7
v 1.3 0.4 1.7
v 1.4 0.4 1.7
v 1.5 0.4 1.7
v 0.7 0.4 1.8
v 1.3 0.4 1.8
v -0.7 0.5 -1.9
v -0.4 0.5 -1.9
v -1 0.5 -1.8
v -0.8 0.5 -1.8
v -0.7 0.5 -1.8
v -0.6 0.5 -1.8
v -0.4 0.5 -1.8
v -0.3 0.5 -1.8
v -1.3 0.5 -1.7
v -1 0.5 -1.7
v -0.8 0.5 -1.7
v -0.7 0.5 -1.7
v -0.6 0.5 -1.7
v -0.5 0.5 -1.7
v -0.3 0.5 -1.7
v 0 0.5 -1.7
v 0.1 0.5 -1.7
v 0.2 0.5 -1.7
v -1.4 0.5 -1.6
v -1.3 0.5 -1.6
v -1.1 0.5 -1.6
v -0.7 0.5 -1.6
v -0.5 0.5 -1.6
v -0.3 0.5 -1.6
v 0 0.5 -1.6
v 0.2 0.5 -1.6
v 0.6 0.5 -1.6
v 0.7 0.5 -1.6
v -1.4 0.5 -1.5
v -1.3 0.5 -1.5
v -1.1 0.5 -1.5
v 0 0.5 -1.5
v 0.4 0.5 -1.5
v 0.5 0.5 -1.5
v 0.6 0.5 -1.5
v 0.7 0.5 -1.5
v 0.8 0.5 -1.5
v 0.9 0.5 -1.5
v 1.4 0.5 -1.5
v 1.5 0.5 -1.5
v 1.7 0.5 -1.5
v 1.8 0.5 -1.5
v 0.4 0.5 -1.4
v 0.5 0.5 -1.4
v 0.8 0.5 -1.4
v 0.9 0.5 -1.4
v 1.4 0.5 -1.4
v 1.7 0.5 -1.4
v -1.6 0.5 -1.3
v -1.4 0.5 -1.3
v 0.9 0.5 -1.3
v 1.6 0.5 -1.3
v -1.7 0.5 -1.2
v -1.6 0.5 -1.2
v -1.5 0.5 -1.2
v -1.3 0.5 -1.2
v 1.6 0.5 -1.2
v 1.7 0.5 -1.2
v 1.8 0.5 -1.2
v 1.9 0.5 -1.2
v -1.8 0.5 -1
v -1.7 0.5 -1
v -1.6 0.5 -0.9
v -1.5 0.5 -0.9
v 1.7 0.5 -0.9
v 1.8 0.5 -0.9
v -1.9 0.5 -0.8
v -1.8 0.5 -0.8
v -1.7 0.5 -0.7
v -1.6 0.5 -0.7
v 1.7 0.5 -0.7
v 1.8 0.5 -0.7
v -1.8 0.5 -0.6
v -1.7 0.5 -0.6
v 1.7 0.5 -0.6
v 1.8 0.5 -0.6
v 1.9 0.5 -0.6
v 2.1 0.5 -0.6
v -1.8 0.5 -0.5
v -1.6 0.5 -0.5
v 2 0.5 -0.3
v 2.1 0.5 -0.3
v -1.6 0.5 0.1
v -1.5 0.5 0.1
v 1.7 0.5 0.3
v 1.8 0.5 0.3
v -1.9 0.5 0.4
v -1.8 0.5 0.4
v 1.9 0.5 0.4
v 2 0.5 0.4
v -1.6 0.5 0.5
v -1.5 0.5 0.5
v 1.8 0.5 0.7
v 1.9 0.5 0.7
v 1.6 0.5 0.9
v 1.7 0.5 0.9
v -1.6 0.5 1.1
v -1.5 0.5 1.1
v -1.8 0.5 1.2
v -1.7 0.5 1.2
v -1.5 0.5 1.3
v -1.4 0.5 1.3
v -1.6 0.5 1.4
v -1.5 0.5 1.4
v -1.4 0.5 1.4
v -1.3 0.5 1.4
v 1.5 0.5 1.4
v 1.6 0.5 1.4
v -1.7 0.5 1.5
v -1.6 0.5 1.5
v 1.5 0.5 1.5
v 1.6 0.5 1.5
v -1.6 0.5 1.6
v -1.5 0.5 1.6
v -1.4 0.5 1.6
v -1.3 0.5 1.6
v -0.7 0.5 1.6
v 0.4 0.5 1.6
v 0.5 0.5 1.6
v 0.7 0.5 1.6
v -0.7 0.5 1.7
v 0.4 0.5 1.7
v 0.5 0.5 1.7
v 1.3 0.5 1.7
v 1.5 0.5 1.7
v 1.6 0.5 1.7
v 1.8 0.5 1.7
v -1.4 0.5 1.8
v -1 0.5 1.8
v 0.7 0.5 1.8
v 1.3 0.5 1.8
v 1.4 0.5 1.8
v 1.6 0.5 1.8
v -1 0.5 1.9
v -0.8 0.5 1.9
v 0.5 0.5 1.9
v 1.4 0.5 1.9
v -0.8 0.5 2
v -0.5 0.5 2
v -0.5 0.5 2.1
v 0.5 0.5 2.1
v -1.9 0.6 -1.9
v -0.7 0.6 -1.9
v -0.4 0.6 -1.9
v -0.3 0.6 -1.9
v -0.2 0.6 -1.9
v 0 0.6 -1.9
v 0.1 0.6 -1.9
v 0.2 0.6 -1.9
v 1.5 0.6 -1.9
v 2.1 0.6 -1.9
v -1 0.6 -1.8
v -0.7 0.6 -1.8
v -0.4 0.6 -1.8
v -0.3 0.6 -1.8
v -0.2 0.6 -1.8
v 0.2 0.6 -1.8
v 0.4 0.6 -1.8
v 1.5 0.6 -1.8
v 1.8 0.6 -1.8
v -1.3 0.6 -1.7
v -1 0.6 -1.7
v -0.3 0.6 -1.7
v 0 0.6 -1.7
v 0.1 0.6 -1.7
v 0.2 0.6 -1.7
v 0.4 0.6 -1.7
v 1.2 0.6 -1.7
v 1.8 0.6 -1.7
v 2.1 0.6 -1.7
v -1.4 0.6 -1.6
v -1.3 0.6 -1.6
v 0.2 0.6 -1.6
v 0.7 0.6 -1.6
v 0.9 0.6 -1.6
v 1.2 0.6 -1.6
v 1.5 0.6 -1.6
v 1.6 0.6 -1.6
v 1.7 0.6 -1.6
v 0.7 0.6 -1.5
v 0.9 0.6 -1.5
v 1.5 0.6 -1.5
v 1.7 0.6 -1.5
v 1.8 0.6 -1.5
v 1.9 0.6 -1.5
v 2 0.6 -1.5
v -1.6 0.6 -1.3
v -1.4 0.6 -1.3
v -1.7 0.6 -1.2
v -1.6 0.6 -1.2
v 1.8 0.6 -1.2
v 1.9 0.6 -1.2
v -1.8 0.6 -1
v -1.7 0.6 -1
v 2 0.6 -0.9
v 2.1 0.6 -0.9
v -1.9 0.6 -0.8
v -1.8 0.6 -0.8
v 1.9 0.6 -0.6
v 2.1 0.6 -0.6
v 2 0.6 -0.3
v 2.1 0.6 -0.3
v -1.9 0.6 0.4
v -1.8 0.6 0.4
v 1.9 0.6 0.4
v 2 0.6 0.4
v 2 0.6 0.5
v 2.1 0.6 0.5
v 1.8 0.6 0.7
v 1.9 0.6 0.7
v 1.9 0.6 0.9
v 2 0.6 0.9
v -1.8 0.6 1.2
v -1.7 0.6 1.2
v 1.9 0.6 1.3
v -1.9 0.6 1.4
v -1.8 0.6 1.4
v -1.7 0.6 1.5
v -1.6 0.6 1.5
v -1.6 0.6 1.6
v -1.4 0.6 1.6
v -1.8 0.6 1.7
v -1.7 0.6 1.7
v -1.6 0.6 1.7
v 1.6 0.6 1.7
v 1.8 0.6 1.7
v -1.9 0.6 1.8
v -1.8 0.6 1.8
v -1.6 0.6 1.8
v -1.4 0.6 1.8
v -1 0.6 1.8
v 1.4 0.6 1.8
v 1.6 0.6 1.8
v -1.8 0.6 1.9
v -1.7 0.6 1.9
v -1.6 0.6 1.9
v -1.2 0.6 1.9
v -1 0.6 1.9
v -0.8 0.6 1.9
v 0.5 0.6 1.9
v 1.4 0.6 1.9
v 1.5 0.6 1.9
v 1.9 0.6 1.9
v -1.8 0.6 2
v -1.7 0.6 2
v -1.3 0.6 2
v -1.2 0.6 2
v -0.9 0.6 2
v -0.8 0.6 2
v -0.5 0.6 2
v 1.2 0.6 2
v 1.5 0.6 2
v -1.9 0.6 2.1
v -1.3 0.6 2.1
v -0.9 0.6 2.1
v -0.5 0.6 2.1
v 0.5 0.6 2.1
v 1.2 0.6 2.1
v 0.2 0.7 -1.9
v 1.5 0.7 -1.9
v 0.2 0.7 -1.8
v 0.4 0.7 -1.8
v 1.5 0.7 -1.8
v 1.8 0.7 -1.8
v 0.4 0.7 -1.7
v 1.2 0.7 -1.7
v 1.6 0.7 -1.7
v 1.8 0.7 -1.7
v 2.1 0.7 -1.7
v 1.2 0.7 -1.6
v 1.6 0.7 -1.6
v 1.7 0.7 -1.6
v 1.8 0.7 -1.6
v 1.9 0.7 -1.6
v 1.7 0.7 -1.5
v 1.9 0.7 -1.5
v 2 0.7 -1.5
v 2 0.7 -0.9
v 2.1 0.7 -0.9
v 2 0.7 0.5
v 2.1 0.7 0.5
v 1.9 0.7 0.9
v 2 0.7 0.9
v 2 0.7 1.1
v 2.1 0.7 1.1
v 1.9 0.7 1.3
v 2 0.7 1.3
v -1.9 0.7 1.4
v -1.8 0.7 1.4
v -1.8 0.7 1.7
v -1.6 0.7 1.7
v -1.9 0.7 1.8
v -1.8 0.7 1.8
v -1.8 0.7 1.9
v -1.7 0.7 1.9
v -1.6 0.7 1.9
v -1.2 0.7 1.9
v 1.5 0.7 1.9
v 1.9 0.7 1.9
v -1.7 0.7 2
v -1.3 0.7 2
v -1.2 0.7 2
v -0.9 0.7 2
v 1.2 0.7 2
v 1.5 0.7 2
v 1.9 0.7 2
v -1.3 0.7 2.1
v -0.9 0.7 2.1
v 1.2 0.7 2.1
v 1.5 0.7 2.1
v 2.1 0.7 2.1

# faces
f 1/5/1 2/5/1 3/5/1
f 3/5/1 2/5/1 4/5/1
f 1/5/1 3/5/1 5/5/1
f 3/2/1 4/2/1 6/2/1
f 5/5/1 3/5/1 6/5/1
f 4/5/1 2/5/1 7/5/1
f 6/2/1 4/2/1 7/2/1
f 7/5/1 2/5/1 8/5/1
f 5/3/1 6/3/1 9/3/1
f 9/3/1 6/3/1 10/3/1
f 7/4/1 8/4/1 11/4/1
f 8/5/1 2/5/1 12/5/1
f 11/4/1 8/4/1 12/4/1
f 12/5/1 2/5/1 13/5/1
f 13/5/1 2/5/1 14/5/1
f 12/3/1 13/3/1 15/3/1
f 15/3/1 13/3/1 16/3/1
f 17/3/1 18/3/1 19/3/1
f 19/3/1 18/3/1 20/3/1
f 21/3/1 22/3/1 23/3/1
f 23/3/1 22/3/1 24/3/1
f 25/3/1 26/3/1 27/3/1
f 27/3/1 26/3/1 28/3/1
f 29/5/1 30/5/1 31/5/1
f 31/5/1 30/5/1 32/5/1
f 33/5/1 34/5/1 35/5/1
f 35/5/1 34/5/1 36/5/1
f 37/2/1 38/2/1 39/2/1
f 39/2/1 38/2/1 40/2/1
f 41/3/1 42/3/1 45/3/1
f 45/3/1 42/3/1 46/3/1
f 43/4/1 44/4/1 47/4/1
f 47/4/1 44/4/1 48/4/1
f 49/2/1 50/2/1 53/2/1
f 53/2/1 50/2/1 54/2/1
f 51/6/1 52/6/1 55/6/1
f 55/6/1 52/6/1 56/6/1
f 57/4/1 58/4/1 59/4/1
f 59/4/1 58/4/1 60/4/1
f 61/4/1 62/4/1 63/4/1
f 63/4/1 62/4/1 64/4/1
f 65/6/1 66/6/1 67/6/1
f 67/6/1 66/6/1 68/6/1
f 69/2/1 70/2/1 71/2/1
f 71/2/1 70/2/1 72/2/1
f 73/4/1 74/4/1 77/4/1
f 77/4/1 74/4/1 78/4/1
f 75/5/1 76/5/1 79/5/1
f 79/5/1 76/5/1 80/5/1
f 81/2/1 82/2/1 83/2/1
f 83/2/1 82/2/1 84/2/1
f 85/4/1 86/4/1 87/4/1
f 87/4/1 86/4/1 88/4/1
f 89/6/1 90/6/1 93/6/1
f 91/2/1 92/2/1 94/2/1
f 93/6/1 90/6/1 94/6/1
f 90/2/1 91/2/1 94/2/1
f 94/2/1 92/2/1 95/2/1
f 96/5/1 97/5/1 98/5/1
f 98/5/1 97/5/1 99/5/1
f 100/2/1 101/2/1 105/2/1
f 105/2/1 101/2/1 106/2/1
f 103/2/1 104/2/1 107/2/1
f 102/2/1 103/2/1 107/2/1
f 107/2/1 104/2/1 108/2/1
f 109/4/1 110/4/1 111/4/1
f 111/4/1 110/4/1 112/4/1
f 113/2/1 114/2/1 121/2/1
f 114/2/1 115/2/1 121/2/1
f 115/2/1 116/2/1 121/2/1
f 116/6/1 117/6/1 122/6/1
f 121/2/1 116/2/1 122/2/1
f 117/2/1 118/2/1 123/2/1
f 122/6/1 117/6/1 123/6/1
f 123/2/1 118/2/1 124/2/1
f 119/2/1 120/2/1 125/2/1
f 125/2/1 120/2/1 126/2/1
f 127/6/1 128/6/1 129/6/1
f 129/6/1 128/6/1 130/6/1
f 131/2/1 132/2/1 135/2/1
f 135/2/1 132/2/1 136/2/1
f 133/3/1 134/3/1 139/3/1
f 139/3/1 134/3/1 140/3/1
f 137/4/1 138/4/1 141/4/1
f 141/4/1 138/4/1 142/4/1
f 143/3/1 144/3/1 147/3/1
f 147/3/1 144/3/1 148/3/1
f 145/4/1 146/4/1 149/4/1
f 149/4/1 146/4/1 150/4/1
f 151/5/1 152/5/1 154/5/1
f 152/3/1 153/3/1 155/3/1
f 154/5/1 152/5/1 155/5/1
f 155/3/1 153/3/1 156/3/1
f 157/4/1 158/4/1 161/4/1
f 161/4/1 158/4/1 162/4/1
f 159/4/1 160/4/1 165/4/1
f 165/4/1 160/4/1 166/4/1
f 163/5/1 164/5/1 167/5/1
f 167/5/1 164/5/1 168/5/1
f 173/3/2 170/3/2 169/3/2
f 174/3/2 170/3/2 173/3/2
f 175/4/2 172/4/2 171/4/2
f 176/4/2 172/4/2 175/4/2
f 179/3/2 178/3/2 177/3/2
f 180/3/2 178/3/2 179/3/2
f 185/3/2 182/3/2 181/3/2
f 186/3/2 182/3/2 185/3/2
f 187/4/2 184/4/2 183/4/2
f 188/4/2 184/4/2 187/4/2
f 199/2/2 190/2/2 189/2/2
f 199/2/2 191/2/2 190/2/2
f 200/3/2 192/3/2 191/3/2
f 200/2/2 191/2/2 199/2/2
f 200/3/2 193/3/2 192/3/2
f 201/2/2 194/2/2 193/2/2
f 201/3/2 193/3/2 200/3/2
f 202/2/2 194/2/2 201/2/2
f 203/2/2 196/2/2 195/2/2
f 204/2/2 196/2/2 203/2/2
f 207/3/2 198/3/2 197/3/2
f 208/3/2 198/3/2 207/3/2
f 209/6/2 206/6/2 205/6/2
f 210/6/2 206/6/2 209/6/2
f 214/3/2 213/3/2 212/3/2
f 214/3/2 212/3/2 211/3/2
f 215/3/2 213/3/2 214/3/2
f 223/2/2 217/2/2 216/2/2
f 224/2/2 217/2/2 223/2/2
f 225/2/2 219/2/2 218/2/2
f 226/2/2 219/2/2 225/2/2
f 227/2/2 222/2/2 221/2/2
f 227/2/2 221/2/2 220/2/2
f 228/2/2 222/2/2 227/2/2
f 234/2/2 230/2/2 229/2/2
f 235/2/2 230/2/2 234/2/2
f 238/3/2 233/3/2 232/3/2
f 238/3/2 232/3/2 231/3/2
f 239/3/2 233/3/2 238/3/2
f 240/6/2 237/6/2 236/6/2
f 241/6/2 237/6/2 240/6/2
f 249/2/2 243/2/2 242/2/2
f 250/2/2 243/2/2 249/2/2
f 251/2/2 245/2/2 244/2/2
f 251/2/2 246/2/2 245/2/2
f 252/2/2 246/2/2 251/2/2
f 253/3/2 248/3/2 247/3/2
f 254/3/2 248/3/2 253/3/2
f 257/3/2 256/3/2 255/3/2
f 258/3/2 256/3/2 257/3/2
f 261/6/2 260/6/2 259/6/2
f 262/6/2 260/6/2 261/6/2
f 267/3/2 264/3/2 263/3/2
f 268/3/2 264/3/2 267/3/2
f 269/4/2 266/4/2 265/4/2
f 270/4/2 266/4/2 269/4/2
f 273/3/2 272/3/2 271/3/2
f 274/3/2 272/3/2 273/3/2
f 277/4/2 276/4/2 275/4/2
f 278/4/2 276/4/2 277/4/2
f 283/2/2 280/2/2 279/2/2
f 284/2/2 280/2/2 283/2/2
f 285/3/2 282/3/2 281/3/2
f 286/3/2 282/3/2 285/3/2
f 289/4/2 288/4/2 287/4/2
f 290/4/2 288/4/2 289/4/2
f 293/2/2 292/2/2 291/2/2
f 294/2/2 292/2/2 293/2/2
f 297/4/2 296/4/2 295/4/2
f 298/4/2 296/4/2 297/4/2
f 301/4/2 300/4/2 299/4/2
f 302/4/2 300/4/2 301/4/2
f 305/5/2 304/5/2 303/5/2
f 306/5/2 304/5/2 305/5/2
f 307/5/2 305/5/2 303/5/2
f 308/5/2 305/5/2 307/5/2
f 309/5/2 305/5/2 308/5/2
f 310/2/2 306/2/2 305/2/2
f 310/5/2 305/5/2 309/5/2
f 311/5/2 304/5/2 306/5/2
f 311/2/2 306/2/2 310/2/2
f 312/5/2 304/5/2 311/5/2
f 313/3/2 308/3/2 307/3/2
f 314/5/2 309/5/2 308/5/2
f 314/3/2 308/3/2 313/3/2
f 315/3/2 310/3/2 309/3/2
f 315/5/2 309/5/2 314/5/2
f 316/3/2 310/3/2 315/3/2
f 317/4/2 312/4/2 311/4/2
f 318/5/2 304/5/2 312/5/2
f 318/4/2 312/4/2 317/4/2
f 319/5/2 304/5/2 318/5/2
f 320/5/2 304/5/2 319/5/2
f 321/4/2 315/4/2 314/4/2
f 322/4/2 315/4/2 321/4/2
f 323/5/2 319/5/2 318/5/2
f 324/3/2 320/3/2 319/3/2
f 324/5/2 319/5/2 323/5/2
f 325/3/2 320/3/2 324/3/2
f 326/5/3 327/5/3 329/5/3
f 327/3/3 328/3/3 330/3/3
f 329/5/3 327/5/3 330/5/3
f 326/5/3 329/5/3 331/5/3
f 329/6/3 330/6/3 331/6/3
f 330/3/3 328/3/3 332/3/3
f 331/6/3 330/6/3 332/6/3
f 332/3/3 328/3/3 333/3/3
f 326/5/3 331/5/3 334/5/3
f 331/3/3 332/3/3 334/3/3
f 334/3/3 332/3/3 335/3/3
f 334/5/3 335/5/3 337/5/3
f 335/5/3 336/5/3 337/5/3
f 337/5/3 336/5/3 338/5/3
f 334/5/3 337/5/3 339/5/3
f 337/2/3 338/2/3 339/2/3
f 339/2/3 338/2/3 340/2/3
f 334/5/3 339/5/3 341/5/3
f 339/5/3 340/5/3 341/5/3
f 341/5/3 340/5/3 342/5/3
f 334/5/3 341/5/3 343/5/3
f 341/2/3 342/2/3 343/2/3
f 343/2/3 342/2/3 344/2/3
f 334/5/3 343/5/3 345/5/3
f 343/3/3 344/3/3 345/3/3
f 345/3/3 344/3/3 346/3/3
f 345/5/3 346/5/3 348/5/3
f 334/5/3 345/5/3 348/5/3
f 346/4/3 347/4/3 349/4/3
f 348/5/3 346/5/3 349/5/3
f 349/4/3 347/4/3 350/4/3
f 334/5/3 348/5/3 351/5/3
f 326/5/3 334/5/3 351/5/3
f 348/3/3 349/3/3 352/3/3
f 351/5/3 348/5/3 352/5/3
f 352/3/3 349/3/3 353/3/3
f 354/4/3 355/4/3 356/4/3
f 356/4/3 355/4/3 357/4/3
f 358/4/3 359/4/3 360/4/3
f 360/4/3 359/4/3 361/4/3
f 362/4/3 363/4/3 364/4/3
f 364/4/3 363/4/3 365/4/3
f 366/2/3 367/2/3 368/2/3
f 368/2/3 367/2/3 369/2/3
f 370/2/3 371/2/3 372/2/3
f 372/2/3 371/2/3 373/2/3
f 374/4/3 375/4/3 376/4/3
f 376/4/3 375/4/3 377/4/3
f 378/4/3 379/4/3 380/4/3
f 380/4/3 379/4/3 381/4/3
f 382/5/3 383/5/3 384/5/3
f 384/5/3 383/5/3 385/5/3
f 386/4/3 387/4/3 388/4/3
f 388/4/3 387/4/3 389/4/3
f 390/2/3 391/2/3 392/2/3
f 392/2/3 391/2/3 393/2/3
f 394/5/3 395/5/3 396/5/3
f 396/5/3 395/5/3 397/5/3
f 398/2/3 399/2/3 400/2/3
f 400/2/3 399/2/3 401/2/3
f 402/4/3 403/4/3 404/4/3
f 404/4/3 403/4/3 405/4/3
f 406/2/3 407/2/3 408/2/3
f 408/2/3 407/2/3 409/2/3
f 410/3/3 411/3/3 412/3/3
f 412/3/3 411/3/3 413/3/3
f 414/2/3 415/2/3 416/2/3
f 416/2/3 415/2/3 417/2/3
f 418/6/3 419/6/3 420/6/3
f 420/6/3 419/6/3 421/6/3
f 422/6/3 423/6/3 424/6/3
f 424/6/3 423/6/3 425/6/3
f 426/6/3 427/6/3 428/6/3
f 428/6/3 427/6/3 429/6/3
f 429/6/3 427/6/3 430/6/3
f 431/2/3 432/2/3 433/2/3
f 433/2/3 432/2/3 434/2/3
f 434/2/3 432/2/3 435/2/3
f 436/6/3 437/6/3 438/6/3
f 438/6/3 437/6/3 439/6/3
f 438/2/3 439/2/3 440/2/3
f 440/2/3 439/2/3 441/2/3
f 442/3/3 443/3/3 444/3/3
f 444/3/3 443/3/3 445/3/3
f 445/3/3 443/3/3 446/3/3
f 447/2/3 448/2/3 449/2/3
f 449/2/3 448/2/3 450/2/3
f 450/2/3 448/2/3 451/2/3
f 452/2/3 453/2/3 454/2/3
f 454/2/3 453/2/3 455/2/3
f 455/2/3 453/2/3 456/2/3
f 457/4/3 458/4/3 459/4/3
f 459/4/3 458/4/3 460/4/3
f 461/4/3 462/4/3 463/4/3
f 463/4/3 462/4/3 464/4/3
f 465/2/3 466/2/3 467/2/3
f 467/2/3 466/2/3 468/2/3
f 469/4/3 470/4/3 471/4/3
f 471/4/3 470/4/3 472/4/3
f 473/3/3 474/3/3 475/3/3
f 475/3/3 474/3/3 476/3/3
f 477/4/3 478/4/3 479/4/3
f 479/4/3 478/4/3 480/4/3
f 481/4/3 482/4/3 483/4/3
f 483/4/3 482/4/3 484/4/3
f 485/5/3 486/5/3 487/5/3
f 487/5/3 486/5/3 488/5/3
f 489/3/3 490/3/3 491/3/3
f 491/3/3 490/3/3 492/3/3
f 493/4/3 494/4/3 495/4/3
f 495/4/3 494/4/3 496/4/3
f 497/5/3 498/5/3 499/5/3
f 499/5/3 498/5/3 500/5/3
f 503/3/4 502/3/4 501/3/4
f 504/3/4 502/3/4 503/3/4
f 505/3/4 502/3/4 504/3/4
f 508/5/4 507/5/4 506/5/4
f 509/5/4 507/5/4 508/5/4
f 512/4/4 511/4/4 510/4/4
f 513/4/4 511/4/4 512/4/4
f 516/3/4 515/3/4 514/3/4
f 517/3/4 515/3/4 516/3/4
f 520/5/4 519/5/4 518/5/4
f 521/5/4 519/5/4 520/5/4
f 522/2/4 521/2/4 520/2/4
f 523/2/4 521/2/4 522/2/4
f 524/3/4 523/3/4 522/3/4
f 525/3/4 523/3/4 524/3/4
f 528/4/4 527/4/4 526/4/4
f 529/4/4 527/4/4 528/4/4
f 532/3/4 531/3/4 530/3/4
f 533/3/4 531/3/4 532/3/4
f 536/6/4 535/6/4 534/6/4
f 537/6/4 535/6/4 536/6/4
f 538/2/4 537/2/4 536/2/4
f 539/2/4 537/2/4 538/2/4
f 540/3/4 539/3/4 538/3/4
f 541/3/4 539/3/4 540/3/4
f 542/2/4 541/2/4 540/2/4
f 543/2/4 541/2/4 542/2/4
f 546/3/4 545/3/4 544/3/4
f 547/3/4 545/3/4 546/3/4
f 548/3/4 545/3/4 547/3/4
f 551/4/4 550/4/4 549/4/4
f 552/4/4 550/4/4 551/4/4
f 553/4/4 550/4/4 552/4/4
f 554/6/4 553/6/4 552/6/4
f 555/6/4 553/6/4 554/6/4
f 558/6/4 557/6/4 556/6/4
f 559/6/4 557/6/4 558/6/4
f 562/2/4 561/2/4 560/2/4
f 563/2/4 561/2/4 562/2/4
f 566/6/4 565/6/4 564/6/4
f 567/6/4 565/6/4 566/6/4
f 568/6/4 565/6/4 567/6/4
f 569/3/4 568/3/4 567/3/4
f 570/3/4 568/3/4 569/3/4
f 571/3/4 568/3/4 570/3/4
f 572/6/4 571/6/4 570/6/4
f 573/6/4 571/6/4 572/6/4
f 575/5/4 573/5/4 572/5/4
f 576/6/4 574/6/4 573/6/4
f 576/5/4 573/5/4 575/5/4
f 577/6/4 574/6/4 576/6/4
f 578/6/4 574/6/4 577/6/4
f 579/4/4 578/4/4 577/4/4
f 580/4/4 578/4/4 579/4/4
f 583/2/4 582/2/4 581/2/4
f 584/2/4 582/2/4 583/2/4
f 585/6/4 584/6/4 583/6/4
f 586/6/4 584/6/4 585/6/4
f 587/2/4 586/2/4 585/2/4
f 588/2/4 586/2/4 587/2/4
f 591/3/4 590/3/4 589/3/4
f 592/3/4 590/3/4 591/3/4
f 595/2/4 594/2/4 593/2/4
f 596/2/4 594/2/4 595/2/4
f 599/3/4 598/3/4 597/3/4
f 600/3/4 598/3/4 599/3/4
f 603/2/4 602/2/4 601/2/4
f 604/2/4 602/2/4 603/2/4
f 607/2/4 606/2/4 605/2/4
f 608/2/4 606/2/4 607/2/4
f 611/3/4 610/3/4 609/3/4
f 612/3/4 610/3/4 611/3/4
f 615/3/4 614/3/4 613/3/4
f 616/3/4 614/3/4 615/3/4
f 619/2/4 618/2/4 617/2/4
f 620/2/4 618/2/4 619/2/4
f 623/4/4 622/4/4 621/4/4
f 624/4/4 622/4/4 623/4/4
f 627/3/4 626/3/4 625/3/4
f 628/3/4 626/3/4 627/3/4
f 631/2/4 630/2/4 629/2/4
f 632/2/4 630/2/4 631/2/4
f 635/3/4 634/3/4 633/3/4
f 636/3/4 634/3/4 635/3/4
f 639/2/4 638/2/4 637/2/4
f 640/2/4 638/2/4 639/2/4
f 643/3/4 642/3/4 641/3/4
f 644/3/4 642/3/4 643/3/4
f 647/3/4 646/3/4 645/3/4
f 648/3/4 646/3/4 647/3/4
f 651/3/4 650/3/4 649/3/4
f 652/3/4 650/3/4 651/3/4
f 655/5/4 654/5/4 653/5/4
f 657/5/4 655/5/4 653/5/4
f 658/3/4 656/3/4 655/3/4
f 658/5/4 655/5/4 657/5/4
f 659/3/4 656/3/4 658/3/4
f 660/5/4 657/5/4 653/5/4
f 661/4/4 658/4/4 657/4/4
f 661/5/4 657/5/4 660/5/4
f 662/4/4 658/4/4 661/4/4
f 663/5/4 660/5/4 653/5/4
f 663/2/4 661/2/4 660/2/4
f 664/2/4 661/2/4 663/2/4
f 666/5/4 664/5/4 663/5/4
f 666/4/4 665/4/4 664/4/4
f 667/4/4 665/4/4 666/4/4
f 669/5/4 667/5/4 666/5/4
f 669/5/4 668/5/4 667/5/4
f 670/5/4 668/5/4 669/5/4
f 671/5/4 666/5/4 663/5/4
f 671/5/4 663/5/4 653/5/4
f 671/5/4 669/5/4 666/5/4
f 672/3/4 670/3/4 669/3/4
f 672/5/4 669/5/4 671/5/4
f 673/3/4 670/3/4 672/3/4
f 674/5/5 675/5/5 676/5/5
f 676/5/5 675/5/5 677/5/5
f 684/2/6 679/2/6 678/2/6
f 684/2/6 682/2/6 681/2/6
f 684/2/6 681/2/6 680/2/6
f 684/2/6 680/2/6 679/2/6
f 685/2/6 682/2/6 684/2/6
f 686/2/6 682/2/6 685/2/6
f 687/2/6 682/2/6 686/2/6
f 689/2/6 684/2/6 683/2/6
f 689/2/6 685/2/6 684/2/6
f 690/5/6 686/5/6 685/5/6
f 690/2/6 685/2/6 689/2/6
f 691/2/6 688/2/6 687/2/6
f 691/5/6 686/5/6 690/5/6
f 691/2/6 687/2/6 686/2/6
f 692/2/6 688/2/6 691/2/6
f 693/2/6 688/2/6 692/2/6
f 694/2/6 688/2/6 693/2/6
f 695/2/6 688/2/6 694/2/6
f 699/2/6 689/2/6 683/2/6
f 700/5/6 690/5/6 689/5/6
f 700/2/6 689/2/6 699/2/6
f 700/5/6 691/5/6 690/5/6
f 700/5/6 692/5/6 691/5/6
f 701/5/6 692/5/6 700/5/6
f 702/5/6 692/5/6 701/5/6
f 703/2/6 693/2/6 692/2/6
f 703/5/6 692/5/6 702/5/6
f 704/5/6 694/5/6 693/5/6
f 704/2/6 693/2/6 703/2/6
f 705/5/6 694/5/6 704/5/6
f 706/2/6 698/2/6 697/2/6
f 706/5/6 694/5/6 705/5/6
f 706/2/6 697/2/6 696/2/6
f 706/2/6 696/2/6 695/2/6
f 706/2/6 695/2/6 694/2/6
f 707/2/6 698/2/6 706/2/6
f 708/2/6 698/2/6 707/2/6
f 711/2/6 699/2/6 683/2/6
f 712/5/6 701/5/6 700/5/6
f 712/6/6 702/6/6 701/6/6
f 712/5/6 700/5/6 699/5/6
f 713/6/6 702/6/6 712/6/6
f 714/2/6 709/2/6 708/2/6
f 714/5/6 706/5/6 705/5/6
f 714/5/6 707/5/6 706/5/6
f 714/2/6 708/2/6 707/2/6
f 715/2/6 709/2/6 714/2/6
f 716/2/6 709/2/6 715/2/6
f 717/2/6 709/2/6 716/2/6
f 718/2/6 709/2/6 717/2/6
f 719/2/6 709/2/6 718/2/6
f 721/2/6 711/2/6 710/2/6
f 722/2/6 699/2/6 711/2/6
f 722/2/6 711/2/6 721/2/6
f 722/5/6 713/5/6 712/5/6
f 722/5/6 712/5/6 699/5/6
f 723/5/6 713/5/6 722/5/6
f 724/5/6 713/5/6 723/5/6
f 725/6/6 702/6/6 713/6/6
f 725/5/6 713/5/6 724/5/6
f 726/2/6 705/2/6 704/2/6
f 726/6/6 702/6/6 725/6/6
f 726/2/6 704/2/6 703/2/6
f 726/2/6 703/2/6 702/2/6
f 727/5/6 714/5/6 705/5/6
f 727/2/6 705/2/6 726/2/6
f 727/5/6 715/5/6 714/5/6
f 728/5/6 715/5/6 727/5/6
f 729/3/6 716/3/6 715/3/6
f 729/5/6 715/5/6 728/5/6
f 730/2/6 717/2/6 716/2/6
f 730/3/6 716/3/6 729/3/6
f 731/2/6 717/2/6 730/2/6
f 732/5/6 718/5/6 717/5/6
f 732/2/6 717/2/6 731/2/6
f 733/2/6 720/2/6 719/2/6
f 733/5/6 718/5/6 732/5/6
f 733/2/6 719/2/6 718/2/6
f 734/2/6 720/2/6 733/2/6
f 735/2/6 721/2/6 710/2/6
f 735/1/6 722/1/6 721/1/6
f 736/3/6 723/3/6 722/3/6
f 736/1/6 722/1/6 735/1/6
f 737/3/6 723/3/6 736/3/6
f 738/5/6 724/5/6 723/5/6
f 738/3/6 723/3/6 737/3/6
f 739/2/6 725/2/6 724/2/6
f 739/5/6 724/5/6 738/5/6
f 739/2/6 726/2/6 725/2/6
f 739/2/6 728/2/6 727/2/6
f 739/2/6 727/2/6 726/2/6
f 740/5/6 730/5/6 729/5/6
f 740/2/6 728/2/6 739/2/6
f 740/5/6 729/5/6 728/5/6
f 741/5/6 730/5/6 740/5/6
f 742/5/6 732/5/6 731/5/6
f 742/5/6 734/5/6 733/5/6
f 742/2/6 731/2/6 730/2/6
f 742/5/6 733/5/6 732/5/6
f 743/5/6 734/5/6 742/5/6
f 744/5/6 734/5/6 743/5/6
f 745/5/6 734/5/6 744/5/6
f 747/2/6 735/2/6 710/2/6
f 748/3/6 737/3/6 736/3/6
f 748/3/6 736/3/6 735/3/6
f 748/2/6 735/2/6 747/2/6
f 749/3/6 737/3/6 748/3/6
f 750/5/6 738/5/6 737/5/6
f 750/3/6 737/3/6 749/3/6
f 751/2/6 741/2/6 740/2/6
f 751/2/6 739/2/6 738/2/6
f 751/2/6 740/2/6 739/2/6
f 752/2/6 741/2/6 751/2/6
f 753/2/6 741/2/6 752/2/6
f 754/2/6 741/2/6 753/2/6
f 755/5/6 730/5/6 741/5/6
f 755/2/6 741/2/6 754/2/6
f 756/5/6 730/5/6 755/5/6
f 757/6/6 745/6/6 744/6/6
f 758/2/6 747/2/6 746/2/6
f 759/3/6 749/3/6 748/3/6
f 759/2/6 747/2/6 758/2/6
f 759/3/6 748/3/6 747/3/6
f 760/3/6 749/3/6 759/3/6
f 761/5/6 750/5/6 749/5/6
f 761/3/6 749/3/6 760/3/6
f 762/5/6 738/5/6 750/5/6
f 762/5/6 750/5/6 761/5/6
f 763/2/6 751/2/6 738/2/6
f 763/5/6 738/5/6 762/5/6
f 764/3/6 752/3/6 751/3/6
f 764/2/6 751/2/6 763/2/6
f 765/2/6 753/2/6 752/2/6
f 765/3/6 752/3/6 764/3/6
f 766/3/6 754/3/6 753/3/6
f 766/2/6 753/2/6 765/2/6
f 767/2/6 755/2/6 754/2/6
f 767/3/6 754/3/6 766/3/6
f 767/2/6 756/2/6 755/2/6
f 768/5/6 730/5/6 756/5/6
f 768/2/6 756/2/6 767/2/6
f 769/2/6 742/2/6 730/2/6
f 769/5/6 730/5/6 768/5/6
f 769/2/6 743/2/6 742/2/6
f 770/2/6 743/2/6 769/2/6
f 771/5/6 744/5/6 743/5/6
f 771/2/6 743/2/6 770/2/6
f 772/3/6 759/3/6 758/3/6
f 773/5/6 761/5/6 760/5/6
f 773/5/6 762/5/6 761/5/6
f 774/2/6 765/2/6 764/2/6
f 774/5/6 762/5/6 773/5/6
f 774/2/6 768/2/6 767/2/6
f 774/2/6 770/2/6 769/2/6
f 774/2/6 769/2/6 768/2/6
f 774/2/6 766/2/6 765/2/6
f 774/2/6 764/2/6 763/2/6
f 774/2/6 763/2/6 762/2/6
f 774/2/6 767/2/6 766/2/6
f 775/2/6 770/2/6 774/2/6
f 776/2/6 770/2/6 775/2/6
f 777/5/6 771/5/6 770/5/6
f 777/5/6 744/5/6 771/5/6
f 778/6/6 757/6/6 744/6/6
f 778/5/6 744/5/6 777/5/6
f 779/6/6 757/6/6 778/6/6
f 780/3/6 759/3/6 772/3/6
f 781/2/6 760/2/6 759/2/6
f 781/3/6 759/3/6 780/3/6
f 782/5/6 773/5/6 760/5/6
f 782/2/6 760/2/6 781/2/6
f 783/5/6 773/5/6 782/5/6
f 784/2/6 774/2/6 773/2/6
f 784/5/6 773/5/6 783/5/6
f 784/2/6 775/2/6 774/2/6
f 785/2/6 770/2/6 776/2/6
f 786/2/6 770/2/6 785/2/6
f 787/2/6 770/2/6 786/2/6
f 788/5/6 777/5/6 770/5/6
f 788/2/6 770/2/6 787/2/6
f 789/6/6 778/6/6 777/6/6
f 789/5/6 777/5/6 788/5/6
f 789/6/6 779/6/6 778/6/6
f 790/6/6 779/6/6 789/6/6
f 791/6/6 779/6/6 790/6/6
f 793/2/6 781/2/6 780/2/6
f 794/5/6 783/5/6 782/5/6
f 794/2/6 781/2/6 793/2/6
f 794/5/6 782/5/6 781/5/6
f 795/2/6 784/2/6 783/2/6
f 795/5/6 783/5/6 794/5/6
f 796/2/6 775/2/6 784/2/6
f 796/2/6 784/2/6 795/2/6
f 797/2/6 775/2/6 796/2/6
f 798/2/6 775/2/6 797/2/6
f 799/2/6 775/2/6 798/2/6
f 800/2/6 775/2/6 799/2/6
f 801/3/6 776/3/6 775/3/6
f 801/2/6 775/2/6 800/2/6
f 802/3/6 776/3/6 801/3/6
f 803/3/6 776/3/6 802/3/6
f 804/2/6 785/2/6 776/2/6
f 804/3/6 776/3/6 803/3/6
f 805/2/6 785/2/6 804/2/6
f 806/2/6 785/2/6 805/2/6
f 807/6/6 786/6/6 785/6/6
f 807/2/6 785/2/6 806/2/6
f 808/2/6 795/2/6 794/2/6
f 808/2/6 794/2/6 793/2/6
f 808/2/6 796/2/6 795/2/6
f 809/2/6 796/2/6 808/2/6
f 810/2/6 800/2/6 799/2/6
f 810/3/6 801/3/6 800/3/6
f 810/3/6 802/3/6 801/3/6
f 811/3/6 802/3/6 810/3/6
f 812/3/6 802/3/6 811/3/6
f 813/5/6 803/5/6 802/5/6
f 813/3/6 802/3/6 812/3/6
f 814/3/6 805/3/6 804/3/6
f 814/5/6 803/5/6 813/5/6
f 814/3/6 804/3/6 803/3/6
f 815/3/6 805/3/6 814/3/6
f 816/2/6 806/2/6 805/2/6
f 816/3/6 805/3/6 815/3/6
f 817/2/6 806/2/6 816/2/6
f 818/2/6 806/2/6 817/2/6
f 819/6/6 807/6/6 806/6/6
f 819/2/6 806/2/6 818/2/6
f 820/6/6 786/6/6 807/6/6
f 820/6/6 807/6/6 819/6/6
f 821/2/6 787/2/6 786/2/6
f 821/6/6 786/6/6 820/6/6
f 822/6/6 790/6/6 789/6/6
f 822/6/6 789/6/6 788/6/6
f 822/6/6 788/6/6 787/6/6
f 823/5/6 791/5/6 790/5/6
f 823/6/6 790/6/6 822/6/6
f 824/2/6 792/2/6 791/2/6
f 824/5/6 791/5/6 823/5/6
f 825/2/6 796/2/6 809/2/6
f 825/3/6 797/3/6 796/3/6
f 826/2/6 798/2/6 797/2/6
f 826/3/6 797/3/6 825/3/6
f 827/3/6 812/3/6 811/3/6
f 827/5/6 811/5/6 810/5/6
f 828/5/6 815/5/6 814/5/6
f 828/3/6 812/3/6 827/3/6
f 828/5/6 813/5/6 812/5/6
f 828/5/6 814/5/6 813/5/6
f 829/5/6 815/5/6 828/5/6
f 830/3/6 817/3/6 816/3/6
f 830/5/6 815/5/6 829/5/6
f 830/3/6 816/3/6 815/3/6
f 831/3/6 817/3/6 830/3/6
f 832/2/6 787/2/6 821/2/6
f 832/2/6 821/2/6 820/2/6
f 833/6/6 822/6/6 787/6/6
f 833/2/6 787/2/6 832/2/6
f 834/5/6 823/5/6 822/5/6
f 834/6/6 822/6/6 833/6/6
f 835/2/6 824/2/6 823/2/6
f 835/5/6 823/5/6 834/5/6
f 836/2/6 808/2/6 793/2/6
f 837/6/6 809/6/6 808/6/6
f 837/2/6 808/2/6 836/2/6
f 838/2/6 825/2/6 809/2/6
f 838/6/6 809/6/6 837/6/6
f 838/2/6 826/2/6 825/2/6
f 839/2/6 826/2/6 838/2/6
f 840/3/6 799/3/6 798/3/6
f 840/2/6 810/2/6 799/2/6
f 841/5/6 827/5/6 810/5/6
f 841/2/6 810/2/6 840/2/6
f 842/2/6 828/2/6 827/2/6
f 842/5/6 827/5/6 841/5/6
f 843/3/6 829/3/6 828/3/6
f 843/2/6 828/2/6 842/2/6
f 844/5/6 831/5/6 830/5/6
f 844/3/6 829/3/6 843/3/6
f 844/5/6 830/5/6 829/5/6
f 845/5/6 831/5/6 844/5/6
f 846/5/6 831/5/6 845/5/6
f 847/3/6 817/3/6 831/3/6
f 847/5/6 831/5/6 846/5/6
f 848/2/6 818/2/6 817/2/6
f 848/3/6 817/3/6 847/3/6
f 849/6/6 820/6/6 819/6/6
f 849/6/6 819/6/6 818/6/6
f 850/2/6 832/2/6 820/2/6
f 850/6/6 820/6/6 849/6/6
f 851/6/6 833/6/6 832/6/6
f 851/6/6 834/6/6 833/6/6
f 852/2/6 835/2/6 834/2/6
f 852/6/6 834/6/6 851/6/6
f 853/2/6 798/2/6 826/2/6
f 853/2/6 826/2/6 839/2/6
f 854/3/6 840/3/6 798/3/6
f 854/2/6 798/2/6 853/2/6
f 855/2/6 844/2/6 843/2/6
f 855/3/6 845/3/6 844/3/6
f 856/5/6 846/5/6 845/5/6
f 856/3/6 845/3/6 855/3/6
f 857/5/6 846/5/6 856/5/6
f 858/6/6 849/6/6 818/6/6
f 858/2/6 818/2/6 848/2/6
f 858/2/6 848/2/6 847/2/6
f 859/2/6 850/2/6 849/2/6
f 859/6/6 849/6/6 858/6/6
f 860/5/6 843/5/6 842/5/6
f 860/5/6 842/5/6 841/5/6
f 860/5/6 841/5/6 840/5/6
f 860/3/6 854/3/6 853/3/6
f 860/3/6 840/3/6 854/3/6
f 861/5/6 843/5/6 860/5/6
f 862/2/6 855/2/6 843/2/6
f 862/5/6 843/5/6 861/5/6
f 862/2/6 857/2/6 856/2/6
f 862/2/6 856/2/6 855/2/6
f 863/5/6 846/5/6 857/5/6
f 863/2/6 857/2/6 862/2/6
f 864/3/6 847/3/6 846/3/6
f 864/5/6 846/5/6 863/5/6
f 865/2/6 859/2/6 858/2/6
f 865/3/6 847/3/6 864/3/6
f 865/2/6 858/2/6 847/2/6
f 866/2/6 859/2/6 865/2/6
f 867/2/6 832/2/6 850/2/6
f 867/2/6 859/2/6 866/2/6
f 867/2/6 850/2/6 859/2/6
f 867/6/6 851/6/6 832/6/6
f 868/6/6 851/6/6 867/6/6
f 869/2/6 852/2/6 851/2/6
f 869/6/6 851/6/6 868/6/6
f 870/2/6 836/2/6 793/2/6
f 871/2/6 836/2/6 870/2/6
f 872/6/6 839/6/6 838/6/6
f 872/6/6 838/6/6 837/6/6
f 872/6/6 837/6/6 836/6/6
f 873/2/6 853/2/6 839/2/6
f 873/6/6 839/6/6 872/6/6
f 874/3/6 861/3/6 860/3/6
f 874/3/6 860/3/6 853/3/6
f 875/5/6 862/5/6 861/5/6
f 875/3/6 861/3/6 874/3/6
f 876/5/6 862/5/6 875/5/6
f 877/3/6 863/3/6 862/3/6
f 877/5/6 862/5/6 876/5/6
f 878/3/6 863/3/6 877/3/6
f 879/5/6 865/5/6 864/5/6
f 879/3/6 863/3/6 878/3/6
f 879/5/6 864/5/6 863/5/6
f 880/5/6 865/5/6 879/5/6
f 881/2/6 868/2/6 867/2/6
f 881/2/6 867/2/6 866/2/6
f 881/5/6 869/5/6 868/5/6
f 882/2/6 852/2/6 869/2/6
f 882/5/6 869/5/6 881/5/6
f 883/6/6 872/6/6 836/6/6
f 884/2/6 873/2/6 872/2/6
f 884/6/6 872/6/6 883/6/6
f 885/2/6 853/2/6 873/2/6
f 885/2/6 873/2/6 884/2/6
f 886/3/6 874/3/6 853/3/6
f 886/2/6 853/2/6 885/2/6
f 887/3/6 876/3/6 875/3/6
f 887/2/6 875/2/6 874/2/6
f 888/5/6 878/5/6 877/5/6
f 888/3/6 876/3/6 887/3/6
f 888/5/6 877/5/6 876/5/6
f 889/3/6 880/3/6 879/3/6
f 889/5/6 878/5/6 888/5/6
f 889/3/6 879/3/6 878/3/6
f 890/3/6 880/3/6 889/3/6
f 891/3/6 880/3/6 890/3/6
f 892/5/6 865/5/6 880/5/6
f 892/3/6 880/3/6 891/3/6
f 893/3/6 866/3/6 865/3/6
f 893/5/6 865/5/6 892/5/6
f 894/2/6 882/2/6 881/2/6
f 894/2/6 881/2/6 866/2/6
f 895/2/6 882/2/6 894/2/6
f 896/6/6 883/6/6 836/6/6
f 896/2/6 836/2/6 871/2/6
f 897/2/6 885/2/6 884/2/6
f 897/6/6 883/6/6 896/6/6
f 897/2/6 884/2/6 883/2/6
f 898/2/6 888/2/6 887/2/6
f 898/3/6 889/3/6 888/3/6
f 898/3/6 890/3/6 889/3/6
f 899/3/6 890/3/6 898/3/6
f 900/3/6 890/3/6 899/3/6
f 901/5/6 891/5/6 890/5/6
f 901/3/6 890/3/6 900/3/6
f 902/3/6 892/3/6 891/3/6
f 902/5/6 891/5/6 901/5/6
f 902/3/6 893/3/6 892/3/6
f 903/3/6 866/3/6 893/3/6
f 903/3/6 893/3/6 902/3/6
f 904/2/6 882/2/6 895/2/6
f 905/2/6 852/2/6 882/2/6
f 905/2/6 882/2/6 904/2/6
f 906/2/6 835/2/6 852/2/6
f 906/2/6 852/2/6 905/2/6
f 906/2/6 792/2/6 824/2/6
f 906/2/6 824/2/6 835/2/6
f 907/2/6 792/2/6 906/2/6
f 908/3/6 874/3/6 886/3/6
f 908/3/6 886/3/6 885/3/6
f 909/2/6 887/2/6 874/2/6
f 909/3/6 874/3/6 908/3/6
f 909/2/6 898/2/6 887/2/6
f 909/2/6 899/2/6 898/2/6
f 910/2/6 899/2/6 909/2/6
f 911/3/6 900/3/6 899/3/6
f 911/2/6 899/2/6 910/2/6
f 912/3/6 900/3/6 911/3/6
f 913/2/6 901/2/6 900/2/6
f 913/3/6 900/3/6 912/3/6
f 914/5/6 903/5/6 902/5/6
f 914/2/6 901/2/6 913/2/6
f 914/5/6 902/5/6 901/5/6
f 915/5/6 903/5/6 914/5/6
f 916/3/6 866/3/6 903/3/6
f 916/5/6 903/5/6 915/5/6
f 917/3/6 866/3/6 916/3/6
f 918/2/6 904/2/6 895/2/6
f 919/6/6 905/6/6 904/6/6
f 919/2/6 904/2/6 918/2/6
f 920/2/6 906/2/6 905/2/6
f 920/6/6 905/6/6 919/6/6
f 922/2/6 896/2/6 871/2/6
f 922/2/6 897/2/6 896/2/6
f 923/2/6 885/2/6 897/2/6
f 923/2/6 897/2/6 922/2/6
f 924/3/6 908/3/6 885/3/6
f 924/2/6 885/2/6 923/2/6
f 925/5/6 909/5/6 908/5/6
f 925/3/6 908/3/6 924/3/6
f 926/3/6 912/3/6 911/3/6
f 926/3/6 911/3/6 910/3/6
f 927/2/6 913/2/6 912/2/6
f 927/3/6 912/3/6 926/3/6
f 928/5/6 915/5/6 914/5/6
f 928/5/6 914/5/6 913/5/6
f 928/2/6 916/2/6 915/2/6
f 928/2/6 917/2/6 916/2/6
f 929/2/6 917/2/6 928/2/6
f 930/2/6 894/2/6 866/2/6
f 930/3/6 895/3/6 894/3/6
f 931/2/6 918/2/6 895/2/6
f 931/3/6 895/3/6 930/3/6
f 932/2/6 918/2/6 931/2/6
f 933/2/6 923/2/6 922/2/6
f 933/2/6 922/2/6 921/2/6
f 934/2/6 923/2/6 933/2/6
f 935/3/6 924/3/6 923/3/6
f 935/2/6 923/2/6 934/2/6
f 936/5/6 925/5/6 924/5/6
f 936/3/6 924/3/6 935/3/6
f 937/5/6 909/5/6 925/5/6
f 937/5/6 925/5/6 936/5/6
f 937/2/6 910/2/6 909/2/6
f 938/2/6 910/2/6 937/2/6
f 939/3/6 926/3/6 910/3/6
f 939/2/6 927/2/6 926/2/6
f 940/2/6 913/2/6 927/2/6
f 940/2/6 927/2/6 939/2/6
f 941/5/6 929/5/6 928/5/6
f 941/2/6 913/2/6 940/2/6
f 941/5/6 928/5/6 913/5/6
f 942/5/6 929/5/6 941/5/6
f 943/2/6 917/2/6 929/2/6
f 943/5/6 929/5/6 942/5/6
f 944/3/6 866/3/6 917/3/6
f 944/2/6 917/2/6 943/2/6
f 945/2/6 930/2/6 866/2/6
f 945/3/6 866/3/6 944/3/6
f 945/2/6 931/2/6 930/2/6
f 946/2/6 918/2/6 932/2/6
f 947/6/6 919/6/6 918/6/6
f 947/2/6 918/2/6 946/2/6
f 948/5/6 920/5/6 919/5/6
f 948/6/6 919/6/6 947/6/6
f 949/2/6 906/2/6 920/2/6
f 949/5/6 920/5/6 948/5/6
f 950/2/6 906/2/6 949/2/6
f 951/5/6 936/5/6 935/5/6
f 951/5/6 938/5/6 937/5/6
f 951/5/6 937/5/6 936/5/6
f 952/5/6 938/5/6 951/5/6
f 953/5/6 942/5/6 941/5/6
f 953/5/6 941/5/6 940/5/6
f 954/2/6 944/2/6 943/2/6
f 954/5/6 942/5/6 953/5/6
f 954/2/6 943/2/6 942/2/6
f 954/2/6 945/2/6 944/2/6
f 955/2/6 945/2/6 954/2/6
f 956/2/6 945/2/6 955/2/6
f 957/2/6 931/2/6 945/2/6
f 957/2/6 945/2/6 956/2/6
f 957/3/6 932/3/6 931/3/6
f 958/2/6 946/2/6 932/2/6
f 958/3/6 932/3/6 957/3/6
f 959/2/6 933/2/6 921/2/6
f 960/5/6 934/5/6 933/5/6
f 960/2/6 933/2/6 959/2/6
f 961/5/6 951/5/6 935/5/6
f 961/2/6 935/2/6 934/2/6
f 962/2/6 952/2/6 951/2/6
f 962/5/6 951/5/6 961/5/6
f 963/2/6 952/2/6 962/2/6
f 964/5/6 938/5/6 952/5/6
f 964/2/6 952/2/6 963/2/6
f 965/2/6 910/2/6 938/2/6
f 965/5/6 938/5/6 964/5/6
f 966/2/6 910/2/6 965/2/6
f 967/3/6 939/3/6 910/3/6
f 967/2/6 910/2/6 966/2/6
f 967/3/6 940/3/6 939/3/6
f 968/5/6 953/5/6 940/5/6
f 968/3/6 940/3/6 967/3/6
f 969/5/6 953/5/6 968/5/6
f 970/5/6 953/5/6 969/5/6
f 971/2/6 955/2/6 954/2/6
f 971/5/6 953/5/6 970/5/6
f 971/2/6 954/2/6 953/2/6
f 972/3/6 956/3/6 955/3/6
f 972/2/6 955/2/6 971/2/6
f 973/2/6 957/2/6 956/2/6
f 973/3/6 956/3/6 972/3/6
f 973/2/6 958/2/6 957/2/6
f 974/2/6 946/2/6 958/2/6
f 974/2/6 958/2/6 973/2/6
f 975/6/6 947/6/6 946/6/6
f 975/2/6 946/2/6 974/2/6
f 976/5/6 948/5/6 947/5/6
f 976/6/6 947/6/6 975/6/6
f 976/5/6 950/5/6 949/5/6
f 976/5/6 949/5/6 948/5/6
f 977/5/6 950/5/6 976/5/6
f 978/2/6 906/2/6 950/2/6
f 978/5/6 950/5/6 977/5/6
f 979/2/6 963/2/6 962/2/6
f 979/5/6 934/5/6 960/5/6
f 979/5/6 960/5/6 959/5/6
f 979/2/6 962/2/6 961/2/6
f 979/2/6 961/2/6 934/2/6
f 980/2/6 963/2/6 979/2/6
f 981/2/6 963/2/6 980/2/6
f 982/5/6 966/5/6 965/5/6
f 982/2/6 963/2/6 981/2/6
f 982/5/6 965/5/6 964/5/6
f 982/5/6 964/5/6 963/5/6
f 983/5/6 966/5/6 982/5/6
f 984/3/6 967/3/6 966/3/6
f 984/5/6 966/5/6 983/5/6
f 984/3/6 969/3/6 968/3/6
f 984/3/6 968/3/6 967/3/6
f 985/5/6 970/5/6 969/5/6
f 985/3/6 969/3/6 984/3/6
f 986/2/6 971/2/6 970/2/6
f 986/5/6 970/5/6 985/5/6
f 986/2/6 972/2/6 971/2/6
f 986/2/6 974/2/6 973/2/6
f 986/2/6 973/2/6 972/2/6
f 987/2/6 974/2/6 986/2/6
f 988/2/6 974/2/6 987/2/6
f 989/6/6 975/6/6 974/6/6
f 989/2/6 974/2/6 988/2/6
f 990/5/6 977/5/6 976/5/6
f 990/6/6 975/6/6 989/6/6
f 990/5/6 976/5/6 975/5/6
f 991/5/6 977/5/6 990/5/6
f 992/2/6 978/2/6 977/2/6
f 992/5/6 977/5/6 991/5/6
f 993/2/6 906/2/6 978/2/6
f 993/2/6 978/2/6 992/2/6
f 994/2/6 906/2/6 993/2/6
f 995/5/6 980/5/6 979/5/6
f 995/5/6 979/5/6 959/5/6
f 995/2/6 959/2/6 921/2/6
f 996/5/6 980/5/6 995/5/6
f 997/5/6 983/5/6 982/5/6
f 997/2/6 981/2/6 980/2/6
f 997/5/6 982/5/6 981/5/6
f 998/3/6 985/3/6 984/3/6
f 998/5/6 983/5/6 997/5/6
f 998/3/6 987/3/6 986/3/6
f 998/3/6 986/3/6 985/3/6
f 998/3/6 984/3/6 983/3/6
f 999/3/6 987/3/6 998/3/6
f 1000/2/6 988/2/6 987/2/6
f 1000/3/6 987/3/6 999/3/6
f 1001/2/6 988/2/6 1000/2/6
f 1002/6/6 989/6/6 988/6/6
f 1002/2/6 988/2/6 1001/2/6
f 1003/5/6 991/5/6 990/5/6
f 1003/6/6 989/6/6 1002/6/6
f 1003/5/6 990/5/6 989/5/6
f 1004/2/6 995/2/6 921/2/6
f 1005/6/6 996/6/6 995/6/6
f 1005/2/6 995/2/6 1004/2/6
f 1006/5/6 980/5/6 996/5/6
f 1006/6/6 996/6/6 1005/6/6
f 1007/5/6 980/5/6 1006/5/6
f 1008/5/6 980/5/6 1007/5/6
f 1009/2/6 997/2/6 980/2/6
f 1009/5/6 980/5/6 1008/5/6
f 1010/2/6 997/2/6 1009/2/6
f 1011/3/6 999/3/6 998/3/6
f 1011/2/6 997/2/6 1010/2/6
f 1011/3/6 998/3/6 997/3/6
f 1012/2/6 1001/2/6 1000/2/6
f 1012/3/6 999/3/6 1011/3/6
f 1012/2/6 1000/2/6 999/2/6
f 1013/2/6 1001/2/6 1012/2/6
f 1014/6/6 1002/6/6 1001/6/6
f 1014/2/6 1001/2/6 1013/2/6
f 1015/5/6 1003/5/6 1002/5/6
f 1015/6/6 1002/6/6 1014/6/6
f 1016/5/6 991/5/6 1003/5/6
f 1016/5/6 1003/5/6 1015/5/6
f 1017/2/6 992/2/6 991/2/6
f 1017/5/6 991/5/6 1016/5/6
f 1017/2/6 993/2/6 992/2/6
f 1018/3/6 1006/3/6 1005/3/6
f 1019/2/6 1007/2/6 1006/2/6
f 1019/3/6 1006/3/6 1018/3/6
f 1020/6/6 1008/6/6 1007/6/6
f 1020/2/6 1007/2/6 1019/2/6
f 1021/2/6 1011/2/6 1010/2/6
f 1021/2/6 1012/2/6 1011/2/6
f 1021/2/6 1013/2/6 1012/2/6
f 1022/2/6 1013/2/6 1021/2/6
f 1023/6/6 1014/6/6 1013/6/6
f 1023/2/6 1013/2/6 1022/2/6
f 1024/5/6 1016/5/6 1015/5/6
f 1024/6/6 1014/6/6 1023/6/6
f 1024/5/6 1015/5/6 1014/5/6
f 1025/5/6 1016/5/6 1024/5/6
f 1026/2/6 1017/2/6 1016/2/6
f 1026/5/6 1016/5/6 1025/5/6
f 1027/2/6 1019/2/6 1018/2/6
f 1028/3/6 1020/3/6 1019/3/6
f 1028/2/6 1019/2/6 1027/2/6
f 1029/6/6 1008/6/6 1020/6/6
f 1029/3/6 1020/3/6 1028/3/6
f 1030/5/6 1010/5/6 1009/5/6
f 1030/6/6 1008/6/6 1029/6/6
f 1030/5/6 1009/5/6 1008/5/6
f 1031/5/6 1010/5/6 1030/5/6
f 1032/2/6 1021/2/6 1010/2/6
f 1032/5/6 1010/5/6 1031/5/6
f 1033/2/6 1021/2/6 1032/2/6
f 1034/2/6 1021/2/6 1033/2/6
f 1035/2/6 1021/2/6 1034/2/6
f 1036/3/6 1022/3/6 1021/3/6
f 1036/2/6 1021/2/6 1035/2/6
f 1037/2/6 1023/2/6 1022/2/6
f 1037/3/6 1022/3/6 1036/3/6
f 1038/5/6 1025/5/6 1024/5/6
f 1038/2/6 1023/2/6 1037/2/6
f 1038/5/6 1024/5/6 1023/5/6
f 1039/2/6 1026/2/6 1025/2/6
f 1039/5/6 1025/5/6 1038/5/6
f 1040/2/6 1017/2/6 1026/2/6
f 1040/2/6 1026/2/6 1039/2/6
f 1040/2/6 993/2/6 1017/2/6
f 1041/2/6 993/2/6 1040/2/6
f 1042/3/6 1029/3/6 1028/3/6
f 1042/3/6 1030/3/6 1029/3/6
f 1043/3/6 1030/3/6 1042/3/6
f 1044/6/6 1031/6/6 1030/6/6
f 1044/3/6 1030/3/6 1043/3/6
f 1045/5/6 1033/5/6 1032/5/6
f 1045/6/6 1031/6/6 1044/6/6
f 1045/5/6 1032/5/6 1031/5/6
f 1046/5/6 1033/5/6 1045/5/6
f 1047/2/6 1034/2/6 1033/2/6
f 1047/5/6 1033/5/6 1046/5/6
f 1048/5/6 1035/5/6 1034/5/6
f 1048/2/6 1034/2/6 1047/2/6
f 1049/2/6 1036/2/6 1035/2/6
f 1049/5/6 1035/5/6 1048/5/6
f 1049/2/6 1039/2/6 1038/2/6
f 1049/2/6 1037/2/6 1036/2/6
f 1049/2/6 1038/2/6 1037/2/6
f 1049/2/6 1040/2/6 1039/2/6
f 1050/2/6 1040/2/6 1049/2/6
f 1051/2/6 1040/2/6 1050/2/6
f 1052/6/6 1041/6/6 1040/6/6
f 1052/2/6 1040/2/6 1051/2/6
f 1053/6/6 1041/6/6 1052/6/6
f 1054/6/6 1041/6/6 1053/6/6
f 1055/3/6 1045/3/6 1044/3/6
f 1055/3/6 1044/3/6 1043/3/6
f 1056/6/6 1046/6/6 1045/6/6
f 1056/3/6 1045/3/6 1055/3/6
f 1057/5/6 1048/5/6 1047/5/6
f 1057/6/6 1046/6/6 1056/6/6
f 1057/5/6 1047/5/6 1046/5/6
f 1057/5/6 1049/5/6 1048/5/6
f 1058/5/6 1049/5/6 1057/5/6
f 1059/5/6 1049/5/6 1058/5/6
f 1060/6/6 1050/6/6 1049/6/6
f 1060/5/6 1049/5/6 1059/5/6
f 1061/2/6 1051/2/6 1050/2/6
f 1062/2/6 1051/2/6 1061/2/6
f 1063/2/6 1051/2/6 1062/2/6
f 1064/6/6 1053/6/6 1052/6/6
f 1064/2/6 1051/2/6 1063/2/6
f 1064/6/6 1052/6/6 1051/6/6
f 1065/6/6 1053/6/6 1064/6/6
f 1066/2/6 1056/2/6 1055/2/6
f 1067/6/6 1057/6/6 1056/6/6
f 1067/2/6 1056/2/6 1066/2/6
f 1067/6/6 1058/6/6 1057/6/6
f 1068/2/6 1059/2/6 1058/2/6
f 1068/6/6 1058/6/6 1067/6/6
f 1069/6/6 1060/6/6 1059/6/6
f 1069/2/6 1059/2/6 1068/2/6
f 1070/6/6 1050/6/6 1060/6/6
f 1070/6/6 1060/6/6 1069/6/6
f 1070/2/6 1061/2/6 1050/2/6
f 1071/6/6 1062/6/6 1061/6/6
f 1071/2/6 1061/2/6 1070/2/6
f 1072/6/6 1062/6/6 1071/6/6
f 1073/2/6 1063/2/6 1062/2/6
f 1073/6/6 1062/6/6 1072/6/6
f 1074/2/6 1063/2/6 1073/2/6
f 1075/2/6 1063/2/6 1074/2/6
f 1076/6/6 1065/6/6 1064/6/6
f 1076/2/6 1063/2/6 1075/2/6
f 1076/6/6 1064/6/6 1063/6/6
f 1077/6/6 1065/6/6 1076/6/6
f 1078/6/6 1065/6/6 1077/6/6
f 1079/6/6 1065/6/6 1078/6/6
f 1080/2/6 1069/2/6 1068/2/6
f 1080/2/6 1072/2/6 1071/2/6
f 1080/2/6 1070/2/6 1069/2/6
f 1080/2/6 1071/2/6 1070/2/6
f 1081/6/6 1073/6/6 1072/6/6
f 1081/2/6 1072/2/6 1080/2/6
f 1082/6/6 1073/6/6 1081/6/6
f 1083/6/6 1078/6/6 1077/6/6
f 1083/2/6 1077/2/6 1076/2/6
f 1083/2/6 1076/2/6 1075/2/6
f 1084/2/6 1079/2/6 1078/2/6
f 1084/6/6 1078/6/6 1083/6/6
f 1085/2/6 1079/2/6 1084/2/6
f 1086/2/6 1083/2/6 1075/2/6
f 1087/2/6 1083/2/6 1086/2/6
f 1092/3/6 1089/3/6 1088/3/6
f 1093/3/6 1089/3/6 1092/3/6
f 1094/3/6 1089/3/6 1093/3/6
f 1097/6/6 1091/6/6 1090/6/6
f 1098/2/6 1092/2/6 1091/2/6
f 1098/2/6 1093/2/6 1092/2/6
f 1098/6/6 1091/6/6 1097/6/6
f 1099/2/6 1093/2/6 1098/2/6
f 1100/3/6 1095/3/6 1094/3/6
f 1100/2/6 1093/2/6 1099/2/6
f 1100/3/6 1094/3/6 1093/3/6
f 1101/3/6 1095/3/6 1100/3/6
f 1102/3/6 1095/3/6 1101/3/6
f 1107/6/6 1099/6/6 1098/6/6
f 1107/6/6 1097/6/6 1096/6/6
f 1107/6/6 1098/6/6 1097/6/6
f 1108/6/6 1099/6/6 1107/6/6
f 1109/2/6 1100/2/6 1099/2/6
f 1109/6/6 1099/6/6 1108/6/6
f 1109/2/6 1101/2/6 1100/2/6
f 1110/3/6 1102/3/6 1101/3/6
f 1110/2/6 1101/2/6 1109/2/6
f 1111/2/6 1105/2/6 1104/2/6
f 1111/3/6 1102/3/6 1110/3/6
f 1111/2/6 1104/2/6 1103/2/6
f 1111/2/6 1103/2/6 1102/2/6
f 1112/2/6 1105/2/6 1111/2/6
f 1113/2/6 1105/2/6 1112/2/6
f 1116/6/6 1108/6/6 1107/6/6
f 1116/6/6 1107/6/6 1106/6/6
f 1117/6/6 1108/6/6 1116/6/6
f 1118/6/6 1108/6/6 1117/6/6
f 1119/2/6 1114/2/6 1113/2/6
f 1119/2/6 1113/2/6 1112/2/6
f 1120/2/6 1114/2/6 1119/2/6
f 1121/2/6 1114/2/6 1120/2/6
f 1122/6/6 1115/6/6 1114/6/6
f 1122/2/6 1114/2/6 1121/2/6
f 1123/6/6 1115/6/6 1122/6/6
f 1130/2/6 1121/2/6 1120/2/6
f 1131/6/6 1122/6/6 1121/6/6
f 1131/2/6 1121/2/6 1130/2/6
f 1131/6/6 1123/6/6 1122/6/6
f 1131/6/6 1124/6/6 1123/6/6
f 1132/2/6 1126/2/6 1125/2/6
f 1132/6/6 1124/6/6 1131/6/6
f 1132/2/6 1125/2/6 1124/2/6
f 1133/2/6 1126/2/6 1132/2/6
f 1134/6/6 1128/6/6 1127/6/6
f 1134/2/6 1126/2/6 1133/2/6
f 1134/6/6 1127/6/6 1126/6/6
f 1135/2/6 1129/2/6 1128/2/6
f 1135/6/6 1128/6/6 1134/6/6
f 1137/2/6 1117/2/6 1116/2/6
f 1138/2/6 1134/2/6 1133/2/6
f 1138/2/6 1135/2/6 1134/2/6
f 1139/2/6 1135/2/6 1138/2/6
f 1141/2/6 1137/2/6 1136/2/6
f 1142/2/6 1137/2/6 1141/2/6
f 1143/2/6 1117/2/6 1137/2/6
f 1143/2/6 1137/2/6 1142/2/6
f 1144/2/6 1135/2/6 1139/2/6
f 1145/2/6 1129/2/6 1135/2/6
f 1145/2/6 1135/2/6 1144/2/6
f 1146/2/6 1129/2/6 1145/2/6
f 1149/2/6 1142/2/6 1141/2/6
f 1149/2/6 1141/2/6 1140/2/6
f 1150/2/6 1142/2/6 1149/2/6
f 1150/2/6 1149/2/6 1148/2/6
f 1151/2/6 1142/2/6 1150/2/6
f 1152/2/6 1147/2/6 1146/2/6
f 1152/2/6 1146/2/6 1145/2/6
f 1153/2/6 1147/2/6 1152/2/6
f 1155/2/6 1150/2/6 1148/2/6
f 1156/2/6 1150/2/6 1155/2/6
f 1156/2/6 1155/2/6 1154/2/6
f 1157/2/6 1150/2/6 1156/2/6
f 1158/6/6 1153/6/6 1152/6/6
f 1159/2/6 1147/2/6 1153/2/6
f 1159/6/6 1153/6/6 1158/6/6
f 1160/2/6 1156/2/6 1154/2/6
f 1161/3/6 1157/3/6 1156/3/6
f 1161/2/6 1156/2/6 1160/2/6
f 1162/2/6 1159/2/6 1158/2/6
f 1163/2/6 1147/2/6 1159/2/6
f 1163/2/6 1159/2/6 1162/2/6
f 1164/2/6 1147/2/6 1163/2/6
f 1166/2/6 1160/2/6 1154/2/6
f 1166/3/6 1161/3/6 1160/3/6
f 1167/3/6 1157/3/6 1161/3/6
f 1167/3/6 1161/3/6 1166/3/6
f 1168/2/6 1165/2/6 1164/2/6
f 1168/2/6 1164/2/6 1163/2/6
f 1169/2/6 1165/2/6 1168/2/6
f 1170/2/6 1167/2/6 1166/2/6
f 1173/2/6 1168/2/6 1163/2/6
f 1174/2/6 1166/2/6 1154/2/6
f 1174/2/6 1171/2/6 1170/2/6
f 1174/2/6 1170/2/6 1166/2/6
f 1175/2/6 1171/2/6 1174/2/6
f 1176/2/6 1173/2/6 1172/2/6
f 1176/2/6 1168/2/6 1173/2/6
f 1177/2/6 1168/2/6 1176/2/6
f 1178/2/6 1171/2/6 1175/2/6
f 1179/2/6 1171/2/6 1178/2/6
f 1180/2/6 1176/2/6 1172/2/6
f 1181/2/6 1176/2/6 1180/2/6
f 1183/2/6 1180/2/6 1172/2/6
f 1184/2/6 1178/2/6 1175/2/6
f 1186/2/6 1184/2/6 1175/2/6
f 1186/2/6 1185/2/6 1184/2/6
f 1187/2/6 1185/2/6 1186/2/6
f 1188/2/6 1185/2/6 1187/2/6
f 1190/2/6 1188/2/6 1187/2/6
f 1190/2/6 1189/2/6 1188/2/6
f 1191/2/6 1189/2/6 1190/2/6
f 1192/2/6 1189/2/6 1191/2/6
f 1195/2/6 1183/2/6 1182/2/6
f 1196/2/6 1190/2/6 1187/2/6
f 1197/6/6 1191/6/6 1190/6/6
f 1197/2/6 1190/2/6 1196/2/6
f 1198/6/6 1195/6/6 1194/6/6
f 1199/2/6 1183/2/6 1195/2/6
f 1199/6/6 1195/6/6 1198/6/6
f 1200/6/6 1191/6/6 1197/6/6
f 1201/2/6 1193/2/6 1192/2/6
f 1201/6/6 1191/6/6 1200/6/6
f 1201/2/6 1192/2/6 1191/2/6
f 1202/2/6 1193/2/6 1201/2/6
f 1203/2/6 1193/2/6 1202/2/6
f 1208/2/6 1203/2/6 1202/2/6
f 1208/2/6 1204/2/6 1203/2/6
f 1209/6/6 1206/6/6 1205/6/6
f 1210/2/6 1207/2/6 1206/2/6
f 1210/6/6 1206/6/6 1209/6/6
f 1212/2/6 1199/2/6 1198/2/6
f 1213/2/6 1183/2/6 1199/2/6
f 1213/2/6 1199/2/6 1212/2/6
f 1214/2/6 1180/2/6 1183/2/6
f 1214/2/6 1183/2/6 1213/2/6
f 1215/2/6 1209/2/6 1208/2/6
f 1215/2/6 1208/2/6 1202/2/6
f 1215/2/6 1210/2/6 1209/2/6
f 1216/2/6 1210/2/6 1215/2/6
f 1217/2/6 1207/2/6 1210/2/6
f 1217/2/6 1210/2/6 1216/2/6
f 1218/2/6 1213/2/6 1212/2/6
f 1218/2/6 1212/2/6 1211/2/6
f 1219/2/6 1213/2/6 1218/2/6
f 1220/2/6 1213/2/6 1219/2/6
f 1221/2/6 1217/2/6 1216/2/6
f 1221/2/6 1219/2/6 1218/2/6
f 1221/2/6 1218/2/6 1217/2/6
f 1222/2/6 1219/2/6 1221/2/6
f 1223/2/6 1219/2/6 1222/2/6
f 1224/2/6 1219/2/6 1223/2/6
f 1225/2/6 1223/2/6 1222/2/6
f 1226/2/6 1223/2/6 1225/2/6
f 1227/2/6 1223/2/6 1226/2/6
f 1228/2/6 1223/2/6 1227/2/6
f 1239/3/6 1230/3/6 1229/3/6
f 1240/3/6 1230/3/6 1239/3/6
f 1241/5/6 1232/5/6 1231/5/6
f 1242/2/6 1233/2/6 1232/2/6
f 1242/5/6 1232/5/6 1241/5/6
f 1243/5/6 1234/5/6 1233/5/6
f 1243/2/6 1233/2/6 1242/2/6
f 1244/3/6 1236/3/6 1235/3/6
f 1246/3/6 1238/3/6 1237/3/6
f 1247/3/6 1238/3/6 1246/3/6
f 1248/3/6 1239/3/6 1229/3/6
f 1249/3/6 1239/3/6 1248/3/6
f 1250/5/6 1243/5/6 1242/5/6
f 1251/2/6 1235/2/6 1234/2/6
f 1251/5/6 1243/5/6 1250/5/6
f 1251/5/6 1234/5/6 1243/5/6
f 1252/3/6 1245/3/6 1244/3/6
f 1252/2/6 1235/2/6 1251/2/6
f 1252/3/6 1244/3/6 1235/3/6
f 1253/3/6 1245/3/6 1252/3/6
f 1254/3/6 1245/3/6 1253/3/6
f 1256/3/6 1238/3/6 1247/3/6
f 1257/3/6 1238/3/6 1256/3/6
f 1258/3/6 1248/3/6 1229/3/6
f 1259/3/6 1248/3/6 1258/3/6
f 1260/3/6 1255/3/6 1254/3/6
f 1260/3/6 1254/3/6 1253/3/6
f 1261/3/6 1255/3/6 1260/3/6
f 1262/3/6 1255/3/6 1261/3/6
f 1263/3/6 1255/3/6 1262/3/6
f 1267/6/6 1262/6/6 1261/6/6
f 1268/3/6 1264/3/6 1263/3/6
f 1268/6/6 1262/6/6 1267/6/6
f 1268/3/6 1263/3/6 1262/3/6
f 1269/6/6 1266/6/6 1265/6/6
f 1269/3/6 1264/3/6 1268/3/6
f 1269/6/6 1265/6/6 1264/6/6
f 1270/6/6 1266/6/6 1269/6/6
f 1274/3/6 1258/3/6 1229/3/6
f 1275/3/6 1258/3/6 1274/3/6
f 1276/3/6 1274/3/6 1229/3/6
f 1277/3/6 1274/3/6 1276/3/6
f 1278/3/6 1273/3/6 1272/3/6
f 1278/3/6 1272/3/6 1271/3/6
f 1279/3/6 1273/3/6 1278/3/6
f 1280/3/6 1276/3/6 1229/3/6
f 1281/3/6 1276/3/6 1280/3/6
f 1282/3/6 1273/3/6 1279/3/6
f 1284/3/6 1280/3/6 1229/3/6
f 1285/3/6 1280/3/6 1284/3/6
f 1286/3/6 1283/3/6 1282/3/6
f 1286/3/6 1282/3/6 1279/3/6
f 1287/3/6 1283/3/6 1286/3/6
f 1293/4/6 1289/4/6 1288/4/6
f 1294/4/6 1289/4/6 1293/4/6
f 1294/4/6 1293/4/6 1292/4/6
f 1295/4/6 1289/4/6 1294/4/6
f 1297/4/6 1294/4/6 1292/4/6
f 1298/4/6 1294/4/6 1297/4/6
f 1298/4/6 1297/4/6 1296/4/6
f 1299/4/6 1294/4/6 1298/4/6
f 1300/4/6 1291/4/6 1290/4/6
f 1302/4/6 1298/4/6 1296/4/6
f 1303/4/6 1301/4/6 1300/4/6
f 1303/4/6 1300/4/6 1290/4/6
f 1304/4/6 1301/4/6 1303/4/6
f 1305/4/6 1301/4/6 1304/4/6
f 1307/6/6 1306/6/6 1305/6/6
f 1309/4/6 1305/4/6 1304/4/6
f 1310/6/6 1308/6/6 1307/6/6
f 1310/4/6 1305/4/6 1309/4/6
f 1310/6/6 1307/6/6 1305/6/6
f 1311/6/6 1308/6/6 1310/6/6
f 1313/4/6 1302/4/6 1296/4/6
f 1316/6/6 1308/6/6 1311/6/6
f 1317/6/6 1308/6/6 1316/6/6
f 1320/4/6 1313/4/6 1312/4/6
f 1321/5/6 1315/5/6 1314/5/6
f 1323/4/6 1318/4/6 1317/4/6
f 1323/4/6 1317/4/6 1316/4/6
f 1324/4/6 1318/4/6 1323/4/6
f 1325/4/6 1318/4/6 1324/4/6
f 1328/4/6 1320/4/6 1319/4/6
f 1329/4/6 1320/4/6 1328/4/6
f 1330/4/6 1302/4/6 1313/4/6
f 1330/4/6 1320/4/6 1329/4/6
f 1330/4/6 1313/4/6 1320/4/6
f 1331/2/6 1322/2/6 1321/2/6
f 1331/5/6 1321/5/6 1314/5/6
f 1332/2/6 1322/2/6 1331/2/6
f 1334/4/6 1326/4/6 1325/4/6
f 1334/4/6 1325/4/6 1324/4/6
f 1335/4/6 1326/4/6 1334/4/6
f 1336/4/6 1326/4/6 1335/4/6
f 1338/4/6 1329/4/6 1328/4/6
f 1338/4/6 1328/4/6 1327/4/6
f 1339/4/6 1329/4/6 1338/4/6
f 1340/5/6 1333/5/6 1332/5/6
f 1340/5/6 1332/5/6 1331/5/6
f 1340/5/6 1331/5/6 1314/5/6
f 1341/5/6 1333/5/6 1340/5/6
f 1342/4/6 1337/4/6 1336/4/6
f 1342/4/6 1336/4/6 1335/4/6
f 1343/4/6 1337/4/6 1342/4/6
f 1344/4/6 1338/4/6 1327/4/6
f 1345/4/6 1338/4/6 1344/4/6
f 1348/4/6 1347/4/6 1346/4/6
f 1349/4/6 1347/4/6 1348/4/6
f 1350/4/6 1347/4/6 1349/4/6
f 1352/4/6 1351/4/6 1350/4/6
f 1352/4/6 1350/4/6 1349/4/6
f 1353/4/6 1351/4/6 1352/4/6
f 1354/4/6 1351/4/6 1353/4/6
f 1355/4/6 1351/4/6 1354/4/6
f 1357/4/6 1354/4/6 1353/4/6
f 1358/6/6 1355/6/6 1354/6/6
f 1358/4/6 1354/4/6 1357/4/6
f 1359/6/6 1355/6/6 1358/6/6
f 1360/4/6 1356/4/6 1355/4/6
f 1360/6/6 1355/6/6 1359/6/6
f 1361/4/6 1356/4/6 1360/4/6
f 1362/6/6 1361/6/6 1360/6/6
f 1362/6/6 1360/6/6 1359/6/6
f 1363/4/6 1356/4/6 1361/4/6
f 1363/6/6 1361/6/6 1362/6/6
f 1364/4/6 1356/4/6 1363/4/6
f 1365/4/6 1356/4/6 1364/4/6
f 1366/4/6 1356/4/6 1365/4/6
f 1370/5/6 1368/5/6 1367/5/6
f 1371/5/6 1368/5/6 1370/5/6
f 1371/5/6 1370/5/6 1369/5/6
f 1372/5/6 1368/5/6 1371/5/6
f 1373/5/6 1371/5/6 1369/5/6
f 1374/3/6 1372/3/6 1371/3/6
f 1374/5/6 1371/5/6 1373/5/6
f 1377/3/6 1376/3/6 1375/3/6
f 1379/3/6 1377/3/6 1375/3/6
f 1379/3/6 1378/3/6 1377/3/6
f 1380/3/6 1378/3/6 1379/3/6
f 1381/3/6 1378/3/6 1380/3/6
f 1382/3/6 1378/3/6 1381/3/6
f 1383/3/6 1378/3/6 1382/3/6
f 1386/3/6 1374/3/6 1373/3/6
f 1387/3/6 1384/3/6 1383/3/6
f 1387/3/6 1383/3/6 1382/3/6
f 1388/3/6 1384/3/6 1387/3/6
f 1389/3/6 1384/3/6 1388/3/6
f 1392/5/6 1386/5/6 1385/5/6
f 1393/3/6 1374/3/6 1386/3/6
f 1393/5/6 1386/5/6 1392/5/6
f 1394/3/6 1390/3/6 1389/3/6
f 1394/3/6 1389/3/6 1388/3/6
f 1395/3/6 1390/3/6 1394/3/6
f 1396/5/6 1392/5/6 1391/5/6
f 1397/3/6 1393/3/6 1392/3/6
f 1397/5/6 1392/5/6 1396/5/6
f 1398/3/6 1374/3/6 1393/3/6
f 1398/3/6 1393/3/6 1397/3/6
f 1398/3/6 1372/3/6 1374/3/6
